{
    "modifications": [
        {
            "stats": {
                "source": "0", 
                "votes": "10", 
                "argument": "1"
            }, 
            "votes": {
                "data-ok": "7", 
                "data-mitige": "0", 
                "data-nok": "3"
            }, 
            "link": "/projects/projet-de-loi-numerique/consultation/consultation/opinions/section-2-travaux-de-recherche-et-de-statistique/article-9-acces-aux-travaux-de-la-recherche-financee-par-des-fonds-publics/versions/mettre-a-disposition-egalement-la-correspondance-entre-les-auteurs-et-l-editeur-examinateurs-reviewers-pour-enrichir-la-publication-et-mettre-en-valeur-le-travail-des-examinateurs", 
            "id": "1034", 
            "title": "Le libre acc\u00e8s sans delai est indisponsable pour un enseignement et une recherche de qualit\u00e9 dans le monde. Ce droit de disposer de la libre circulation de son travail doit inclure \u00e9galement la correspondance entre les auteurs et l'\u00e9diteur examinateurs (r"
        }
    ], 
    "modifications_count": 1, 
    "sources_count": 0, 
    "propositions": [], 
    "votes": [
        {
            "article_title": "Article 9 - Libre acc\u00e8s aux publications scientifiques de la recherche publique", 
            "date": "2015-10-15T11:23:00+0200", 
            "link": "http://www.republique-numerique.fr/projects/projet-de-loi-numerique/consultation/consultation/opinions/section-2-travaux-de-recherche-et-de-statistique/article-9-acces-aux-travaux-de-la-recherche-financee-par-des-fonds-publics", 
            "id": "94003", 
            "opinion": "-1"
        }, 
        {
            "article_title": "Dur\u00e9e d'embargo et TDM", 
            "date": "2015-10-15T11:24:00+0200", 
            "link": "http://www.republique-numerique.fr/projects/projet-de-loi-numerique/consultation/consultation/opinions/section-2-travaux-de-recherche-et-de-statistique/article-9-acces-aux-travaux-de-la-recherche-financee-par-des-fonds-publics/versions/duree-d-embargo-et-tdm-1", 
            "id": "94020", 
            "opinion": "-1"
        }, 
        {
            "article_title": "Pour l'acc\u00e8s libre aux r\u00e9sultats de la recherche scientifique", 
            "date": "2015-10-15T13:14:00+0200", 
            "link": "http://www.republique-numerique.fr/projects/projet-de-loi-numerique/consultation/consultation/opinions/section-2-travaux-de-recherche-et-de-statistique/article-9-acces-aux-travaux-de-la-recherche-financee-par-des-fonds-publics/versions/pour-l-acces-libre-aux-resultats-de-la-recherche-scientifique", 
            "id": "95341", 
            "opinion": "1"
        }, 
        {
            "article_title": "Les d\u00e9lais d'embargo doivent \u00eatre conditionn\u00e9s \u00e0 des \u00e9tudes d'impact", 
            "date": "2015-10-15T13:20:00+0200", 
            "link": "http://www.republique-numerique.fr/projects/projet-de-loi-numerique/consultation/consultation/opinions/section-2-travaux-de-recherche-et-de-statistique/article-9-acces-aux-travaux-de-la-recherche-financee-par-des-fonds-publics/versions/les-delais-d-embargo-doivent-etre-conditionnes-a-des-etudes-d-impact", 
            "id": "95407", 
            "opinion": "-1"
        }, 
        {
            "article_title": "d\u00e9lais trop longs", 
            "date": "2015-10-15T13:21:00+0200", 
            "link": "http://www.republique-numerique.fr/projects/projet-de-loi-numerique/consultation/consultation/opinions/section-2-travaux-de-recherche-et-de-statistique/article-9-acces-aux-travaux-de-la-recherche-financee-par-des-fonds-publics/versions/delais-trop-longs", 
            "id": "95415", 
            "opinion": "1"
        }, 
        {
            "article_title": "le delai d'embargo est beaucoup trop long.", 
            "date": "2015-10-15T13:27:00+0200", 
            "link": "http://www.republique-numerique.fr/projects/projet-de-loi-numerique/consultation/consultation/opinions/section-2-travaux-de-recherche-et-de-statistique/article-9-acces-aux-travaux-de-la-recherche-financee-par-des-fonds-publics/versions/le-delai-d-embargo-est-beaucoup-trop-long", 
            "id": "95481", 
            "opinion": "1"
        }, 
        {
            "article_title": "Le libre acc\u00e8s sans delai est indisponsable pour un enseignement et une recherche de qualit\u00e9 dans le monde. Ce droit de disposer de la libre circulation de son travail doit inclure \u00e9galement la correspondance entre les auteurs et l'\u00e9diteur examinateurs (r", 
            "date": "2015-10-15T13:57:00+0200", 
            "link": "http://www.republique-numerique.fr/projects/projet-de-loi-numerique/consultation/consultation/opinions/section-2-travaux-de-recherche-et-de-statistique/article-9-acces-aux-travaux-de-la-recherche-financee-par-des-fonds-publics/versions/mettre-a-disposition-egalement-la-correspondance-entre-les-auteurs-et-l-editeur-examinateurs-reviewers-pour-enrichir-la-publication-et-mettre-en-valeur-le-travail-des-examinateurs", 
            "id": "96122", 
            "opinion": "1"
        }, 
        {
            "article_title": "Recherches financ\u00e9es par des fonds publics accessibles sans d\u00e9lai", 
            "date": "2015-10-15T17:05:00+0200", 
            "link": "http://www.republique-numerique.fr/projects/projet-de-loi-numerique/consultation/consultation/opinions/section-2-travaux-de-recherche-et-de-statistique/article-9-acces-aux-travaux-de-la-recherche-financee-par-des-fonds-publics/versions/recherches-financees-par-des-fonds-publics-accessibles-sans-delai", 
            "id": "99975", 
            "opinion": "1"
        }, 
        {
            "article_title": "Les articles scientifiques sont des biens communs de la connaissance", 
            "date": "2015-10-15T17:09:00+0200", 
            "link": "http://www.republique-numerique.fr/projects/projet-de-loi-numerique/consultation/consultation/opinions/section-2-travaux-de-recherche-et-de-statistique/article-9-acces-aux-travaux-de-la-recherche-financee-par-des-fonds-publics/versions/les-articles-scientifiques-sont-des-biens-communs-de-la-connaissance", 
            "id": "95909", 
            "opinion": "1"
        }, 
        {
            "article_title": "Clarifions la publication scientifique !", 
            "date": "2015-10-15T17:18:00+0200", 
            "link": "http://www.republique-numerique.fr/projects/projet-de-loi-numerique/consultation/consultation/opinions/section-2-travaux-de-recherche-et-de-statistique/article-9-acces-aux-travaux-de-la-recherche-financee-par-des-fonds-publics/versions/clarifions-la-publication-scientifique", 
            "id": "100219", 
            "opinion": "-1"
        }, 
        {
            "article_title": "Le delai de 6/12 mois est trop long. Ce delai est ...", 
            "date": "2015-10-15T17:46:00+0200", 
            "link": "http://www.republique-numerique.fr/projects/projet-de-loi-numerique/consultation/consultation/opinions/section-2-travaux-de-recherche-et-de-statistique/article-9-acces-aux-travaux-de-la-recherche-financee-par-des-fonds-publics/versions/les-articles-scientifiques-sont-des-biens-communs-de-la-connaissance#arg-4202", 
            "id": "100773", 
            "opinion": "1"
        }, 
        {
            "article_title": "La notion de financement publique est inutile....", 
            "date": "2015-10-15T17:46:00+0200", 
            "link": "http://www.republique-numerique.fr/projects/projet-de-loi-numerique/consultation/consultation/opinions/section-2-travaux-de-recherche-et-de-statistique/article-9-acces-aux-travaux-de-la-recherche-financee-par-des-fonds-publics/versions/les-articles-scientifiques-sont-des-biens-communs-de-la-connaissance#arg-4118", 
            "id": "100775", 
            "opinion": "1"
        }, 
        {
            "article_title": "Garantir l'autorisation du d\u00e9p\u00f4t imm\u00e9diat de la version \"auteur\" dans une archive ouverte", 
            "date": "2015-10-15T17:49:00+0200", 
            "link": "http://www.republique-numerique.fr/projects/projet-de-loi-numerique/consultation/consultation/opinions/section-2-travaux-de-recherche-et-de-statistique/article-9-acces-aux-travaux-de-la-recherche-financee-par-des-fonds-publics/versions/garantir-l-autorisation-du-depot-immediat-de-la-version-auteur-dans-une-archive-ouverte", 
            "id": "100543", 
            "opinion": "1"
        }, 
        {
            "article_title": "Prot\u00e9ger le droit des auteurs d'articles scientifiques, pour permettre le libre acc\u00e8s \u00e0 la recherche scientifique", 
            "date": "2015-10-15T17:58:00+0200", 
            "link": "http://www.republique-numerique.fr/projects/projet-de-loi-numerique/consultation/consultation/opinions/section-2-travaux-de-recherche-et-de-statistique/article-9-acces-aux-travaux-de-la-recherche-financee-par-des-fonds-publics/versions/proteger-le-droit-des-auteurs-d-articles-scientifiques-pour-permettre-le-libre-acces-a-la-recherche-scientifique", 
            "id": "101038", 
            "opinion": "1"
        }, 
        {
            "article_title": "Aligner les d\u00e9lais d'embargo sur ceux de la Communaut\u00e9 Europ\u00e9enne (6 et 12 mois)", 
            "date": "2015-10-15T17:59:00+0200", 
            "link": "http://www.republique-numerique.fr/projects/projet-de-loi-numerique/consultation/consultation/opinions/section-2-travaux-de-recherche-et-de-statistique/article-9-acces-aux-travaux-de-la-recherche-financee-par-des-fonds-publics/versions/aligner-les-delais-d-embargo-sur-ceux-de-la-communaute-europeenne-6-et-12-mois", 
            "id": "101064", 
            "opinion": "-1"
        }, 
        {
            "article_title": "L'id\u00e9e est tr\u00e8s bonne, cependant il faudrait exp...", 
            "date": "2015-10-16T06:10:00+0200", 
            "link": "http://www.republique-numerique.fr/projects/projet-de-loi-numerique/consultation/consultation/opinions/section-3-donnees-d-interet-general/protection-recompense-et-indemnisation-des-lanceurs-d-alertes/versions/protection-du-statut-de-lanceurs-d-alertes-et-precisions-sur-les-moyens-d-obtenir-ce-statut#arg-817", 
            "id": "107304", 
            "opinion": "1"
        }, 
        {
            "article_title": "\"Une personne s'\u00e9tant d\u00e9clar\u00e9e en tant que \"lan...", 
            "date": "2015-10-16T06:10:00+0200", 
            "link": "http://www.republique-numerique.fr/projects/projet-de-loi-numerique/consultation/consultation/opinions/section-3-donnees-d-interet-general/protection-recompense-et-indemnisation-des-lanceurs-d-alertes/versions/protection-du-statut-de-lanceurs-d-alertes-et-precisions-sur-les-moyens-d-obtenir-ce-statut#arg-1715", 
            "id": "107305", 
            "opinion": "1"
        }, 
        {
            "article_title": "Il est indispensable de r\u00e9aliser des \u00e9tudes d'impact au plus vite. D\u00e9lais d'embargos pas inf\u00e9rieurs \u00e0 12 mois en STM et \u00e0 24 mois en SHS.", 
            "date": "2015-10-16T11:58:00+0200", 
            "link": "http://www.republique-numerique.fr/projects/projet-de-loi-numerique/consultation/consultation/opinions/section-2-travaux-de-recherche-et-de-statistique/article-9-acces-aux-travaux-de-la-recherche-financee-par-des-fonds-publics/versions/il-est-indispensable-de-realiser-des-etudes-d-impact-au-plus-vite-delais-d-embargos-pas-inferieurs-a-12-mois-en-stm-et-a-24-mois-en-shs", 
            "id": "111733", 
            "opinion": "-1"
        }, 
        {
            "article_title": "Supprimer le d\u00e9lai d'embargo : La recherche publique appartient au public, les donnees et les publications aussi. Acc\u00e8s libre \u00e0 la connaissance scientifique!", 
            "date": "2015-10-16T11:59:00+0200", 
            "link": "http://www.republique-numerique.fr/projects/projet-de-loi-numerique/consultation/consultation/opinions/section-2-travaux-de-recherche-et-de-statistique/article-9-acces-aux-travaux-de-la-recherche-financee-par-des-fonds-publics/versions/supprimer-le-delai-d-embargo-la-recherche-publique-appartient-au-public-les-donnees-et-les-publications-aussi-acces-libre-a-la-connaissance-scientifique", 
            "id": "111753", 
            "opinion": "1"
        }, 
        {
            "article_title": "Toute restriction \u00e0 l'acc\u00e8s aux publications scientifiques est n\u00e9faste et co\u00fbteuse.", 
            "date": "2015-10-16T12:04:00+0200", 
            "link": "http://www.republique-numerique.fr/projects/projet-de-loi-numerique/consultation/consultation/opinions/section-2-travaux-de-recherche-et-de-statistique/article-9-acces-aux-travaux-de-la-recherche-financee-par-des-fonds-publics/versions/toute-restriction-a-l-acces-aux-publications-scientifiques-est-nefaste-et-couteuse", 
            "id": "111863", 
            "opinion": "1"
        }, 
        {
            "article_title": "Pour l\u00e9gif\u00e9rer sur le libre acc\u00e8s, une \u00e9tude d'impact est n\u00e9cessaire.", 
            "date": "2015-10-16T12:08:00+0200", 
            "link": "http://www.republique-numerique.fr/projects/projet-de-loi-numerique/consultation/consultation/opinions/section-2-travaux-de-recherche-et-de-statistique/article-9-acces-aux-travaux-de-la-recherche-financee-par-des-fonds-publics/versions/pour-legiferer-sur-le-libre-acces-une-etude-d-impact-est-necessaire", 
            "id": "111939", 
            "opinion": "-1"
        }
    ], 
    "sources": [], 
    "votes_count": 21, 
    "arguments": [], 
    "arguments_count": 2, 
    "propositions_count": 0, 
    "contributions_count": 3
}