{
    "modifications": [], 
    "modifications_count": 0, 
    "sources_count": 0, 
    "propositions": [], 
    "votes": [
        {
            "article_title": "L\u00e9gislation de Le Morse.", 
            "date": "2015-10-04T19:22:00+0200", 
            "link": "http://www.republique-numerique.fr/projects/projet-de-loi-numerique/consultation/consultation/opinions/section-2-confidentialite-des-correspondances-privees/legislation-de-le-morse", 
            "id": "29921", 
            "opinion": "1"
        }, 
        {
            "article_title": "L\u00e9gislation de L'Escadron Noeliste.", 
            "date": "2015-10-04T19:22:00+0200", 
            "link": "http://www.republique-numerique.fr/projects/projet-de-loi-numerique/consultation/consultation/opinions/section-2-confidentialite-des-correspondances-privees/legislation-de-l-escadron-noeliste", 
            "id": "29922", 
            "opinion": "1"
        }
    ], 
    "sources": [], 
    "votes_count": 2, 
    "arguments": [], 
    "arguments_count": 0, 
    "propositions_count": 0, 
    "contributions_count": 0
}