{
    "modifications": [], 
    "modifications_count": 0, 
    "sources_count": 0, 
    "propositions": [], 
    "votes": [
        {
            "article_title": "Utiliser les logiciels libres & GNU/Linux dans les \u00e9coles et les universit\u00e9s", 
            "date": "2015-10-13T17:04:00+0200", 
            "link": "http://www.republique-numerique.fr/projects/projet-de-loi-numerique/consultation/consultation/opinions/section-2-service-public-de-la-donnee-1/utiliser-les-logiciels-libres-gnu-linux-dans-les-ecoles-et-les-universites", 
            "id": "72456", 
            "opinion": "1"
        }, 
        {
            "article_title": "Utilisation de GNU/Linux dans l'administration", 
            "date": "2015-10-13T17:38:00+0200", 
            "link": "http://www.republique-numerique.fr/projects/projet-de-loi-numerique/consultation/consultation/opinions/section-3-donnees-d-interet-general/utilisation-de-gnu-linux-dans-l-administration", 
            "id": "73330", 
            "opinion": "1"
        }, 
        {
            "article_title": "Utiliser Wikip\u00e9dia comme outil p\u00e9dagogique et \u00e9ducatif pour apprendre des comp\u00e9tences et des valeurs", 
            "date": "2015-10-13T17:39:00+0200", 
            "link": "http://www.republique-numerique.fr/projects/projet-de-loi-numerique/consultation/consultation/opinions/section-1-les-communs/utiliser-wikipedia-comme-outil-pedagogique-et-educatif-pour-apprendre-des-competences-et-des-valeurs", 
            "id": "73353", 
            "opinion": "-1"
        }, 
        {
            "article_title": "Sauf formations sp\u00e9cifiques (bac pro, BTS, etc......", 
            "date": "2015-10-13T17:42:00+0200", 
            "link": "http://www.republique-numerique.fr/projects/projet-de-loi-numerique/consultation/consultation/opinions/section-1-les-communs/reconnaissance-de-l-informatique-au-niveau-scolaire#arg-1536", 
            "id": "73414", 
            "opinion": "1"
        }
    ], 
    "sources": [], 
    "votes_count": 4, 
    "arguments": [], 
    "arguments_count": 0, 
    "propositions_count": 0, 
    "contributions_count": 0
}