{
    "modifications": [], 
    "modifications_count": 0, 
    "sources_count": 0, 
    "propositions": [], 
    "votes": [
        {
            "article_title": "Favoriser le libre acc\u00e8s sans mettre en p\u00e9ril les revues SHS - Imaginer de nouveaux mod\u00e8les de diffusion de la science", 
            "date": "2015-10-15T17:08:00+0200", 
            "link": "http://www.republique-numerique.fr/projects/projet-de-loi-numerique/consultation/consultation/opinions/section-2-travaux-de-recherche-et-de-statistique/article-9-acces-aux-travaux-de-la-recherche-financee-par-des-fonds-publics/versions/favoriser-le-libre-acces-sans-mettre-en-peril-les-revues-shs-imaginer-de-nouveaux-modeles-de-diffusion-de-la-science", 
            "id": "100048", 
            "opinion": "1"
        }, 
        {
            "article_title": "Les d\u00e9lais d'embargo doivent \u00eatre conditionn\u00e9s \u00e0 des \u00e9tudes d'impact", 
            "date": "2015-10-15T17:18:00+0200", 
            "link": "http://www.republique-numerique.fr/projects/projet-de-loi-numerique/consultation/consultation/opinions/section-2-travaux-de-recherche-et-de-statistique/article-9-acces-aux-travaux-de-la-recherche-financee-par-des-fonds-publics/versions/les-delais-d-embargo-doivent-etre-conditionnes-a-des-etudes-d-impact", 
            "id": "100205", 
            "opinion": "1"
        }, 
        {
            "article_title": "Dur\u00e9e d'embargo et TDM", 
            "date": "2015-10-15T18:21:00+0200", 
            "link": "http://www.republique-numerique.fr/projects/projet-de-loi-numerique/consultation/consultation/opinions/section-2-travaux-de-recherche-et-de-statistique/article-9-acces-aux-travaux-de-la-recherche-financee-par-des-fonds-publics/versions/duree-d-embargo-et-tdm-1", 
            "id": "101542", 
            "opinion": "1"
        }
    ], 
    "sources": [], 
    "votes_count": 3, 
    "arguments": [], 
    "arguments_count": 1, 
    "propositions_count": 0, 
    "contributions_count": 1
}