{
    "modifications": [], 
    "modifications_count": 0, 
    "sources_count": 0, 
    "propositions": [], 
    "votes": [
        {
            "article_title": "Article 19 - Droit \u00e0 l\u2019oubli pour les mineurs", 
            "date": "2015-10-13T16:58:00+0200", 
            "link": "http://www.republique-numerique.fr/projects/projet-de-loi-numerique/consultation/consultation/opinions/section-1-protection-des-donnees-a-caractere-personnel/article-19-droit-a-l-oubli-pour-les-mineurs-procedure-acceleree", 
            "id": "72337", 
            "opinion": "1"
        }
    ], 
    "sources": [], 
    "votes_count": 1, 
    "arguments": [], 
    "arguments_count": 0, 
    "propositions_count": 0, 
    "contributions_count": 0
}