{
    "modifications": [], 
    "modifications_count": 0, 
    "sources_count": 0, 
    "propositions": [], 
    "votes": [
        {
            "article_title": "Libert\u00e9 de panorama \u00e0 usage non commercial", 
            "date": "2015-10-16T02:11:00+0200", 
            "link": "http://www.republique-numerique.fr/projects/projet-de-loi-numerique/consultation/consultation/opinions/section-1-les-communs/instaurer-la-liberte-de-panorama-en-france/versions/liberte-de-panorama-a-usage-non-commercial", 
            "id": "106907", 
            "opinion": "1"
        }, 
        {
            "article_title": "Droit de reproductions et de diffusions \u00e0 but non lucratifs et exempts d'exploitation commerciale ou \u00e0 des fins de la communication de firmes ou d'entreprise", 
            "date": "2015-10-16T02:14:00+0200", 
            "link": "http://www.republique-numerique.fr/projects/projet-de-loi-numerique/consultation/consultation/opinions/section-1-les-communs/instaurer-la-liberte-de-panorama-en-france/versions/droit-de-reproductions-et-de-diffusions-a-but-non-lucratifs-et-exempts-d-exploitation-commerciale-ou-a-des-fins-de-la-communication-de-firmes-ou-d-entreprise", 
            "id": "106924", 
            "opinion": "1"
        }
    ], 
    "sources": [], 
    "votes_count": 2, 
    "arguments": [], 
    "arguments_count": 0, 
    "propositions_count": 0, 
    "contributions_count": 0
}