{
    "modifications": [], 
    "modifications_count": 0, 
    "sources_count": 0, 
    "propositions": [], 
    "votes": [
        {
            "article_title": "Le projet de loi marche sur la t\u00eate : voici trois propositions .", 
            "date": "2015-09-30T21:49:00+0200", 
            "link": "http://www.republique-numerique.fr/projects/projet-de-loi-numerique/consultation/consultation/opinions/section-1-ouverture-des-donnees-publiques-1/article-1-elargissement-du-champ-de-diffusion-par-l-administration/versions/le-projet-de-loi-marche-sur-la-tete-voici-trois-propositions", 
            "id": "21934", 
            "opinion": "-1"
        }, 
        {
            "article_title": "Article 1 - Open data par d\u00e9faut (obligation de diffuser en ligne les principaux documents et donn\u00e9es des organismes publics)", 
            "date": "2015-09-30T21:49:00+0200", 
            "link": "http://www.republique-numerique.fr/projects/projet-de-loi-numerique/consultation/consultation/opinions/section-1-ouverture-des-donnees-publiques-1/article-1-elargissement-du-champ-de-diffusion-par-l-administration", 
            "id": "21935", 
            "opinion": "0"
        }, 
        {
            "article_title": "P\u00e9dagogie du big data", 
            "date": "2015-09-30T21:50:00+0200", 
            "link": "http://www.republique-numerique.fr/projects/projet-de-loi-numerique/consultation/consultation/opinions/section-1-ouverture-des-donnees-publiques-1/article-1-elargissement-du-champ-de-diffusion-par-l-administration/versions/pedagogie-du-big-data", 
            "id": "21936", 
            "opinion": "0"
        }, 
        {
            "article_title": "Open Data obligatoire pour tout set produit dans un \u00e9tablissement ou par un personnel financ\u00e9 sur des fonds publics", 
            "date": "2015-09-30T21:51:00+0200", 
            "link": "http://www.republique-numerique.fr/projects/projet-de-loi-numerique/consultation/consultation/opinions/section-1-ouverture-des-donnees-publiques-1/article-1-elargissement-du-champ-de-diffusion-par-l-administration/versions/open-data-obligatoire-pour-tout-set-produit-dans-un-etablissement-ou-par-un-personnel-finance-sur-des-fonds-publics", 
            "id": "21937", 
            "opinion": "1"
        }, 
        {
            "article_title": "Approbation de mise \u00e0 disposition", 
            "date": "2015-09-30T22:18:00+0200", 
            "link": "http://www.republique-numerique.fr/projects/projet-de-loi-numerique/consultation/consultation/opinions/section-2-service-public-de-la-donnee-1/article-4-creation-d-un-service-public-de-la-donnee/versions/approbation-de-mise-a-disposition", 
            "id": "21989", 
            "opinion": "0"
        }, 
        {
            "article_title": "Un service \u00e0 la base d'une construction constitutionnelle", 
            "date": "2015-09-30T22:19:00+0200", 
            "link": "http://www.republique-numerique.fr/projects/projet-de-loi-numerique/consultation/consultation/opinions/section-2-service-public-de-la-donnee-1/article-4-creation-d-un-service-public-de-la-donnee/versions/un-service-a-la-base-d-une-construction-constitutionnelle", 
            "id": "21996", 
            "opinion": "0"
        }
    ], 
    "sources": [], 
    "votes_count": 6, 
    "arguments": [
        {
            "article_title": "Signaler", 
            "votes": 2, 
            "article_link": "http://www.republique-numerique.fr/consultations/projet-de-loi-numerique/consultation/consultation/opinions/section-1-protection-des-donnees-a-caractere-personnel/que-chaque-citoyen-touche-une-redevance-pour-ses-donnees/arguments/1724/report", 
            "link": "http://www.republique-numerique.fr/consultations/projet-de-loi-numerique/consultation/consultation/opinions/section-1-protection-des-donnees-a-caractere-personnel/que-chaque-citoyen-touche-une-redevance-pour-ses-donnees/arguments/1724/report#arg-1724", 
            "date": "2015-09-30T23:23:00+0200", 
            "id": "1724"
        }
    ], 
    "arguments_count": 3, 
    "propositions_count": 0, 
    "contributions_count": 3
}