{
    "modifications": [
        {
            "stats": {
                "source": "0", 
                "votes": "15", 
                "arguments": "5"
            }, 
            "votes": {
                "data-ok": "5", 
                "data-mitige": "7", 
                "data-nok": "3"
            }, 
            "link": "/projects/projet-de-loi-numerique/consultation/consultation/opinions/section-1-ouverture-des-donnees-publiques-1/ecole-entreprise-reunion/versions/instruction-des-bases-du-numeriques", 
            "id": "312", 
            "title": "Instruction des bases du num\u00e9riques"
        }, 
        {
            "stats": {
                "source": "0", 
                "votes": "20", 
                "arguments": "5"
            }, 
            "votes": {
                "data-ok": "3", 
                "data-mitige": "3", 
                "data-nok": "14"
            }, 
            "link": "/projects/projet-de-loi-numerique/consultation/consultation/opinions/section-3-donnees-d-interet-general/utilisation-de-gnu-linux-dans-l-administration/versions/migration-des-systemes", 
            "id": "315", 
            "title": "Migration des systemes"
        }
    ], 
    "modifications_count": 2, 
    "sources_count": 0, 
    "propositions": [], 
    "votes": [
        {
            "article_title": "Faire participer l'\u00e9ducation nationale \u00e0 l'\u00e9duc...", 
            "date": "2015-09-28T12:59:00+0200", 
            "link": "http://www.republique-numerique.fr/projects/projet-de-loi-numerique/consultation/consultation/opinions/section-1-ouverture-des-donnees-publiques-1/ecole-entreprise-reunion#arg-758", 
            "id": "9491", 
            "opinion": "1"
        }, 
        {
            "article_title": "Il faut commencer t\u00f4t, d\u00e8s le coll\u00e8ge. ...", 
            "date": "2015-09-28T12:59:00+0200", 
            "link": "http://www.republique-numerique.fr/projects/projet-de-loi-numerique/consultation/consultation/opinions/section-1-ouverture-des-donnees-publiques-1/ecole-entreprise-reunion#arg-669", 
            "id": "9492", 
            "opinion": "1"
        }, 
        {
            "article_title": "qu entendez vous par Referents numeriques ???", 
            "date": "2015-09-28T13:01:00+0200", 
            "link": "http://www.republique-numerique.fr/projects/projet-de-loi-numerique/consultation/consultation/opinions/section-1-ouverture-des-donnees-publiques-1/ecole-entreprise-reunion/versions/qu-entendez-vous-par-referents-numeriques", 
            "id": "9504", 
            "opinion": "-1"
        }, 
        {
            "article_title": "Ecole entreprise R\u00e9union", 
            "date": "2015-09-28T13:02:00+0200", 
            "link": "http://www.republique-numerique.fr/projects/projet-de-loi-numerique/consultation/consultation/opinions/section-1-ouverture-des-donnees-publiques-1/ecole-entreprise-reunion", 
            "id": "9506", 
            "opinion": "0"
        }, 
        {
            "article_title": "Instruction des bases du num\u00e9riques", 
            "date": "2015-09-28T13:57:00+0200", 
            "link": "http://www.republique-numerique.fr/projects/projet-de-loi-numerique/consultation/consultation/opinions/section-1-ouverture-des-donnees-publiques-1/ecole-entreprise-reunion/versions/instruction-des-bases-du-numeriques", 
            "id": "9853", 
            "opinion": "1"
        }, 
        {
            "article_title": "ouverture du code des algorithmes publics", 
            "date": "2015-09-28T14:00:00+0200", 
            "link": "http://www.republique-numerique.fr/projects/projet-de-loi-numerique/consultation/consultation/opinions/section-1-ouverture-des-donnees-publiques-1/ouverture-du-code-des-algorithmes-publics", 
            "id": "9873", 
            "opinion": "1"
        }, 
        {
            "article_title": "Au del\u00e0 du ph\u00e9nom\u00e8ne d'authentification, il fau...", 
            "date": "2015-09-28T14:01:00+0200", 
            "link": "http://www.republique-numerique.fr/projects/projet-de-loi-numerique/consultation/consultation/opinions/section-1-ouverture-des-donnees-publiques-1/le-vote-par-internet#arg-753", 
            "id": "9876", 
            "opinion": "1"
        }, 
        {
            "article_title": "Clarification sur le statut des drones de combats et de reconnaissances", 
            "date": "2015-09-28T14:02:00+0200", 
            "link": "http://www.republique-numerique.fr/projects/projet-de-loi-numerique/consultation/consultation/opinions/section-1-ouverture-des-donnees-publiques-1/clarification-sur-le-statut-des-drones-de-combats-et-de-reconnaissances", 
            "id": "9883", 
            "opinion": "1"
        }, 
        {
            "article_title": "Clarification sur le statut des drones de combats ...", 
            "date": "2015-09-28T14:03:00+0200", 
            "link": "http://www.republique-numerique.fr/projects/projet-de-loi-numerique/consultation/consultation/opinions/section-1-ouverture-des-donnees-publiques-1/clarification-sur-le-statut-des-drones-de-combats-et-de-reconnaissances#arg-260", 
            "id": "9884", 
            "opinion": "1"
        }, 
        {
            "article_title": "Diffusion sous licence libre des \u0153uvres num\u00e9riques cr\u00e9\u00e9es avec un financement public", 
            "date": "2015-09-28T14:03:00+0200", 
            "link": "http://www.republique-numerique.fr/projects/projet-de-loi-numerique/consultation/consultation/opinions/section-1-ouverture-des-donnees-publiques-1/diffusion-sous-licence-libre-des-oeuvres-numeriques-creees-avec-un-financement-public", 
            "id": "9886", 
            "opinion": "1"
        }, 
        {
            "article_title": "Digitalisation de l'appareil d'\u00e9tat", 
            "date": "2015-09-28T14:04:00+0200", 
            "link": "http://www.republique-numerique.fr/projects/projet-de-loi-numerique/consultation/consultation/opinions/section-1-ouverture-des-donnees-publiques-1/digitalisation-de-l-appareil-d-etat", 
            "id": "9887", 
            "opinion": "1"
        }, 
        {
            "article_title": "Oui \u00e0 la num\u00e9risation compl\u00e8te des outils d'\u00e9t...", 
            "date": "2015-09-28T14:04:00+0200", 
            "link": "http://www.republique-numerique.fr/projects/projet-de-loi-numerique/consultation/consultation/opinions/section-1-ouverture-des-donnees-publiques-1/digitalisation-de-l-appareil-d-etat#arg-572", 
            "id": "9888", 
            "opinion": "1"
        }, 
        {
            "article_title": "Suppression de la taxe copie priv\u00e9e", 
            "date": "2015-09-28T14:04:00+0200", 
            "link": "http://www.republique-numerique.fr/projects/projet-de-loi-numerique/consultation/consultation/opinions/section-1-ouverture-des-donnees-publiques-1/suppression-de-la-taxe-copie-privee", 
            "id": "9890", 
            "opinion": "1"
        }, 
        {
            "article_title": "Surtout que cette taxe ne sert pas \u00e0 financer un ...", 
            "date": "2015-09-28T14:05:00+0200", 
            "link": "http://www.republique-numerique.fr/projects/projet-de-loi-numerique/consultation/consultation/opinions/section-1-ouverture-des-donnees-publiques-1/suppression-de-la-taxe-copie-privee#arg-839", 
            "id": "9891", 
            "opinion": "1"
        }, 
        {
            "article_title": "La protection de l'exception culturelle fran\u00e7aise...", 
            "date": "2015-09-28T14:05:00+0200", 
            "link": "http://www.republique-numerique.fr/projects/projet-de-loi-numerique/consultation/consultation/opinions/section-1-ouverture-des-donnees-publiques-1/suppression-de-la-taxe-copie-privee#arg-712", 
            "id": "9892", 
            "opinion": "1"
        }, 
        {
            "article_title": "De l'informaion", 
            "date": "2015-09-28T14:06:00+0200", 
            "link": "http://www.republique-numerique.fr/projects/projet-de-loi-numerique/consultation/consultation/opinions/section-1-ouverture-des-donnees-publiques-1/de-l-informaion", 
            "id": "9897", 
            "opinion": "-1"
        }, 
        {
            "article_title": "Hebergement des services de l'\u00e9tat", 
            "date": "2015-09-28T14:06:00+0200", 
            "link": "http://www.republique-numerique.fr/projects/projet-de-loi-numerique/consultation/consultation/opinions/section-1-ouverture-des-donnees-publiques-1/hebergement-des-services-de-l-etat", 
            "id": "9899", 
            "opinion": "1"
        }, 
        {
            "article_title": "Article 4 - Cr\u00e9ation d\u2019un service public de la donn\u00e9e (garantie de qualit\u00e9 des donn\u00e9es publiques de r\u00e9f\u00e9rence)", 
            "date": "2015-09-28T14:08:00+0200", 
            "link": "http://www.republique-numerique.fr/projects/projet-de-loi-numerique/consultation/consultation/opinions/section-2-service-public-de-la-donnee-1/article-4-creation-d-un-service-public-de-la-donnee", 
            "id": "9908", 
            "opinion": "1"
        }, 
        {
            "article_title": "logiciels libres", 
            "date": "2015-09-28T14:09:00+0200", 
            "link": "http://www.republique-numerique.fr/projects/projet-de-loi-numerique/consultation/consultation/opinions/section-2-service-public-de-la-donnee-1/logiciels-libres", 
            "id": "9916", 
            "opinion": "0"
        }, 
        {
            "article_title": "Bloquer les publicit\u00e9s par d\u00e9faut dans les lieux destin\u00e9s \u00e0 l'Education.", 
            "date": "2015-09-28T14:10:00+0200", 
            "link": "http://www.republique-numerique.fr/projects/projet-de-loi-numerique/consultation/consultation/opinions/section-2-service-public-de-la-donnee-1/bloquer-les-publicites-par-defaut-dans-les-lieux-destines-a-l-education", 
            "id": "9923", 
            "opinion": "1"
        }, 
        {
            "article_title": "Publicit\u00e9 et loi de march\u00e9", 
            "date": "2015-09-28T14:10:00+0200", 
            "link": "http://www.republique-numerique.fr/projects/projet-de-loi-numerique/consultation/consultation/opinions/section-2-service-public-de-la-donnee-1/bloquer-les-publicites-par-defaut-dans-les-lieux-destines-a-l-education/versions/publicite-et-loi-de-marche", 
            "id": "9925", 
            "opinion": "-1"
        }, 
        {
            "article_title": "Article 5 - Cr\u00e9ation d'un compte unique des services administratifs en ligne pour chaque citoyen", 
            "date": "2015-09-28T14:15:00+0200", 
            "link": "http://www.republique-numerique.fr/projects/projet-de-loi-numerique/consultation/consultation/opinions/section-2-service-public-de-la-donnee-1/article-5-creation-d-un-compte-unique-des-services-administratifs-en-ligne-pour-chaque-citoyen", 
            "id": "9955", 
            "opinion": "1"
        }, 
        {
            "article_title": "L'id\u00e9e est bonne mais elle est d\u00e9j\u00e0 dans les tu...", 
            "date": "2015-09-28T14:15:00+0200", 
            "link": "http://www.republique-numerique.fr/projects/projet-de-loi-numerique/consultation/consultation/opinions/section-2-service-public-de-la-donnee-1/article-5-creation-d-un-compte-unique-des-services-administratifs-en-ligne-pour-chaque-citoyen#arg-640", 
            "id": "9960", 
            "opinion": "1"
        }, 
        {
            "article_title": "Plus facile pour nous les particuliersPour les ...", 
            "date": "2015-09-28T14:16:00+0200", 
            "link": "http://www.republique-numerique.fr/projects/projet-de-loi-numerique/consultation/consultation/opinions/section-2-service-public-de-la-donnee-1/article-5-creation-d-un-compte-unique-des-services-administratifs-en-ligne-pour-chaque-citoyen#arg-636", 
            "id": "9961", 
            "opinion": "1"
        }, 
        {
            "article_title": "Article 7 - Acc\u00e8s de la statistique publique \u00e0 certaines bases de donn\u00e9es priv\u00e9es", 
            "date": "2015-09-28T14:16:00+0200", 
            "link": "http://www.republique-numerique.fr/projects/projet-de-loi-numerique/consultation/consultation/opinions/section-3-donnees-d-interet-general/article-7-acces-de-la-statistique-publique-aux-bases-de-donnees-privees", 
            "id": "9971", 
            "opinion": "0"
        }, 
        {
            "article_title": "L'autonomie des acteurs du priv\u00e9e est primordiale...", 
            "date": "2015-09-28T14:17:00+0200", 
            "link": "http://www.republique-numerique.fr/projects/projet-de-loi-numerique/consultation/consultation/opinions/section-3-donnees-d-interet-general/article-7-acces-de-la-statistique-publique-aux-bases-de-donnees-privees#arg-832", 
            "id": "9974", 
            "opinion": "1"
        }, 
        {
            "article_title": "C'est comme cela que le Conseil national de la R\u00e9...", 
            "date": "2015-09-28T14:18:00+0200", 
            "link": "http://www.republique-numerique.fr/projects/projet-de-loi-numerique/consultation/consultation/opinions/section-3-donnees-d-interet-general/article-7-acces-de-la-statistique-publique-aux-bases-de-donnees-privees#arg-369", 
            "id": "9980", 
            "opinion": "1"
        }, 
        {
            "article_title": "Cet article va dans le bon sens.Les acteurs priv\ufffd...", 
            "date": "2015-09-28T14:18:00+0200", 
            "link": "http://www.republique-numerique.fr/projects/projet-de-loi-numerique/consultation/consultation/opinions/section-3-donnees-d-interet-general/article-7-acces-de-la-statistique-publique-aux-bases-de-donnees-privees#arg-241", 
            "id": "9981", 
            "opinion": "1"
        }, 
        {
            "article_title": "Sur le principe, je suis plut\u00f4t d'accord avec cet...", 
            "date": "2015-09-28T14:18:00+0200", 
            "link": "http://www.republique-numerique.fr/projects/projet-de-loi-numerique/consultation/consultation/opinions/section-3-donnees-d-interet-general/article-7-acces-de-la-statistique-publique-aux-bases-de-donnees-privees#arg-642", 
            "id": "9984", 
            "opinion": "1"
        }, 
        {
            "article_title": "Article 5 - Ouverture des donn\u00e9es des d\u00e9l\u00e9gations de service public", 
            "date": "2015-09-28T14:18:00+0200", 
            "link": "http://www.republique-numerique.fr/projects/projet-de-loi-numerique/consultation/consultation/opinions/section-3-donnees-d-interet-general/article-5-ouverture-des-donnees-par-defaut-dans-les-contrats-de-dsp", 
            "id": "9989", 
            "opinion": "1"
        }, 
        {
            "article_title": "Article 6 - Ouverture des donn\u00e9es des subventions publiques", 
            "date": "2015-09-28T14:19:00+0200", 
            "link": "http://www.republique-numerique.fr/projects/projet-de-loi-numerique/consultation/consultation/opinions/section-3-donnees-d-interet-general/article-6-ouverture-des-donnees-dans-les-conventions-de-subventions", 
            "id": "9995", 
            "opinion": "1"
        }, 
        {
            "article_title": "Pour \u00e9videmment mais sans seuil. ...", 
            "date": "2015-09-28T14:20:00+0200", 
            "link": "http://www.republique-numerique.fr/projects/projet-de-loi-numerique/consultation/consultation/opinions/section-3-donnees-d-interet-general/article-6-ouverture-des-donnees-dans-les-conventions-de-subventions#arg-830", 
            "id": "10002", 
            "opinion": "1"
        }, 
        {
            "article_title": "D\u00e8s le 1er euro vers\u00e9. \u00c9tendre l'obligation de ...", 
            "date": "2015-09-28T14:20:00+0200", 
            "link": "http://www.republique-numerique.fr/projects/projet-de-loi-numerique/consultation/consultation/opinions/section-3-donnees-d-interet-general/article-6-ouverture-des-donnees-dans-les-conventions-de-subventions#arg-666", 
            "id": "10003", 
            "opinion": "1"
        }, 
        {
            "article_title": "Protection du statut de lanceurs d'alertes et precisions sur les moyens d'obtenir ce statut", 
            "date": "2015-09-28T14:22:00+0200", 
            "link": "http://www.republique-numerique.fr/projects/projet-de-loi-numerique/consultation/consultation/opinions/section-3-donnees-d-interet-general/protection-recompense-et-indemnisation-des-lanceurs-d-alertes/versions/protection-du-statut-de-lanceurs-d-alertes-et-precisions-sur-les-moyens-d-obtenir-ce-statut", 
            "id": "10019", 
            "opinion": "1"
        }, 
        {
            "article_title": "L'id\u00e9e est tr\u00e8s bonne, cependant il faudrait exp...", 
            "date": "2015-09-28T14:23:00+0200", 
            "link": "http://www.republique-numerique.fr/projects/projet-de-loi-numerique/consultation/consultation/opinions/section-3-donnees-d-interet-general/protection-recompense-et-indemnisation-des-lanceurs-d-alertes/versions/protection-du-statut-de-lanceurs-d-alertes-et-precisions-sur-les-moyens-d-obtenir-ce-statut#arg-817", 
            "id": "10021", 
            "opinion": "1"
        }, 
        {
            "article_title": "Vital pour la d\u00e9mocratie !...", 
            "date": "2015-09-28T14:23:00+0200", 
            "link": "http://www.republique-numerique.fr/projects/projet-de-loi-numerique/consultation/consultation/opinions/section-3-donnees-d-interet-general/protection-recompense-et-indemnisation-des-lanceurs-d-alertes/versions/protection-du-statut-de-lanceurs-d-alertes-et-precisions-sur-les-moyens-d-obtenir-ce-statut#arg-152", 
            "id": "10022", 
            "opinion": "1"
        }, 
        {
            "article_title": "\"Linux, avec ses plus de 2000 distributions est u...", 
            "date": "2015-09-28T14:26:00+0200", 
            "link": "http://www.republique-numerique.fr/projects/projet-de-loi-numerique/consultation/consultation/opinions/section-3-donnees-d-interet-general/utilisation-de-gnu-linux-dans-l-administration#arg-650", 
            "id": "10046", 
            "opinion": "1"
        }, 
        {
            "article_title": "Article 8 - D\u00e9finition positive du domaine commun informationnel", 
            "date": "2015-09-28T14:45:00+0200", 
            "link": "http://www.republique-numerique.fr/projects/projet-de-loi-numerique/consultation/consultation/opinions/section-1-les-communs/article-8-definition-du-domaine-commun-informationnel", 
            "id": "10174", 
            "opinion": "1"
        }, 
        {
            "article_title": "Article 11 - Neutralit\u00e9 de l\u2019internet", 
            "date": "2015-09-28T14:49:00+0200", 
            "link": "http://www.republique-numerique.fr/projects/projet-de-loi-numerique/consultation/consultation/opinions/section-1-neutralite-de-l-internet/article-11-neutralite-de-l-internet", 
            "id": "10212", 
            "opinion": "1"
        }, 
        {
            "article_title": "Cet article devrait explicitement abolir, pour res...", 
            "date": "2015-09-28T14:51:00+0200", 
            "link": "http://www.republique-numerique.fr/projects/projet-de-loi-numerique/consultation/consultation/opinions/section-1-neutralite-de-l-internet/article-11-neutralite-de-l-internet#arg-66", 
            "id": "10221", 
            "opinion": "1"
        }, 
        {
            "article_title": "D'accord, par contre la phrase \"garantie par le tr...", 
            "date": "2015-09-28T14:51:00+0200", 
            "link": "http://www.republique-numerique.fr/projects/projet-de-loi-numerique/consultation/consultation/opinions/section-1-neutralite-de-l-internet/article-11-neutralite-de-l-internet#arg-53", 
            "id": "10222", 
            "opinion": "1"
        }, 
        {
            "article_title": "Article 12 - Portabilit\u00e9 des donn\u00e9es", 
            "date": "2015-09-28T14:53:00+0200", 
            "link": "http://www.republique-numerique.fr/projects/projet-de-loi-numerique/consultation/consultation/opinions/section-2-portabilite-des-donnees/article-12-portabilite-des-donnees", 
            "id": "10238", 
            "opinion": "1"
        }, 
        {
            "article_title": "Article 13 - Principe de loyaut\u00e9 des plateformes en lignes", 
            "date": "2015-09-28T16:21:00+0200", 
            "link": "http://www.republique-numerique.fr/projects/projet-de-loi-numerique/consultation/consultation/opinions/section-3-loyaute-des-plateformes/article-13-principe-de-loyaute-vis-a-vis-des-consommateurs", 
            "id": "10764", 
            "opinion": "1"
        }
    ], 
    "sources": [], 
    "votes_count": 43, 
    "arguments": [], 
    "arguments_count": 1, 
    "propositions_count": 0, 
    "contributions_count": 3
}