{
    "modifications": [], 
    "modifications_count": 0, 
    "sources_count": 0, 
    "propositions": [
        {
            "article_title": "Strat\u00e9gie territoriale de services num\u00e9riques", 
            "votes": {
                "data-ok": "3", 
                "data-mitige": "0", 
                "data-nok": "0"
            }, 
            "stats": {
                "modification": "0", 
                "source": "0", 
                "votes": "3", 
                "argument": "0"
            }, 
            "id": "763", 
            "article_link": "/projects/projet-de-loi-numerique/consultation/consultation/opinions/section-1-ouverture-des-donnees-publiques-1/strategie-territoriale-de-services-numeriques"
        }
    ], 
    "votes": [
        {
            "article_title": "Article 1 - Open data par d\u00e9faut (obligation de diffuser en ligne les principaux documents et donn\u00e9es des organismes publics)", 
            "date": "2015-10-18T18:45:00+0200", 
            "link": "http://www.republique-numerique.fr/projects/projet-de-loi-numerique/consultation/consultation/opinions/section-1-ouverture-des-donnees-publiques-1/article-1-elargissement-du-champ-de-diffusion-par-l-administration", 
            "id": "158904", 
            "opinion": "-1"
        }, 
        {
            "article_title": "Article 3 - Droit d\u2019acc\u00e8s des organismes publics aux donn\u00e9es publiques & de r\u00e9utilisation d\u2019informations comportant des donn\u00e9es personnelles d\u00e9j\u00e0 publi\u00e9es", 
            "date": "2015-10-18T18:57:00+0200", 
            "link": "http://www.republique-numerique.fr/projects/projet-de-loi-numerique/consultation/consultation/opinions/section-1-ouverture-des-donnees-publiques-1/article-3-dispositions-diverses", 
            "id": "159250", 
            "opinion": "1"
        }, 
        {
            "article_title": "Article 4 - Cr\u00e9ation d\u2019un service public de la donn\u00e9e (garantie de qualit\u00e9 des donn\u00e9es publiques de r\u00e9f\u00e9rence)", 
            "date": "2015-10-18T18:59:00+0200", 
            "link": "http://www.republique-numerique.fr/projects/projet-de-loi-numerique/consultation/consultation/opinions/section-2-service-public-de-la-donnee-1/article-4-creation-d-un-service-public-de-la-donnee", 
            "id": "159316", 
            "opinion": "0"
        }, 
        {
            "article_title": "Une fois de plus on part du haut vers le bas, alor...", 
            "date": "2015-10-18T19:00:00+0200", 
            "link": "http://www.republique-numerique.fr/projects/projet-de-loi-numerique/consultation/consultation/opinions/section-2-service-public-de-la-donnee-1/article-4-creation-d-un-service-public-de-la-donnee#arg-5475", 
            "id": "159321", 
            "opinion": "1"
        }, 
        {
            "article_title": "Ouvrir les donn\u00e9es est bien, les rendre accessibl...", 
            "date": "2015-10-18T19:00:00+0200", 
            "link": "http://www.republique-numerique.fr/projects/projet-de-loi-numerique/consultation/consultation/opinions/section-2-service-public-de-la-donnee-1/article-4-creation-d-un-service-public-de-la-donnee#arg-5472", 
            "id": "159329", 
            "opinion": "1"
        }, 
        {
            "article_title": "L'Open-Data seul ne suffit pas \u00e0 cr\u00e9er les condi...", 
            "date": "2015-10-18T19:04:00+0200", 
            "link": "http://www.republique-numerique.fr/projects/projet-de-loi-numerique/consultation/consultation/opinions/section-1-ouverture-des-donnees-publiques-1/article-1-elargissement-du-champ-de-diffusion-par-l-administration#arg-5981", 
            "id": "159414", 
            "opinion": "1"
        }, 
        {
            "article_title": "L'obligation de publier ne me semble pas pertinent...", 
            "date": "2015-10-18T19:04:00+0200", 
            "link": "http://www.republique-numerique.fr/projects/projet-de-loi-numerique/consultation/consultation/opinions/section-1-ouverture-des-donnees-publiques-1/article-1-elargissement-du-champ-de-diffusion-par-l-administration#arg-3302", 
            "id": "159425", 
            "opinion": "1"
        }, 
        {
            "article_title": "Les collectivit\u00e9s locales devraient \u00eatre incluse...", 
            "date": "2015-10-18T19:04:00+0200", 
            "link": "http://www.republique-numerique.fr/projects/projet-de-loi-numerique/consultation/consultation/opinions/section-1-ouverture-des-donnees-publiques-1/article-1-elargissement-du-champ-de-diffusion-par-l-administration#arg-3277", 
            "id": "159426", 
            "opinion": "1"
        }, 
        {
            "article_title": "Bon article, mais quid de la vie priv\u00e9e des citoy...", 
            "date": "2015-10-18T19:05:00+0200", 
            "link": "http://www.republique-numerique.fr/projects/projet-de-loi-numerique/consultation/consultation/opinions/section-1-ouverture-des-donnees-publiques-1/article-1-elargissement-du-champ-de-diffusion-par-l-administration#arg-2761", 
            "id": "159429", 
            "opinion": "1"
        }, 
        {
            "article_title": "Il ne s'agit pas l\u00e0 d'un argument \u00e0 proprement p...", 
            "date": "2015-10-18T19:05:00+0200", 
            "link": "http://www.republique-numerique.fr/projects/projet-de-loi-numerique/consultation/consultation/opinions/section-1-ouverture-des-donnees-publiques-1/article-1-elargissement-du-champ-de-diffusion-par-l-administration#arg-2095", 
            "id": "159434", 
            "opinion": "1"
        }, 
        {
            "article_title": "Le cercle de ces donn\u00e9es rendues publiques est tr...", 
            "date": "2015-10-18T19:05:00+0200", 
            "link": "http://www.republique-numerique.fr/projects/projet-de-loi-numerique/consultation/consultation/opinions/section-1-ouverture-des-donnees-publiques-1/article-1-elargissement-du-champ-de-diffusion-par-l-administration#arg-869", 
            "id": "159437", 
            "opinion": "1"
        }, 
        {
            "article_title": "(Je voulais rentrer un argument pour mon positionn...", 
            "date": "2015-10-18T19:06:00+0200", 
            "link": "http://www.republique-numerique.fr/projects/projet-de-loi-numerique/consultation/consultation/opinions/section-1-ouverture-des-donnees-publiques-1/article-1-elargissement-du-champ-de-diffusion-par-l-administration#arg-35", 
            "id": "159443", 
            "opinion": "1"
        }, 
        {
            "article_title": "Article 5 - Ouverture des donn\u00e9es des d\u00e9l\u00e9gations de service public", 
            "date": "2015-10-18T19:10:00+0200", 
            "link": "http://www.republique-numerique.fr/projects/projet-de-loi-numerique/consultation/consultation/opinions/section-3-donnees-d-interet-general/article-5-ouverture-des-donnees-par-defaut-dans-les-contrats-de-dsp", 
            "id": "159543", 
            "opinion": "1"
        }, 
        {
            "article_title": "J'ai peut \u00eatre mal compris cet article mais il la...", 
            "date": "2015-10-18T19:11:00+0200", 
            "link": "http://www.republique-numerique.fr/projects/projet-de-loi-numerique/consultation/consultation/opinions/section-3-donnees-d-interet-general/article-5-ouverture-des-donnees-par-defaut-dans-les-contrats-de-dsp#arg-5685", 
            "id": "159577", 
            "opinion": "1"
        }, 
        {
            "article_title": "Article 6 - Ouverture des donn\u00e9es des subventions publiques", 
            "date": "2015-10-18T19:14:00+0200", 
            "link": "http://www.republique-numerique.fr/projects/projet-de-loi-numerique/consultation/consultation/opinions/section-3-donnees-d-interet-general/article-6-ouverture-des-donnees-dans-les-conventions-de-subventions", 
            "id": "159627", 
            "opinion": "1"
        }, 
        {
            "article_title": "Article 7 - Acc\u00e8s de la statistique publique \u00e0 certaines bases de donn\u00e9es priv\u00e9es", 
            "date": "2015-10-18T19:14:00+0200", 
            "link": "http://www.republique-numerique.fr/projects/projet-de-loi-numerique/consultation/consultation/opinions/section-3-donnees-d-interet-general/article-7-acces-de-la-statistique-publique-aux-bases-de-donnees-privees", 
            "id": "159643", 
            "opinion": "1"
        }, 
        {
            "article_title": "Article 11 - Neutralit\u00e9 de l\u2019internet", 
            "date": "2015-10-18T19:16:00+0200", 
            "link": "http://www.republique-numerique.fr/projects/projet-de-loi-numerique/consultation/consultation/opinions/section-1-neutralite-de-l-internet/article-11-neutralite-de-l-internet", 
            "id": "159687", 
            "opinion": "-1"
        }, 
        {
            "article_title": "L'Internet n'est pas neutre, par d\u00e9faut.La ques...", 
            "date": "2015-10-18T19:19:00+0200", 
            "link": "http://www.republique-numerique.fr/projects/projet-de-loi-numerique/consultation/consultation/opinions/section-1-neutralite-de-l-internet/article-11-neutralite-de-l-internet#arg-6009", 
            "id": "159753", 
            "opinion": "1"
        }, 
        {
            "article_title": "La neutralit\u00e9 du net va avec le concept de libert...", 
            "date": "2015-10-18T19:19:00+0200", 
            "link": "http://www.republique-numerique.fr/projects/projet-de-loi-numerique/consultation/consultation/opinions/section-1-neutralite-de-l-internet/article-11-neutralite-de-l-internet#arg-5713", 
            "id": "159756", 
            "opinion": "1"
        }, 
        {
            "article_title": "Article 13 - Principe de loyaut\u00e9 des plateformes en lignes", 
            "date": "2015-10-18T19:20:00+0200", 
            "link": "http://www.republique-numerique.fr/projects/projet-de-loi-numerique/consultation/consultation/opinions/section-3-loyaute-des-plateformes/article-13-principe-de-loyaute-vis-a-vis-des-consommateurs", 
            "id": "159774", 
            "opinion": "1"
        }, 
        {
            "article_title": "Article 23 - D\u00e9veloppement des usages num\u00e9riques dans les territoires", 
            "date": "2015-10-18T19:22:00+0200", 
            "link": "http://www.republique-numerique.fr/projects/projet-de-loi-numerique/consultation/consultation/opinions/section-1-competences-et-organisation/article-23-schema-directeur-numerique-des-collectivites", 
            "id": "159816", 
            "opinion": "0"
        }, 
        {
            "article_title": "- clarifier l'\u00e9chelon comp\u00e9tent, \u00e0 l'\u00e9chelle d...", 
            "date": "2015-10-18T19:26:00+0200", 
            "link": "http://www.republique-numerique.fr/projects/projet-de-loi-numerique/consultation/consultation/opinions/section-1-competences-et-organisation/article-23-schema-directeur-numerique-des-collectivites#arg-6017", 
            "id": "159897", 
            "opinion": "1"
        }, 
        {
            "article_title": "Pas assez fort : \"peuvent \u00e9tablir\", \"strat\u00e9gie q...", 
            "date": "2015-10-18T19:26:00+0200", 
            "link": "http://www.republique-numerique.fr/projects/projet-de-loi-numerique/consultation/consultation/opinions/section-1-competences-et-organisation/article-23-schema-directeur-numerique-des-collectivites#arg-5689", 
            "id": "159899", 
            "opinion": "1"
        }, 
        {
            "article_title": "Les usages existants c'est bien, les usages futurs...", 
            "date": "2015-10-18T19:26:00+0200", 
            "link": "http://www.republique-numerique.fr/projects/projet-de-loi-numerique/consultation/consultation/opinions/section-1-competences-et-organisation/article-23-schema-directeur-numerique-des-collectivites#arg-4433", 
            "id": "159902", 
            "opinion": "1"
        }, 
        {
            "article_title": "Article 27 - Paiement par SMS", 
            "date": "2015-10-18T19:28:00+0200", 
            "link": "http://www.republique-numerique.fr/projects/projet-de-loi-numerique/consultation/consultation/opinions/section-2-paiement-par-sms/article-27-paiement-par-sms", 
            "id": "159946", 
            "opinion": "-1"
        }, 
        {
            "article_title": "- Article particuli\u00e8rement sujet \u00e0 l'abus de fai...", 
            "date": "2015-10-18T19:30:00+0200", 
            "link": "http://www.republique-numerique.fr/projects/projet-de-loi-numerique/consultation/consultation/opinions/section-2-paiement-par-sms/article-27-paiement-par-sms#arg-6023", 
            "id": "159999", 
            "opinion": "1"
        }, 
        {
            "article_title": "Le paiement par SMS m\u00e9rite d'\u00eatre facilit\u00e9, not...", 
            "date": "2015-10-18T19:30:00+0200", 
            "link": "http://www.republique-numerique.fr/projects/projet-de-loi-numerique/consultation/consultation/opinions/section-2-paiement-par-sms/article-27-paiement-par-sms#arg-5752", 
            "id": "160000", 
            "opinion": "1"
        }, 
        {
            "article_title": "Et comment l\u2019utilisateur peut refuser un paiemen...", 
            "date": "2015-10-18T19:30:00+0200", 
            "link": "http://www.republique-numerique.fr/projects/projet-de-loi-numerique/consultation/consultation/opinions/section-2-paiement-par-sms/article-27-paiement-par-sms#arg-4945", 
            "id": "160002", 
            "opinion": "1"
        }, 
        {
            "article_title": "si on enl\u00e8ve les mentions de paiement par SMS, et...", 
            "date": "2015-10-18T19:30:00+0200", 
            "link": "http://www.republique-numerique.fr/projects/projet-de-loi-numerique/consultation/consultation/opinions/section-2-paiement-par-sms/article-27-paiement-par-sms#arg-3859", 
            "id": "160004", 
            "opinion": "1"
        }, 
        {
            "article_title": "Non le don par SMS ne sauvera pas plus ni moins un...", 
            "date": "2015-10-18T19:30:00+0200", 
            "link": "http://www.republique-numerique.fr/projects/projet-de-loi-numerique/consultation/consultation/opinions/section-2-paiement-par-sms/article-27-paiement-par-sms#arg-3770", 
            "id": "160009", 
            "opinion": "1"
        }, 
        {
            "article_title": "Strat\u00e9gie territoriale de services num\u00e9riques", 
            "date": "2015-10-18T19:44:00+0200", 
            "link": "http://www.republique-numerique.fr/projects/projet-de-loi-numerique/consultation/consultation/opinions/section-1-ouverture-des-donnees-publiques-1/strategie-territoriale-de-services-numeriques", 
            "id": "160373", 
            "opinion": "1"
        }
    ], 
    "sources": [], 
    "votes_count": 31, 
    "arguments": [
        {
            "article_title": "Signaler", 
            "votes": 0, 
            "article_link": "http://www.republique-numerique.fr/consultations/projet-de-loi-numerique/consultation/consultation/opinions/section-1-ouverture-des-donnees-publiques-1/article-1-elargissement-du-champ-de-diffusion-par-l-administration/arguments/5993/report", 
            "link": "http://www.republique-numerique.fr/consultations/projet-de-loi-numerique/consultation/consultation/opinions/section-1-ouverture-des-donnees-publiques-1/article-1-elargissement-du-champ-de-diffusion-par-l-administration/arguments/5993/report#arg-5993", 
            "date": "2015-10-18T18:52:00+0200", 
            "id": "5993"
        }, 
        {
            "article_title": "Signaler", 
            "votes": 0, 
            "article_link": "http://www.republique-numerique.fr/consultations/projet-de-loi-numerique/consultation/consultation/opinions/section-1-ouverture-des-donnees-publiques-1/article-3-dispositions-diverses/arguments/5995/report", 
            "link": "http://www.republique-numerique.fr/consultations/projet-de-loi-numerique/consultation/consultation/opinions/section-1-ouverture-des-donnees-publiques-1/article-3-dispositions-diverses/arguments/5995/report#arg-5995", 
            "date": "2015-10-18T18:58:00+0200", 
            "id": "5995"
        }, 
        {
            "article_title": "Signaler", 
            "votes": 0, 
            "article_link": "http://www.republique-numerique.fr/consultations/projet-de-loi-numerique/consultation/consultation/opinions/section-2-service-public-de-la-donnee-1/article-4-creation-d-un-service-public-de-la-donnee/arguments/6000/report", 
            "link": "http://www.republique-numerique.fr/consultations/projet-de-loi-numerique/consultation/consultation/opinions/section-2-service-public-de-la-donnee-1/article-4-creation-d-un-service-public-de-la-donnee/arguments/6000/report#arg-6000", 
            "date": "2015-10-18T19:01:00+0200", 
            "id": "6000"
        }, 
        {
            "article_title": "Signaler", 
            "votes": 0, 
            "article_link": "http://www.republique-numerique.fr/consultations/projet-de-loi-numerique/consultation/consultation/opinions/section-3-donnees-d-interet-general/article-5-ouverture-des-donnees-par-defaut-dans-les-contrats-de-dsp/arguments/6003/report", 
            "link": "http://www.republique-numerique.fr/consultations/projet-de-loi-numerique/consultation/consultation/opinions/section-3-donnees-d-interet-general/article-5-ouverture-des-donnees-par-defaut-dans-les-contrats-de-dsp/arguments/6003/report#arg-6003", 
            "date": "2015-10-18T19:11:00+0200", 
            "id": "6003"
        }, 
        {
            "article_title": "Signaler", 
            "votes": 1, 
            "article_link": "http://www.republique-numerique.fr/consultations/projet-de-loi-numerique/consultation/consultation/opinions/section-1-neutralite-de-l-internet/article-11-neutralite-de-l-internet/arguments/6009/report", 
            "link": "http://www.republique-numerique.fr/consultations/projet-de-loi-numerique/consultation/consultation/opinions/section-1-neutralite-de-l-internet/article-11-neutralite-de-l-internet/arguments/6009/report#arg-6009", 
            "date": "2015-10-18T19:19:00+0200", 
            "id": "6009"
        }, 
        {
            "article_title": "Signaler", 
            "votes": 1, 
            "article_link": "http://www.republique-numerique.fr/consultations/projet-de-loi-numerique/consultation/consultation/opinions/section-1-competences-et-organisation/article-23-schema-directeur-numerique-des-collectivites/arguments/6017/report", 
            "link": "http://www.republique-numerique.fr/consultations/projet-de-loi-numerique/consultation/consultation/opinions/section-1-competences-et-organisation/article-23-schema-directeur-numerique-des-collectivites/arguments/6017/report#arg-6017", 
            "date": "2015-10-18T19:26:00+0200", 
            "id": "6017"
        }, 
        {
            "article_title": "Signaler", 
            "votes": 2, 
            "article_link": "http://www.republique-numerique.fr/consultations/projet-de-loi-numerique/consultation/consultation/opinions/section-2-paiement-par-sms/article-27-paiement-par-sms/arguments/6023/report", 
            "link": "http://www.republique-numerique.fr/consultations/projet-de-loi-numerique/consultation/consultation/opinions/section-2-paiement-par-sms/article-27-paiement-par-sms/arguments/6023/report#arg-6023", 
            "date": "2015-10-18T19:30:00+0200", 
            "id": "6023"
        }
    ], 
    "arguments_count": 7, 
    "propositions_count": 1, 
    "contributions_count": 8
}