{
    "modifications": [
        {
            "stats": {
                "source": "0", 
                "votes": "8", 
                "argument": "1"
            }, 
            "votes": {
                "data-ok": "7", 
                "data-mitige": "1", 
                "data-nok": "0"
            }, 
            "link": "/projects/projet-de-loi-numerique/consultation/consultation/opinions/section-2-service-public-de-la-donnee-1/utiliser-les-logiciels-libres-gnu-linux-dans-les-ecoles-et-les-universites/versions/formation-des-jeunes-a-l-ecole", 
            "id": "1161", 
            "title": "Formation des jeunes \u00e0 l'\u00e9cole"
        }
    ], 
    "modifications_count": 1, 
    "sources_count": 0, 
    "propositions": [], 
    "votes": [
        {
            "article_title": "C'est une promesse de campagne de Fran\u00e7ois Hollan...", 
            "date": "2015-10-16T11:30:00+0200", 
            "link": "http://www.republique-numerique.fr/projects/projet-de-loi-numerique/consultation/consultation/opinions/section-1-competences-et-organisation/l-enseignement-de-l-informatique-pour-tous/versions/priorite#arg-3973", 
            "id": "111040", 
            "opinion": "1"
        }, 
        {
            "article_title": "Priorit\u00e9 au logiciel libre", 
            "date": "2015-10-16T11:31:00+0200", 
            "link": "http://www.republique-numerique.fr/projects/projet-de-loi-numerique/consultation/consultation/opinions/section-1-competences-et-organisation/l-enseignement-de-l-informatique-pour-tous/versions/priorite", 
            "id": "111053", 
            "opinion": "1"
        }, 
        {
            "article_title": "Pour aller un peu plus loin : cr\u00e9ation d'un ident...", 
            "date": "2015-10-16T11:37:00+0200", 
            "link": "http://www.republique-numerique.fr/projects/projet-de-loi-numerique/consultation/consultation/opinions/section-1-recommande-electronique/identite-numerique#arg-1200", 
            "id": "111191", 
            "opinion": "1"
        }, 
        {
            "article_title": "Certains pays, comme par exemple le Portugal propo...", 
            "date": "2015-10-16T11:37:00+0200", 
            "link": "http://www.republique-numerique.fr/projects/projet-de-loi-numerique/consultation/consultation/opinions/section-1-recommande-electronique/identite-numerique#arg-466", 
            "id": "111215", 
            "opinion": "1"
        }, 
        {
            "article_title": "Utiliser les logiciels libres & GNU/Linux dans les \u00e9coles et les universit\u00e9s", 
            "date": "2015-10-17T13:35:00+0200", 
            "link": "http://www.republique-numerique.fr/projects/projet-de-loi-numerique/consultation/consultation/opinions/section-2-service-public-de-la-donnee-1/utiliser-les-logiciels-libres-gnu-linux-dans-les-ecoles-et-les-universites", 
            "id": "135930", 
            "opinion": "1"
        }, 
        {
            "article_title": "Utilisation de GNU/Linux dans l'administration", 
            "date": "2015-10-17T13:38:00+0200", 
            "link": "http://www.republique-numerique.fr/projects/projet-de-loi-numerique/consultation/consultation/opinions/section-3-donnees-d-interet-general/utilisation-de-gnu-linux-dans-l-administration", 
            "id": "135991", 
            "opinion": "1"
        }, 
        {
            "article_title": "Article (num\u00e9ro \u00e0 incr\u00e9menter) - De l'acc\u00e8s au code source", 
            "date": "2015-10-17T13:44:00+0200", 
            "link": "http://www.republique-numerique.fr/projects/projet-de-loi-numerique/consultation/consultation/opinions/section-1-ouverture-des-donnees-publiques-1/article-numero-a-incrementer-de-l-acces-au-code-source", 
            "id": "136208", 
            "opinion": "1"
        }, 
        {
            "article_title": "veritable acceleration du deploiement de la fibre optique", 
            "date": "2015-10-17T13:45:00+0200", 
            "link": "http://www.republique-numerique.fr/projects/projet-de-loi-numerique/consultation/consultation/opinions/section-1-ouverture-des-donnees-publiques-1/veritable-acceleration-du-deploiement-de-la-fibre-optique", 
            "id": "136231", 
            "opinion": "1"
        }, 
        {
            "article_title": "Nationalisation des r\u00e9seau physique", 
            "date": "2015-10-17T13:46:00+0200", 
            "link": "http://www.republique-numerique.fr/projects/projet-de-loi-numerique/consultation/consultation/opinions/section-1-ouverture-des-donnees-publiques-1/veritable-acceleration-du-deploiement-de-la-fibre-optique/versions/nationalisation-des-reseau-physique", 
            "id": "136235", 
            "opinion": "1"
        }, 
        {
            "article_title": "Rendre public la pr\u00e9sences des diff\u00e9rents ministres, d\u00e9put\u00e9s, etc... aux conseils.", 
            "date": "2015-10-17T13:47:00+0200", 
            "link": "http://www.republique-numerique.fr/projects/projet-de-loi-numerique/consultation/consultation/opinions/section-1-ouverture-des-donnees-publiques-1/rendre-public-la-presences-des-differents-ministres-deputes-etc-aux-conseils", 
            "id": "136264", 
            "opinion": "1"
        }, 
        {
            "article_title": "D\u00c9MAT\u00c9RIALISATION DE DOSSIERS ADMINISTRATIFS", 
            "date": "2015-10-17T13:48:00+0200", 
            "link": "http://www.republique-numerique.fr/projects/projet-de-loi-numerique/consultation/consultation/opinions/section-1-ouverture-des-donnees-publiques-1/dematerialisation-de-dossiers-administratifs", 
            "id": "136288", 
            "opinion": "1"
        }, 
        {
            "article_title": "Promouvoir la mise \u00e0 disposition de livres num\u00e9riques dans les biblioth\u00e8ques publiques", 
            "date": "2015-10-17T13:50:00+0200", 
            "link": "http://www.republique-numerique.fr/projects/projet-de-loi-numerique/consultation/consultation/opinions/section-1-ouverture-des-donnees-publiques-1/promouvoir-la-mise-a-disposition-de-livres-numeriques-dans-les-bibliotheques-publiques", 
            "id": "136327", 
            "opinion": "1"
        }, 
        {
            "article_title": "Le code source d'un logiciel est un document administratif communicable", 
            "date": "2015-10-17T13:51:00+0200", 
            "link": "http://www.republique-numerique.fr/projects/projet-de-loi-numerique/consultation/consultation/opinions/section-1-ouverture-des-donnees-publiques-1/le-code-source-d-un-logiciel-est-un-document-administratif-communicable", 
            "id": "136335", 
            "opinion": "1"
        }, 
        {
            "article_title": "Pouvoir effectuer un maximum de d\u00e9marche en ligne", 
            "date": "2015-10-17T13:55:00+0200", 
            "link": "http://www.republique-numerique.fr/projects/projet-de-loi-numerique/consultation/consultation/opinions/section-2-service-public-de-la-donnee-1/pouvoir-effectuer-un-maximum-de-demarche-en-ligne", 
            "id": "136383", 
            "opinion": "1"
        }, 
        {
            "article_title": "Article 9 : favoriser et privil\u00e9gier l'usage des produits libres dans l'ensemble des administrations et Minist\u00e8res", 
            "date": "2015-10-17T13:59:00+0200", 
            "link": "http://www.republique-numerique.fr/projects/projet-de-loi-numerique/consultation/consultation/opinions/section-1-les-communs/article-9-favoriser-et-privilegier-l-usage-des-produits-libres-dans-l-ensemble-des-administrations-et-ministeres", 
            "id": "136479", 
            "opinion": "1"
        }, 
        {
            "article_title": "Proposer un ENT unique pour les \u00e9coles pour simplifier et favoriser les \u00e9changes inter Acad\u00e9miques", 
            "date": "2015-10-17T14:00:00+0200", 
            "link": "http://www.republique-numerique.fr/projects/projet-de-loi-numerique/consultation/consultation/opinions/section-1-les-communs/proposer-un-ent-unique-pour-les-ecoles-pour-simplifier-et-favoriser-les-echanges-inter-academiques", 
            "id": "136495", 
            "opinion": "1"
        }, 
        {
            "article_title": "Baisser le prix du livre num\u00e9rique", 
            "date": "2015-10-17T14:01:00+0200", 
            "link": "http://www.republique-numerique.fr/projects/projet-de-loi-numerique/consultation/consultation/opinions/section-1-les-communs/baisser-le-prix-du-livre-numerique", 
            "id": "136516", 
            "opinion": "1"
        }
    ], 
    "sources": [], 
    "votes_count": 17, 
    "arguments": [], 
    "arguments_count": 0, 
    "propositions_count": 0, 
    "contributions_count": 1
}