{
    "modifications": [], 
    "modifications_count": 0, 
    "sources_count": 0, 
    "propositions": [], 
    "votes": [
        {
            "article_title": "Article 11 - Volet num\u00e9rique du Cr\u00e9dit Imp\u00f4t Recherche (CIR) : suivi des recherches et diffusion des r\u00e9sultats", 
            "date": "2015-10-08T16:31:00+0200", 
            "link": "http://www.republique-numerique.fr/projects/projet-de-loi-numerique/consultation/consultation/opinions/section-2-travaux-de-recherche-et-de-statistique/article-11-volet-numerique-du-credit-impot-recherche-cir-suivi-des-recherches-et-diffusion-des-resultats", 
            "id": "40242", 
            "opinion": "1"
        }
    ], 
    "sources": [], 
    "votes_count": 1, 
    "arguments": [], 
    "arguments_count": 0, 
    "propositions_count": 0, 
    "contributions_count": 0
}