{
    "modifications": [], 
    "modifications_count": 0, 
    "sources_count": 0, 
    "propositions": [], 
    "votes": [
        {
            "article_title": "Ind\u00e9pendance des DPO (Data Protection Officer) (ex-CIL)", 
            "date": "2015-09-29T10:58:00+0200", 
            "link": "http://www.republique-numerique.fr/projects/projet-de-loi-numerique/consultation/consultation/opinions/section-1-protection-des-donnees-a-caractere-personnel/independance-des-dpo-data-protection-officer-ex-cil", 
            "id": "14703", 
            "opinion": "-1"
        }, 
        {
            "article_title": "Article 10 - Proc\u00e9dure assouplie pour les travaux statistiques ou de recherche utilisant le num\u00e9ro de s\u00e9curit\u00e9 sociale (recours \u00e0 un \u00ab NIR statistique \u00bb)", 
            "date": "2015-09-29T11:01:00+0200", 
            "link": "http://www.republique-numerique.fr/projects/projet-de-loi-numerique/consultation/consultation/opinions/section-2-travaux-de-recherche-et-de-statistique/article-10-nir-statistique", 
            "id": "14710", 
            "opinion": "1"
        }, 
        {
            "article_title": "Plus de souplesse encore en pr\u00e9sence d'un CIL", 
            "date": "2015-09-30T10:28:00+0200", 
            "link": "http://www.republique-numerique.fr/projects/projet-de-loi-numerique/consultation/consultation/opinions/section-2-travaux-de-recherche-et-de-statistique/plus-de-souplesse-encore-en-presence-d-un-cil", 
            "id": "19176", 
            "opinion": "1"
        }, 
        {
            "article_title": "quelle charge et quel co\u00fbt pour la CNIL? Ne serai...", 
            "date": "2015-09-30T14:04:00+0200", 
            "link": "http://www.republique-numerique.fr/projects/projet-de-loi-numerique/consultation/consultation/opinions/section-1-protection-des-donnees-a-caractere-personnel/article-18-certificat-de-conformite#arg-142", 
            "id": "20194", 
            "opinion": "1"
        }, 
        {
            "article_title": "obligation de nomination d'un d\u00e9l\u00e9gu\u00e9 \u00e0 la protection des donn\u00e9es", 
            "date": "2015-09-30T14:05:00+0200", 
            "link": "http://www.republique-numerique.fr/projects/projet-de-loi-numerique/consultation/consultation/opinions/section-1-protection-des-donnees-a-caractere-personnel/article-18-certificat-de-conformite/versions/nomination-d-un-delegue-a-la-protection-des-donnees", 
            "id": "20200", 
            "opinion": "1"
        }
    ], 
    "sources": [], 
    "votes_count": 5, 
    "arguments": [], 
    "arguments_count": 0, 
    "propositions_count": 0, 
    "contributions_count": 0
}