{
    "modifications": [], 
    "modifications_count": 0, 
    "sources_count": 0, 
    "propositions": [], 
    "votes": [
        {
            "article_title": "Introduction d\u2019un filtre technique ne permettant qu\u2019aux seuls utilisateurs du site de laisser un avis ou un commentaire", 
            "date": "2015-10-18T17:20:00+0200", 
            "link": "http://www.republique-numerique.fr/projects/projet-de-loi-numerique/consultation/consultation/opinions/section-4-information-des-consommateurs/article-15-information-des-consommateurs-et-avis-en-ligne/versions/introduction-d-un-filtre-technique-ne-permettant-qu-aux-seuls-utilisateurs-du-site-de-laisser-un-avis-ou-un-commentaire", 
            "id": "156576", 
            "opinion": "-1"
        }, 
        {
            "article_title": "Sur Blablacar ou Airbnb, les avis ne sont donn\u00e9s ...", 
            "date": "2015-10-18T17:20:00+0200", 
            "link": "http://www.republique-numerique.fr/projects/projet-de-loi-numerique/consultation/consultation/opinions/section-4-information-des-consommateurs/article-15-information-des-consommateurs-et-avis-en-ligne/versions/introduction-d-un-filtre-technique-ne-permettant-qu-aux-seuls-utilisateurs-du-site-de-laisser-un-avis-ou-un-commentaire#arg-4195", 
            "id": "156582", 
            "opinion": "1"
        }, 
        {
            "article_title": "Une telle mesure aurait poureffetune diminution ...", 
            "date": "2015-10-18T17:20:00+0200", 
            "link": "http://www.republique-numerique.fr/projects/projet-de-loi-numerique/consultation/consultation/opinions/section-4-information-des-consommateurs/article-15-information-des-consommateurs-et-avis-en-ligne/versions/introduction-d-un-filtre-technique-ne-permettant-qu-aux-seuls-utilisateurs-du-site-de-laisser-un-avis-ou-un-commentaire#arg-5919", 
            "id": "156583", 
            "opinion": "1"
        }, 
        {
            "article_title": "Mieux informer sur les avis en ligne", 
            "date": "2015-10-18T17:21:00+0200", 
            "link": "http://www.republique-numerique.fr/projects/projet-de-loi-numerique/consultation/consultation/opinions/section-4-information-des-consommateurs/article-15-information-des-consommateurs-et-avis-en-ligne/versions/mieux-informer-sur-les-avis-en-ligne", 
            "id": "156612", 
            "opinion": "1"
        }, 
        {
            "article_title": "Il para\u00eet difficile d\u2019introduire l\u2019obligation...", 
            "date": "2015-10-18T17:21:00+0200", 
            "link": "http://www.republique-numerique.fr/projects/projet-de-loi-numerique/consultation/consultation/opinions/section-4-information-des-consommateurs/article-15-information-des-consommateurs-et-avis-en-ligne#arg-2678", 
            "id": "156631", 
            "opinion": "1"
        }
    ], 
    "sources": [], 
    "votes_count": 5, 
    "arguments": [], 
    "arguments_count": 0, 
    "propositions_count": 0, 
    "contributions_count": 0
}