{
    "modifications": [], 
    "modifications_count": 0, 
    "sources_count": 0, 
    "propositions": [], 
    "votes": [
        {
            "article_title": "Renforcer le pouvoir de la CNIL pour la mise en place service public de la donn\u00e9e et plateforme France connect", 
            "date": "2015-10-07T23:59:00+0200", 
            "link": "http://www.republique-numerique.fr/projects/projet-de-loi-numerique/consultation/consultation/opinions/section-1-protection-des-donnees-a-caractere-personnel/article-17-missions-de-la-cnil/versions/renforcer-le-pouvoir-de-la-cnil-pour-la-mise-en-place-service-public-de-la-donnee-et-plateforme-france-connect", 
            "id": "38164", 
            "opinion": "1"
        }, 
        {
            "article_title": "Saisie de la CNIL par une initiative citoyenne ou associative", 
            "date": "2015-10-08T00:00:00+0200", 
            "link": "http://www.republique-numerique.fr/projects/projet-de-loi-numerique/consultation/consultation/opinions/section-1-protection-des-donnees-a-caractere-personnel/article-17-missions-de-la-cnil/versions/saisie-de-la-cnil-par-une-initiative-citoyenne-ou-associative", 
            "id": "38165", 
            "opinion": "1"
        }
    ], 
    "sources": [], 
    "votes_count": 2, 
    "arguments": [], 
    "arguments_count": 0, 
    "propositions_count": 0, 
    "contributions_count": 0
}