{
    "modifications": [], 
    "modifications_count": 0, 
    "sources_count": 0, 
    "propositions": [
        {
            "article_title": "Cartes de citoyens", 
            "votes": {
                "data-ok": "5", 
                "data-mitige": "5", 
                "data-nok": "3"
            }, 
            "stats": {
                "modification": "0", 
                "source": "0", 
                "votes": "13", 
                "arguments": "5"
            }, 
            "id": "463", 
            "article_link": "/projects/projet-de-loi-numerique/consultation/consultation/opinions/section-1-recommande-electronique/cartes-de-citoyens"
        }
    ], 
    "votes": [
        {
            "article_title": "Consacrer un droit effectif \u00e0 la portabilit\u00e9", 
            "date": "2015-10-07T19:33:00+0200", 
            "link": "http://www.republique-numerique.fr/projects/projet-de-loi-numerique/consultation/consultation/opinions/section-2-portabilite-des-donnees/article-12-portabilite-des-donnees/versions/consacrer-un-droit-effectif-a-la-portabilite", 
            "id": "37168", 
            "opinion": "1"
        }, 
        {
            "article_title": "Instaurer la libert\u00e9 de panorama en France", 
            "date": "2015-10-07T19:33:00+0200", 
            "link": "http://www.republique-numerique.fr/projects/projet-de-loi-numerique/consultation/consultation/opinions/section-1-les-communs/instaurer-la-liberte-de-panorama-en-france", 
            "id": "37170", 
            "opinion": "1"
        }, 
        {
            "article_title": "\u00c9viter la l\u00e9galisation du copyfraud", 
            "date": "2015-10-07T19:33:00+0200", 
            "link": "http://www.republique-numerique.fr/projects/projet-de-loi-numerique/consultation/consultation/opinions/section-1-les-communs/article-8-definition-du-domaine-commun-informationnel/versions/eviter-la-legalisation-du-copyfraud", 
            "id": "37171", 
            "opinion": "1"
        }, 
        {
            "article_title": "Une dur\u00e9e d'embargo plus courte, ne pas entraver le TDM (fouille de texte et de donn\u00e9es) et ne pas interdire une exploitation commerciale", 
            "date": "2015-10-07T19:35:00+0200", 
            "link": "http://www.republique-numerique.fr/projects/projet-de-loi-numerique/consultation/consultation/opinions/section-2-travaux-de-recherche-et-de-statistique/article-9-acces-aux-travaux-de-la-recherche-financee-par-des-fonds-publics/versions/une-duree-d-embargo-plus-courte-ne-pas-entraver-le-tdm-fouille-de-texte-et-de-donnees-et-ne-pas-interdire-une-exploitation-commerciale", 
            "id": "37176", 
            "opinion": "1"
        }, 
        {
            "article_title": "Introduire le principe du contradictoire dans le retrait/d\u00e9r\u00e9f\u00e9rencement de contenus par les plateformes", 
            "date": "2015-10-07T19:35:00+0200", 
            "link": "http://www.republique-numerique.fr/projects/projet-de-loi-numerique/consultation/consultation/opinions/section-3-loyaute-des-plateformes/article-13-principe-de-loyaute-vis-a-vis-des-consommateurs/versions/introduire-le-principe-du-contradictoire-dans-le-retrait-dereferencement-de-contenus-par-les-plateformes", 
            "id": "37177", 
            "opinion": "1"
        }, 
        {
            "article_title": "Ajouter la promotion du chiffrement des communications dans les missions de la CNIL", 
            "date": "2015-10-07T19:36:00+0200", 
            "link": "http://www.republique-numerique.fr/projects/projet-de-loi-numerique/consultation/consultation/opinions/section-1-protection-des-donnees-a-caractere-personnel/article-17-missions-de-la-cnil/versions/ajouter-la-promotion-du-chiffrement-des-communications-dans-les-missions-de-la-cnil", 
            "id": "37182", 
            "opinion": "1"
        }, 
        {
            "article_title": "23 : Autoriser les actions de groupe notamment en mati\u00e8re d'atteinte au droit sur les donn\u00e9es personnelles et la neutralit\u00e9 du Net", 
            "date": "2015-10-07T19:37:00+0200", 
            "link": "http://www.republique-numerique.fr/projects/projet-de-loi-numerique/consultation/consultation/opinions/section-2-confidentialite-des-correspondances-privees/23-autoriser-les-actions-de-groupe-notamment-en-matiere-d-atteinte-au-droit-sur-les-donnees-personnelles-et-la-neutralite-du-net", 
            "id": "37183", 
            "opinion": "1"
        }, 
        {
            "article_title": "Cr\u00e9ation d\u2019un parquet num\u00e9rique sp\u00e9cialis\u00e9 sur les questions de contenus illicites en ligne", 
            "date": "2015-10-07T19:37:00+0200", 
            "link": "http://www.republique-numerique.fr/projects/projet-de-loi-numerique/consultation/consultation/opinions/section-4-information-des-consommateurs/creation-d-un-parquet-numerique-specialise-sur-les-questions-de-contenus-illicites-en-ligne", 
            "id": "37184", 
            "opinion": "1"
        }, 
        {
            "article_title": "Cr\u00e9ation d\u2019un statut de m\u00e9diateur num\u00e9rique", 
            "date": "2015-10-07T19:38:00+0200", 
            "link": "http://www.republique-numerique.fr/projects/projet-de-loi-numerique/consultation/consultation/opinions/section-3-maintien-de-la-connexion-internet/creation-d-un-statut-de-mediateur-numerique", 
            "id": "37189", 
            "opinion": "1"
        }, 
        {
            "article_title": "22 bis : affirmer et encourager le droit au chiffrement des communications", 
            "date": "2015-10-07T19:38:00+0200", 
            "link": "http://www.republique-numerique.fr/projects/projet-de-loi-numerique/consultation/consultation/opinions/section-2-confidentialite-des-correspondances-privees/22-bis-affirmer-et-encourager-le-droit-au-chiffrement-des-communications", 
            "id": "37193", 
            "opinion": "1"
        }, 
        {
            "article_title": "Article 1 - Open data par d\u00e9faut (obligation de diffuser en ligne les principaux documents et donn\u00e9es des organismes publics)", 
            "date": "2015-10-07T19:58:00+0200", 
            "link": "http://www.republique-numerique.fr/projects/projet-de-loi-numerique/consultation/consultation/opinions/section-1-ouverture-des-donnees-publiques-1/article-1-elargissement-du-champ-de-diffusion-par-l-administration", 
            "id": "37250", 
            "opinion": "1"
        }, 
        {
            "article_title": "Article 3 - Droit d\u2019acc\u00e8s des organismes publics aux donn\u00e9es publiques & de r\u00e9utilisation d\u2019informations comportant des donn\u00e9es personnelles d\u00e9j\u00e0 publi\u00e9es", 
            "date": "2015-10-07T19:58:00+0200", 
            "link": "http://www.republique-numerique.fr/projects/projet-de-loi-numerique/consultation/consultation/opinions/section-1-ouverture-des-donnees-publiques-1/article-3-dispositions-diverses", 
            "id": "37254", 
            "opinion": "1"
        }, 
        {
            "article_title": "Ouvrir les donn\u00e9es ayant servi \u00e0 la r\u00e9daction d'un rapport publique", 
            "date": "2015-10-07T20:00:00+0200", 
            "link": "http://www.republique-numerique.fr/projects/projet-de-loi-numerique/consultation/consultation/opinions/section-1-ouverture-des-donnees-publiques-1/ouvrir-les-donnees-ayant-servi-a-la-redaction-d-un-rapport-publique", 
            "id": "37269", 
            "opinion": "1"
        }, 
        {
            "article_title": "ouverture du code des algorithmes publics", 
            "date": "2015-10-07T20:01:00+0200", 
            "link": "http://www.republique-numerique.fr/projects/projet-de-loi-numerique/consultation/consultation/opinions/section-1-ouverture-des-donnees-publiques-1/ouverture-du-code-des-algorithmes-publics", 
            "id": "37278", 
            "opinion": "1"
        }, 
        {
            "article_title": "Article 26bis - Portage de la plateforme contribuez.republique-numerique.fr \u00e0 d'autre projet de loi", 
            "date": "2015-10-07T20:05:00+0200", 
            "link": "http://www.republique-numerique.fr/projects/projet-de-loi-numerique/consultation/consultation/opinions/section-1-recommande-electronique/article-26bis-portage-de-la-plateforme-contribuez-republique-numerique-fr-a-d-autre-projet-de-loi", 
            "id": "37288", 
            "opinion": "1"
        }, 
        {
            "article_title": "J'ai vot\u00e9 pour, mais je doute que cela ait sa pla...", 
            "date": "2015-10-07T20:05:00+0200", 
            "link": "http://www.republique-numerique.fr/projects/projet-de-loi-numerique/consultation/consultation/opinions/section-1-recommande-electronique/article-26bis-portage-de-la-plateforme-contribuez-republique-numerique-fr-a-d-autre-projet-de-loi#arg-1030", 
            "id": "37290", 
            "opinion": "1"
        }, 
        {
            "article_title": "Cr\u00e9ation d'un plate-forme de r\u00e9vision de la consitution", 
            "date": "2015-10-07T20:06:00+0200", 
            "link": "http://www.republique-numerique.fr/projects/projet-de-loi-numerique/consultation/consultation/opinions/section-1-recommande-electronique/creation-d-un-plate-forme-de-revision-de-la-consitution", 
            "id": "37292", 
            "opinion": "1"
        }, 
        {
            "article_title": "Guichet num\u00e9rique unique", 
            "date": "2015-10-07T20:06:00+0200", 
            "link": "http://www.republique-numerique.fr/projects/projet-de-loi-numerique/consultation/consultation/opinions/section-1-recommande-electronique/guichet-numerique-unique", 
            "id": "37294", 
            "opinion": "1"
        }, 
        {
            "article_title": "identit\u00e9 num\u00e9rique", 
            "date": "2015-10-07T20:06:00+0200", 
            "link": "http://www.republique-numerique.fr/projects/projet-de-loi-numerique/consultation/consultation/opinions/section-1-recommande-electronique/identite-numerique", 
            "id": "37296", 
            "opinion": "1"
        }, 
        {
            "article_title": "remplacer France connect par Euroconnect, pour un \u00e9tat civil num\u00e9rique europ\u00e9en", 
            "date": "2015-10-07T20:07:00+0200", 
            "link": "http://www.republique-numerique.fr/projects/projet-de-loi-numerique/consultation/consultation/opinions/section-1-recommande-electronique/remplacer-france-connect-par-euroconnect-pour-un-etat-civil-numerique-europeen", 
            "id": "37300", 
            "opinion": "1"
        }, 
        {
            "article_title": "Le don par SMS pour toutes les associations", 
            "date": "2015-10-07T20:09:00+0200", 
            "link": "http://www.republique-numerique.fr/projects/projet-de-loi-numerique/consultation/consultation/opinions/section-2-paiement-par-sms/article-27-paiement-par-sms/versions/le-don-par-sms-pour-toutes-les-associations", 
            "id": "37311", 
            "opinion": "1"
        }, 
        {
            "article_title": "Article 27 - Paiement par SMS", 
            "date": "2015-10-07T20:09:00+0200", 
            "link": "http://www.republique-numerique.fr/projects/projet-de-loi-numerique/consultation/consultation/opinions/section-2-paiement-par-sms/article-27-paiement-par-sms", 
            "id": "37313", 
            "opinion": "0"
        }, 
        {
            "article_title": "Plafonnement des commissions des op\u00e9rateurs.", 
            "date": "2015-10-07T20:10:00+0200", 
            "link": "http://www.republique-numerique.fr/projects/projet-de-loi-numerique/consultation/consultation/opinions/section-2-paiement-par-sms/article-27-paiement-par-sms/versions/plafonnement-des-commissions-des-operateurs", 
            "id": "37315", 
            "opinion": "1"
        }, 
        {
            "article_title": "Diffusion sous licence libre des \u0153uvres num\u00e9riques cr\u00e9\u00e9es avec un financement public", 
            "date": "2015-10-07T20:11:00+0200", 
            "link": "http://www.republique-numerique.fr/projects/projet-de-loi-numerique/consultation/consultation/opinions/section-1-ouverture-des-donnees-publiques-1/diffusion-sous-licence-libre-des-oeuvres-numeriques-creees-avec-un-financement-public", 
            "id": "37322", 
            "opinion": "1"
        }, 
        {
            "article_title": "Am\u00e9lioration continue des lois", 
            "date": "2015-10-07T20:12:00+0200", 
            "link": "http://www.republique-numerique.fr/projects/projet-de-loi-numerique/consultation/consultation/opinions/section-1-ouverture-des-donnees-publiques-1/amelioration-continue-des-lois", 
            "id": "37326", 
            "opinion": "1"
        }, 
        {
            "article_title": "Cartes de citoyens", 
            "date": "2015-10-07T20:21:00+0200", 
            "link": "http://www.republique-numerique.fr/projects/projet-de-loi-numerique/consultation/consultation/opinions/section-1-recommande-electronique/cartes-de-citoyens", 
            "id": "37369", 
            "opinion": "1"
        }, 
        {
            "article_title": "Le gouvernement ne peut ouvrir une consultation sur des th\u00e8mes qui sont trait\u00e9s au m\u00eame moment par le parlement", 
            "date": "2015-10-16T17:12:00+0200", 
            "link": "http://www.republique-numerique.fr/projects/projet-de-loi-numerique/consultation/consultation/opinions/section-1-ouverture-des-donnees-publiques-1/le-gouvernement-ne-peut-ouvrir-une-consultation-sur-des-themes-qui-sont-traites-au-meme-moment-par-le-parlement", 
            "id": "118461", 
            "opinion": "0"
        }, 
        {
            "article_title": "Assurer la transparence des plateformes de consultation en ligne utilis\u00e9es par les pouvoirs publics", 
            "date": "2015-10-16T17:14:00+0200", 
            "link": "http://www.republique-numerique.fr/projects/projet-de-loi-numerique/consultation/consultation/opinions/section-1-ouverture-des-donnees-publiques-1/assurer-la-transparence-des-plateformes-de-consultation-en-ligne-utilisees-par-les-pouvoirs-publics", 
            "id": "118496", 
            "opinion": "1"
        }, 
        {
            "article_title": "Retirer le Conseil d'\u00c9tat des exceptions \u00e0 la CADA", 
            "date": "2015-10-16T17:17:00+0200", 
            "link": "http://www.republique-numerique.fr/projects/projet-de-loi-numerique/consultation/consultation/opinions/section-1-ouverture-des-donnees-publiques-1/retirer-le-conseil-d-etat-des-exceptions-a-la-cada", 
            "id": "118624", 
            "opinion": "1"
        }, 
        {
            "article_title": "Publier en Open Data les informations li\u00e9es aux fonctions des \u00e9lus, leurs activit\u00e9s \u00e9lectives, le d\u00e9tail de leurs indemnit\u00e9s et leurs liens d\u2019int\u00e9r\u00eats", 
            "date": "2015-10-16T17:18:00+0200", 
            "link": "http://www.republique-numerique.fr/projects/projet-de-loi-numerique/consultation/consultation/opinions/section-1-ouverture-des-donnees-publiques-1/publier-en-open-data-les-informations-liees-aux-fonctions-des-elus-leurs-activites-electives-le-detail-de-leurs-indemnites-et-leurs-liens-d-interets", 
            "id": "118656", 
            "opinion": "1"
        }, 
        {
            "article_title": "Avis et autosaisine de la CADA pour toute disposition sur les donn\u00e9es publiques", 
            "date": "2015-10-16T17:22:00+0200", 
            "link": "http://www.republique-numerique.fr/projects/projet-de-loi-numerique/consultation/consultation/opinions/section-1-ouverture-des-donnees-publiques-1/avis-et-autosaisine-de-la-cada-pour-toute-disposition-sur-les-donnees-publiques", 
            "id": "118795", 
            "opinion": "1"
        }, 
        {
            "article_title": "Droit \u00e0 la publication en Open Data pour tous les citoyens", 
            "date": "2015-10-16T17:27:00+0200", 
            "link": "http://www.republique-numerique.fr/projects/projet-de-loi-numerique/consultation/consultation/opinions/section-1-ouverture-des-donnees-publiques-1/droit-a-la-publication-en-open-data-pour-tous-les-citoyens", 
            "id": "118909", 
            "opinion": "1"
        }, 
        {
            "article_title": "Informer les citoyens de l'existence des donn\u00e9es publi\u00e9es", 
            "date": "2015-10-16T17:28:00+0200", 
            "link": "http://www.republique-numerique.fr/projects/projet-de-loi-numerique/consultation/consultation/opinions/section-1-ouverture-des-donnees-publiques-1/informer-les-citoyens-de-l-exitence-des-donnees-publiees", 
            "id": "118922", 
            "opinion": "1"
        }
    ], 
    "sources": [], 
    "votes_count": 33, 
    "arguments": [], 
    "arguments_count": 0, 
    "propositions_count": 1, 
    "contributions_count": 1
}