{
    "modifications": [], 
    "modifications_count": 0, 
    "sources_count": 0, 
    "propositions": [], 
    "votes": [
        {
            "article_title": "Article 1 - Open data par d\u00e9faut (obligation de diffuser en ligne les principaux documents et donn\u00e9es des organismes publics)", 
            "date": "2015-10-10T19:13:00+0200", 
            "link": "http://www.republique-numerique.fr/projects/projet-de-loi-numerique/consultation/consultation/opinions/section-1-ouverture-des-donnees-publiques-1/article-1-elargissement-du-champ-de-diffusion-par-l-administration", 
            "id": "46862", 
            "opinion": "1"
        }, 
        {
            "article_title": "Utiliser les logiciels libres & GNU/Linux dans les \u00e9coles et les universit\u00e9s", 
            "date": "2015-10-10T19:14:00+0200", 
            "link": "http://www.republique-numerique.fr/projects/projet-de-loi-numerique/consultation/consultation/opinions/section-2-service-public-de-la-donnee-1/utiliser-les-logiciels-libres-gnu-linux-dans-les-ecoles-et-les-universites", 
            "id": "46865", 
            "opinion": "1"
        }, 
        {
            "article_title": "Article 5 - Cr\u00e9ation d'un compte unique des services administratifs en ligne pour chaque citoyen", 
            "date": "2015-10-10T19:17:00+0200", 
            "link": "http://www.republique-numerique.fr/projects/projet-de-loi-numerique/consultation/consultation/opinions/section-2-service-public-de-la-donnee-1/article-5-creation-d-un-compte-unique-des-services-administratifs-en-ligne-pour-chaque-citoyen", 
            "id": "46872", 
            "opinion": "1"
        }, 
        {
            "article_title": "Utiliser Wikip\u00e9dia comme outil p\u00e9dagogique et \u00e9ducatif pour apprendre des comp\u00e9tences et des valeurs", 
            "date": "2015-10-10T19:18:00+0200", 
            "link": "http://www.republique-numerique.fr/projects/projet-de-loi-numerique/consultation/consultation/opinions/section-1-les-communs/utiliser-wikipedia-comme-outil-pedagogique-et-educatif-pour-apprendre-des-competences-et-des-valeurs", 
            "id": "46878", 
            "opinion": "-1"
        }, 
        {
            "article_title": "Cr\u00e9er et d\u00e9velopper la publication des cours et des devoirs scolaire en ligne", 
            "date": "2015-10-10T19:19:00+0200", 
            "link": "http://www.republique-numerique.fr/projects/projet-de-loi-numerique/consultation/consultation/opinions/section-1-les-communs/creer-et-developper-la-publication-des-cours-et-des-devoirs-scolaire-en-ligne", 
            "id": "46880", 
            "opinion": "1"
        }, 
        {
            "article_title": "Article 11 - Neutralit\u00e9 de l\u2019internet", 
            "date": "2015-10-10T19:23:00+0200", 
            "link": "http://www.republique-numerique.fr/projects/projet-de-loi-numerique/consultation/consultation/opinions/section-1-neutralite-de-l-internet/article-11-neutralite-de-l-internet", 
            "id": "46890", 
            "opinion": "1"
        }, 
        {
            "article_title": "Article 11.0 - Financement public du logiciel libre", 
            "date": "2015-10-10T19:26:00+0200", 
            "link": "http://www.republique-numerique.fr/projects/projet-de-loi-numerique/consultation/consultation/opinions/section-2-travaux-de-recherche-et-de-statistique/article-11-0-financement-public-du-logiciel-libre", 
            "id": "46898", 
            "opinion": "0"
        }, 
        {
            "article_title": "Article 12 - Portabilit\u00e9 des donn\u00e9es", 
            "date": "2015-10-10T19:29:00+0200", 
            "link": "http://www.republique-numerique.fr/projects/projet-de-loi-numerique/consultation/consultation/opinions/section-2-portabilite-des-donnees/article-12-portabilite-des-donnees", 
            "id": "46906", 
            "opinion": "0"
        }, 
        {
            "article_title": "Interdiction de la vente li\u00e9e ordinateur/syst\u00e8me d'exploitation", 
            "date": "2015-10-10T19:31:00+0200", 
            "link": "http://www.republique-numerique.fr/projects/projet-de-loi-numerique/consultation/consultation/opinions/section-3-loyaute-des-plateformes/interdiction-de-la-vente-liee-ordinateur-systeme-d-exploitation", 
            "id": "46911", 
            "opinion": "1"
        }, 
        {
            "article_title": "Article 15 - Mieux informer sur les avis en ligne et sur les d\u00e9bits", 
            "date": "2015-10-10T19:36:00+0200", 
            "link": "http://www.republique-numerique.fr/projects/projet-de-loi-numerique/consultation/consultation/opinions/section-4-information-des-consommateurs/article-15-information-des-consommateurs-et-avis-en-ligne", 
            "id": "46924", 
            "opinion": "1"
        }, 
        {
            "article_title": "Limitation de la publicit\u00e9 sur le net", 
            "date": "2015-10-10T19:36:00+0200", 
            "link": "http://www.republique-numerique.fr/projects/projet-de-loi-numerique/consultation/consultation/opinions/section-4-information-des-consommateurs/limitation-de-la-publicite-sur-le-net", 
            "id": "46926", 
            "opinion": "1"
        }, 
        {
            "article_title": "Droit \u00e0 l'internet", 
            "date": "2015-10-10T19:40:00+0200", 
            "link": "http://www.republique-numerique.fr/projects/projet-de-loi-numerique/consultation/consultation/opinions/section-1-competences-et-organisation/droit-a-l-internet", 
            "id": "46933", 
            "opinion": "0"
        }, 
        {
            "article_title": "Obligation de rendre les appareils connect\u00e9s compatibles avec le protocole IPv6", 
            "date": "2015-10-10T19:44:00+0200", 
            "link": "http://www.republique-numerique.fr/projects/projet-de-loi-numerique/consultation/consultation/opinions/section-2-couverture-numerique/obligation-de-rendre-les-appareils-connectes-compatibles-avec-le-protocole-ipv6", 
            "id": "46947", 
            "opinion": "1"
        }, 
        {
            "article_title": "Article 27 - Paiement par SMS", 
            "date": "2015-10-10T19:46:00+0200", 
            "link": "http://www.republique-numerique.fr/projects/projet-de-loi-numerique/consultation/consultation/opinions/section-2-paiement-par-sms/article-27-paiement-par-sms", 
            "id": "46953", 
            "opinion": "-1"
        }, 
        {
            "article_title": "Article 30 - Maintien de la connexion", 
            "date": "2015-10-10T19:49:00+0200", 
            "link": "http://www.republique-numerique.fr/projects/projet-de-loi-numerique/consultation/consultation/opinions/section-3-maintien-de-la-connexion-internet/article-30-maintien-temporaire-de-la-connexion", 
            "id": "46968", 
            "opinion": "0"
        }, 
        {
            "article_title": "Amendement de la Loi Renseignement pour ajout du juge judiciaire", 
            "date": "2015-10-10T19:51:00+0200", 
            "link": "http://www.republique-numerique.fr/projects/projet-de-loi-numerique/consultation/consultation/opinions/section-2-confidentialite-des-correspondances-privees/amendement-de-la-loi-renseignement-pour-ajout-du-juge-judiciaire", 
            "id": "46936", 
            "opinion": "0"
        }, 
        {
            "article_title": "Cet article devrait explicitement abolir, pour res...", 
            "date": "2015-10-15T18:28:00+0200", 
            "link": "http://www.republique-numerique.fr/projects/projet-de-loi-numerique/consultation/consultation/opinions/section-1-neutralite-de-l-internet/article-11-neutralite-de-l-internet#arg-66", 
            "id": "101644", 
            "opinion": "1"
        }
    ], 
    "sources": [], 
    "votes_count": 17, 
    "arguments": [], 
    "arguments_count": 0, 
    "propositions_count": 0, 
    "contributions_count": 0
}