{
    "modifications": [], 
    "modifications_count": 0, 
    "sources_count": 0, 
    "propositions": [], 
    "votes": [
        {
            "article_title": "Pour un droit \u00e0 l'oubli et \u00e0 la libre disposition de ses donn\u00e9es pour tous", 
            "date": "2015-10-12T16:35:00+0200", 
            "link": "http://www.republique-numerique.fr/projects/projet-de-loi-numerique/consultation/consultation/opinions/section-1-protection-des-donnees-a-caractere-personnel/article-19-droit-a-l-oubli-pour-les-mineurs-procedure-acceleree/versions/pour-un-droit-a-l-oubli-et-a-la-libre-disposition-de-ses-donnees-pour-tous", 
            "id": "53592", 
            "opinion": "1"
        }
    ], 
    "sources": [], 
    "votes_count": 1, 
    "arguments": [], 
    "arguments_count": 0, 
    "propositions_count": 0, 
    "contributions_count": 0
}