{
    "modifications": [], 
    "modifications_count": 0, 
    "sources_count": 0, 
    "propositions": [], 
    "votes": [
        {
            "article_title": "Maintien des cabines t\u00e9l\u00e9phoniques : Garantie acheminement Appels et Appels d'Urgence en cas de coupure \u00e9lectrique", 
            "date": "2015-10-15T18:28:00+0200", 
            "link": "http://www.republique-numerique.fr/projects/projet-de-loi-numerique/consultation/consultation/opinions/section-3-maintien-de-la-connexion-internet/maintien-des-cabines-telephoniques-garantie-acheminement-appels-et-appels-d-urgence-en-cas-de-coupure-electrique", 
            "id": "101649", 
            "opinion": "1"
        }, 
        {
            "article_title": "Un des supports personnels d'acc\u00e8s \u00e0 internet sera d\u00e9clar\u00e9 insaisissable", 
            "date": "2015-10-15T18:30:00+0200", 
            "link": "http://www.republique-numerique.fr/projects/projet-de-loi-numerique/consultation/consultation/opinions/section-3-maintien-de-la-connexion-internet/un-des-supports-personnels-d-acces-a-internet-sera-declare-insaisissable", 
            "id": "101678", 
            "opinion": "1"
        }
    ], 
    "sources": [], 
    "votes_count": 2, 
    "arguments": [], 
    "arguments_count": 0, 
    "propositions_count": 0, 
    "contributions_count": 0
}