{
    "modifications": [], 
    "modifications_count": 0, 
    "sources_count": 0, 
    "propositions": [], 
    "votes": [
        {
            "article_title": "ouverture du code des algorithmes publics", 
            "date": "2015-09-29T15:08:00+0200", 
            "link": "http://www.republique-numerique.fr/projects/projet-de-loi-numerique/consultation/consultation/opinions/section-1-ouverture-des-donnees-publiques-1/ouverture-du-code-des-algorithmes-publics", 
            "id": "16049", 
            "opinion": "1"
        }, 
        {
            "article_title": "Cela doit \u00e9galement inclure les algorithmes \"poli...", 
            "date": "2015-09-29T15:19:00+0200", 
            "link": "http://www.republique-numerique.fr/projects/projet-de-loi-numerique/consultation/consultation/opinions/section-1-ouverture-des-donnees-publiques-1/ouverture-du-code-des-algorithmes-publics#arg-1089", 
            "id": "16097", 
            "opinion": "1"
        }, 
        {
            "article_title": "d'accord mais devrait \u00eatre obligatoire pour tous ...", 
            "date": "2015-09-29T15:19:00+0200", 
            "link": "http://www.republique-numerique.fr/projects/projet-de-loi-numerique/consultation/consultation/opinions/section-1-ouverture-des-donnees-publiques-1/ouverture-du-code-des-algorithmes-publics#arg-984", 
            "id": "16099", 
            "opinion": "1"
        }, 
        {
            "article_title": "100% d'accord. il faut savoir comment nous sommes ...", 
            "date": "2015-09-29T15:19:00+0200", 
            "link": "http://www.republique-numerique.fr/projects/projet-de-loi-numerique/consultation/consultation/opinions/section-1-ouverture-des-donnees-publiques-1/ouverture-du-code-des-algorithmes-publics#arg-981", 
            "id": "16100", 
            "opinion": "1"
        }, 
        {
            "article_title": "\"Code is Law\"La proposition de Lawrence Lessig es...", 
            "date": "2015-09-29T15:19:00+0200", 
            "link": "http://www.republique-numerique.fr/projects/projet-de-loi-numerique/consultation/consultation/opinions/section-1-ouverture-des-donnees-publiques-1/ouverture-du-code-des-algorithmes-publics#arg-766", 
            "id": "16101", 
            "opinion": "1"
        }, 
        {
            "article_title": "L'ouverture c'est la transparence. La transparence...", 
            "date": "2015-09-29T15:19:00+0200", 
            "link": "http://www.republique-numerique.fr/projects/projet-de-loi-numerique/consultation/consultation/opinions/section-1-ouverture-des-donnees-publiques-1/ouverture-du-code-des-algorithmes-publics#arg-672", 
            "id": "16102", 
            "opinion": "1"
        }, 
        {
            "article_title": "Seul les informaticiens pourront comprendre les al...", 
            "date": "2015-09-29T15:19:00+0200", 
            "link": "http://www.republique-numerique.fr/projects/projet-de-loi-numerique/consultation/consultation/opinions/section-1-ouverture-des-donnees-publiques-1/ouverture-du-code-des-algorithmes-publics#arg-497", 
            "id": "16103", 
            "opinion": "1"
        }, 
        {
            "article_title": "oui oui oui ! Je veux tout savoir d' admission pos...", 
            "date": "2015-09-29T15:19:00+0200", 
            "link": "http://www.republique-numerique.fr/projects/projet-de-loi-numerique/consultation/consultation/opinions/section-1-ouverture-des-donnees-publiques-1/ouverture-du-code-des-algorithmes-publics#arg-441", 
            "id": "16104", 
            "opinion": "1"
        }, 
        {
            "article_title": "tout \u00e0 fait d'accord. On pourrait d'ailleurs comm...", 
            "date": "2015-09-29T15:19:00+0200", 
            "link": "http://www.republique-numerique.fr/projects/projet-de-loi-numerique/consultation/consultation/opinions/section-1-ouverture-des-donnees-publiques-1/ouverture-du-code-des-algorithmes-publics#arg-439", 
            "id": "16105", 
            "opinion": "1"
        }, 
        {
            "article_title": "Idem pour l'algo de calcul de l'IR. Permettrait \u00e9...", 
            "date": "2015-09-29T15:19:00+0200", 
            "link": "http://www.republique-numerique.fr/projects/projet-de-loi-numerique/consultation/consultation/opinions/section-1-ouverture-des-donnees-publiques-1/ouverture-du-code-des-algorithmes-publics#arg-139", 
            "id": "16106", 
            "opinion": "1"
        }, 
        {
            "article_title": "Ouvrir les r\u00f4les des taxes d\u2019habitation pour permettre des tirages aux sort de conseil d\u2019habitants.", 
            "date": "2015-09-29T15:19:00+0200", 
            "link": "http://www.republique-numerique.fr/projects/projet-de-loi-numerique/consultation/consultation/opinions/section-2-service-public-de-la-donnee-1/ouvrir-les-roles-des-taxes-d-habitation-pour-permettre-des-tirages-aux-sort-de-conseil-d-habitants", 
            "id": "16108", 
            "opinion": "1"
        }, 
        {
            "article_title": "remplacer France connect par Euroconnect, pour un \u00e9tat civil num\u00e9rique europ\u00e9en", 
            "date": "2015-09-29T15:21:00+0200", 
            "link": "http://www.republique-numerique.fr/projects/projet-de-loi-numerique/consultation/consultation/opinions/section-1-recommande-electronique/remplacer-france-connect-par-euroconnect-pour-un-etat-civil-numerique-europeen", 
            "id": "16112", 
            "opinion": "1"
        }, 
        {
            "article_title": "on peut \u00eatre pour sans \u00eatre vulgaire......", 
            "date": "2015-09-29T15:21:00+0200", 
            "link": "http://www.republique-numerique.fr/projects/projet-de-loi-numerique/consultation/consultation/opinions/section-1-recommande-electronique/remplacer-france-connect-par-euroconnect-pour-un-etat-civil-numerique-europeen#arg-982", 
            "id": "16115", 
            "opinion": "1"
        }, 
        {
            "article_title": "Putain Putain, c'est vachement bien, nous sommes q...", 
            "date": "2015-09-29T15:21:00+0200", 
            "link": "http://www.republique-numerique.fr/projects/projet-de-loi-numerique/consultation/consultation/opinions/section-1-recommande-electronique/remplacer-france-connect-par-euroconnect-pour-un-etat-civil-numerique-europeen#arg-562", 
            "id": "16116", 
            "opinion": "1"
        }, 
        {
            "article_title": "Article 3 - Droit d\u2019acc\u00e8s des organismes publics aux donn\u00e9es publiques & de r\u00e9utilisation d\u2019informations comportant des donn\u00e9es personnelles d\u00e9j\u00e0 publi\u00e9es", 
            "date": "2015-09-29T15:22:00+0200", 
            "link": "http://www.republique-numerique.fr/projects/projet-de-loi-numerique/consultation/consultation/opinions/section-1-ouverture-des-donnees-publiques-1/article-3-dispositions-diverses", 
            "id": "16121", 
            "opinion": "-1"
        }
    ], 
    "sources": [], 
    "votes_count": 15, 
    "arguments": [], 
    "arguments_count": 0, 
    "propositions_count": 0, 
    "contributions_count": 0
}