{
    "modifications": [], 
    "modifications_count": 0, 
    "sources_count": 0, 
    "propositions": [], 
    "votes": [
        {
            "article_title": "Le Vote par internet", 
            "date": "2015-09-28T14:26:00+0200", 
            "link": "http://www.republique-numerique.fr/projects/projet-de-loi-numerique/consultation/consultation/opinions/section-1-ouverture-des-donnees-publiques-1/le-vote-par-internet", 
            "id": "10044", 
            "opinion": "1"
        }, 
        {
            "article_title": "Le vote pour internet", 
            "date": "2015-09-28T14:27:00+0200", 
            "link": "http://www.republique-numerique.fr/projects/projet-de-loi-numerique/consultation/consultation/opinions/section-1-ouverture-des-donnees-publiques-1/le-vote-par-internet/versions/le-vote-pour-internet", 
            "id": "10051", 
            "opinion": "1"
        }, 
        {
            "article_title": "Au del\u00e0 du ph\u00e9nom\u00e8ne d'authentification, il fau...", 
            "date": "2015-09-28T14:40:00+0200", 
            "link": "http://www.republique-numerique.fr/projects/projet-de-loi-numerique/consultation/consultation/opinions/section-1-ouverture-des-donnees-publiques-1/le-vote-par-internet#arg-753", 
            "id": "10119", 
            "opinion": "1"
        }
    ], 
    "sources": [], 
    "votes_count": 3, 
    "arguments": [], 
    "arguments_count": 0, 
    "propositions_count": 0, 
    "contributions_count": 0
}