{
    "modifications": [], 
    "modifications_count": 0, 
    "sources_count": 0, 
    "propositions": [], 
    "votes": [
        {
            "article_title": "Federer les open data existantes et harmoniser les formats", 
            "date": "2015-10-11T19:16:00+0200", 
            "link": "http://www.republique-numerique.fr/projects/projet-de-loi-numerique/consultation/consultation/opinions/section-1-ouverture-des-donnees-publiques-1/article-1-elargissement-du-champ-de-diffusion-par-l-administration/versions/federer-les-open-data-existantes-et-harmoniser-les-formats", 
            "id": "49698", 
            "opinion": "1"
        }, 
        {
            "article_title": "Donnees publiques non libre pour un but commercial", 
            "date": "2015-10-11T19:18:00+0200", 
            "link": "http://www.republique-numerique.fr/projects/projet-de-loi-numerique/consultation/consultation/opinions/section-1-ouverture-des-donnees-publiques-1/article-1-elargissement-du-champ-de-diffusion-par-l-administration/versions/donnees-publiques-non-libre-pour-un-but-commercial", 
            "id": "49703", 
            "opinion": "1"
        }, 
        {
            "article_title": "Acc\u00e8s aux donn\u00e9es via des formats ouverts (libres) et dans une format r\u00e9utilisable ann\u00e9e apr\u00e8s ann\u00e9e", 
            "date": "2015-10-11T19:22:00+0200", 
            "link": "http://www.republique-numerique.fr/projects/projet-de-loi-numerique/consultation/consultation/opinions/section-1-ouverture-des-donnees-publiques-1/article-1-elargissement-du-champ-de-diffusion-par-l-administration/versions/acces-aux-donnees-via-des-formats-ouverts-libres-et-dans-une-format-reutilisable-annee-apres-annee", 
            "id": "49706", 
            "opinion": "1"
        }, 
        {
            "article_title": "D\u00e9mocratie communale", 
            "date": "2015-10-11T19:24:00+0200", 
            "link": "http://www.republique-numerique.fr/projects/projet-de-loi-numerique/consultation/consultation/opinions/section-1-ouverture-des-donnees-publiques-1/article-1-elargissement-du-champ-de-diffusion-par-l-administration/versions/democratie-communale", 
            "id": "49707", 
            "opinion": "1"
        }, 
        {
            "article_title": "Limiter le nombre de licences possibles et promouvoir les licences OBDL", 
            "date": "2015-10-11T19:29:00+0200", 
            "link": "http://www.republique-numerique.fr/projects/projet-de-loi-numerique/consultation/consultation/opinions/section-1-ouverture-des-donnees-publiques-1/article-1-elargissement-du-champ-de-diffusion-par-l-administration/versions/limiter-le-nombre-de-licences-possibles-et-promouvoir-les-licences-obdl", 
            "id": "49712", 
            "opinion": "1"
        }, 
        {
            "article_title": "Inclure des concessionaires disposant d'une d\u00e9l\u00e9gation de service publique", 
            "date": "2015-10-11T19:33:00+0200", 
            "link": "http://www.republique-numerique.fr/projects/projet-de-loi-numerique/consultation/consultation/opinions/section-1-ouverture-des-donnees-publiques-1/article-1-elargissement-du-champ-de-diffusion-par-l-administration/versions/inclure-des-concessionaires-disposant-d-une-delegation-de-service-publique", 
            "id": "49719", 
            "opinion": "1"
        }, 
        {
            "article_title": "Pr\u00e9cision et francisation du titre de l'article premier + ajout de la notion de gratuit\u00e9", 
            "date": "2015-10-11T19:35:00+0200", 
            "link": "http://www.republique-numerique.fr/projects/projet-de-loi-numerique/consultation/consultation/opinions/section-1-ouverture-des-donnees-publiques-1/article-1-elargissement-du-champ-de-diffusion-par-l-administration/versions/principe-de-l-open-data-donnees-ouvertes-par-defaut-obligation-faite-aux-organismes-publics-de-diffuser-en-ligne-leurs-principaux-documents-et-donnees", 
            "id": "49721", 
            "opinion": "1"
        }, 
        {
            "article_title": "Portail global d'acc\u00e8s aux donn\u00e9es publi\u00e9es", 
            "date": "2015-10-11T19:39:00+0200", 
            "link": "http://www.republique-numerique.fr/projects/projet-de-loi-numerique/consultation/consultation/opinions/section-1-ouverture-des-donnees-publiques-1/article-1-elargissement-du-champ-de-diffusion-par-l-administration/versions/portail-global-d-acces-aux-donnees-publiees", 
            "id": "49736", 
            "opinion": "1"
        }, 
        {
            "article_title": "Transparence profonde des march\u00e9s publiques", 
            "date": "2015-10-11T19:41:00+0200", 
            "link": "http://www.republique-numerique.fr/projects/projet-de-loi-numerique/consultation/consultation/opinions/section-1-ouverture-des-donnees-publiques-1/article-1-elargissement-du-champ-de-diffusion-par-l-administration/versions/transparence-profonde-des-marches-publiques", 
            "id": "49740", 
            "opinion": "1"
        }, 
        {
            "article_title": "Publication en temps r\u00e9el des donn\u00e9es sur l'environnement", 
            "date": "2015-10-11T19:44:00+0200", 
            "link": "http://www.republique-numerique.fr/projects/projet-de-loi-numerique/consultation/consultation/opinions/section-1-ouverture-des-donnees-publiques-1/article-1-elargissement-du-champ-de-diffusion-par-l-administration/versions/publication-en-temps-reel-des-donnees-sur-l-environnement", 
            "id": "49745", 
            "opinion": "1"
        }, 
        {
            "article_title": "Extension de l'objet de la mission de service public de l'acc\u00e8s au droit aux d\u00e9cisions de premi\u00e8re instance", 
            "date": "2015-10-11T19:51:00+0200", 
            "link": "http://www.republique-numerique.fr/projects/projet-de-loi-numerique/consultation/consultation/opinions/section-1-ouverture-des-donnees-publiques-1/article-1-elargissement-du-champ-de-diffusion-par-l-administration/versions/extension-de-l-objet-de-la-mission-de-service-public-de-l-acces-au-droit-aux-decisions-de-premiere-instance", 
            "id": "49769", 
            "opinion": "1"
        }, 
        {
            "article_title": "Consentement des personnes et exclusion des collectivit\u00e9s", 
            "date": "2015-10-11T19:56:00+0200", 
            "link": "http://www.republique-numerique.fr/projects/projet-de-loi-numerique/consultation/consultation/opinions/section-1-ouverture-des-donnees-publiques-1/article-1-elargissement-du-champ-de-diffusion-par-l-administration/versions/consentement-des-personnes-et-exclusion-des-collectivites", 
            "id": "49780", 
            "opinion": "1"
        }, 
        {
            "article_title": "Article 2 - Libre r\u00e9utilisation des donn\u00e9es des services publics industriels et commerciaux", 
            "date": "2015-10-11T20:00:00+0200", 
            "link": "http://www.republique-numerique.fr/projects/projet-de-loi-numerique/consultation/consultation/opinions/section-1-ouverture-des-donnees-publiques-1/article-2-principe-de-libre-reutilisation-des-donnees-pour-les-spic", 
            "id": "49796", 
            "opinion": "1"
        }, 
        {
            "article_title": "Clarifier la port\u00e9e du droit de r\u00e9utilisation qui couvre \u00e0 la fois l'information publique et son contenant", 
            "date": "2015-10-11T20:05:00+0200", 
            "link": "http://www.republique-numerique.fr/projects/projet-de-loi-numerique/consultation/consultation/opinions/section-1-ouverture-des-donnees-publiques-1/article-2-principe-de-libre-reutilisation-des-donnees-pour-les-spic/versions/clarifier-la-portee-du-droit-de-reutilisation-qui-couvre-a-la-fois-l-information-publique-et-son-contenant", 
            "id": "49836", 
            "opinion": "1"
        }, 
        {
            "article_title": "Elargir le champ des documents ouverts en open data", 
            "date": "2015-10-11T20:07:00+0200", 
            "link": "http://www.republique-numerique.fr/projects/projet-de-loi-numerique/consultation/consultation/opinions/section-1-ouverture-des-donnees-publiques-1/article-2-principe-de-libre-reutilisation-des-donnees-pour-les-spic/versions/elargir-le-champ-des-documents-ouverts-en-open-data", 
            "id": "49886", 
            "opinion": "-1"
        }, 
        {
            "article_title": "Tracabilit\u00e9 de l'origine des donn\u00e9es utilis\u00e9es", 
            "date": "2015-10-11T20:09:00+0200", 
            "link": "http://www.republique-numerique.fr/projects/projet-de-loi-numerique/consultation/consultation/opinions/section-1-ouverture-des-donnees-publiques-1/article-2-principe-de-libre-reutilisation-des-donnees-pour-les-spic/versions/tracabilite-de-l-origine-des-donnees-utilisees", 
            "id": "49913", 
            "opinion": "1"
        }, 
        {
            "article_title": "Article 4 - Cr\u00e9ation d\u2019un service public de la donn\u00e9e (garantie de qualit\u00e9 des donn\u00e9es publiques de r\u00e9f\u00e9rence)", 
            "date": "2015-10-11T20:15:00+0200", 
            "link": "http://www.republique-numerique.fr/projects/projet-de-loi-numerique/consultation/consultation/opinions/section-2-service-public-de-la-donnee-1/article-4-creation-d-un-service-public-de-la-donnee", 
            "id": "49988", 
            "opinion": "1"
        }
    ], 
    "sources": [], 
    "votes_count": 17, 
    "arguments": [], 
    "arguments_count": 0, 
    "propositions_count": 0, 
    "contributions_count": 0
}