{
    "modifications": [], 
    "modifications_count": 0, 
    "sources_count": 0, 
    "propositions": [], 
    "votes": [
        {
            "article_title": "Article 3 - Droit d\u2019acc\u00e8s des organismes publics aux donn\u00e9es publiques & de r\u00e9utilisation d\u2019informations comportant des donn\u00e9es personnelles d\u00e9j\u00e0 publi\u00e9es", 
            "date": "2015-10-01T09:20:00+0200", 
            "link": "http://www.republique-numerique.fr/projects/projet-de-loi-numerique/consultation/consultation/opinions/section-1-ouverture-des-donnees-publiques-1/article-3-dispositions-diverses", 
            "id": "22624", 
            "opinion": "0"
        }, 
        {
            "article_title": "Article 1 - Open data par d\u00e9faut (obligation de diffuser en ligne les principaux documents et donn\u00e9es des organismes publics)", 
            "date": "2015-10-01T09:20:00+0200", 
            "link": "http://www.republique-numerique.fr/projects/projet-de-loi-numerique/consultation/consultation/opinions/section-1-ouverture-des-donnees-publiques-1/article-1-elargissement-du-champ-de-diffusion-par-l-administration", 
            "id": "22627", 
            "opinion": "1"
        }, 
        {
            "article_title": "Article 2 - Libre r\u00e9utilisation des donn\u00e9es des services publics industriels et commerciaux", 
            "date": "2015-10-01T09:21:00+0200", 
            "link": "http://www.republique-numerique.fr/projects/projet-de-loi-numerique/consultation/consultation/opinions/section-1-ouverture-des-donnees-publiques-1/article-2-principe-de-libre-reutilisation-des-donnees-pour-les-spic", 
            "id": "22630", 
            "opinion": "1"
        }, 
        {
            "article_title": "Article 8 - D\u00e9finition positive du domaine commun informationnel", 
            "date": "2015-10-01T09:22:00+0200", 
            "link": "http://www.republique-numerique.fr/projects/projet-de-loi-numerique/consultation/consultation/opinions/section-1-les-communs/article-8-definition-du-domaine-commun-informationnel", 
            "id": "22636", 
            "opinion": "1"
        }, 
        {
            "article_title": "Article 8.0 - Libert\u00e9 de partage du savoir num\u00e9rique", 
            "date": "2015-10-01T09:24:00+0200", 
            "link": "http://www.republique-numerique.fr/projects/projet-de-loi-numerique/consultation/consultation/opinions/section-1-les-communs/article-8-0-liberte-de-partage-du-savoir-numerique", 
            "id": "22641", 
            "opinion": "0"
        }, 
        {
            "article_title": "RECONNAISSANCE DU COPYLEFT / DROIT AU REMIX", 
            "date": "2015-10-01T09:26:00+0200", 
            "link": "http://www.republique-numerique.fr/projects/projet-de-loi-numerique/consultation/consultation/opinions/section-1-les-communs/reconnaissance-du-copyleft-droit-au-remix", 
            "id": "22644", 
            "opinion": "1"
        }, 
        {
            "article_title": "Utiliser Wikip\u00e9dia comme outil p\u00e9dagogique et \u00e9ducatif pour apprendre des comp\u00e9tences et des valeurs", 
            "date": "2015-10-01T09:27:00+0200", 
            "link": "http://www.republique-numerique.fr/projects/projet-de-loi-numerique/consultation/consultation/opinions/section-1-les-communs/utiliser-wikipedia-comme-outil-pedagogique-et-educatif-pour-apprendre-des-competences-et-des-valeurs", 
            "id": "22654", 
            "opinion": "0"
        }, 
        {
            "article_title": "Cr\u00e9er et d\u00e9velopper la publication des cours et des devoirs scolaire en ligne", 
            "date": "2015-10-01T09:28:00+0200", 
            "link": "http://www.republique-numerique.fr/projects/projet-de-loi-numerique/consultation/consultation/opinions/section-1-les-communs/creer-et-developper-la-publication-des-cours-et-des-devoirs-scolaire-en-ligne", 
            "id": "22658", 
            "opinion": "1"
        }, 
        {
            "article_title": "Article 9 - Libre acc\u00e8s aux publications scientifiques de la recherche publique", 
            "date": "2015-10-01T09:30:00+0200", 
            "link": "http://www.republique-numerique.fr/projects/projet-de-loi-numerique/consultation/consultation/opinions/section-2-travaux-de-recherche-et-de-statistique/article-9-acces-aux-travaux-de-la-recherche-financee-par-des-fonds-publics", 
            "id": "22669", 
            "opinion": "0"
        }, 
        {
            "article_title": "Article 10 - Proc\u00e9dure assouplie pour les travaux statistiques ou de recherche utilisant le num\u00e9ro de s\u00e9curit\u00e9 sociale (recours \u00e0 un \u00ab NIR statistique \u00bb)", 
            "date": "2015-10-01T09:34:00+0200", 
            "link": "http://www.republique-numerique.fr/projects/projet-de-loi-numerique/consultation/consultation/opinions/section-2-travaux-de-recherche-et-de-statistique/article-10-nir-statistique", 
            "id": "22679", 
            "opinion": "-1"
        }, 
        {
            "article_title": "Article 11.0 - Financement public du logiciel libre", 
            "date": "2015-10-01T09:35:00+0200", 
            "link": "http://www.republique-numerique.fr/projects/projet-de-loi-numerique/consultation/consultation/opinions/section-2-travaux-de-recherche-et-de-statistique/article-11-0-financement-public-du-logiciel-libre", 
            "id": "22683", 
            "opinion": "1"
        }, 
        {
            "article_title": "utiliser des outils open source pour ecrire des lois numeriquement", 
            "date": "2015-10-01T09:35:00+0200", 
            "link": "http://www.republique-numerique.fr/projects/projet-de-loi-numerique/consultation/consultation/opinions/section-2-travaux-de-recherche-et-de-statistique/utiliser-des-outils-open-source-pour-ecrire-des-lois-numeriquement", 
            "id": "22685", 
            "opinion": "1"
        }, 
        {
            "article_title": "Plus de souplesse encore en pr\u00e9sence d'un CIL", 
            "date": "2015-10-01T09:37:00+0200", 
            "link": "http://www.republique-numerique.fr/projects/projet-de-loi-numerique/consultation/consultation/opinions/section-2-travaux-de-recherche-et-de-statistique/plus-de-souplesse-encore-en-presence-d-un-cil", 
            "id": "22695", 
            "opinion": "0"
        }, 
        {
            "article_title": "Article 11 - Neutralit\u00e9 de l\u2019internet", 
            "date": "2015-10-01T09:39:00+0200", 
            "link": "http://www.republique-numerique.fr/projects/projet-de-loi-numerique/consultation/consultation/opinions/section-1-neutralite-de-l-internet/article-11-neutralite-de-l-internet", 
            "id": "22700", 
            "opinion": "1"
        }, 
        {
            "article_title": "Article 11bis - Transparence des algorithmes utilis\u00e9s par les services publiques et renforcement de la s\u00e9curit\u00e9 en ligne", 
            "date": "2015-10-01T09:40:00+0200", 
            "link": "http://www.republique-numerique.fr/projects/projet-de-loi-numerique/consultation/consultation/opinions/section-1-neutralite-de-l-internet/article-11bis-transparence-des-algorithmes-utilises-par-les-services-publiques", 
            "id": "22706", 
            "opinion": "1"
        }, 
        {
            "article_title": "Cr\u00e9ation de la Soci\u00e9t\u00e9 France des Droits du Net aux cr\u00e9ateurs,", 
            "date": "2015-10-01T09:42:00+0200", 
            "link": "http://www.republique-numerique.fr/projects/projet-de-loi-numerique/consultation/consultation/opinions/section-1-neutralite-de-l-internet/creation-de-la-societe-france-des-droits-du-net-aux-createurs", 
            "id": "22713", 
            "opinion": "0"
        }, 
        {
            "article_title": "Activit\u00e9 num\u00e9rique non-lucrative. Cr\u00e9ation d'une association par un seul membre fondateur.", 
            "date": "2015-10-01T09:43:00+0200", 
            "link": "http://www.republique-numerique.fr/projects/projet-de-loi-numerique/consultation/consultation/opinions/section-1-neutralite-de-l-internet/statut-activite-demonetisee", 
            "id": "22714", 
            "opinion": "1"
        }, 
        {
            "article_title": "Inscrire dans la loi le d\u00e9lit de non respect de la neutralit\u00e9 du net", 
            "date": "2015-10-01T09:43:00+0200", 
            "link": "http://www.republique-numerique.fr/projects/projet-de-loi-numerique/consultation/consultation/opinions/section-1-neutralite-de-l-internet/inscrire-dans-la-loi-le-delit-de-non-respect-de-la-neutralite-du-net", 
            "id": "22715", 
            "opinion": "1"
        }, 
        {
            "article_title": "Article 12 - Portabilit\u00e9 des donn\u00e9es", 
            "date": "2015-10-01T09:44:00+0200", 
            "link": "http://www.republique-numerique.fr/projects/projet-de-loi-numerique/consultation/consultation/opinions/section-2-portabilite-des-donnees/article-12-portabilite-des-donnees", 
            "id": "22716", 
            "opinion": "1"
        }, 
        {
            "article_title": "RECUPERATION DES DONNEES LORS du DECES d'1 CONJOINT o\u00f9 PROCHE", 
            "date": "2015-10-01T09:45:00+0200", 
            "link": "http://www.republique-numerique.fr/projects/projet-de-loi-numerique/consultation/consultation/opinions/section-2-portabilite-des-donnees/recuperation-des-donnees-lors-du-deces-d-1-conjoint-ou-proche", 
            "id": "22717", 
            "opinion": "0"
        }, 
        {
            "article_title": "E-Testament", 
            "date": "2015-10-01T09:46:00+0200", 
            "link": "http://www.republique-numerique.fr/projects/projet-de-loi-numerique/consultation/consultation/opinions/section-2-portabilite-des-donnees/e-testament", 
            "id": "22719", 
            "opinion": "1"
        }, 
        {
            "article_title": "Article 13 - Principe de loyaut\u00e9 des plateformes en lignes", 
            "date": "2015-10-01T09:47:00+0200", 
            "link": "http://www.republique-numerique.fr/projects/projet-de-loi-numerique/consultation/consultation/opinions/section-3-loyaute-des-plateformes/article-13-principe-de-loyaute-vis-a-vis-des-consommateurs", 
            "id": "22721", 
            "opinion": "1"
        }, 
        {
            "article_title": "Article 14 - Informer sur les pratiques des plateformes en ligne", 
            "date": "2015-10-01T09:50:00+0200", 
            "link": "http://www.republique-numerique.fr/projects/projet-de-loi-numerique/consultation/consultation/opinions/section-3-loyaute-des-plateformes/article-14-regulation", 
            "id": "22728", 
            "opinion": "1"
        }, 
        {
            "article_title": "Droits des consommateurs \u00e0 disposer de leurs contenus physiques et d\u00e9mat\u00e9rialis\u00e9s.", 
            "date": "2015-10-01T09:51:00+0200", 
            "link": "http://www.republique-numerique.fr/projects/projet-de-loi-numerique/consultation/consultation/opinions/section-3-loyaute-des-plateformes/droits-des-consommateurs-a-disposer-de-leurs-contenus-physiques-et-dematerialises", 
            "id": "22735", 
            "opinion": "0"
        }, 
        {
            "article_title": "Interdiction de la vente li\u00e9e ordinateur/syst\u00e8me d'exploitation", 
            "date": "2015-10-01T09:52:00+0200", 
            "link": "http://www.republique-numerique.fr/projects/projet-de-loi-numerique/consultation/consultation/opinions/section-3-loyaute-des-plateformes/interdiction-de-la-vente-liee-ordinateur-systeme-d-exploitation", 
            "id": "22739", 
            "opinion": "1"
        }, 
        {
            "article_title": "D\u00e9verrouillage des acc\u00e8s logiciels sur le mat\u00e9riel num\u00e9rique", 
            "date": "2015-10-01T10:04:00+0200", 
            "link": "http://www.republique-numerique.fr/projects/projet-de-loi-numerique/consultation/consultation/opinions/section-3-loyaute-des-plateformes/deverrouillage-des-acces-logiciels-sur-le-materiel-numerique", 
            "id": "22778", 
            "opinion": "1"
        }, 
        {
            "article_title": "Article 15 - Mieux informer sur les avis en ligne et sur les d\u00e9bits", 
            "date": "2015-10-01T10:06:00+0200", 
            "link": "http://www.republique-numerique.fr/projects/projet-de-loi-numerique/consultation/consultation/opinions/section-4-information-des-consommateurs/article-15-information-des-consommateurs-et-avis-en-ligne", 
            "id": "22788", 
            "opinion": "1"
        }, 
        {
            "article_title": "Cr\u00e9ation d'un statut de l'acteur collaboratif", 
            "date": "2015-10-01T10:07:00+0200", 
            "link": "http://www.republique-numerique.fr/projects/projet-de-loi-numerique/consultation/consultation/opinions/section-4-information-des-consommateurs/creation-d-un-statut-de-l-acteur-collaboratif", 
            "id": "22797", 
            "opinion": "1"
        }, 
        {
            "article_title": "DROIT DE REPONSE DU CONSOMATEUR / ENTREPRISE", 
            "date": "2015-10-01T10:08:00+0200", 
            "link": "http://www.republique-numerique.fr/projects/projet-de-loi-numerique/consultation/consultation/opinions/section-4-information-des-consommateurs/droit-de-reponse-du-consomateur-entreprise", 
            "id": "22802", 
            "opinion": "0"
        }, 
        {
            "article_title": "Article 15.0 - Permettre une meilleure distinction des \"publicit\u00e9s d\u00e9guis\u00e9es\" sur les supports m\u00e9diatiques.", 
            "date": "2015-10-01T10:09:00+0200", 
            "link": "http://www.republique-numerique.fr/projects/projet-de-loi-numerique/consultation/consultation/opinions/section-4-information-des-consommateurs/article-15-0-permettre-une-meilleure-distinction-des-publicites-deguisees-sur-les-supports-mediatiques", 
            "id": "22807", 
            "opinion": "1"
        }, 
        {
            "article_title": "Limitation de la publicit\u00e9 sur le net", 
            "date": "2015-10-01T10:10:00+0200", 
            "link": "http://www.republique-numerique.fr/projects/projet-de-loi-numerique/consultation/consultation/opinions/section-4-information-des-consommateurs/limitation-de-la-publicite-sur-le-net", 
            "id": "22814", 
            "opinion": "1"
        }, 
        {
            "article_title": "Limiter la publicit\u00e9 aux organisations, entreprises et associations", 
            "date": "2015-10-01T10:11:00+0200", 
            "link": "http://www.republique-numerique.fr/projects/projet-de-loi-numerique/consultation/consultation/opinions/section-4-information-des-consommateurs/limiter-la-publicite-aux-organisations-entreprises-et-associations", 
            "id": "22822", 
            "opinion": "0"
        }, 
        {
            "article_title": "Mieux r\u00e9glementer les publicit\u00e9s par SPAM", 
            "date": "2015-10-01T10:14:00+0200", 
            "link": "http://www.republique-numerique.fr/projects/projet-de-loi-numerique/consultation/consultation/opinions/section-4-information-des-consommateurs/mieux-reglementer-les-publicites-par-spam", 
            "id": "22840", 
            "opinion": "1"
        }, 
        {
            "article_title": "Tenir les consommateurs inform\u00e9s de la localisation g\u00e9ographique de leurs donn\u00e9es \u00e0 caract\u00e8re personnel", 
            "date": "2015-10-01T10:14:00+0200", 
            "link": "http://www.republique-numerique.fr/projects/projet-de-loi-numerique/consultation/consultation/opinions/section-4-information-des-consommateurs/etre-informes-de-la-localisation-des-donnees-a-caractere-personnel", 
            "id": "22845", 
            "opinion": "1"
        }, 
        {
            "article_title": "Assurer la tra\u00e7abilit\u00e9 de l'utilisation commerciale des donn\u00e9es \u00e0 caract\u00e8re personnel", 
            "date": "2015-10-01T10:15:00+0200", 
            "link": "http://www.republique-numerique.fr/projects/projet-de-loi-numerique/consultation/consultation/opinions/section-4-information-des-consommateurs/assurer-la-tracabilite-de-l-utilisation-commerciale-des-donnees-a-caractere-personnel", 
            "id": "22850", 
            "opinion": "1"
        }, 
        {
            "article_title": "Visibilit\u00e9 et accessibilit\u00e9 \u00e9quivalente pour l'inscription et la d\u00e9sinscription a un service en ligne", 
            "date": "2015-10-01T10:16:00+0200", 
            "link": "http://www.republique-numerique.fr/projects/projet-de-loi-numerique/consultation/consultation/opinions/section-4-information-des-consommateurs/visibilite-et-accessibilite-equivalente-pour-l-inscription-et-la-desinscription-a-un-service-en-ligne", 
            "id": "22856", 
            "opinion": "1"
        }, 
        {
            "article_title": "Site sous le r\u00e9gime Francais", 
            "date": "2015-10-01T10:18:00+0200", 
            "link": "http://www.republique-numerique.fr/projects/projet-de-loi-numerique/consultation/consultation/opinions/section-4-information-des-consommateurs/site-sous-le-regime-francais", 
            "id": "22864", 
            "opinion": "0"
        }, 
        {
            "article_title": "Respect d'un mecanisme StopPUB pour les possesseurs de domaine via les enregistrements DNS", 
            "date": "2015-10-01T10:19:00+0200", 
            "link": "http://www.republique-numerique.fr/projects/projet-de-loi-numerique/consultation/consultation/opinions/section-4-information-des-consommateurs/respect-d-un-mecanisme-stoppub-pour-les-possesseurs-de-domaine-via-les-enregistrements-dns", 
            "id": "22870", 
            "opinion": "1"
        }, 
        {
            "article_title": "Contr\u00f4le de la publicit\u00e9 cibl\u00e9e appel\u00e9e aussi \"programmatique\"", 
            "date": "2015-10-01T10:20:00+0200", 
            "link": "http://www.republique-numerique.fr/projects/projet-de-loi-numerique/consultation/consultation/opinions/section-4-information-des-consommateurs/controle-de-la-publicite-ciblee-appelle-programmatique", 
            "id": "22878", 
            "opinion": "1"
        }, 
        {
            "article_title": "Article 16 - Libre disposition de ses donn\u00e9es", 
            "date": "2015-10-01T10:21:00+0200", 
            "link": "http://www.republique-numerique.fr/projects/projet-de-loi-numerique/consultation/consultation/opinions/section-1-protection-des-donnees-a-caractere-personnel/article-16-libre-disposition-de-ses-donnees-a-caractere-personnel", 
            "id": "22881", 
            "opinion": "1"
        }, 
        {
            "article_title": "Article 17 - Evolution des missions de la CNIL", 
            "date": "2015-10-01T10:22:00+0200", 
            "link": "http://www.republique-numerique.fr/projects/projet-de-loi-numerique/consultation/consultation/opinions/section-1-protection-des-donnees-a-caractere-personnel/article-17-missions-de-la-cnil", 
            "id": "22886", 
            "opinion": "1"
        }, 
        {
            "article_title": "Article 18 - Certificat de conformit\u00e9", 
            "date": "2015-10-01T10:23:00+0200", 
            "link": "http://www.republique-numerique.fr/projects/projet-de-loi-numerique/consultation/consultation/opinions/section-1-protection-des-donnees-a-caractere-personnel/article-18-certificat-de-conformite", 
            "id": "22890", 
            "opinion": "1"
        }, 
        {
            "article_title": "Article 19 - Droit \u00e0 l\u2019oubli pour les mineurs", 
            "date": "2015-10-01T10:23:00+0200", 
            "link": "http://www.republique-numerique.fr/projects/projet-de-loi-numerique/consultation/consultation/opinions/section-1-protection-des-donnees-a-caractere-personnel/article-19-droit-a-l-oubli-pour-les-mineurs-procedure-acceleree", 
            "id": "22896", 
            "opinion": "1"
        }, 
        {
            "article_title": "Article 20 - Mort num\u00e9rique", 
            "date": "2015-10-01T10:24:00+0200", 
            "link": "http://www.republique-numerique.fr/projects/projet-de-loi-numerique/consultation/consultation/opinions/section-1-protection-des-donnees-a-caractere-personnel/article-20-personnes-decedees", 
            "id": "22899", 
            "opinion": "1"
        }, 
        {
            "article_title": "Article 21 - Proc\u00e9dure de sanction de la CNIL", 
            "date": "2015-10-01T10:24:00+0200", 
            "link": "http://www.republique-numerique.fr/projects/projet-de-loi-numerique/consultation/consultation/opinions/section-1-protection-des-donnees-a-caractere-personnel/article-21-procedure-de-sanction-de-la-cnil", 
            "id": "22901", 
            "opinion": "1"
        }, 
        {
            "article_title": "Interdiction du d\u00e9marchage t\u00e9l\u00e9phonique en France", 
            "date": "2015-10-01T10:25:00+0200", 
            "link": "http://www.republique-numerique.fr/projects/projet-de-loi-numerique/consultation/consultation/opinions/section-1-protection-des-donnees-a-caractere-personnel/interdiction-du-demarchage-telephonique-en-france", 
            "id": "22904", 
            "opinion": "1"
        }, 
        {
            "article_title": "La reconnaissance du droit au chiffrement", 
            "date": "2015-10-01T10:25:00+0200", 
            "link": "http://www.republique-numerique.fr/projects/projet-de-loi-numerique/consultation/consultation/opinions/section-1-protection-des-donnees-a-caractere-personnel/la-reconnaissance-du-droit-au-chiffrement", 
            "id": "22908", 
            "opinion": "1"
        }, 
        {
            "article_title": "R\u00e9duire la dur\u00e9e de conservation des donn\u00e9es de connexion", 
            "date": "2015-10-01T10:26:00+0200", 
            "link": "http://www.republique-numerique.fr/projects/projet-de-loi-numerique/consultation/consultation/opinions/section-1-protection-des-donnees-a-caractere-personnel/reduire-la-duree-de-conservation-des-donnees-de-connexion", 
            "id": "22909", 
            "opinion": "1"
        }, 
        {
            "article_title": "Interdiction d'acc\u00e9der \u00e0 des donn\u00e9es priv\u00e9es sans autorisation de la justice, et sans raison valable", 
            "date": "2015-10-01T10:28:00+0200", 
            "link": "http://www.republique-numerique.fr/projects/projet-de-loi-numerique/consultation/consultation/opinions/section-1-protection-des-donnees-a-caractere-personnel/interdiction-d-acceder-a-des-donnees-privees-sans-autorisation-de-la-justice-et-sans-raison-valable", 
            "id": "22920", 
            "opinion": "1"
        }, 
        {
            "article_title": "S\u00e9curit\u00e9 des donn\u00e9es stock\u00e9es par les prestataires", 
            "date": "2015-10-01T10:29:00+0200", 
            "link": "http://www.republique-numerique.fr/projects/projet-de-loi-numerique/consultation/consultation/opinions/section-1-protection-des-donnees-a-caractere-personnel/securite-des-donnees-stockees-par-les-prestataires", 
            "id": "22931", 
            "opinion": "1"
        }, 
        {
            "article_title": "Ne pas d\u00e9finir l'adresse IP d'un internaute comme source suffisante \u00e0 son identification", 
            "date": "2015-10-01T10:30:00+0200", 
            "link": "http://www.republique-numerique.fr/projects/projet-de-loi-numerique/consultation/consultation/opinions/section-1-protection-des-donnees-a-caractere-personnel/ne-pas-definir-l-adresse-ip-d-un-internaute-comme-source-suffisante-a-son-identification", 
            "id": "22936", 
            "opinion": "1"
        }, 
        {
            "article_title": "Toute donn\u00e9e de sant\u00e9 produite par quiconque est d\u00e8s sa cr\u00e9ation la propri\u00e9t\u00e9 de la personne \u00e0 laquelle les donn\u00e9es s\u2019appliquent.", 
            "date": "2015-10-01T10:33:00+0200", 
            "link": "http://www.republique-numerique.fr/projects/projet-de-loi-numerique/consultation/consultation/opinions/section-1-protection-des-donnees-a-caractere-personnel/toute-donnee-de-sante-produite-par-quiconque-est-des-sa-creation-la-propriete-de-la-personne-a-laquelle-les-donnees-s-appliquent", 
            "id": "22951", 
            "opinion": "1"
        }, 
        {
            "article_title": "Cr\u00e9er un Comit\u00e9 National d'Ethique du Num\u00e9rique", 
            "date": "2015-10-01T10:35:00+0200", 
            "link": "http://www.republique-numerique.fr/projects/projet-de-loi-numerique/consultation/consultation/opinions/section-1-protection-des-donnees-a-caractere-personnel/creer-un-comite-national-d-ethique-du-numerique-1", 
            "id": "22970", 
            "opinion": "1"
        }, 
        {
            "article_title": "Renforcer les comp\u00e9tences des magistrats en mati\u00e8re de num\u00e9rique", 
            "date": "2015-10-01T10:36:00+0200", 
            "link": "http://www.republique-numerique.fr/projects/projet-de-loi-numerique/consultation/consultation/opinions/section-1-protection-des-donnees-a-caractere-personnel/renforcer-les-competences-des-magistrats-en-matiere-de-numerique", 
            "id": "22976", 
            "opinion": "1"
        }, 
        {
            "article_title": "Obligation de signalement d'un vol de donn\u00e9es", 
            "date": "2015-10-01T10:36:00+0200", 
            "link": "http://www.republique-numerique.fr/projects/projet-de-loi-numerique/consultation/consultation/opinions/section-1-protection-des-donnees-a-caractere-personnel/obligation-de-signalement-d-un-vol-de-donnees", 
            "id": "22978", 
            "opinion": "1"
        }, 
        {
            "article_title": "Interdiction du croisement des donn\u00e9es", 
            "date": "2015-10-01T10:38:00+0200", 
            "link": "http://www.republique-numerique.fr/projects/projet-de-loi-numerique/consultation/consultation/opinions/section-1-protection-des-donnees-a-caractere-personnel/interdiction-du-croisement-des-donnees", 
            "id": "22981", 
            "opinion": "0"
        }, 
        {
            "article_title": "Article 16b : former les jeunes aux donn\u00e9es de l'intime", 
            "date": "2015-10-01T10:38:00+0200", 
            "link": "http://www.republique-numerique.fr/projects/projet-de-loi-numerique/consultation/consultation/opinions/section-1-protection-des-donnees-a-caractere-personnel/article-16b-former-les-jeunes-aux-donnees-de-l-intime", 
            "id": "22987", 
            "opinion": "1"
        }, 
        {
            "article_title": "La protection de la vie priv\u00e9e d\u00e8s la conception", 
            "date": "2015-10-01T10:40:00+0200", 
            "link": "http://www.republique-numerique.fr/projects/projet-de-loi-numerique/consultation/consultation/opinions/section-1-protection-des-donnees-a-caractere-personnel/la-protection-de-la-vie-privee-des-la-conception", 
            "id": "22994", 
            "opinion": "1"
        }, 
        {
            "article_title": "Article 22 - Secret des correspondances num\u00e9riques", 
            "date": "2015-10-01T10:42:00+0200", 
            "link": "http://www.republique-numerique.fr/projects/projet-de-loi-numerique/consultation/consultation/opinions/section-2-confidentialite-des-correspondances-privees/article-22-respect-des-correspondances-privees-numeriques", 
            "id": "23000", 
            "opinion": "1"
        }, 
        {
            "article_title": "Imposer le chiffrement par d\u00e9faut des courriers \u00e9lectroniques par les divers prestataires", 
            "date": "2015-10-01T10:43:00+0200", 
            "link": "http://www.republique-numerique.fr/projects/projet-de-loi-numerique/consultation/consultation/opinions/section-2-confidentialite-des-correspondances-privees/imposer-le-chiffrement-par-defaut-des-courriers-electroniques-par-les-divers-prestataires", 
            "id": "23007", 
            "opinion": "1"
        }, 
        {
            "article_title": "Service Public d'Identit\u00e9 \u00e9lectronique", 
            "date": "2015-10-01T10:45:00+0200", 
            "link": "http://www.republique-numerique.fr/projects/projet-de-loi-numerique/consultation/consultation/opinions/section-2-confidentialite-des-correspondances-privees/service-public-d-identite-electronique", 
            "id": "23010", 
            "opinion": "1"
        }, 
        {
            "article_title": "Paquets IP-CERFA", 
            "date": "2015-10-01T10:46:00+0200", 
            "link": "http://www.republique-numerique.fr/projects/projet-de-loi-numerique/consultation/consultation/opinions/section-2-confidentialite-des-correspondances-privees/paquets-ip-cerfa", 
            "id": "23020", 
            "opinion": "1"
        }, 
        {
            "article_title": "protection du contenu dans les communications avec les administrations", 
            "date": "2015-10-01T10:46:00+0200", 
            "link": "http://www.republique-numerique.fr/projects/projet-de-loi-numerique/consultation/consultation/opinions/section-2-confidentialite-des-correspondances-privees/protection-du-contenu-dans-les-communications-avec-les-administrations", 
            "id": "23024", 
            "opinion": "1"
        }, 
        {
            "article_title": "Cr\u00e9ation d'un autorit\u00e9 de certification publique", 
            "date": "2015-10-01T10:47:00+0200", 
            "link": "http://www.republique-numerique.fr/projects/projet-de-loi-numerique/consultation/consultation/opinions/section-2-confidentialite-des-correspondances-privees/creation-d-un-autorite-de-certification-publique", 
            "id": "23029", 
            "opinion": "1"
        }, 
        {
            "article_title": "Une d\u00e9mocratie directe \u00e7a serait le r\u00eave. Mais ...", 
            "date": "2015-10-01T10:52:00+0200", 
            "link": "http://www.republique-numerique.fr/projects/projet-de-loi-numerique/consultation/consultation/opinions/section-1-competences-et-organisation/implication-des-citoyens-dans-la-redaction-et-l-elaboration-des-lois-via-le-net#arg-1690", 
            "id": "23046", 
            "opinion": "1"
        }, 
        {
            "article_title": "De nos jours grace a internet,le retour a une d\u00e9m...", 
            "date": "2015-10-01T10:52:00+0200", 
            "link": "http://www.republique-numerique.fr/projects/projet-de-loi-numerique/consultation/consultation/opinions/section-1-competences-et-organisation/implication-des-citoyens-dans-la-redaction-et-l-elaboration-des-lois-via-le-net#arg-695", 
            "id": "23047", 
            "opinion": "1"
        }, 
        {
            "article_title": "Implication des citoyens dans la r\u00e9daction et l'\u00e9laboration des lois via le net", 
            "date": "2015-10-01T10:52:00+0200", 
            "link": "http://www.republique-numerique.fr/projects/projet-de-loi-numerique/consultation/consultation/opinions/section-1-competences-et-organisation/implication-des-citoyens-dans-la-redaction-et-l-elaboration-des-lois-via-le-net", 
            "id": "23048", 
            "opinion": "1"
        }, 
        {
            "article_title": "D\u00e9veloppement de la couverture num\u00e9rique dans les transports en commun publics", 
            "date": "2015-10-01T10:54:00+0200", 
            "link": "http://www.republique-numerique.fr/projects/projet-de-loi-numerique/consultation/consultation/opinions/section-1-competences-et-organisation/developpement-de-la-couverture-numerique-dans-les-transports-en-commun-publics", 
            "id": "23056", 
            "opinion": "1"
        }, 
        {
            "article_title": "Norme de raccordement en fibre optique des nouvelles constructions.", 
            "date": "2015-10-01T10:54:00+0200", 
            "link": "http://www.republique-numerique.fr/projects/projet-de-loi-numerique/consultation/consultation/opinions/section-1-competences-et-organisation/norme-de-raccordement-en-fibre-optique-des-nouvelles-constructions", 
            "id": "23058", 
            "opinion": "1"
        }, 
        {
            "article_title": "Int\u00e9grer l'usage num\u00e9rique \u00e0 l'apprentissage d\u00e8s le coll\u00e8ge dans les cours d'\u00e9ducation civique", 
            "date": "2015-10-01T10:55:00+0200", 
            "link": "http://www.republique-numerique.fr/projects/projet-de-loi-numerique/consultation/consultation/opinions/section-1-competences-et-organisation/integrer-l-usage-numerique-a-l-apprentissage-des-le-college-dans-les-cours-d-education-civique", 
            "id": "23060", 
            "opinion": "1"
        }, 
        {
            "article_title": "Enseignement de l'informatique", 
            "date": "2015-10-01T10:56:00+0200", 
            "link": "http://www.republique-numerique.fr/projects/projet-de-loi-numerique/consultation/consultation/opinions/section-1-competences-et-organisation/enseignement-de-l-informatique", 
            "id": "23062", 
            "opinion": "1"
        }, 
        {
            "article_title": "Instaurer une formation obligatoire au num\u00e9rique de tous les \u00e9lus", 
            "date": "2015-10-01T10:59:00+0200", 
            "link": "http://www.republique-numerique.fr/projects/projet-de-loi-numerique/consultation/consultation/opinions/section-1-competences-et-organisation/instaurer-une-formation-obligatoire-au-numerique-de-tous-les-elus", 
            "id": "23070", 
            "opinion": "1"
        }, 
        {
            "article_title": "Article 25 - Modification des principes d\u2019\u00e9tablissement des redevances d\u2019utilisation des fr\u00e9quences", 
            "date": "2015-10-01T11:01:00+0200", 
            "link": "http://www.republique-numerique.fr/projects/projet-de-loi-numerique/consultation/consultation/opinions/section-2-couverture-numerique/article-25-principe-de-calcul-des-redevances-d-usage-des-frequences", 
            "id": "23071", 
            "opinion": "1"
        }, 
        {
            "article_title": "Article 26 - D\u00e9finition d\u2019un cadre de confiance pour le recommand\u00e9 \u00e9lectronique", 
            "date": "2015-10-01T11:03:00+0200", 
            "link": "http://www.republique-numerique.fr/projects/projet-de-loi-numerique/consultation/consultation/opinions/section-1-recommande-electronique/article-26-recommande-electronique", 
            "id": "23078", 
            "opinion": "1"
        }, 
        {
            "article_title": "Article 26bis - Portage de la plateforme contribuez.republique-numerique.fr \u00e0 d'autre projet de loi", 
            "date": "2015-10-01T11:04:00+0200", 
            "link": "http://www.republique-numerique.fr/projects/projet-de-loi-numerique/consultation/consultation/opinions/section-1-recommande-electronique/article-26bis-portage-de-la-plateforme-contribuez-republique-numerique-fr-a-d-autre-projet-de-loi", 
            "id": "23081", 
            "opinion": "1"
        }, 
        {
            "article_title": "Encadrement et simplification des CGU et CGV.", 
            "date": "2015-10-01T11:05:00+0200", 
            "link": "http://www.republique-numerique.fr/projects/projet-de-loi-numerique/consultation/consultation/opinions/section-1-recommande-electronique/encadrement-et-simplification-des-cgu-et-cgv", 
            "id": "23082", 
            "opinion": "1"
        }, 
        {
            "article_title": "identit\u00e9 num\u00e9rique", 
            "date": "2015-10-01T11:06:00+0200", 
            "link": "http://www.republique-numerique.fr/projects/projet-de-loi-numerique/consultation/consultation/opinions/section-1-recommande-electronique/identite-numerique", 
            "id": "23084", 
            "opinion": "1"
        }, 
        {
            "article_title": "Vote \u00e9lectronique", 
            "date": "2015-10-01T11:06:00+0200", 
            "link": "http://www.republique-numerique.fr/projects/projet-de-loi-numerique/consultation/consultation/opinions/section-1-recommande-electronique/vote-electronique", 
            "id": "23085", 
            "opinion": "1"
        }, 
        {
            "article_title": "Article 30 - Maintien de la connexion", 
            "date": "2015-10-01T11:10:00+0200", 
            "link": "http://www.republique-numerique.fr/projects/projet-de-loi-numerique/consultation/consultation/opinions/section-3-maintien-de-la-connexion-internet/article-30-maintien-temporaire-de-la-connexion", 
            "id": "23093", 
            "opinion": "1"
        }, 
        {
            "article_title": "Dans les faits les d\u00e9tenus on des t\u00e9l\u00e9phones 3G...", 
            "date": "2015-10-01T11:11:00+0200", 
            "link": "http://www.republique-numerique.fr/projects/projet-de-loi-numerique/consultation/consultation/opinions/section-3-maintien-de-la-connexion-internet/acces-des-personnes-detenues-au-numerique#arg-431", 
            "id": "23098", 
            "opinion": "1"
        }, 
        {
            "article_title": "La prison est certes une mani\u00e8re de se prot\u00e9ger ...", 
            "date": "2015-10-01T11:11:00+0200", 
            "link": "http://www.republique-numerique.fr/projects/projet-de-loi-numerique/consultation/consultation/opinions/section-3-maintien-de-la-connexion-internet/acces-des-personnes-detenues-au-numerique#arg-1251", 
            "id": "23099", 
            "opinion": "1"
        }, 
        {
            "article_title": "Acc\u00e8s des personnes d\u00e9tenues au num\u00e9rique", 
            "date": "2015-10-01T11:13:00+0200", 
            "link": "http://www.republique-numerique.fr/projects/projet-de-loi-numerique/consultation/consultation/opinions/section-3-maintien-de-la-connexion-internet/acces-des-personnes-detenues-au-numerique", 
            "id": "23101", 
            "opinion": "0"
        }, 
        {
            "article_title": "Obligation pour les op\u00e9rateurs de proposer un service d'acc\u00e8s \u00e0 Internet nu", 
            "date": "2015-10-01T11:14:00+0200", 
            "link": "http://www.republique-numerique.fr/projects/projet-de-loi-numerique/consultation/consultation/opinions/section-3-maintien-de-la-connexion-internet/obligation-pour-les-operateurs-de-proposer-un-service-d-acces-a-internet-nu", 
            "id": "23104", 
            "opinion": "1"
        }
    ], 
    "sources": [], 
    "votes_count": 83, 
    "arguments": [], 
    "arguments_count": 0, 
    "propositions_count": 0, 
    "contributions_count": 0
}