{
    "modifications": [], 
    "modifications_count": 0, 
    "sources_count": 0, 
    "propositions": [], 
    "votes": [
        {
            "article_title": "Article 8 - D\u00e9finition positive du domaine commun informationnel", 
            "date": "2015-10-18T14:50:00+0200", 
            "link": "http://www.republique-numerique.fr/projects/projet-de-loi-numerique/consultation/consultation/opinions/section-1-les-communs/article-8-definition-du-domaine-commun-informationnel", 
            "id": "153427", 
            "opinion": "-1"
        }, 
        {
            "article_title": "Suppression du 2\u00b0 du I.", 
            "date": "2015-10-18T15:02:00+0200", 
            "link": "http://www.republique-numerique.fr/projects/projet-de-loi-numerique/consultation/consultation/opinions/section-1-les-communs/article-8-definition-du-domaine-commun-informationnel/versions/suppression-du-2deg-du-i", 
            "id": "153605", 
            "opinion": "1"
        }, 
        {
            "article_title": "Suppression de l'article 8", 
            "date": "2015-10-18T15:06:00+0200", 
            "link": "http://www.republique-numerique.fr/projects/projet-de-loi-numerique/consultation/consultation/opinions/section-1-les-communs/article-8-definition-du-domaine-commun-informationnel/versions/suppression-de-l-article-8", 
            "id": "153669", 
            "opinion": "1"
        }, 
        {
            "article_title": "Cet article flou et facteur de contentieux devrait \u00eatre retir\u00e9 du projet de loi", 
            "date": "2015-10-18T15:08:00+0200", 
            "link": "http://www.republique-numerique.fr/projects/projet-de-loi-numerique/consultation/consultation/opinions/section-1-les-communs/article-8-definition-du-domaine-commun-informationnel/versions/cet-article-flou-et-facteur-de-contentieux-devrait-etre-retire-du-projet-de-loi", 
            "id": "153707", 
            "opinion": "1"
        }, 
        {
            "article_title": "Retrait de l'article 8", 
            "date": "2015-10-18T15:09:00+0200", 
            "link": "http://www.republique-numerique.fr/projects/projet-de-loi-numerique/consultation/consultation/opinions/section-1-les-communs/article-8-definition-du-domaine-commun-informationnel/versions/retrait-de-l-article-8", 
            "id": "153741", 
            "opinion": "1"
        }, 
        {
            "article_title": "Article 12 - Portabilit\u00e9 des donn\u00e9es", 
            "date": "2015-10-18T15:15:00+0200", 
            "link": "http://www.republique-numerique.fr/projects/projet-de-loi-numerique/consultation/consultation/opinions/section-2-portabilite-des-donnees/article-12-portabilite-des-donnees", 
            "id": "153812", 
            "opinion": "-1"
        }, 
        {
            "article_title": "Introduire le principe du contradictoire dans le retrait/d\u00e9r\u00e9f\u00e9rencement de contenus par les plateformes", 
            "date": "2015-10-18T15:16:00+0200", 
            "link": "http://www.republique-numerique.fr/projects/projet-de-loi-numerique/consultation/consultation/opinions/section-3-loyaute-des-plateformes/article-13-principe-de-loyaute-vis-a-vis-des-consommateurs/versions/introduire-le-principe-du-contradictoire-dans-le-retrait-dereferencement-de-contenus-par-les-plateformes", 
            "id": "153837", 
            "opinion": "-1"
        }, 
        {
            "article_title": "Une r\u00e9flexion approfondie doit encore \u00eatre men\u00e9...", 
            "date": "2015-10-18T15:19:00+0200", 
            "link": "http://www.republique-numerique.fr/projects/projet-de-loi-numerique/consultation/consultation/opinions/section-1-les-communs/article-8-definition-du-domaine-commun-informationnel#arg-4901", 
            "id": "153905", 
            "opinion": "1"
        }, 
        {
            "article_title": "L\u2019article 8 du projet de loi soul\u00e8ve diff\u00e9rent...", 
            "date": "2015-10-18T15:19:00+0200", 
            "link": "http://www.republique-numerique.fr/projects/projet-de-loi-numerique/consultation/consultation/opinions/section-1-les-communs/article-8-definition-du-domaine-commun-informationnel#arg-4851", 
            "id": "153909", 
            "opinion": "1"
        }, 
        {
            "article_title": "La r\u00e9daction de cet article doit \u00eatre revue. Son...", 
            "date": "2015-10-18T15:19:00+0200", 
            "link": "http://www.republique-numerique.fr/projects/projet-de-loi-numerique/consultation/consultation/opinions/section-1-les-communs/article-8-definition-du-domaine-commun-informationnel#arg-3648", 
            "id": "153910", 
            "opinion": "1"
        }, 
        {
            "article_title": "Le texte doit \u00eatre revu si l\u2019on ne veut pas, so...", 
            "date": "2015-10-18T15:19:00+0200", 
            "link": "http://www.republique-numerique.fr/projects/projet-de-loi-numerique/consultation/consultation/opinions/section-1-les-communs/article-8-definition-du-domaine-commun-informationnel#arg-3326", 
            "id": "153918", 
            "opinion": "1"
        }, 
        {
            "article_title": "Le Gouvernement, dans l\u2019explication qu\u2019il donn...", 
            "date": "2015-10-18T15:21:00+0200", 
            "link": "http://www.republique-numerique.fr/projects/projet-de-loi-numerique/consultation/consultation/opinions/section-2-portabilite-des-donnees/article-12-portabilite-des-donnees#arg-5797", 
            "id": "153945", 
            "opinion": "1"
        }, 
        {
            "article_title": "Cette proposition se heurte \u00e0 plusieurs obstacles...", 
            "date": "2015-10-18T15:22:00+0200", 
            "link": "http://www.republique-numerique.fr/projects/projet-de-loi-numerique/consultation/consultation/opinions/section-3-loyaute-des-plateformes/article-13-principe-de-loyaute-vis-a-vis-des-consommateurs/versions/introduire-le-principe-du-contradictoire-dans-le-retrait-dereferencement-de-contenus-par-les-plateformes#arg-5799", 
            "id": "153955", 
            "opinion": "1"
        }, 
        {
            "article_title": "Suppression de l'article 8.", 
            "date": "2015-10-18T15:25:00+0200", 
            "link": "http://www.republique-numerique.fr/projects/projet-de-loi-numerique/consultation/consultation/opinions/section-1-les-communs/article-8-definition-du-domaine-commun-informationnel/versions/suppression-de-l-article-8-1", 
            "id": "153994", 
            "opinion": "1"
        }
    ], 
    "sources": [], 
    "votes_count": 14, 
    "arguments": [], 
    "arguments_count": 0, 
    "propositions_count": 0, 
    "contributions_count": 0
}