{
    "modifications": [], 
    "modifications_count": 0, 
    "sources_count": 0, 
    "propositions": [], 
    "votes": [
        {
            "article_title": "Utiliser les logiciels libres & GNU/Linux dans les \u00e9coles et les universit\u00e9s", 
            "date": "2015-09-30T23:15:00+0200", 
            "link": "http://www.republique-numerique.fr/projects/projet-de-loi-numerique/consultation/consultation/opinions/section-2-service-public-de-la-donnee-1/utiliser-les-logiciels-libres-gnu-linux-dans-les-ecoles-et-les-universites", 
            "id": "22101", 
            "opinion": "1"
        }, 
        {
            "article_title": "Article 11 - Neutralit\u00e9 de l\u2019internet", 
            "date": "2015-10-01T12:43:00+0200", 
            "link": "http://www.republique-numerique.fr/projects/projet-de-loi-numerique/consultation/consultation/opinions/section-1-neutralite-de-l-internet/article-11-neutralite-de-l-internet", 
            "id": "23363", 
            "opinion": "1"
        }, 
        {
            "article_title": "Faire du non respect un d\u00e9lit", 
            "date": "2015-10-01T12:52:00+0200", 
            "link": "http://www.republique-numerique.fr/projects/projet-de-loi-numerique/consultation/consultation/opinions/section-1-neutralite-de-l-internet/article-11-neutralite-de-l-internet/versions/faire-du-non-respect-un-delit", 
            "id": "23382", 
            "opinion": "1"
        }, 
        {
            "article_title": "Article 30 - Maintien de la connexion", 
            "date": "2015-10-02T14:46:00+0200", 
            "link": "http://www.republique-numerique.fr/projects/projet-de-loi-numerique/consultation/consultation/opinions/section-3-maintien-de-la-connexion-internet/article-30-maintien-temporaire-de-la-connexion", 
            "id": "25893", 
            "opinion": "1"
        }, 
        {
            "article_title": "Limitation de la connexion pour \u00e9viter les abus", 
            "date": "2015-10-02T14:46:00+0200", 
            "link": "http://www.republique-numerique.fr/projects/projet-de-loi-numerique/consultation/consultation/opinions/section-3-maintien-de-la-connexion-internet/article-30-maintien-temporaire-de-la-connexion/versions/limitation-de-la-connexion-pour-eviter-les-abus", 
            "id": "25894", 
            "opinion": "1"
        }, 
        {
            "article_title": "Article 27 - Paiement par SMS", 
            "date": "2015-10-02T14:49:00+0200", 
            "link": "http://www.republique-numerique.fr/projects/projet-de-loi-numerique/consultation/consultation/opinions/section-2-paiement-par-sms/article-27-paiement-par-sms", 
            "id": "25902", 
            "opinion": "0"
        }, 
        {
            "article_title": "Utilisation de GNU/Linux dans l'administration", 
            "date": "2015-10-04T17:05:00+0200", 
            "link": "http://www.republique-numerique.fr/projects/projet-de-loi-numerique/consultation/consultation/opinions/section-3-donnees-d-interet-general/utilisation-de-gnu-linux-dans-l-administration", 
            "id": "29710", 
            "opinion": "1"
        }, 
        {
            "article_title": "Proposition trop simpliste", 
            "date": "2015-10-04T17:06:00+0200", 
            "link": "http://www.republique-numerique.fr/projects/projet-de-loi-numerique/consultation/consultation/opinions/section-3-donnees-d-interet-general/utilisation-de-gnu-linux-dans-l-administration/versions/proposition-trop-simpliste", 
            "id": "29711", 
            "opinion": "1"
        }, 
        {
            "article_title": "Formats libres", 
            "date": "2015-10-04T17:07:00+0200", 
            "link": "http://www.republique-numerique.fr/projects/projet-de-loi-numerique/consultation/consultation/opinions/section-3-donnees-d-interet-general/utilisation-de-gnu-linux-dans-l-administration/versions/formats-libres", 
            "id": "29713", 
            "opinion": "1"
        }, 
        {
            "article_title": "logiciels libres", 
            "date": "2015-10-04T17:07:00+0200", 
            "link": "http://www.republique-numerique.fr/projects/projet-de-loi-numerique/consultation/consultation/opinions/section-3-donnees-d-interet-general/utilisation-de-gnu-linux-dans-l-administration/versions/logiciels-libres", 
            "id": "29714", 
            "opinion": "1"
        }, 
        {
            "article_title": "Pourquoi GNU/Linux et pas un autre ?...", 
            "date": "2015-10-04T17:09:00+0200", 
            "link": "http://www.republique-numerique.fr/projects/projet-de-loi-numerique/consultation/consultation/opinions/section-3-donnees-d-interet-general/utilisation-de-gnu-linux-dans-l-administration#arg-1003", 
            "id": "29715", 
            "opinion": "1"
        }, 
        {
            "article_title": "[Je ne vise pas que les syst\u00e8mes d'exploitation, ...", 
            "date": "2015-10-04T17:20:00+0200", 
            "link": "http://www.republique-numerique.fr/projects/projet-de-loi-numerique/consultation/consultation/opinions/section-3-donnees-d-interet-general/utilisation-de-gnu-linux-dans-l-administration#arg-649", 
            "id": "29731", 
            "opinion": "1"
        }, 
        {
            "article_title": "newin cpp:1) On peut construire, \u00e0 partir du no...", 
            "date": "2015-10-04T17:20:00+0200", 
            "link": "http://www.republique-numerique.fr/projects/projet-de-loi-numerique/consultation/consultation/opinions/section-3-donnees-d-interet-general/utilisation-de-gnu-linux-dans-l-administration#arg-651", 
            "id": "29732", 
            "opinion": "1"
        }, 
        {
            "article_title": "R\u00e9ponses \u00e0 CLEMENT :1) \"Linux une vaste blague ...", 
            "date": "2015-10-04T17:20:00+0200", 
            "link": "http://www.republique-numerique.fr/projects/projet-de-loi-numerique/consultation/consultation/opinions/section-3-donnees-d-interet-general/utilisation-de-gnu-linux-dans-l-administration#arg-655", 
            "id": "29733", 
            "opinion": "1"
        }, 
        {
            "article_title": "R\u00e9ponse \u00e0 St\u00e9phane L1)\"Cet article n'a aucun ...", 
            "date": "2015-10-04T17:22:00+0200", 
            "link": "http://www.republique-numerique.fr/projects/projet-de-loi-numerique/consultation/consultation/opinions/section-3-donnees-d-interet-general/utilisation-de-gnu-linux-dans-l-administration#arg-1022", 
            "id": "29736", 
            "opinion": "1"
        }, 
        {
            "article_title": "C'est assez amusant de voir que les personnes r\u00e9d...", 
            "date": "2015-10-04T17:22:00+0200", 
            "link": "http://www.republique-numerique.fr/projects/projet-de-loi-numerique/consultation/consultation/opinions/section-3-donnees-d-interet-general/utilisation-de-gnu-linux-dans-l-administration#arg-757", 
            "id": "29737", 
            "opinion": "1"
        }, 
        {
            "article_title": "Oui l\u2019utilisation des OS libres est une n\u00e9cessi...", 
            "date": "2015-10-04T17:23:00+0200", 
            "link": "http://www.republique-numerique.fr/projects/projet-de-loi-numerique/consultation/consultation/opinions/section-3-donnees-d-interet-general/utilisation-de-gnu-linux-dans-l-administration#arg-164", 
            "id": "29739", 
            "opinion": "1"
        }, 
        {
            "article_title": "Plus court et consistant", 
            "date": "2015-10-04T17:25:00+0200", 
            "link": "http://www.republique-numerique.fr/projects/projet-de-loi-numerique/consultation/consultation/opinions/section-3-donnees-d-interet-general/creation-d-une-platforme-de-modification-des-textes-officiels/versions/plus-court-et-consistant", 
            "id": "29744", 
            "opinion": "1"
        }, 
        {
            "article_title": "Cr\u00e9ation d'une platforme de modification des textes officiels.", 
            "date": "2015-10-04T17:26:00+0200", 
            "link": "http://www.republique-numerique.fr/projects/projet-de-loi-numerique/consultation/consultation/opinions/section-3-donnees-d-interet-general/creation-d-une-platforme-de-modification-des-textes-officiels", 
            "id": "29745", 
            "opinion": "0"
        }, 
        {
            "article_title": "L'obligation des FAI de permettre l'auto-h\u00e9bergement", 
            "date": "2015-10-04T17:27:00+0200", 
            "link": "http://www.republique-numerique.fr/projects/projet-de-loi-numerique/consultation/consultation/opinions/section-2-couverture-numerique/l-obligation-des-fai-de-permettre-l-auto-hebergement", 
            "id": "29746", 
            "opinion": "1"
        }
    ], 
    "sources": [], 
    "votes_count": 20, 
    "arguments": [], 
    "arguments_count": 0, 
    "propositions_count": 0, 
    "contributions_count": 0
}