{
    "modifications": [], 
    "modifications_count": 0, 
    "sources_count": 0, 
    "propositions": [], 
    "votes": [
        {
            "article_title": "Garantir le d\u00e9p\u00f4t en archive ouverte, seul dispositif assurant un libre-acc\u00e8s p\u00e9renne. Conformit\u00e9 aux recommandations europ\u00e9ennes. (embargo).e", 
            "date": "2015-10-16T11:53:00+0200", 
            "link": "http://www.republique-numerique.fr/projects/projet-de-loi-numerique/consultation/consultation/opinions/section-2-travaux-de-recherche-et-de-statistique/article-9-acces-aux-travaux-de-la-recherche-financee-par-des-fonds-publics/versions/garantir-le-depot-en-archive-ouverte-seul-dispositif-assurant-un-libre-acces-perenne-conformite-aux-recommandations-europeennes-embargo-e", 
            "id": "111619", 
            "opinion": "1"
        }
    ], 
    "sources": [], 
    "votes_count": 1, 
    "arguments": [], 
    "arguments_count": 0, 
    "propositions_count": 0, 
    "contributions_count": 0
}