{
    "modifications": [
        {
            "stats": {
                "vote": "0", 
                "source": "0", 
                "argument": "0"
            }, 
            "votes": {
                "data-ok": "0", 
                "data-mitige": "0", 
                "data-nok": "0"
            }, 
            "link": "/projects/projet-de-loi-numerique/consultation/consultation/opinions/section-1-protection-des-donnees-a-caractere-personnel/article-20-personnes-decedees/versions/informer-les-personne-de-la-communication-de-donnees-personnelles-les-concernants-et-qu-elles-peuvent-s-y-opposer", 
            "id": "1273", 
            "title": "Informer les personne de la communication de donn\u00e9es personnelles les concernants, et qu'elles peuvent s'y opposer."
        }, 
        {
            "stats": {
                "vote": "0", 
                "source": "0", 
                "argument": "0"
            }, 
            "votes": {
                "data-ok": "0", 
                "data-mitige": "0", 
                "data-nok": "0"
            }, 
            "link": "/projects/projet-de-loi-numerique/consultation/consultation/opinions/section-2-confidentialite-des-correspondances-privees/article-22-respect-des-correspondances-privees-numeriques/versions/les-editeurs-de-services-de-communication-au-publique-sont-tenus-de-respecter-le-secret-de-l-ensemble-des-correspondances", 
            "id": "1279", 
            "title": "Les \u00e9diteurs de services de communication au publique sont tenus de respecter le secret de l'ensemble des correspondances"
        }, 
        {
            "stats": {
                "vote": "1", 
                "source": "0", 
                "argument": "0"
            }, 
            "votes": {
                "data-ok": "1", 
                "data-mitige": "0", 
                "data-nok": "0"
            }, 
            "link": "/projects/projet-de-loi-numerique/consultation/consultation/opinions/section-2-accessibilite-des-personnes-handicapees-aux-sites-internet-publics/article-29-accessibilite-numerique-des-services-publics/versions/chaques-sites-de-l-administration-doit-comporter-le-niveau-maximal-d-accesibilite", 
            "id": "1282", 
            "title": "Chaques sites de l'administration doit comporter le niveau maximal d'accesibilit\u00e9."
        }
    ], 
    "modifications_count": 3, 
    "sources_count": 0, 
    "propositions": [], 
    "votes": [
        {
            "article_title": "Article 22 - Secret des correspondances num\u00e9riques", 
            "date": "2015-10-17T11:16:00+0200", 
            "link": "http://www.republique-numerique.fr/projects/projet-de-loi-numerique/consultation/consultation/opinions/section-2-confidentialite-des-correspondances-privees/article-22-respect-des-correspondances-privees-numeriques", 
            "id": "132508", 
            "opinion": "1"
        }
    ], 
    "sources": [], 
    "votes_count": 1, 
    "arguments": [], 
    "arguments_count": 0, 
    "propositions_count": 0, 
    "contributions_count": 3
}