{
    "modifications": [], 
    "modifications_count": 0, 
    "sources_count": 0, 
    "propositions": [], 
    "votes": [
        {
            "article_title": "Article additionnel : Les comp\u00e9titions de jeux vid\u00e9o \u00ab e-sport \u00bb", 
            "date": "2015-10-16T17:39:00+0200", 
            "link": "http://www.republique-numerique.fr/projects/projet-de-loi-numerique/consultation/consultation/opinions/section-2-travaux-de-recherche-et-de-statistique/les-competitions-de-jeux-video-e-sport", 
            "id": "119175", 
            "opinion": "1"
        }, 
        {
            "article_title": "Pour une F\u00e9d\u00e9ration Fran\u00e7aise du Sport Electron...", 
            "date": "2015-10-16T19:17:00+0200", 
            "link": "http://www.republique-numerique.fr/projects/projet-de-loi-numerique/consultation/consultation/opinions/section-2-travaux-de-recherche-et-de-statistique/les-competitions-de-jeux-video-e-sport#arg-4925", 
            "id": "122296", 
            "opinion": "1"
        }, 
        {
            "article_title": "Tr\u00e8s favorable a cet amendement. Pour autant, a q...", 
            "date": "2015-10-16T19:17:00+0200", 
            "link": "http://www.republique-numerique.fr/projects/projet-de-loi-numerique/consultation/consultation/opinions/section-2-travaux-de-recherche-et-de-statistique/les-competitions-de-jeux-video-e-sport#arg-4872", 
            "id": "122301", 
            "opinion": "1"
        }, 
        {
            "article_title": "En aucun cas l'esport est un jeu de hasard! L'inte...", 
            "date": "2015-10-16T19:17:00+0200", 
            "link": "http://www.republique-numerique.fr/projects/projet-de-loi-numerique/consultation/consultation/opinions/section-2-travaux-de-recherche-et-de-statistique/les-competitions-de-jeux-video-e-sport#arg-4867", 
            "id": "122305", 
            "opinion": "1"
        }, 
        {
            "article_title": "L' e-sport est un ph\u00e9nom\u00e8ne en grande expansion,...", 
            "date": "2015-10-16T19:17:00+0200", 
            "link": "http://www.republique-numerique.fr/projects/projet-de-loi-numerique/consultation/consultation/opinions/section-2-travaux-de-recherche-et-de-statistique/les-competitions-de-jeux-video-e-sport#arg-4852", 
            "id": "122308", 
            "opinion": "1"
        }, 
        {
            "article_title": "Tout \u00e0 fait d'accord, on a besoin aujourd\u2019hui e...", 
            "date": "2015-10-16T19:17:00+0200", 
            "link": "http://www.republique-numerique.fr/projects/projet-de-loi-numerique/consultation/consultation/opinions/section-2-travaux-de-recherche-et-de-statistique/les-competitions-de-jeux-video-e-sport#arg-4791", 
            "id": "122310", 
            "opinion": "1"
        }, 
        {
            "article_title": "Favorable, car la sc\u00e8ne e-sportive en France est ...", 
            "date": "2015-10-16T19:17:00+0200", 
            "link": "http://www.republique-numerique.fr/projects/projet-de-loi-numerique/consultation/consultation/opinions/section-2-travaux-de-recherche-et-de-statistique/les-competitions-de-jeux-video-e-sport#arg-4969", 
            "id": "122313", 
            "opinion": "1"
        }, 
        {
            "article_title": "Les jeux E-Sport ne sont pas des jeux de hasard et...", 
            "date": "2015-10-16T19:17:00+0200", 
            "link": "http://www.republique-numerique.fr/projects/projet-de-loi-numerique/consultation/consultation/opinions/section-2-travaux-de-recherche-et-de-statistique/les-competitions-de-jeux-video-e-sport#arg-4972", 
            "id": "122315", 
            "opinion": "1"
        }
    ], 
    "sources": [], 
    "votes_count": 8, 
    "arguments": [
        {
            "article_title": "Signaler", 
            "votes": 9, 
            "article_link": "http://www.republique-numerique.fr/consultations/projet-de-loi-numerique/consultation/consultation/opinions/section-2-travaux-de-recherche-et-de-statistique/les-competitions-de-jeux-video-e-sport/arguments/4972/report", 
            "link": "http://www.republique-numerique.fr/consultations/projet-de-loi-numerique/consultation/consultation/opinions/section-2-travaux-de-recherche-et-de-statistique/les-competitions-de-jeux-video-e-sport/arguments/4972/report#arg-4972", 
            "date": "2015-10-16T19:17:00+0200", 
            "id": "4972"
        }
    ], 
    "arguments_count": 1, 
    "propositions_count": 0, 
    "contributions_count": 1
}