{
    "modifications": [], 
    "modifications_count": 0, 
    "sources_count": 0, 
    "propositions": [], 
    "votes": [
        {
            "article_title": "Maintien des cabines t\u00e9l\u00e9phoniques : Garantie acheminement Appels et Appels d'Urgence en cas de coupure \u00e9lectrique", 
            "date": "2015-10-06T18:44:00+0200", 
            "link": "http://www.republique-numerique.fr/projects/projet-de-loi-numerique/consultation/consultation/opinions/section-3-maintien-de-la-connexion-internet/maintien-des-cabines-telephoniques-garantie-acheminement-appels-et-appels-d-urgence-en-cas-de-coupure-electrique", 
            "id": "34089", 
            "opinion": "1"
        }, 
        {
            "article_title": "Obliger les FAI \u00e0 rendre le service qu'ils ont vendu", 
            "date": "2015-10-06T18:46:00+0200", 
            "link": "http://www.republique-numerique.fr/projects/projet-de-loi-numerique/consultation/consultation/opinions/section-3-maintien-de-la-connexion-internet/obliger-les-fai-a-rendre-le-service-qu-ils-ont-vendu", 
            "id": "34092", 
            "opinion": "1"
        }, 
        {
            "article_title": "Article 27 - Paiement par SMS", 
            "date": "2015-10-06T19:03:00+0200", 
            "link": "http://www.republique-numerique.fr/projects/projet-de-loi-numerique/consultation/consultation/opinions/section-2-paiement-par-sms/article-27-paiement-par-sms", 
            "id": "34118", 
            "opinion": "-1"
        }
    ], 
    "sources": [], 
    "votes_count": 3, 
    "arguments": [], 
    "arguments_count": 0, 
    "propositions_count": 0, 
    "contributions_count": 0
}