{
    "modifications": [], 
    "modifications_count": 0, 
    "sources_count": 0, 
    "propositions": [], 
    "votes": [
        {
            "article_title": "La fili\u00e8re de activit\u00e9s et m\u00e9tiers de la m\u00e9diation num\u00e9rique", 
            "date": "2015-10-15T15:49:00+0200", 
            "link": "http://www.republique-numerique.fr/projects/projet-de-loi-numerique/consultation/consultation/opinions/section-1-competences-et-organisation/la-filiere-de-activites-et-metiers-de-la-mediation-numerique", 
            "id": "98363", 
            "opinion": "1"
        }, 
        {
            "article_title": "Le Vote par internet", 
            "date": "2015-10-15T15:53:00+0200", 
            "link": "http://www.republique-numerique.fr/projects/projet-de-loi-numerique/consultation/consultation/opinions/section-1-ouverture-des-donnees-publiques-1/le-vote-par-internet", 
            "id": "98411", 
            "opinion": "1"
        }, 
        {
            "article_title": "Transparence / S\u00e9curit\u00e9", 
            "date": "2015-10-15T15:55:00+0200", 
            "link": "http://www.republique-numerique.fr/projects/projet-de-loi-numerique/consultation/consultation/opinions/section-1-ouverture-des-donnees-publiques-1/transparence-securite", 
            "id": "98448", 
            "opinion": "1"
        }, 
        {
            "article_title": "Diffusion sous licence libre des \u0153uvres num\u00e9riques cr\u00e9\u00e9es avec un financement public", 
            "date": "2015-10-15T15:56:00+0200", 
            "link": "http://www.republique-numerique.fr/projects/projet-de-loi-numerique/consultation/consultation/opinions/section-1-ouverture-des-donnees-publiques-1/diffusion-sous-licence-libre-des-oeuvres-numeriques-creees-avec-un-financement-public", 
            "id": "98463", 
            "opinion": "1"
        }, 
        {
            "article_title": "veritable acceleration du deploiement de la fibre optique", 
            "date": "2015-10-15T15:56:00+0200", 
            "link": "http://www.republique-numerique.fr/projects/projet-de-loi-numerique/consultation/consultation/opinions/section-1-ouverture-des-donnees-publiques-1/veritable-acceleration-du-deploiement-de-la-fibre-optique", 
            "id": "98478", 
            "opinion": "1"
        }, 
        {
            "article_title": "Am\u00e9lioration continue des lois", 
            "date": "2015-10-15T15:58:00+0200", 
            "link": "http://www.republique-numerique.fr/projects/projet-de-loi-numerique/consultation/consultation/opinions/section-1-ouverture-des-donnees-publiques-1/amelioration-continue-des-lois", 
            "id": "98510", 
            "opinion": "1"
        }, 
        {
            "article_title": "Rendre public la pr\u00e9sences des diff\u00e9rents ministres, d\u00e9put\u00e9s, etc... aux conseils.", 
            "date": "2015-10-15T15:59:00+0200", 
            "link": "http://www.republique-numerique.fr/projects/projet-de-loi-numerique/consultation/consultation/opinions/section-1-ouverture-des-donnees-publiques-1/rendre-public-la-presences-des-differents-ministres-deputes-etc-aux-conseils", 
            "id": "98531", 
            "opinion": "1"
        }, 
        {
            "article_title": "Accessibilit\u00e9 des textes l\u00e9gilatifs et r\u00e9glementaires", 
            "date": "2015-10-15T16:00:00+0200", 
            "link": "http://www.republique-numerique.fr/projects/projet-de-loi-numerique/consultation/consultation/opinions/section-1-ouverture-des-donnees-publiques-1/accessibilite-des-textes-legilatifs-et-reglementaires", 
            "id": "98552", 
            "opinion": "1"
        }, 
        {
            "article_title": "DROIT \u00e0 la FIBRE", 
            "date": "2015-10-15T16:02:00+0200", 
            "link": "http://www.republique-numerique.fr/projects/projet-de-loi-numerique/consultation/consultation/opinions/section-1-ouverture-des-donnees-publiques-1/droit-a-la-fibre", 
            "id": "98604", 
            "opinion": "1"
        }, 
        {
            "article_title": "G\u00e9n\u00e9ralisation des certifications des usages des outils informatiques et internet (C2i)", 
            "date": "2015-10-15T16:02:00+0200", 
            "link": "http://www.republique-numerique.fr/projects/projet-de-loi-numerique/consultation/consultation/opinions/section-1-ouverture-des-donnees-publiques-1/generalisation-des-certifications-des-usages-des-outils-informatiques-et-internet-c2i", 
            "id": "98620", 
            "opinion": "0"
        }, 
        {
            "article_title": "Obligation de d\u00e9ploiement du tr\u00e8s haut d\u00e9bit", 
            "date": "2015-10-15T16:03:00+0200", 
            "link": "http://www.republique-numerique.fr/projects/projet-de-loi-numerique/consultation/consultation/opinions/section-1-ouverture-des-donnees-publiques-1/obligation-de-deploiement-du-tres-haut-debit", 
            "id": "98628", 
            "opinion": "1"
        }, 
        {
            "article_title": "Non exclusion des citoyens r\u00e9ticents \u00e0 l'\u00e9gare du num\u00e9rique", 
            "date": "2015-10-15T16:04:00+0200", 
            "link": "http://www.republique-numerique.fr/projects/projet-de-loi-numerique/consultation/consultation/opinions/section-1-ouverture-des-donnees-publiques-1/non-exclusion-des-citoyens-reticents-a-l-egare-du-numerique", 
            "id": "98650", 
            "opinion": "1"
        }, 
        {
            "article_title": "Cr\u00e9ation d'un site de consultation des citoyens", 
            "date": "2015-10-15T16:09:00+0200", 
            "link": "http://www.republique-numerique.fr/projects/projet-de-loi-numerique/consultation/consultation/opinions/section-1-ouverture-des-donnees-publiques-1/creation-d-un-site-de-consultation-des-citoyens", 
            "id": "98726", 
            "opinion": "1"
        }, 
        {
            "article_title": "D\u00c9MAT\u00c9RIALISATION DE DOSSIERS ADMINISTRATIFS", 
            "date": "2015-10-15T16:10:00+0200", 
            "link": "http://www.republique-numerique.fr/projects/projet-de-loi-numerique/consultation/consultation/opinions/section-1-ouverture-des-donnees-publiques-1/dematerialisation-de-dossiers-administratifs", 
            "id": "98748", 
            "opinion": "1"
        }, 
        {
            "article_title": "Immunit\u00e9 pour les lanceurs d'alerte", 
            "date": "2015-10-15T16:11:00+0200", 
            "link": "http://www.republique-numerique.fr/projects/projet-de-loi-numerique/consultation/consultation/opinions/section-1-ouverture-des-donnees-publiques-1/immunite-pour-les-lanceurs-d-alerte", 
            "id": "98765", 
            "opinion": "1"
        }, 
        {
            "article_title": "Ne pas cr\u00e9er de loi sur le num\u00e9rique tant que 95\u00f9 des citoyuens ne sont pas connet\u00e9s", 
            "date": "2015-10-15T16:13:00+0200", 
            "link": "http://www.republique-numerique.fr/projects/projet-de-loi-numerique/consultation/consultation/opinions/section-1-ouverture-des-donnees-publiques-1/ne-pas-creer-de-loi-sur-le-numerique-tant-que-95u-des-citoyuens-ne-sont-pas-connetes", 
            "id": "98814", 
            "opinion": "-1"
        }, 
        {
            "article_title": "Messagerie en ligne", 
            "date": "2015-10-15T16:13:00+0200", 
            "link": "http://www.republique-numerique.fr/projects/projet-de-loi-numerique/consultation/consultation/opinions/section-1-ouverture-des-donnees-publiques-1/messagerie-en-ligne", 
            "id": "98840", 
            "opinion": "1"
        }, 
        {
            "article_title": "Promouvoir la mise \u00e0 disposition de livres num\u00e9riques dans les biblioth\u00e8ques publiques", 
            "date": "2015-10-15T16:15:00+0200", 
            "link": "http://www.republique-numerique.fr/projects/projet-de-loi-numerique/consultation/consultation/opinions/section-1-ouverture-des-donnees-publiques-1/promouvoir-la-mise-a-disposition-de-livres-numeriques-dans-les-bibliotheques-publiques", 
            "id": "98888", 
            "opinion": "1"
        }, 
        {
            "article_title": "Syst\u00e9matiser l'utilisation d'outils de communication transparents et bidirectionnels dans les collectivit\u00e9s (collectivit\u00e9s vers les citoyens, citoyens vers les collectivit\u00e9s)", 
            "date": "2015-10-15T16:17:00+0200", 
            "link": "http://www.republique-numerique.fr/projects/projet-de-loi-numerique/consultation/consultation/opinions/section-1-ouverture-des-donnees-publiques-1/systematiser-l-utilisation-d-outils-de-communication-transparents-et-bidirectionnels-dans-les-collectivites-collectivites-vers-les-citoyens-citoyens-vers-les-collectivites", 
            "id": "98924", 
            "opinion": "1"
        }, 
        {
            "article_title": "Un dossier unique", 
            "date": "2015-10-15T16:21:00+0200", 
            "link": "http://www.republique-numerique.fr/projects/projet-de-loi-numerique/consultation/consultation/opinions/section-1-ouverture-des-donnees-publiques-1/un-dossier-unique", 
            "id": "99019", 
            "opinion": "1"
        }, 
        {
            "article_title": "Pour l'emploi syst\u00e9matique du \"libre\" dans l'enseignement", 
            "date": "2015-10-15T16:24:00+0200", 
            "link": "http://www.republique-numerique.fr/projects/projet-de-loi-numerique/consultation/consultation/opinions/section-1-ouverture-des-donnees-publiques-1/pour-l-emploi-systematique-du-libre-dans-l-enseignement", 
            "id": "99147", 
            "opinion": "1"
        }, 
        {
            "article_title": "Article 5 - Cr\u00e9ation d'un compte unique des services administratifs en ligne pour chaque citoyen", 
            "date": "2015-10-15T16:26:00+0200", 
            "link": "http://www.republique-numerique.fr/projects/projet-de-loi-numerique/consultation/consultation/opinions/section-2-service-public-de-la-donnee-1/article-5-creation-d-un-compte-unique-des-services-administratifs-en-ligne-pour-chaque-citoyen", 
            "id": "99177", 
            "opinion": "1"
        }, 
        {
            "article_title": "Article 6 - Ouverture des donn\u00e9es des subventions publiques", 
            "date": "2015-10-15T16:26:00+0200", 
            "link": "http://www.republique-numerique.fr/projects/projet-de-loi-numerique/consultation/consultation/opinions/section-3-donnees-d-interet-general/article-6-ouverture-des-donnees-dans-les-conventions-de-subventions", 
            "id": "99194", 
            "opinion": "1"
        }, 
        {
            "article_title": "G\u00e9n\u00e9ralisation \u00e0 l'ensemble des syst\u00e8mes libres et solutions libres", 
            "date": "2015-10-15T16:29:00+0200", 
            "link": "http://www.republique-numerique.fr/projects/projet-de-loi-numerique/consultation/consultation/opinions/section-3-donnees-d-interet-general/utilisation-de-gnu-linux-dans-l-administration/versions/generalisation-a-l-ensemble-des-systemes-libres-et-solutions-libres", 
            "id": "99261", 
            "opinion": "1"
        }, 
        {
            "article_title": "Interdiction de la vente li\u00e9e ordinateur/syst\u00e8me d'exploitation", 
            "date": "2015-10-15T16:30:00+0200", 
            "link": "http://www.republique-numerique.fr/projects/projet-de-loi-numerique/consultation/consultation/opinions/section-3-loyaute-des-plateformes/interdiction-de-la-vente-liee-ordinateur-systeme-d-exploitation", 
            "id": "99312", 
            "opinion": "1"
        }, 
        {
            "article_title": "Article 22 - Secret des correspondances num\u00e9riques", 
            "date": "2015-10-15T16:34:00+0200", 
            "link": "http://www.republique-numerique.fr/projects/projet-de-loi-numerique/consultation/consultation/opinions/section-2-confidentialite-des-correspondances-privees/article-22-respect-des-correspondances-privees-numeriques", 
            "id": "99374", 
            "opinion": "1"
        }, 
        {
            "article_title": "Article 16 - Libre disposition de ses donn\u00e9es", 
            "date": "2015-10-15T16:42:00+0200", 
            "link": "http://www.republique-numerique.fr/projects/projet-de-loi-numerique/consultation/consultation/opinions/section-1-protection-des-donnees-a-caractere-personnel/article-16-libre-disposition-de-ses-donnees-a-caractere-personnel", 
            "id": "99530", 
            "opinion": "1"
        }, 
        {
            "article_title": "Mettre en lien avec un coffre fort administratif du citoyen.", 
            "date": "2015-10-15T16:44:00+0200", 
            "link": "http://www.republique-numerique.fr/projects/projet-de-loi-numerique/consultation/consultation/opinions/section-1-recommande-electronique/identite-numerique/versions/mettre-en-lien-avec-un-coffre-fort-administratif-du-citoyen", 
            "id": "99570", 
            "opinion": "1"
        }
    ], 
    "sources": [], 
    "votes_count": 28, 
    "arguments": [], 
    "arguments_count": 0, 
    "propositions_count": 0, 
    "contributions_count": 0
}