{
    "modifications": [], 
    "modifications_count": 0, 
    "sources_count": 0, 
    "propositions": [], 
    "votes": [
        {
            "article_title": "Extension de l'objet de la mission de service public de l'acc\u00e8s au droit aux d\u00e9cisions de premi\u00e8re instance", 
            "date": "2015-10-12T08:13:00+0200", 
            "link": "http://www.republique-numerique.fr/projects/projet-de-loi-numerique/consultation/consultation/opinions/section-1-ouverture-des-donnees-publiques-1/article-1-elargissement-du-champ-de-diffusion-par-l-administration/versions/extension-de-l-objet-de-la-mission-de-service-public-de-l-acces-au-droit-aux-decisions-de-premiere-instance", 
            "id": "50885", 
            "opinion": "1"
        }
    ], 
    "sources": [], 
    "votes_count": 1, 
    "arguments": [], 
    "arguments_count": 0, 
    "propositions_count": 0, 
    "contributions_count": 0
}