{
    "modifications": [], 
    "modifications_count": 0, 
    "sources_count": 0, 
    "propositions": [], 
    "votes": [
        {
            "article_title": "Autorisation des op\u00e9rateurs de jeux sur internet \u00e0 proposer la belote, le tarot et le bridge.", 
            "date": "2015-10-15T10:34:00+0200", 
            "link": "http://www.republique-numerique.fr/projects/projet-de-loi-numerique/consultation/consultation/opinions/section-2-paiement-par-sms/autorisation-des-operateurs-de-jeux-sur-internet-a-proposer-la-belote-le-tarot-et-le-bridge", 
            "id": "93193", 
            "opinion": "1"
        }
    ], 
    "sources": [], 
    "votes_count": 1, 
    "arguments": [], 
    "arguments_count": 0, 
    "propositions_count": 0, 
    "contributions_count": 0
}