{
    "modifications": [
        {
            "stats": {
                "source": "0", 
                "votes": "3", 
                "argument": "0"
            }, 
            "votes": {
                "data-ok": "1", 
                "data-mitige": "2", 
                "data-nok": "0"
            }, 
            "link": "/projects/projet-de-loi-numerique/consultation/consultation/opinions/section-3-loyaute-des-plateformes/article-13-principe-de-loyaute-vis-a-vis-des-consommateurs/versions/modification-de-la-definition-et-agrandissement-du-champ-du-principe-par-l-ajout-d-un-article-13-bis", 
            "id": "1209", 
            "title": "Modification de la d\u00e9finition et agrandissement du champ du principe par l'ajout d'un article 13 bis"
        }
    ], 
    "modifications_count": 1, 
    "sources_count": 0, 
    "propositions": [], 
    "votes": [
        {
            "article_title": "Modification de la d\u00e9finition et agrandissement du champ du principe par l'ajout d'un article 13 bis", 
            "date": "2015-10-16T17:10:00+0200", 
            "link": "http://www.republique-numerique.fr/projects/projet-de-loi-numerique/consultation/consultation/opinions/section-3-loyaute-des-plateformes/article-13-principe-de-loyaute-vis-a-vis-des-consommateurs/versions/modification-de-la-definition-et-agrandissement-du-champ-du-principe-par-l-ajout-d-un-article-13-bis", 
            "id": "118396", 
            "opinion": "1"
        }, 
        {
            "article_title": "Article 13 - Principe de loyaut\u00e9 des plateformes en lignes", 
            "date": "2015-10-16T17:11:00+0200", 
            "link": "http://www.republique-numerique.fr/projects/projet-de-loi-numerique/consultation/consultation/opinions/section-3-loyaute-des-plateformes/article-13-principe-de-loyaute-vis-a-vis-des-consommateurs", 
            "id": "118410", 
            "opinion": "0"
        }
    ], 
    "sources": [], 
    "votes_count": 2, 
    "arguments": [], 
    "arguments_count": 0, 
    "propositions_count": 0, 
    "contributions_count": 1
}