{
    "modifications": [], 
    "modifications_count": 0, 
    "sources_count": 0, 
    "propositions": [], 
    "votes": [
        {
            "article_title": "libert\u00e9 d'ecriture numerique pour les lyceens", 
            "date": "2015-10-01T13:34:00+0200", 
            "link": "http://www.republique-numerique.fr/projects/projet-de-loi-numerique/consultation/consultation/opinions/section-1-ouverture-des-donnees-publiques-1/liberte-d-ecriture-numerique-pour-les-lyceens", 
            "id": "23513", 
            "opinion": "1"
        }, 
        {
            "article_title": "D\u00e9velopper l'enseignement du code dans les \u00e9coles", 
            "date": "2015-10-01T13:42:00+0200", 
            "link": "http://www.republique-numerique.fr/projects/projet-de-loi-numerique/consultation/consultation/opinions/section-1-les-communs/developper-l-enseignement-du-code-dans-les-ecoles", 
            "id": "23565", 
            "opinion": "1"
        }, 
        {
            "article_title": "Proposer des ordinateurs grand-public \"propres\" avec Syst\u00e8mes GNU/Linux ou sans OS et ouvert \u00e0 la r\u00e9installation", 
            "date": "2015-10-01T13:42:00+0200", 
            "link": "http://www.republique-numerique.fr/projects/projet-de-loi-numerique/consultation/consultation/opinions/section-1-les-communs/proposer-des-ordinateurs-grand-public-propres-avec-systemes-gnu-linux-ou-sans-os-et-ouvert-a-la-reinstallation", 
            "id": "23570", 
            "opinion": "1"
        }, 
        {
            "article_title": "logiciels libres", 
            "date": "2015-10-01T13:49:00+0200", 
            "link": "http://www.republique-numerique.fr/projects/projet-de-loi-numerique/consultation/consultation/opinions/section-2-service-public-de-la-donnee-1/logiciels-libres", 
            "id": "23616", 
            "opinion": "1"
        }
    ], 
    "sources": [], 
    "votes_count": 4, 
    "arguments": [], 
    "arguments_count": 0, 
    "propositions_count": 0, 
    "contributions_count": 0
}