{
    "modifications": [
        {
            "stats": {
                "source": "0", 
                "votes": "18", 
                "arguments": "2"
            }, 
            "votes": {
                "data-ok": "16", 
                "data-mitige": "1", 
                "data-nok": "1"
            }, 
            "link": "/projects/projet-de-loi-numerique/consultation/consultation/opinions/section-2-confidentialite-des-correspondances-privees/article-22-respect-des-correspondances-privees-numeriques/versions/precision-sur-le-terme-malveillant", 
            "id": "58", 
            "title": "pr\u00e9cision sur le terme \"malveillant\""
        }
    ], 
    "modifications_count": 1, 
    "sources_count": 0, 
    "propositions": [], 
    "votes": [
        {
            "article_title": "pr\u00e9cision sur le terme \"malveillant\"", 
            "date": "2015-09-26T12:26:00+0200", 
            "link": "http://www.republique-numerique.fr/projects/projet-de-loi-numerique/consultation/consultation/opinions/section-2-confidentialite-des-correspondances-privees/article-22-respect-des-correspondances-privees-numeriques/versions/precision-sur-le-terme-malveillant", 
            "id": "274", 
            "opinion": "1"
        }, 
        {
            "article_title": "Notion de Secret", 
            "date": "2015-09-26T12:27:00+0200", 
            "link": "http://www.republique-numerique.fr/projects/projet-de-loi-numerique/consultation/consultation/opinions/section-2-confidentialite-des-correspondances-privees/article-22-respect-des-correspondances-privees-numeriques/versions/notion-de-secret", 
            "id": "281", 
            "opinion": "1"
        }, 
        {
            "article_title": "\u00e9diteurs / op\u00e9rateurs", 
            "date": "2015-09-26T12:31:00+0200", 
            "link": "http://www.republique-numerique.fr/projects/projet-de-loi-numerique/consultation/consultation/opinions/section-2-confidentialite-des-correspondances-privees/article-22-respect-des-correspondances-privees-numeriques/versions/editeurs-operateurs", 
            "id": "294", 
            "opinion": "1"
        }, 
        {
            "article_title": "Article 22 - Secret des correspondances num\u00e9riques", 
            "date": "2015-09-26T12:32:00+0200", 
            "link": "http://www.republique-numerique.fr/projects/projet-de-loi-numerique/consultation/consultation/opinions/section-2-confidentialite-des-correspondances-privees/article-22-respect-des-correspondances-privees-numeriques", 
            "id": "307", 
            "opinion": "0"
        }
    ], 
    "sources": [], 
    "votes_count": 4, 
    "arguments": [], 
    "arguments_count": 0, 
    "propositions_count": 0, 
    "contributions_count": 1
}