{
    "modifications": [], 
    "modifications_count": 0, 
    "sources_count": 0, 
    "propositions": [
        {
            "article_title": "Protection des mineurs sur les r\u00e9seaux sociaux", 
            "votes": {
                "data-ok": "31", 
                "data-mitige": "3", 
                "data-nok": "2"
            }, 
            "stats": {
                "modification": "0", 
                "source": "0", 
                "votes": "36", 
                "argument": "1"
            }, 
            "id": "351", 
            "article_link": "/projects/projet-de-loi-numerique/consultation/consultation/opinions/section-1-ouverture-des-donnees-publiques-1/protection-des-mineurs-sur-les-reseaux-sociaux"
        }
    ], 
    "votes": [
        {
            "article_title": "Le Vote par internet", 
            "date": "2015-09-30T13:16:00+0200", 
            "link": "http://www.republique-numerique.fr/projects/projet-de-loi-numerique/consultation/consultation/opinions/section-1-ouverture-des-donnees-publiques-1/le-vote-par-internet", 
            "id": "19846", 
            "opinion": "-1"
        }, 
        {
            "article_title": "Cr\u00e9ation d'ateliers citoyens numeriques", 
            "date": "2015-09-30T13:18:00+0200", 
            "link": "http://www.republique-numerique.fr/projects/projet-de-loi-numerique/consultation/consultation/opinions/section-1-ouverture-des-donnees-publiques-1/creation-d-ateliers-citoyens-numeriques", 
            "id": "19870", 
            "opinion": "1"
        }, 
        {
            "article_title": "Cr\u00e9ation d'une plate-forme num\u00e9rique \"@voter\" avec une carte d'\u00e9lecteur num\u00e9rique d\u00e8s l'\u00e2ge de 16 ans.", 
            "date": "2015-09-30T13:20:00+0200", 
            "link": "http://www.republique-numerique.fr/projects/projet-de-loi-numerique/consultation/consultation/opinions/section-1-ouverture-des-donnees-publiques-1/creation-d-une-plate-forme-numerique-voter-avec-une-carte-d-electeur-numerique-des-l-age-de-16-ans", 
            "id": "19895", 
            "opinion": "1"
        }, 
        {
            "article_title": "Publication en ligne des budgets de chaque organisme d'Etat", 
            "date": "2015-09-30T13:20:00+0200", 
            "link": "http://www.republique-numerique.fr/projects/projet-de-loi-numerique/consultation/consultation/opinions/section-1-ouverture-des-donnees-publiques-1/publication-en-ligne-des-budgets-de-chaque-organisme-d-etat", 
            "id": "19901", 
            "opinion": "1"
        }, 
        {
            "article_title": "La libert\u00e9 d'expression totale sur internet sans aucune restriction.", 
            "date": "2015-09-30T13:21:00+0200", 
            "link": "http://www.republique-numerique.fr/projects/projet-de-loi-numerique/consultation/consultation/opinions/section-1-ouverture-des-donnees-publiques-1/la-liberte-d-expression-totale-sur-internet-sans-aucune-restriction", 
            "id": "19907", 
            "opinion": "-1"
        }, 
        {
            "article_title": "Protection des mineurs sur les r\u00e9seaux sociaux", 
            "date": "2015-09-30T13:29:00+0200", 
            "link": "http://www.republique-numerique.fr/projects/projet-de-loi-numerique/consultation/consultation/opinions/section-1-ouverture-des-donnees-publiques-1/protection-des-mineurs-sur-les-reseaux-sociaux", 
            "id": "19980", 
            "opinion": "1"
        }, 
        {
            "article_title": "E-Testament", 
            "date": "2015-09-30T13:31:00+0200", 
            "link": "http://www.republique-numerique.fr/projects/projet-de-loi-numerique/consultation/consultation/opinions/section-2-portabilite-des-donnees/e-testament", 
            "id": "19994", 
            "opinion": "1"
        }, 
        {
            "article_title": "Article 19 - Droit \u00e0 l\u2019oubli pour les mineurs", 
            "date": "2015-09-30T13:33:00+0200", 
            "link": "http://www.republique-numerique.fr/projects/projet-de-loi-numerique/consultation/consultation/opinions/section-1-protection-des-donnees-a-caractere-personnel/article-19-droit-a-l-oubli-pour-les-mineurs-procedure-acceleree", 
            "id": "20008", 
            "opinion": "1"
        }, 
        {
            "article_title": "Ne pas d\u00e9finir l'adresse IP d'un internaute comme source suffisante \u00e0 son identification", 
            "date": "2015-09-30T13:35:00+0200", 
            "link": "http://www.republique-numerique.fr/projects/projet-de-loi-numerique/consultation/consultation/opinions/section-1-protection-des-donnees-a-caractere-personnel/ne-pas-definir-l-adresse-ip-d-un-internaute-comme-source-suffisante-a-son-identification", 
            "id": "20028", 
            "opinion": "1"
        }
    ], 
    "sources": [], 
    "votes_count": 9, 
    "arguments": [], 
    "arguments_count": 0, 
    "propositions_count": 1, 
    "contributions_count": 1
}