{
    "modifications": [], 
    "modifications_count": 0, 
    "sources_count": 0, 
    "propositions": [], 
    "votes": [
        {
            "article_title": "G\u00e9n\u00e9ralisation de l\u2019utilisation des logiciels Open source par les instances publiques", 
            "date": "2015-10-18T18:30:00+0200", 
            "link": "http://www.republique-numerique.fr/projects/projet-de-loi-numerique/consultation/consultation/opinions/section-1-ouverture-des-donnees-publiques-1/generalisation-de-l-utilisation-des-logiciels-open-source-par-les-instances-publiques", 
            "id": "158562", 
            "opinion": "1"
        }, 
        {
            "article_title": "Extension de l'objet de la mission de service public de l'acc\u00e8s au droit aux d\u00e9cisions de premi\u00e8re instance", 
            "date": "2015-10-18T18:33:00+0200", 
            "link": "http://www.republique-numerique.fr/projects/projet-de-loi-numerique/consultation/consultation/opinions/section-1-ouverture-des-donnees-publiques-1/article-1-elargissement-du-champ-de-diffusion-par-l-administration/versions/extension-de-l-objet-de-la-mission-de-service-public-de-l-acces-au-droit-aux-decisions-de-premiere-instance", 
            "id": "158634", 
            "opinion": "1"
        }, 
        {
            "article_title": "Obligation donn\u00e9e \u00e0 toutes les administrations sans exception", 
            "date": "2015-10-18T18:34:00+0200", 
            "link": "http://www.republique-numerique.fr/projects/projet-de-loi-numerique/consultation/consultation/opinions/section-1-ouverture-des-donnees-publiques-1/article-1-elargissement-du-champ-de-diffusion-par-l-administration/versions/obligation-donnee-a-toutes-les-administrations-sans-exception", 
            "id": "158649", 
            "opinion": "1"
        }, 
        {
            "article_title": "L'absence d'articulation entre le droit sui generis du producteur de bases de donn\u00e9es et la r\u00e9utilisation des donn\u00e9es", 
            "date": "2015-10-18T18:34:00+0200", 
            "link": "http://www.republique-numerique.fr/projects/projet-de-loi-numerique/consultation/consultation/opinions/section-1-ouverture-des-donnees-publiques-1/article-2-principe-de-libre-reutilisation-des-donnees-pour-les-spic/versions/l-absence-d-articulation-entre-le-droit-sui-generis-du-producteur-de-bases-de-donnees-et-la-reutilisation-des-donnees", 
            "id": "158657", 
            "opinion": "1"
        }, 
        {
            "article_title": "Etendre sans restriction le champ des informations publiques r\u00e9utilisables", 
            "date": "2015-10-18T18:34:00+0200", 
            "link": "http://www.republique-numerique.fr/projects/projet-de-loi-numerique/consultation/consultation/opinions/section-1-ouverture-des-donnees-publiques-1/article-2-principe-de-libre-reutilisation-des-donnees-pour-les-spic/versions/etendre-sans-restriction-le-champ-des-informations-publiques-reutilisables", 
            "id": "158667", 
            "opinion": "1"
        }, 
        {
            "article_title": "La r\u00e9utilisation des donn\u00e9es \u00e0 caract\u00e8re personnel doit \u00eatre declar\u00e9e \u00e0 la CNIL qui peut s'y opposer.", 
            "date": "2015-10-18T18:35:00+0200", 
            "link": "http://www.republique-numerique.fr/projects/projet-de-loi-numerique/consultation/consultation/opinions/section-1-ouverture-des-donnees-publiques-1/article-3-dispositions-diverses/versions/la-reutilisation-des-donnees-a-caractere-personnel-doit-etre-declaree-a-la-cnil-qui-peut-s-y-opposer", 
            "id": "158679", 
            "opinion": "1"
        }, 
        {
            "article_title": "Donner un d\u00e9lai pour la mise en oeuvre du service public de la donn\u00e9e", 
            "date": "2015-10-18T18:36:00+0200", 
            "link": "http://www.republique-numerique.fr/projects/projet-de-loi-numerique/consultation/consultation/opinions/section-2-service-public-de-la-donnee-1/article-4-creation-d-un-service-public-de-la-donnee/versions/preciser-le-delai-de-mise-en-oeuvre", 
            "id": "158705", 
            "opinion": "1"
        }, 
        {
            "article_title": "La transmission des donn\u00e9es publiques doit se faire pour le bien commun, sans stipulation contraire et sans d\u00e9l\u00e9gation \u00e0 un tiers", 
            "date": "2015-10-18T18:36:00+0200", 
            "link": "http://www.republique-numerique.fr/projects/projet-de-loi-numerique/consultation/consultation/opinions/section-3-donnees-d-interet-general/article-5-ouverture-des-donnees-par-defaut-dans-les-contrats-de-dsp/versions/la-transmission-des-donnees-publiques-doit-se-faire-pour-le-bien-commun-sans-stipulation-contraire-et-sans-delegation-a-un-tiers", 
            "id": "158709", 
            "opinion": "1"
        }, 
        {
            "article_title": "Chaque administration comporte un service statistique, \u00e9tendre l'acc\u00e8s au del\u00e0 de l'INSEE", 
            "date": "2015-10-18T18:38:00+0200", 
            "link": "http://www.republique-numerique.fr/projects/projet-de-loi-numerique/consultation/consultation/opinions/section-3-donnees-d-interet-general/article-7-acces-de-la-statistique-publique-aux-bases-de-donnees-privees/versions/chaque-administration-comporte-un-service-statistique-etendre-l-acces-au-dela-de-l-insee", 
            "id": "158726", 
            "opinion": "1"
        }, 
        {
            "article_title": "L'agr\u00e9ment ne peut \u00eatre donn\u00e9 aux seules associations", 
            "date": "2015-10-18T18:38:00+0200", 
            "link": "http://www.republique-numerique.fr/projects/projet-de-loi-numerique/consultation/consultation/opinions/section-1-les-communs/article-8-definition-du-domaine-commun-informationnel/versions/l-agrement-ne-peut-etre-donne-aux-seules-associations", 
            "id": "158734", 
            "opinion": "1"
        }, 
        {
            "article_title": "Aucune cession \u00e0 l'\u00e9diteur lorsque les \u00e9crits sont non r\u00e9mun\u00e9r\u00e9s et possible \u00e0 6 mois,lorsque r\u00e9mun\u00e9r\u00e9s, sans distinction de champs disciplinaires", 
            "date": "2015-10-18T18:39:00+0200", 
            "link": "http://www.republique-numerique.fr/projects/projet-de-loi-numerique/consultation/consultation/opinions/section-2-travaux-de-recherche-et-de-statistique/article-9-acces-aux-travaux-de-la-recherche-financee-par-des-fonds-publics/versions/aucune-cession-a-l-editeur-lorsque-les-ecrits-sont-non-remuneres-et-possible-a-6-mois-lorsque-remuneres-sans-distinction-de-champs-disciplinaires", 
            "id": "158745", 
            "opinion": "1"
        }, 
        {
            "article_title": "Interdiction de la vente li\u00e9e ordinateur/syst\u00e8me d'exploitation", 
            "date": "2015-10-18T18:41:00+0200", 
            "link": "http://www.republique-numerique.fr/projects/projet-de-loi-numerique/consultation/consultation/opinions/section-3-loyaute-des-plateformes/interdiction-de-la-vente-liee-ordinateur-systeme-d-exploitation", 
            "id": "158803", 
            "opinion": "1"
        }, 
        {
            "article_title": "Article 16 - Libre disposition de ses donn\u00e9es", 
            "date": "2015-10-18T18:46:00+0200", 
            "link": "http://www.republique-numerique.fr/projects/projet-de-loi-numerique/consultation/consultation/opinions/section-1-protection-des-donnees-a-caractere-personnel/article-16-libre-disposition-de-ses-donnees-a-caractere-personnel", 
            "id": "158919", 
            "opinion": "1"
        }, 
        {
            "article_title": "Utilisation de GNU/Linux dans l'administration", 
            "date": "2015-10-18T18:47:00+0200", 
            "link": "http://www.republique-numerique.fr/projects/projet-de-loi-numerique/consultation/consultation/opinions/section-3-donnees-d-interet-general/utilisation-de-gnu-linux-dans-l-administration", 
            "id": "158945", 
            "opinion": "1"
        }, 
        {
            "article_title": "Article 12 - Portabilit\u00e9 des donn\u00e9es", 
            "date": "2015-10-18T18:50:00+0200", 
            "link": "http://www.republique-numerique.fr/projects/projet-de-loi-numerique/consultation/consultation/opinions/section-2-portabilite-des-donnees/article-12-portabilite-des-donnees", 
            "id": "159012", 
            "opinion": "1"
        }, 
        {
            "article_title": "Garantir l'autorisation du d\u00e9p\u00f4t imm\u00e9diat de la version \"auteur\" dans une archive ouverte", 
            "date": "2015-10-18T18:52:00+0200", 
            "link": "http://www.republique-numerique.fr/projects/projet-de-loi-numerique/consultation/consultation/opinions/section-2-travaux-de-recherche-et-de-statistique/article-9-acces-aux-travaux-de-la-recherche-financee-par-des-fonds-publics/versions/garantir-l-autorisation-du-depot-immediat-de-la-version-auteur-dans-une-archive-ouverte", 
            "id": "159077", 
            "opinion": "1"
        }, 
        {
            "article_title": "Utiliser les logiciels libres & GNU/Linux dans les \u00e9coles et les universit\u00e9s", 
            "date": "2015-10-18T18:54:00+0200", 
            "link": "http://www.republique-numerique.fr/projects/projet-de-loi-numerique/consultation/consultation/opinions/section-2-service-public-de-la-donnee-1/utiliser-les-logiciels-libres-gnu-linux-dans-les-ecoles-et-les-universites", 
            "id": "159115", 
            "opinion": "1"
        }
    ], 
    "sources": [], 
    "votes_count": 17, 
    "arguments": [], 
    "arguments_count": 0, 
    "propositions_count": 0, 
    "contributions_count": 0
}