{
    "modifications": [
        {
            "stats": {
                "source": "0", 
                "votes": "11", 
                "arguments": "3"
            }, 
            "votes": {
                "data-ok": "1", 
                "data-mitige": "3", 
                "data-nok": "7"
            }, 
            "link": "/projects/projet-de-loi-numerique/consultation/consultation/opinions/section-2-service-public-de-la-donnee-1/utiliser-les-logiciels-libres-gnu-linux-dans-les-ecoles-et-les-universites/versions/reference-a-des-termes-anglo-saxons-et-autres", 
            "id": "582", 
            "title": "r\u00e9f\u00e9rence \u00e0 des termes anglo saxons et autres"
        }
    ], 
    "modifications_count": 1, 
    "sources_count": 0, 
    "propositions": [], 
    "votes": [
        {
            "article_title": "Ouvrir les donn\u00e9es ayant servi \u00e0 la r\u00e9daction d'un rapport publique", 
            "date": "2015-10-03T10:43:00+0200", 
            "link": "http://www.republique-numerique.fr/projects/projet-de-loi-numerique/consultation/consultation/opinions/section-1-ouverture-des-donnees-publiques-1/ouvrir-les-donnees-ayant-servi-a-la-redaction-d-un-rapport-publique", 
            "id": "27775", 
            "opinion": "1"
        }, 
        {
            "article_title": "Article 1 - Open data par d\u00e9faut (obligation de diffuser en ligne les principaux documents et donn\u00e9es des organismes publics)", 
            "date": "2015-10-03T10:44:00+0200", 
            "link": "http://www.republique-numerique.fr/projects/projet-de-loi-numerique/consultation/consultation/opinions/section-1-ouverture-des-donnees-publiques-1/article-1-elargissement-du-champ-de-diffusion-par-l-administration", 
            "id": "27776", 
            "opinion": "1"
        }, 
        {
            "article_title": "Article 3 - Droit d\u2019acc\u00e8s des organismes publics aux donn\u00e9es publiques & de r\u00e9utilisation d\u2019informations comportant des donn\u00e9es personnelles d\u00e9j\u00e0 publi\u00e9es", 
            "date": "2015-10-03T10:44:00+0200", 
            "link": "http://www.republique-numerique.fr/projects/projet-de-loi-numerique/consultation/consultation/opinions/section-1-ouverture-des-donnees-publiques-1/article-3-dispositions-diverses", 
            "id": "27778", 
            "opinion": "1"
        }, 
        {
            "article_title": "Ecole entreprise R\u00e9union", 
            "date": "2015-10-03T10:44:00+0200", 
            "link": "http://www.republique-numerique.fr/projects/projet-de-loi-numerique/consultation/consultation/opinions/section-1-ouverture-des-donnees-publiques-1/ecole-entreprise-reunion", 
            "id": "27779", 
            "opinion": "-1"
        }, 
        {
            "article_title": "Le Vote par internet", 
            "date": "2015-10-03T10:44:00+0200", 
            "link": "http://www.republique-numerique.fr/projects/projet-de-loi-numerique/consultation/consultation/opinions/section-1-ouverture-des-donnees-publiques-1/le-vote-par-internet", 
            "id": "27780", 
            "opinion": "-1"
        }, 
        {
            "article_title": "ouverture du code des algorithmes publics", 
            "date": "2015-10-03T10:44:00+0200", 
            "link": "http://www.republique-numerique.fr/projects/projet-de-loi-numerique/consultation/consultation/opinions/section-1-ouverture-des-donnees-publiques-1/ouverture-du-code-des-algorithmes-publics", 
            "id": "27782", 
            "opinion": "-1"
        }, 
        {
            "article_title": "Article (num\u00e9ro \u00e0 incr\u00e9menter) - De l'acc\u00e8s au code source", 
            "date": "2015-10-03T10:44:00+0200", 
            "link": "http://www.republique-numerique.fr/projects/projet-de-loi-numerique/consultation/consultation/opinions/section-1-ouverture-des-donnees-publiques-1/article-numero-a-incrementer-de-l-acces-au-code-source", 
            "id": "27783", 
            "opinion": "-1"
        }, 
        {
            "article_title": "Transparence / S\u00e9curit\u00e9", 
            "date": "2015-10-03T10:45:00+0200", 
            "link": "http://www.republique-numerique.fr/projects/projet-de-loi-numerique/consultation/consultation/opinions/section-1-ouverture-des-donnees-publiques-1/transparence-securite", 
            "id": "27784", 
            "opinion": "-1"
        }, 
        {
            "article_title": "Clarification sur le statut des drones de combats et de reconnaissances", 
            "date": "2015-10-03T10:45:00+0200", 
            "link": "http://www.republique-numerique.fr/projects/projet-de-loi-numerique/consultation/consultation/opinions/section-1-ouverture-des-donnees-publiques-1/clarification-sur-le-statut-des-drones-de-combats-et-de-reconnaissances", 
            "id": "27785", 
            "opinion": "-1"
        }, 
        {
            "article_title": "Diffusion sous licence libre des \u0153uvres num\u00e9riques cr\u00e9\u00e9es avec un financement public", 
            "date": "2015-10-03T10:48:00+0200", 
            "link": "http://www.republique-numerique.fr/projects/projet-de-loi-numerique/consultation/consultation/opinions/section-1-ouverture-des-donnees-publiques-1/diffusion-sous-licence-libre-des-oeuvres-numeriques-creees-avec-un-financement-public", 
            "id": "27791", 
            "opinion": "1"
        }, 
        {
            "article_title": "Digitalisation de l'appareil d'\u00e9tat", 
            "date": "2015-10-03T10:48:00+0200", 
            "link": "http://www.republique-numerique.fr/projects/projet-de-loi-numerique/consultation/consultation/opinions/section-1-ouverture-des-donnees-publiques-1/digitalisation-de-l-appareil-d-etat", 
            "id": "27792", 
            "opinion": "1"
        }, 
        {
            "article_title": "Convergence Europ\u00e9enne", 
            "date": "2015-10-03T10:48:00+0200", 
            "link": "http://www.republique-numerique.fr/projects/projet-de-loi-numerique/consultation/consultation/opinions/section-1-ouverture-des-donnees-publiques-1/convergence-europeenne", 
            "id": "27793", 
            "opinion": "-1"
        }, 
        {
            "article_title": "Suppression de la taxe copie priv\u00e9e", 
            "date": "2015-10-03T10:48:00+0200", 
            "link": "http://www.republique-numerique.fr/projects/projet-de-loi-numerique/consultation/consultation/opinions/section-1-ouverture-des-donnees-publiques-1/suppression-de-la-taxe-copie-privee", 
            "id": "27794", 
            "opinion": "1"
        }, 
        {
            "article_title": "veritable acceleration du deploiement de la fibre optique", 
            "date": "2015-10-03T10:48:00+0200", 
            "link": "http://www.republique-numerique.fr/projects/projet-de-loi-numerique/consultation/consultation/opinions/section-1-ouverture-des-donnees-publiques-1/veritable-acceleration-du-deploiement-de-la-fibre-optique", 
            "id": "27795", 
            "opinion": "1"
        }, 
        {
            "article_title": "Licence publique \u00e0 r\u00e9ciprocit\u00e9 renforc\u00e9e - usage diff\u00e9renci\u00e9 de la donn\u00e9e publique", 
            "date": "2015-10-03T10:49:00+0200", 
            "link": "http://www.republique-numerique.fr/projects/projet-de-loi-numerique/consultation/consultation/opinions/section-1-ouverture-des-donnees-publiques-1/licence-publique-a-reciprocite-renforcee-usage-differencie-de-la-donnee-publique", 
            "id": "27796", 
            "opinion": "-1"
        }, 
        {
            "article_title": "Du capitalisme num\u00e9rique en d\u00e9mocratie participative", 
            "date": "2015-10-03T10:49:00+0200", 
            "link": "http://www.republique-numerique.fr/projects/projet-de-loi-numerique/consultation/consultation/opinions/section-1-ouverture-des-donnees-publiques-1/du-capitalisme-numerique-en-democratie-participative", 
            "id": "27797", 
            "opinion": "-1"
        }, 
        {
            "article_title": "Protection de la vie pour tous, lors de la survenue d'un s\u00e9isme majeur", 
            "date": "2015-10-03T10:49:00+0200", 
            "link": "http://www.republique-numerique.fr/projects/projet-de-loi-numerique/consultation/consultation/opinions/section-1-ouverture-des-donnees-publiques-1/protection-de-la-vie-pour-tous-lors-de-la-survenue-d-un-seisme-majeur", 
            "id": "27798", 
            "opinion": "-1"
        }, 
        {
            "article_title": "Cr\u00e9ation d'ateliers citoyens numeriques", 
            "date": "2015-10-03T10:50:00+0200", 
            "link": "http://www.republique-numerique.fr/projects/projet-de-loi-numerique/consultation/consultation/opinions/section-1-ouverture-des-donnees-publiques-1/creation-d-ateliers-citoyens-numeriques", 
            "id": "27802", 
            "opinion": "-1"
        }, 
        {
            "article_title": "Am\u00e9lioration continue des lois", 
            "date": "2015-10-03T10:50:00+0200", 
            "link": "http://www.republique-numerique.fr/projects/projet-de-loi-numerique/consultation/consultation/opinions/section-1-ouverture-des-donnees-publiques-1/amelioration-continue-des-lois", 
            "id": "27803", 
            "opinion": "-1"
        }, 
        {
            "article_title": "L'hyper ruralit\u00e9 dans la loi num\u00e9rique", 
            "date": "2015-10-03T10:50:00+0200", 
            "link": "http://www.republique-numerique.fr/projects/projet-de-loi-numerique/consultation/consultation/opinions/section-1-ouverture-des-donnees-publiques-1/l-hyper-ruralite-dans-la-loi-numerique", 
            "id": "27804", 
            "opinion": "-1"
        }, 
        {
            "article_title": "Introduction des \u00e9l\u00e9ves \u00e0 l'\u00e9conomie num\u00e9rique", 
            "date": "2015-10-03T10:50:00+0200", 
            "link": "http://www.republique-numerique.fr/projects/projet-de-loi-numerique/consultation/consultation/opinions/section-1-ouverture-des-donnees-publiques-1/introduction-des-eleves-a-l-economie-numerique", 
            "id": "27805", 
            "opinion": "-1"
        }, 
        {
            "article_title": "Cr\u00e9ation d'une plate-forme num\u00e9rique \"@voter\" avec une carte d'\u00e9lecteur num\u00e9rique d\u00e8s l'\u00e2ge de 16 ans.", 
            "date": "2015-10-03T10:50:00+0200", 
            "link": "http://www.republique-numerique.fr/projects/projet-de-loi-numerique/consultation/consultation/opinions/section-1-ouverture-des-donnees-publiques-1/creation-d-une-plate-forme-numerique-voter-avec-une-carte-d-electeur-numerique-des-l-age-de-16-ans", 
            "id": "27806", 
            "opinion": "-1"
        }, 
        {
            "article_title": "Fl\u00e9chage de la licence publique \u00e0 r\u00e9ciprocit\u00e9 renforc\u00e9e pour la constitution d'un fond d'amor\u00e7age et d'acc\u00e9l\u00e9ration de startup hybrides collaboratif/ESS", 
            "date": "2015-10-03T10:50:00+0200", 
            "link": "http://www.republique-numerique.fr/projects/projet-de-loi-numerique/consultation/consultation/opinions/section-1-ouverture-des-donnees-publiques-1/flechage-de-la-licence-publique-a-reciprocite-renforcee-pour-la-constitution-d-un-fond-d-amorcage-et-d-acceleration-de-startup-hybrides-collaboratif-ess", 
            "id": "27808", 
            "opinion": "-1"
        }, 
        {
            "article_title": "Obligation du format ouvert et libre pour toute administration publique et institution de formation", 
            "date": "2015-10-03T10:50:00+0200", 
            "link": "http://www.republique-numerique.fr/projects/projet-de-loi-numerique/consultation/consultation/opinions/section-1-ouverture-des-donnees-publiques-1/obligation-du-format-ouvert-et-libre-pour-toute-administration-publique-et-institution-de-formation", 
            "id": "27809", 
            "opinion": "-1"
        }, 
        {
            "article_title": "Pr\u00e9ambule", 
            "date": "2015-10-03T10:50:00+0200", 
            "link": "http://www.republique-numerique.fr/projects/projet-de-loi-numerique/consultation/consultation/opinions/section-1-ouverture-des-donnees-publiques-1/preambule", 
            "id": "27810", 
            "opinion": "-1"
        }, 
        {
            "article_title": "Publication en ligne des budgets de chaque organisme d'Etat", 
            "date": "2015-10-03T10:50:00+0200", 
            "link": "http://www.republique-numerique.fr/projects/projet-de-loi-numerique/consultation/consultation/opinions/section-1-ouverture-des-donnees-publiques-1/publication-en-ligne-des-budgets-de-chaque-organisme-d-etat", 
            "id": "27811", 
            "opinion": "-1"
        }, 
        {
            "article_title": "Rendre public la pr\u00e9sences des diff\u00e9rents ministres, d\u00e9put\u00e9s, etc... aux conseils.", 
            "date": "2015-10-03T10:50:00+0200", 
            "link": "http://www.republique-numerique.fr/projects/projet-de-loi-numerique/consultation/consultation/opinions/section-1-ouverture-des-donnees-publiques-1/rendre-public-la-presences-des-differents-ministres-deputes-etc-aux-conseils", 
            "id": "27812", 
            "opinion": "-1"
        }, 
        {
            "article_title": "Clarification de la taxe copie privee", 
            "date": "2015-10-03T10:54:00+0200", 
            "link": "http://www.republique-numerique.fr/projects/projet-de-loi-numerique/consultation/consultation/opinions/section-1-ouverture-des-donnees-publiques-1/clarification-de-la-taxe-copie-privee", 
            "id": "27818", 
            "opinion": "-1"
        }, 
        {
            "article_title": "Amendement de la Loi Renseignement pour ajout du juge judiciaire", 
            "date": "2015-10-03T10:58:00+0200", 
            "link": "http://www.republique-numerique.fr/projects/projet-de-loi-numerique/consultation/consultation/opinions/section-2-confidentialite-des-correspondances-privees/amendement-de-la-loi-renseignement-pour-ajout-du-juge-judiciaire", 
            "id": "27824", 
            "opinion": "1"
        }, 
        {
            "article_title": "Limiter", 
            "date": "2015-10-03T10:58:00+0200", 
            "link": "http://www.republique-numerique.fr/projects/projet-de-loi-numerique/consultation/consultation/opinions/section-2-confidentialite-des-correspondances-privees/amendement-de-la-loi-renseignement-pour-ajout-du-juge-judiciaire/versions/limiter", 
            "id": "27825", 
            "opinion": "1"
        }
    ], 
    "sources": [], 
    "votes_count": 30, 
    "arguments": [], 
    "arguments_count": 0, 
    "propositions_count": 0, 
    "contributions_count": 1
}