{
    "modifications": [], 
    "modifications_count": 0, 
    "sources_count": 0, 
    "propositions": [], 
    "votes": [
        {
            "article_title": "Ouvrir les donn\u00e9es ayant servi \u00e0 la r\u00e9daction d'un rapport publique", 
            "date": "2015-10-15T22:43:00+0200", 
            "link": "http://www.republique-numerique.fr/projects/projet-de-loi-numerique/consultation/consultation/opinions/section-1-ouverture-des-donnees-publiques-1/ouvrir-les-donnees-ayant-servi-a-la-redaction-d-un-rapport-publique", 
            "id": "104965", 
            "opinion": "1"
        }, 
        {
            "article_title": "Utiliser les logiciels libres & GNU/Linux dans les \u00e9coles et les universit\u00e9s", 
            "date": "2015-10-15T22:47:00+0200", 
            "link": "http://www.republique-numerique.fr/projects/projet-de-loi-numerique/consultation/consultation/opinions/section-2-service-public-de-la-donnee-1/utiliser-les-logiciels-libres-gnu-linux-dans-les-ecoles-et-les-universites", 
            "id": "105037", 
            "opinion": "1"
        }, 
        {
            "article_title": "Publication/Annonce des divulgation accidentelle de donn\u00e9es personnelles", 
            "date": "2015-10-15T22:53:00+0200", 
            "link": "http://www.republique-numerique.fr/projects/projet-de-loi-numerique/consultation/consultation/opinions/section-2-service-public-de-la-donnee-1/publication-annonce-des-divulgation-accidentelle-de-donnees-personnelles", 
            "id": "105156", 
            "opinion": "1"
        }, 
        {
            "article_title": "A argent public, logiciel public !", 
            "date": "2015-10-15T22:56:00+0200", 
            "link": "http://www.republique-numerique.fr/projects/projet-de-loi-numerique/consultation/consultation/opinions/section-2-service-public-de-la-donnee-1/a-argent-public-logiciel-public", 
            "id": "105195", 
            "opinion": "1"
        }, 
        {
            "article_title": "Mise \u00e0 disposition obligatoire de documents en formats ouverts pour les concours et documents administratifs", 
            "date": "2015-10-15T23:03:00+0200", 
            "link": "http://www.republique-numerique.fr/projects/projet-de-loi-numerique/consultation/consultation/opinions/section-1-competences-et-organisation/mise-a-disposition-obligatoire-de-documents-en-formats-ouverts-pour-les-concours-et-documents-administratifs", 
            "id": "105303", 
            "opinion": "1"
        }, 
        {
            "article_title": "D\u00e9veloppement de la couverture num\u00e9rique dans les transports en commun publics", 
            "date": "2015-10-15T23:04:00+0200", 
            "link": "http://www.republique-numerique.fr/projects/projet-de-loi-numerique/consultation/consultation/opinions/section-1-competences-et-organisation/developpement-de-la-couverture-numerique-dans-les-transports-en-commun-publics", 
            "id": "105315", 
            "opinion": "-1"
        }, 
        {
            "article_title": "Egalit\u00e9 d'acc\u00e8s \u00e0 l'internet dans tous les territoires.", 
            "date": "2015-10-15T23:09:00+0200", 
            "link": "http://www.republique-numerique.fr/projects/projet-de-loi-numerique/consultation/consultation/opinions/section-1-competences-et-organisation/egalite-d-acces-a-l-internet-dans-tous-les-territoires", 
            "id": "105384", 
            "opinion": "1"
        }, 
        {
            "article_title": "Interdiction d'utilis\u00e9 des logiciels privateur pour l'apprentissage de l'informatique", 
            "date": "2015-10-15T23:16:00+0200", 
            "link": "http://www.republique-numerique.fr/projects/projet-de-loi-numerique/consultation/consultation/opinions/section-1-competences-et-organisation/interdiction-d-utilise-des-logiciels-privateur-pour-l-apprentissage-de-l-informatique", 
            "id": "105474", 
            "opinion": "1"
        }, 
        {
            "article_title": "D\u00e9velopper la m\u00e9decine num\u00e9rique.", 
            "date": "2015-10-15T23:17:00+0200", 
            "link": "http://www.republique-numerique.fr/projects/projet-de-loi-numerique/consultation/consultation/opinions/section-1-competences-et-organisation/developper-la-medecine-numerique", 
            "id": "105484", 
            "opinion": "-1"
        }, 
        {
            "article_title": "Fourniture de mat\u00e9riels sans surcharge d'OS propri\u00e9taires par les collectivit\u00e9s.", 
            "date": "2015-10-15T23:22:00+0200", 
            "link": "http://www.republique-numerique.fr/projects/projet-de-loi-numerique/consultation/consultation/opinions/section-1-competences-et-organisation/fourniture-de-materiels-sans-surcharge-d-os-proprietaires-par-les-collectivites", 
            "id": "105559", 
            "opinion": "1"
        }, 
        {
            "article_title": "Droit \u00e0 la d\u00e9connexion sans marginalisation civique", 
            "date": "2015-10-15T23:24:00+0200", 
            "link": "http://www.republique-numerique.fr/projects/projet-de-loi-numerique/consultation/consultation/opinions/section-1-competences-et-organisation/droit-a-la-deconnexion-sans-marginalisation-civique", 
            "id": "105591", 
            "opinion": "1"
        }, 
        {
            "article_title": "Instaurer une formation obligatoire au num\u00e9rique de tous les \u00e9lus", 
            "date": "2015-10-15T23:26:00+0200", 
            "link": "http://www.republique-numerique.fr/projects/projet-de-loi-numerique/consultation/consultation/opinions/section-1-competences-et-organisation/instaurer-une-formation-obligatoire-au-numerique-de-tous-les-elus", 
            "id": "105617", 
            "opinion": "-1"
        }, 
        {
            "article_title": "RENFORCER LES COMPETENCES NUMERIQUES DES PARENTS POUR UNE MEILLEURE EDUCATION AU NUMERIQUE", 
            "date": "2015-10-15T23:32:00+0200", 
            "link": "http://www.republique-numerique.fr/projects/projet-de-loi-numerique/consultation/consultation/opinions/section-1-competences-et-organisation/renforcer-les-competences-numeriques-des-parents-pour-une-meilleure-education-au-numerique-1", 
            "id": "105672", 
            "opinion": "-1"
        }
    ], 
    "sources": [], 
    "votes_count": 13, 
    "arguments": [
        {
            "article_title": "Signaler", 
            "votes": 0, 
            "article_link": "http://www.republique-numerique.fr/consultations/projet-de-loi-numerique/consultation/consultation/opinions/section-1-competences-et-organisation/developpement-de-la-couverture-numerique-dans-les-transports-en-commun-publics/arguments/4464/report", 
            "link": "http://www.republique-numerique.fr/consultations/projet-de-loi-numerique/consultation/consultation/opinions/section-1-competences-et-organisation/developpement-de-la-couverture-numerique-dans-les-transports-en-commun-publics/arguments/4464/report#arg-4464", 
            "date": "2015-10-15T23:05:00+0200", 
            "id": "4464"
        }, 
        {
            "article_title": "Signaler", 
            "votes": 0, 
            "article_link": "http://www.republique-numerique.fr/consultations/projet-de-loi-numerique/consultation/consultation/opinions/section-1-competences-et-organisation/developper-la-medecine-numerique/arguments/4468/report", 
            "link": "http://www.republique-numerique.fr/consultations/projet-de-loi-numerique/consultation/consultation/opinions/section-1-competences-et-organisation/developper-la-medecine-numerique/arguments/4468/report#arg-4468", 
            "date": "2015-10-15T23:18:00+0200", 
            "id": "4468"
        }, 
        {
            "article_title": "Signaler", 
            "votes": 0, 
            "article_link": "http://www.republique-numerique.fr/consultations/projet-de-loi-numerique/consultation/consultation/opinions/section-1-competences-et-organisation/instaurer-une-formation-obligatoire-au-numerique-de-tous-les-elus/arguments/4473/report", 
            "link": "http://www.republique-numerique.fr/consultations/projet-de-loi-numerique/consultation/consultation/opinions/section-1-competences-et-organisation/instaurer-une-formation-obligatoire-au-numerique-de-tous-les-elus/arguments/4473/report#arg-4473", 
            "date": "2015-10-15T23:27:00+0200", 
            "id": "4473"
        }
    ], 
    "arguments_count": 3, 
    "propositions_count": 0, 
    "contributions_count": 3
}