{
    "modifications": [], 
    "modifications_count": 0, 
    "sources_count": 0, 
    "propositions": [], 
    "votes": [
        {
            "article_title": "Protection de la vie pour tous, lors de la survenue d'un s\u00e9isme majeur", 
            "date": "2015-09-29T14:04:00+0200", 
            "link": "http://www.republique-numerique.fr/projects/projet-de-loi-numerique/consultation/consultation/opinions/section-1-ouverture-des-donnees-publiques-1/protection-de-la-vie-pour-tous-lors-de-la-survenue-d-un-seisme-majeur", 
            "id": "15609", 
            "opinion": "-1"
        }, 
        {
            "article_title": "Du capitalisme num\u00e9rique en d\u00e9mocratie participative", 
            "date": "2015-09-29T14:05:00+0200", 
            "link": "http://www.republique-numerique.fr/projects/projet-de-loi-numerique/consultation/consultation/opinions/section-1-ouverture-des-donnees-publiques-1/du-capitalisme-numerique-en-democratie-participative", 
            "id": "15616", 
            "opinion": "-1"
        }, 
        {
            "article_title": "Am\u00e9lioration continue des lois", 
            "date": "2015-09-29T14:06:00+0200", 
            "link": "http://www.republique-numerique.fr/projects/projet-de-loi-numerique/consultation/consultation/opinions/section-1-ouverture-des-donnees-publiques-1/amelioration-continue-des-lois", 
            "id": "15626", 
            "opinion": "1"
        }, 
        {
            "article_title": "Cr\u00e9ation d'une plate-forme num\u00e9rique \"@voter\" avec une carte d'\u00e9lecteur num\u00e9rique d\u00e8s l'\u00e2ge de 16 ans.", 
            "date": "2015-09-29T14:07:00+0200", 
            "link": "http://www.republique-numerique.fr/projects/projet-de-loi-numerique/consultation/consultation/opinions/section-1-ouverture-des-donnees-publiques-1/creation-d-une-plate-forme-numerique-voter-avec-une-carte-d-electeur-numerique-des-l-age-de-16-ans", 
            "id": "15630", 
            "opinion": "-1"
        }, 
        {
            "article_title": "DROIT \u00e0 la FIBRE", 
            "date": "2015-09-29T14:08:00+0200", 
            "link": "http://www.republique-numerique.fr/projects/projet-de-loi-numerique/consultation/consultation/opinions/section-1-ouverture-des-donnees-publiques-1/droit-a-la-fibre", 
            "id": "15639", 
            "opinion": "-1"
        }, 
        {
            "article_title": "G\u00e9n\u00e9ralisation des certifications des usages des outils informatiques et internet (C2i)", 
            "date": "2015-09-29T14:09:00+0200", 
            "link": "http://www.republique-numerique.fr/projects/projet-de-loi-numerique/consultation/consultation/opinions/section-1-ouverture-des-donnees-publiques-1/generalisation-des-certifications-des-usages-des-outils-informatiques-et-internet-c2i", 
            "id": "15642", 
            "opinion": "-1"
        }, 
        {
            "article_title": "Rendre \"open-source\" les secteurs alimentaire et pharmaceutique", 
            "date": "2015-09-29T14:10:00+0200", 
            "link": "http://www.republique-numerique.fr/projects/projet-de-loi-numerique/consultation/consultation/opinions/section-1-ouverture-des-donnees-publiques-1/rendre-open-source-les-secteurs-alimentaire-et-pharmaceutique", 
            "id": "15653", 
            "opinion": "1"
        }, 
        {
            "article_title": "Article 1 - Open data par d\u00e9faut (obligation de diffuser en ligne les principaux documents et donn\u00e9es des organismes publics)", 
            "date": "2015-09-29T14:11:00+0200", 
            "link": "http://www.republique-numerique.fr/projects/projet-de-loi-numerique/consultation/consultation/opinions/section-1-ouverture-des-donnees-publiques-1/article-1-elargissement-du-champ-de-diffusion-par-l-administration", 
            "id": "15658", 
            "opinion": "1"
        }, 
        {
            "article_title": "Ecole entreprise R\u00e9union", 
            "date": "2015-09-29T14:13:00+0200", 
            "link": "http://www.republique-numerique.fr/projects/projet-de-loi-numerique/consultation/consultation/opinions/section-1-ouverture-des-donnees-publiques-1/ecole-entreprise-reunion", 
            "id": "15668", 
            "opinion": "-1"
        }, 
        {
            "article_title": "Article 2 - Libre r\u00e9utilisation des donn\u00e9es des services publics industriels et commerciaux", 
            "date": "2015-09-29T14:14:00+0200", 
            "link": "http://www.republique-numerique.fr/projects/projet-de-loi-numerique/consultation/consultation/opinions/section-1-ouverture-des-donnees-publiques-1/article-2-principe-de-libre-reutilisation-des-donnees-pour-les-spic", 
            "id": "15674", 
            "opinion": "1"
        }, 
        {
            "article_title": "Article 3 - Droit d\u2019acc\u00e8s des organismes publics aux donn\u00e9es publiques & de r\u00e9utilisation d\u2019informations comportant des donn\u00e9es personnelles d\u00e9j\u00e0 publi\u00e9es", 
            "date": "2015-09-29T14:16:00+0200", 
            "link": "http://www.republique-numerique.fr/projects/projet-de-loi-numerique/consultation/consultation/opinions/section-1-ouverture-des-donnees-publiques-1/article-3-dispositions-diverses", 
            "id": "15687", 
            "opinion": "0"
        }, 
        {
            "article_title": "Ouvrir les donn\u00e9es ayant servi \u00e0 la r\u00e9daction d'un rapport publique", 
            "date": "2015-09-29T14:17:00+0200", 
            "link": "http://www.republique-numerique.fr/projects/projet-de-loi-numerique/consultation/consultation/opinions/section-1-ouverture-des-donnees-publiques-1/ouvrir-les-donnees-ayant-servi-a-la-redaction-d-un-rapport-publique", 
            "id": "15694", 
            "opinion": "1"
        }, 
        {
            "article_title": "ouverture du code des algorithmes publics", 
            "date": "2015-09-29T14:20:00+0200", 
            "link": "http://www.republique-numerique.fr/projects/projet-de-loi-numerique/consultation/consultation/opinions/section-1-ouverture-des-donnees-publiques-1/ouverture-du-code-des-algorithmes-publics", 
            "id": "15713", 
            "opinion": "1"
        }, 
        {
            "article_title": "Enlevons ce \"sauf stipulation du contraire\" qui es...", 
            "date": "2015-09-29T14:25:00+0200", 
            "link": "http://www.republique-numerique.fr/projects/projet-de-loi-numerique/consultation/consultation/opinions/section-3-donnees-d-interet-general/article-5-ouverture-des-donnees-par-defaut-dans-les-contrats-de-dsp#arg-837", 
            "id": "15737", 
            "opinion": "1"
        }, 
        {
            "article_title": "Cette phrase seule telle que pr\u00e9sent\u00e9e \"Il est p...", 
            "date": "2015-09-29T14:26:00+0200", 
            "link": "http://www.republique-numerique.fr/projects/projet-de-loi-numerique/consultation/consultation/opinions/section-3-donnees-d-interet-general/article-5-ouverture-des-donnees-par-defaut-dans-les-contrats-de-dsp#arg-937", 
            "id": "15743", 
            "opinion": "1"
        }, 
        {
            "article_title": "Article 5 - Ouverture des donn\u00e9es des d\u00e9l\u00e9gations de service public", 
            "date": "2015-09-29T14:26:00+0200", 
            "link": "http://www.republique-numerique.fr/projects/projet-de-loi-numerique/consultation/consultation/opinions/section-3-donnees-d-interet-general/article-5-ouverture-des-donnees-par-defaut-dans-les-contrats-de-dsp", 
            "id": "15745", 
            "opinion": "1"
        }, 
        {
            "article_title": "La totalit\u00e9 des subventions publiques accord\u00e9es ...", 
            "date": "2015-09-29T14:26:00+0200", 
            "link": "http://www.republique-numerique.fr/projects/projet-de-loi-numerique/consultation/consultation/opinions/section-3-donnees-d-interet-general/article-6-ouverture-des-donnees-dans-les-conventions-de-subventions#arg-203", 
            "id": "15749", 
            "opinion": "1"
        }, 
        {
            "article_title": "(Argument \u00ab mitig\u00e9 \u00bb, en fait.)Il est regrett...", 
            "date": "2015-09-29T14:26:00+0200", 
            "link": "http://www.republique-numerique.fr/projects/projet-de-loi-numerique/consultation/consultation/opinions/section-3-donnees-d-interet-general/article-6-ouverture-des-donnees-dans-les-conventions-de-subventions#arg-49", 
            "id": "15752", 
            "opinion": "1"
        }, 
        {
            "article_title": "D\u00e8s le 1er euro vers\u00e9. \u00c9tendre l'obligation de ...", 
            "date": "2015-09-29T14:27:00+0200", 
            "link": "http://www.republique-numerique.fr/projects/projet-de-loi-numerique/consultation/consultation/opinions/section-3-donnees-d-interet-general/article-6-ouverture-des-donnees-dans-les-conventions-de-subventions#arg-666", 
            "id": "15753", 
            "opinion": "1"
        }, 
        {
            "article_title": "Article 6 - Ouverture des donn\u00e9es des subventions publiques", 
            "date": "2015-09-29T14:27:00+0200", 
            "link": "http://www.republique-numerique.fr/projects/projet-de-loi-numerique/consultation/consultation/opinions/section-3-donnees-d-interet-general/article-6-ouverture-des-donnees-dans-les-conventions-de-subventions", 
            "id": "15754", 
            "opinion": "1"
        }, 
        {
            "article_title": "Pourquoi laisser au chercheur financ\u00e9 par l'\u00c9tat...", 
            "date": "2015-09-29T14:30:00+0200", 
            "link": "http://www.republique-numerique.fr/projects/projet-de-loi-numerique/consultation/consultation/opinions/section-2-travaux-de-recherche-et-de-statistique/article-9-acces-aux-travaux-de-la-recherche-financee-par-des-fonds-publics#arg-64", 
            "id": "15779", 
            "opinion": "1"
        }, 
        {
            "article_title": "La r\u00e9daction en l'\u00e9tat restreint tr\u00e8s fortement...", 
            "date": "2015-09-29T14:31:00+0200", 
            "link": "http://www.republique-numerique.fr/projects/projet-de-loi-numerique/consultation/consultation/opinions/section-2-travaux-de-recherche-et-de-statistique/article-9-acces-aux-travaux-de-la-recherche-financee-par-des-fonds-publics#arg-50", 
            "id": "15784", 
            "opinion": "1"
        }, 
        {
            "article_title": "Article 9 - Libre acc\u00e8s aux publications scientifiques de la recherche publique", 
            "date": "2015-09-29T14:31:00+0200", 
            "link": "http://www.republique-numerique.fr/projects/projet-de-loi-numerique/consultation/consultation/opinions/section-2-travaux-de-recherche-et-de-statistique/article-9-acces-aux-travaux-de-la-recherche-financee-par-des-fonds-publics", 
            "id": "15785", 
            "opinion": "1"
        }, 
        {
            "article_title": "Attend, il faut une LOI pour \u00e7a ?...", 
            "date": "2015-09-29T14:36:00+0200", 
            "link": "http://www.republique-numerique.fr/projects/projet-de-loi-numerique/consultation/consultation/opinions/section-2-couverture-numerique/article-24-publicite-de-la-qualite-des-services-numeriques#arg-600", 
            "id": "15831", 
            "opinion": "1"
        }, 
        {
            "article_title": "La neutralit\u00e9 du net devrait \u00eatre un principe ma...", 
            "date": "2015-09-29T14:38:00+0200", 
            "link": "http://www.republique-numerique.fr/projects/projet-de-loi-numerique/consultation/consultation/opinions/section-1-neutralite-de-l-internet/article-11-neutralite-de-l-internet#arg-291", 
            "id": "15841", 
            "opinion": "1"
        }, 
        {
            "article_title": "Aucune sanction n'est pr\u00e9vue except\u00e9e une mise e...", 
            "date": "2015-09-29T14:38:00+0200", 
            "link": "http://www.republique-numerique.fr/projects/projet-de-loi-numerique/consultation/consultation/opinions/section-1-neutralite-de-l-internet/article-11-neutralite-de-l-internet#arg-107", 
            "id": "15842", 
            "opinion": "1"
        }, 
        {
            "article_title": "Cet article devrait explicitement abolir, pour res...", 
            "date": "2015-09-29T14:39:00+0200", 
            "link": "http://www.republique-numerique.fr/projects/projet-de-loi-numerique/consultation/consultation/opinions/section-1-neutralite-de-l-internet/article-11-neutralite-de-l-internet#arg-66", 
            "id": "15844", 
            "opinion": "1"
        }, 
        {
            "article_title": "Article 11 - Neutralit\u00e9 de l\u2019internet", 
            "date": "2015-09-29T14:39:00+0200", 
            "link": "http://www.republique-numerique.fr/projects/projet-de-loi-numerique/consultation/consultation/opinions/section-1-neutralite-de-l-internet/article-11-neutralite-de-l-internet", 
            "id": "15845", 
            "opinion": "1"
        }
    ], 
    "sources": [], 
    "votes_count": 28, 
    "arguments": [], 
    "arguments_count": 0, 
    "propositions_count": 0, 
    "contributions_count": 0
}