{
    "modifications": [], 
    "modifications_count": 0, 
    "sources_count": 0, 
    "propositions": [
        {
            "article_title": "Protection vie priv\u00e9e : imposer un outil simple d'opposition au pistage de ses pratiques internet", 
            "votes": {
                "data-ok": "15", 
                "data-mitige": "1", 
                "data-nok": "0"
            }, 
            "stats": {
                "modification": "0", 
                "source": "0", 
                "votes": "16", 
                "arguments": "2"
            }, 
            "id": "614", 
            "article_link": "/projects/projet-de-loi-numerique/consultation/consultation/opinions/section-1-ouverture-des-donnees-publiques-1/protection-vie-provee-imposer-un-outil-simple-d-opposition-au-pistage-de-ses-pratiques-internet"
        }
    ], 
    "votes": [
        {
            "article_title": "Protection vie priv\u00e9e : imposer un outil simple d'opposition au pistage de ses pratiques internet", 
            "date": "2015-10-14T18:09:00+0200", 
            "link": "http://www.republique-numerique.fr/projects/projet-de-loi-numerique/consultation/consultation/opinions/section-1-ouverture-des-donnees-publiques-1/protection-vie-provee-imposer-un-outil-simple-d-opposition-au-pistage-de-ses-pratiques-internet", 
            "id": "87031", 
            "opinion": "1"
        }
    ], 
    "sources": [], 
    "votes_count": 1, 
    "arguments": [
        {
            "article_title": "Signaler", 
            "votes": 0, 
            "article_link": "http://www.republique-numerique.fr/consultations/projet-de-loi-numerique/consultation/consultation/opinions/section-1-ouverture-des-donnees-publiques-1/protection-vie-provee-imposer-un-outil-simple-d-opposition-au-pistage-de-ses-pratiques-internet/arguments/4007/report", 
            "link": "http://www.republique-numerique.fr/consultations/projet-de-loi-numerique/consultation/consultation/opinions/section-1-ouverture-des-donnees-publiques-1/protection-vie-provee-imposer-un-outil-simple-d-opposition-au-pistage-de-ses-pratiques-internet/arguments/4007/report#arg-4007", 
            "date": "2015-10-14T18:10:00+0200", 
            "id": "4007"
        }
    ], 
    "arguments_count": 1, 
    "propositions_count": 1, 
    "contributions_count": 2
}