{
    "modifications": [], 
    "modifications_count": 0, 
    "sources_count": 0, 
    "propositions": [], 
    "votes": [
        {
            "article_title": "Article 9 - Libre acc\u00e8s aux publications scientifiques de la recherche publique", 
            "date": "2015-10-15T13:45:00+0200", 
            "link": "http://www.republique-numerique.fr/projects/projet-de-loi-numerique/consultation/consultation/opinions/section-2-travaux-de-recherche-et-de-statistique/article-9-acces-aux-travaux-de-la-recherche-financee-par-des-fonds-publics", 
            "id": "95834", 
            "opinion": "1"
        }, 
        {
            "article_title": "Recherches financ\u00e9es par des fonds publics accessibles sans d\u00e9lai", 
            "date": "2015-10-15T13:47:00+0200", 
            "link": "http://www.republique-numerique.fr/projects/projet-de-loi-numerique/consultation/consultation/opinions/section-2-travaux-de-recherche-et-de-statistique/article-9-acces-aux-travaux-de-la-recherche-financee-par-des-fonds-publics/versions/recherches-financees-par-des-fonds-publics-accessibles-sans-delai", 
            "id": "95874", 
            "opinion": "1"
        }, 
        {
            "article_title": "Les articles scientifiques sont des biens communs de la connaissance", 
            "date": "2015-10-15T13:47:00+0200", 
            "link": "http://www.republique-numerique.fr/projects/projet-de-loi-numerique/consultation/consultation/opinions/section-2-travaux-de-recherche-et-de-statistique/article-9-acces-aux-travaux-de-la-recherche-financee-par-des-fonds-publics/versions/les-articles-scientifiques-sont-des-biens-communs-de-la-connaissance", 
            "id": "95897", 
            "opinion": "1"
        }, 
        {
            "article_title": "Garantir l'autorisation du d\u00e9p\u00f4t imm\u00e9diat de la version \"auteur\" dans une archive ouverte", 
            "date": "2015-10-15T13:48:00+0200", 
            "link": "http://www.republique-numerique.fr/projects/projet-de-loi-numerique/consultation/consultation/opinions/section-2-travaux-de-recherche-et-de-statistique/article-9-acces-aux-travaux-de-la-recherche-financee-par-des-fonds-publics/versions/garantir-l-autorisation-du-depot-immediat-de-la-version-auteur-dans-une-archive-ouverte", 
            "id": "95918", 
            "opinion": "1"
        }, 
        {
            "article_title": "Garantir le d\u00e9p\u00f4t en archive ouverte, seul dispositif assurant un libre-acc\u00e8s p\u00e9renne. Conformit\u00e9 aux recommandations europ\u00e9ennes. (embargo).e", 
            "date": "2015-10-15T13:49:00+0200", 
            "link": "http://www.republique-numerique.fr/projects/projet-de-loi-numerique/consultation/consultation/opinions/section-2-travaux-de-recherche-et-de-statistique/article-9-acces-aux-travaux-de-la-recherche-financee-par-des-fonds-publics/versions/garantir-le-depot-en-archive-ouverte-seul-dispositif-assurant-un-libre-acces-perenne-conformite-aux-recommandations-europeennes-embargo-e", 
            "id": "95953", 
            "opinion": "1"
        }, 
        {
            "article_title": "Garantir le libre acc\u00e8s aux r\u00e9sultats de la recherche financ\u00e9e par des fonds publics", 
            "date": "2015-10-15T13:50:00+0200", 
            "link": "http://www.republique-numerique.fr/projects/projet-de-loi-numerique/consultation/consultation/opinions/section-2-travaux-de-recherche-et-de-statistique/article-9-acces-aux-travaux-de-la-recherche-financee-par-des-fonds-publics/versions/garantir-le-libre-acces-aux-resultats-de-la-recherche-financee-par-des-fonds-publics", 
            "id": "95977", 
            "opinion": "1"
        }, 
        {
            "article_title": "Pour un droit de fouiller les textes : autoriser le text et datamining", 
            "date": "2015-10-15T13:51:00+0200", 
            "link": "http://www.republique-numerique.fr/projects/projet-de-loi-numerique/consultation/consultation/opinions/section-2-travaux-de-recherche-et-de-statistique/article-9-acces-aux-travaux-de-la-recherche-financee-par-des-fonds-publics/versions/poir-un-droit-de-fouiller-les-textes-autoriser-le-text-et-datamining", 
            "id": "96005", 
            "opinion": "1"
        }, 
        {
            "article_title": "Pour une obligation de d\u00e9p\u00f4t des publications scientifiques dans une archive ouverte", 
            "date": "2015-10-15T13:52:00+0200", 
            "link": "http://www.republique-numerique.fr/projects/projet-de-loi-numerique/consultation/consultation/opinions/section-2-travaux-de-recherche-et-de-statistique/article-9-acces-aux-travaux-de-la-recherche-financee-par-des-fonds-publics/versions/pour-une-obligation-de-depot-des-publications-scientifiques-dans-une-archive-ouverte", 
            "id": "96021", 
            "opinion": "1"
        }
    ], 
    "sources": [], 
    "votes_count": 8, 
    "arguments": [], 
    "arguments_count": 0, 
    "propositions_count": 0, 
    "contributions_count": 0
}