{
    "modifications": [
        {
            "stats": {
                "source": "0", 
                "votes": "3", 
                "argument": "0"
            }, 
            "votes": {
                "data-ok": "2", 
                "data-mitige": "1", 
                "data-nok": "0"
            }, 
            "link": "/projects/projet-de-loi-numerique/consultation/consultation/opinions/section-1-ouverture-des-donnees-publiques-1/diffusion-sous-licence-libre-des-oeuvres-numeriques-creees-avec-un-financement-public/versions/restriction-de-diffusion-licence-libre", 
            "id": "1176", 
            "title": "Restriction de : Diffusion licence libre"
        }
    ], 
    "modifications_count": 1, 
    "sources_count": 0, 
    "propositions": [], 
    "votes": [
        {
            "article_title": "Diffusion sans anonymisation si disposition l\u00e9gislative ET accord de la personne concern\u00e9e, pas OU", 
            "date": "2015-10-16T10:57:00+0200", 
            "link": "http://www.republique-numerique.fr/projects/projet-de-loi-numerique/consultation/consultation/opinions/section-1-ouverture-des-donnees-publiques-1/article-1-elargissement-du-champ-de-diffusion-par-l-administration/versions/diffusion-sans-anonymisation-si-disposition-legale-et-si-autorisation-de-la-personne-concernee-pas-ou", 
            "id": "110227", 
            "opinion": "1"
        }, 
        {
            "article_title": "renforcement des dispositions d'anonymisation des donn\u00e9es \u00e0 caract\u00e8re personnel", 
            "date": "2015-10-16T11:00:00+0200", 
            "link": "http://www.republique-numerique.fr/projects/projet-de-loi-numerique/consultation/consultation/opinions/section-1-ouverture-des-donnees-publiques-1/article-1-elargissement-du-champ-de-diffusion-par-l-administration/versions/renforcement-des-dispositions-d-anonymisation-des-donnees-a-caractere-personnel", 
            "id": "110311", 
            "opinion": "-1"
        }, 
        {
            "article_title": "Donn\u00e9es priv\u00e9es de personnes physiques - exemple le dossier m\u00e9dicale g\u00e9r\u00e9 par la s\u00e9curit\u00e9 sociale.", 
            "date": "2015-10-16T11:07:00+0200", 
            "link": "http://www.republique-numerique.fr/projects/projet-de-loi-numerique/consultation/consultation/opinions/section-1-ouverture-des-donnees-publiques-1/article-2-principe-de-libre-reutilisation-des-donnees-pour-les-spic/versions/donnees-privees-de-personnes-physiques-exemple-le-dossier-medicale-gere-par-la-securite-sociale", 
            "id": "110513", 
            "opinion": "1"
        }, 
        {
            "article_title": "Uniquement avec l'accord de la / des personne(s) dont on veut transf\u00e9rer les donn\u00e9es.", 
            "date": "2015-10-16T11:15:00+0200", 
            "link": "http://www.republique-numerique.fr/projects/projet-de-loi-numerique/consultation/consultation/opinions/section-1-ouverture-des-donnees-publiques-1/article-3-dispositions-diverses/versions/uniquement-avec-l-accord-de-la-des-personne-s-dont-on-veut-transferer-les-donnees", 
            "id": "110691", 
            "opinion": "1"
        }, 
        {
            "article_title": "La r\u00e9utilisation des donn\u00e9es \u00e0 caract\u00e8re personnel doit \u00eatre declar\u00e9e \u00e0 la CNIL qui peut s'y opposer.", 
            "date": "2015-10-16T11:19:00+0200", 
            "link": "http://www.republique-numerique.fr/projects/projet-de-loi-numerique/consultation/consultation/opinions/section-1-ouverture-des-donnees-publiques-1/article-3-dispositions-diverses/versions/la-reutilisation-des-donnees-a-caractere-personnel-doit-etre-declaree-a-la-cnil-qui-peut-s-y-opposer", 
            "id": "110780", 
            "opinion": "1"
        }, 
        {
            "article_title": "Contr\u00f4le de l'absence de piratage du scrutin", 
            "date": "2015-10-16T11:28:00+0200", 
            "link": "http://www.republique-numerique.fr/projects/projet-de-loi-numerique/consultation/consultation/opinions/section-1-ouverture-des-donnees-publiques-1/le-vote-par-internet/versions/controle-de-l-absence-de-piratage-du-scrutin", 
            "id": "111002", 
            "opinion": "0"
        }, 
        {
            "article_title": "Sans secret, pas de fraude", 
            "date": "2015-10-16T11:31:00+0200", 
            "link": "http://www.republique-numerique.fr/projects/projet-de-loi-numerique/consultation/consultation/opinions/section-1-ouverture-des-donnees-publiques-1/le-vote-par-internet/versions/sans-secret-pas-de-fraude", 
            "id": "111054", 
            "opinion": "1"
        }, 
        {
            "article_title": "Education populaire au num\u00e9rique", 
            "date": "2015-10-16T11:35:00+0200", 
            "link": "http://www.republique-numerique.fr/projects/projet-de-loi-numerique/consultation/consultation/opinions/section-1-ouverture-des-donnees-publiques-1/creation-d-ateliers-citoyens-numeriques/versions/education-populaire-au-numerique", 
            "id": "111150", 
            "opinion": "1"
        }, 
        {
            "article_title": "Cela veut donc dire qu'un film r\u00e9alis\u00e9 avec le c...", 
            "date": "2015-10-16T11:38:00+0200", 
            "link": "http://www.republique-numerique.fr/projects/projet-de-loi-numerique/consultation/consultation/opinions/section-1-ouverture-des-donnees-publiques-1/diffusion-sous-licence-libre-des-oeuvres-numeriques-creees-avec-un-financement-public#arg-4037", 
            "id": "111228", 
            "opinion": "1"
        }, 
        {
            "article_title": "Diffusion sous licence libre des \u0153uvres num\u00e9riques cr\u00e9\u00e9es avec un financement public", 
            "date": "2015-10-16T11:42:00+0200", 
            "link": "http://www.republique-numerique.fr/projects/projet-de-loi-numerique/consultation/consultation/opinions/section-1-ouverture-des-donnees-publiques-1/diffusion-sous-licence-libre-des-oeuvres-numeriques-creees-avec-un-financement-public", 
            "id": "111343", 
            "opinion": "-1"
        }, 
        {
            "article_title": "Du capitalisme num\u00e9rique en d\u00e9mocratie participative", 
            "date": "2015-10-16T12:12:00+0200", 
            "link": "http://www.republique-numerique.fr/projects/projet-de-loi-numerique/consultation/consultation/opinions/section-1-ouverture-des-donnees-publiques-1/du-capitalisme-numerique-en-democratie-participative", 
            "id": "112037", 
            "opinion": "-1"
        }, 
        {
            "article_title": "Hors sujet. On parle i\u00e7i de l'ouverture des donn\ufffd...", 
            "date": "2015-10-16T12:16:00+0200", 
            "link": "http://www.republique-numerique.fr/projects/projet-de-loi-numerique/consultation/consultation/opinions/section-1-ouverture-des-donnees-publiques-1/creation-d-une-plate-forme-numerique-voter-avec-une-carte-d-electeur-numerique-des-l-age-de-16-ans#arg-1813", 
            "id": "112097", 
            "opinion": "1"
        }, 
        {
            "article_title": "Cr\u00e9ation d'une plate-forme num\u00e9rique \"@voter\" avec une carte d'\u00e9lecteur num\u00e9rique d\u00e8s l'\u00e2ge de 16 ans.", 
            "date": "2015-10-16T12:16:00+0200", 
            "link": "http://www.republique-numerique.fr/projects/projet-de-loi-numerique/consultation/consultation/opinions/section-1-ouverture-des-donnees-publiques-1/creation-d-une-plate-forme-numerique-voter-avec-une-carte-d-electeur-numerique-des-l-age-de-16-ans", 
            "id": "112114", 
            "opinion": "-1"
        }, 
        {
            "article_title": "Restriction de : Diffusion licence libre", 
            "date": "2015-10-16T12:41:00+0200", 
            "link": "http://www.republique-numerique.fr/projects/projet-de-loi-numerique/consultation/consultation/opinions/section-1-ouverture-des-donnees-publiques-1/diffusion-sous-licence-libre-des-oeuvres-numeriques-creees-avec-un-financement-public/versions/restriction-de-diffusion-licence-libre", 
            "id": "112508", 
            "opinion": "1"
        }, 
        {
            "article_title": "Je ne suis pas d\u2019accord avec ce que vous dites, ...", 
            "date": "2015-10-16T12:45:00+0200", 
            "link": "http://www.republique-numerique.fr/projects/projet-de-loi-numerique/consultation/consultation/opinions/section-1-ouverture-des-donnees-publiques-1/la-liberte-d-expression-totale-sur-internet-sans-aucune-restriction#arg-1525", 
            "id": "112600", 
            "opinion": "1"
        }, 
        {
            "article_title": "Il faut revenir au principe libert\u00e9 - responsabil...", 
            "date": "2015-10-16T12:47:00+0200", 
            "link": "http://www.republique-numerique.fr/projects/projet-de-loi-numerique/consultation/consultation/opinions/section-1-ouverture-des-donnees-publiques-1/la-liberte-d-expression-totale-sur-internet-sans-aucune-restriction#arg-3378", 
            "id": "112661", 
            "opinion": "1"
        }, 
        {
            "article_title": "\"Sans la libert\u00e9 d'offenser la libert\u00e9 d'express...", 
            "date": "2015-10-16T12:47:00+0200", 
            "link": "http://www.republique-numerique.fr/projects/projet-de-loi-numerique/consultation/consultation/opinions/section-1-ouverture-des-donnees-publiques-1/la-liberte-d-expression-totale-sur-internet-sans-aucune-restriction#arg-2032", 
            "id": "112667", 
            "opinion": "1"
        }, 
        {
            "article_title": "le sujet a fait l'objet de d\u00e9bat entre Siey\u00e8s ( ...", 
            "date": "2015-10-16T12:48:00+0200", 
            "link": "http://www.republique-numerique.fr/projects/projet-de-loi-numerique/consultation/consultation/opinions/section-1-ouverture-des-donnees-publiques-1/la-liberte-d-expression-totale-sur-internet-sans-aucune-restriction#arg-1881", 
            "id": "112678", 
            "opinion": "1"
        }, 
        {
            "article_title": "\"Parler de libert\u00e9 n\u2019a de sens qu\u2019\u00e0 conditio...", 
            "date": "2015-10-16T12:48:00+0200", 
            "link": "http://www.republique-numerique.fr/projects/projet-de-loi-numerique/consultation/consultation/opinions/section-1-ouverture-des-donnees-publiques-1/la-liberte-d-expression-totale-sur-internet-sans-aucune-restriction#arg-1527", 
            "id": "112687", 
            "opinion": "1"
        }, 
        {
            "article_title": "Si la libert\u00e9 d'expression se limite aux id\u00e9es q...", 
            "date": "2015-10-16T12:48:00+0200", 
            "link": "http://www.republique-numerique.fr/projects/projet-de-loi-numerique/consultation/consultation/opinions/section-1-ouverture-des-donnees-publiques-1/la-liberte-d-expression-totale-sur-internet-sans-aucune-restriction#arg-1526", 
            "id": "112692", 
            "opinion": "1"
        }, 
        {
            "article_title": "La libert\u00e9 d'expression totale sur internet sans aucune restriction.", 
            "date": "2015-10-16T12:49:00+0200", 
            "link": "http://www.republique-numerique.fr/projects/projet-de-loi-numerique/consultation/consultation/opinions/section-1-ouverture-des-donnees-publiques-1/la-liberte-d-expression-totale-sur-internet-sans-aucune-restriction", 
            "id": "112700", 
            "opinion": "1"
        }, 
        {
            "article_title": "Rendre \"open-source\" les secteurs alimentaire et pharmaceutique", 
            "date": "2015-10-16T12:52:00+0200", 
            "link": "http://www.republique-numerique.fr/projects/projet-de-loi-numerique/consultation/consultation/opinions/section-1-ouverture-des-donnees-publiques-1/rendre-open-source-les-secteurs-alimentaire-et-pharmaceutique", 
            "id": "112793", 
            "opinion": "1"
        }, 
        {
            "article_title": "Faciliter l'exploitation des donn\u00e9es \u00e0 caract\u00e8re personnel d\u00e9j\u00e0 publi\u00e9es", 
            "date": "2015-10-16T12:54:00+0200", 
            "link": "http://www.republique-numerique.fr/projects/projet-de-loi-numerique/consultation/consultation/opinions/section-1-ouverture-des-donnees-publiques-1/faciliter-l-exploitation-des-donnees-a-caractere-personnel-deja-publiees", 
            "id": "112836", 
            "opinion": "-1"
        }, 
        {
            "article_title": "Protection des lanceurs d'alerte", 
            "date": "2015-10-16T13:03:00+0200", 
            "link": "http://www.republique-numerique.fr/projects/projet-de-loi-numerique/consultation/consultation/opinions/section-1-ouverture-des-donnees-publiques-1/immunite-pour-les-lanceurs-d-alerte/versions/protection-des-lanceurs-d-alerte", 
            "id": "112975", 
            "opinion": "1"
        }, 
        {
            "article_title": "Ouvrir le droit de vote aux intelligences artificielles qui sont \u00e9quivalentes ou sup\u00e9rieures aux \u00eatres humains.", 
            "date": "2015-10-16T13:05:00+0200", 
            "link": "http://www.republique-numerique.fr/projects/projet-de-loi-numerique/consultation/consultation/opinions/section-1-ouverture-des-donnees-publiques-1/ouvrir-le-droit-de-vote-aux-intelligences-artificielles-qui-sont-equivalentes-ou-superieures-aux-etres-humains", 
            "id": "113017", 
            "opinion": "-1"
        }, 
        {
            "article_title": "Propri\u00e9t\u00e9 Litt\u00e9raire et Propri\u00e9t\u00e9 Scientifique", 
            "date": "2015-10-16T13:12:00+0200", 
            "link": "http://www.republique-numerique.fr/projects/projet-de-loi-numerique/consultation/consultation/opinions/section-1-ouverture-des-donnees-publiques-1/propriete-litteraire-et-propriete-scientifique", 
            "id": "113081", 
            "opinion": "1"
        }, 
        {
            "article_title": "Le citoyen et l\u2019image\u00e0 l\u2019\u00e8re du num\u00e9rique.. Statut unique du photographe", 
            "date": "2015-10-16T13:18:00+0200", 
            "link": "http://www.republique-numerique.fr/projects/projet-de-loi-numerique/consultation/consultation/opinions/section-1-ouverture-des-donnees-publiques-1/le-citoyen-et-l-image-a-l-ere-du-numerique-statut-unique-du-photographe", 
            "id": "113148", 
            "opinion": "1"
        }
    ], 
    "sources": [], 
    "votes_count": 27, 
    "arguments": [], 
    "arguments_count": 0, 
    "propositions_count": 0, 
    "contributions_count": 1
}