{
    "modifications": [], 
    "modifications_count": 0, 
    "sources_count": 0, 
    "propositions": [
        {
            "article_title": "mon analyse estconforme au WEB DU GEVAUDANVOTONS POUR UN DROIT A LA FIBRE", 
            "votes": {
                "data-ok": "0", 
                "data-mitige": "0", 
                "data-nok": "6"
            }, 
            "stats": {
                "modification": "0", 
                "source": "0", 
                "votes": "6", 
                "argument": "0"
            }, 
            "id": "559", 
            "article_link": "/projects/projet-de-loi-numerique/consultation/consultation/opinions/section-2-service-public-de-la-donnee-1/mon-analyse-est-conforme-au-web-du-gevaudan-votons-pour-un-droit-a-la-fibre"
        }
    ], 
    "votes": [], 
    "sources": [], 
    "votes_count": 0, 
    "arguments": [], 
    "arguments_count": 0, 
    "propositions_count": 1, 
    "contributions_count": 1
}