{
    "modifications": [], 
    "modifications_count": 0, 
    "sources_count": 0, 
    "propositions": [
        {
            "article_title": "L'id\u00e9ologie ne doit pas interf\u00e9rer dans le processus l\u00e9gislatif", 
            "votes": {
                "data-ok": "4", 
                "data-mitige": "0", 
                "data-nok": "6"
            }, 
            "stats": {
                "modification": "0", 
                "source": "0", 
                "votes": "10", 
                "arguments": "3"
            }, 
            "id": "461", 
            "article_link": "/projects/projet-de-loi-numerique/consultation/consultation/opinions/section-1-les-communs/l-ideologie-ne-doit-pas-inteferer-dans-le-processus-legislatif"
        }
    ], 
    "votes": [
        {
            "article_title": "il ne faut pas se limiter aux seules administartions et collectivit\u00e9s locales mais \u00e9tendre aussi auz filiales directes de l'\u00c9tat ( SNCF, EDF, France T\u00e9l\u00e9visions ...etc).", 
            "date": "2015-10-07T18:21:00+0200", 
            "link": "http://www.republique-numerique.fr/projects/projet-de-loi-numerique/consultation/consultation/opinions/section-1-ouverture-des-donnees-publiques-1/article-1-elargissement-du-champ-de-diffusion-par-l-administration/versions/il-ne-faut-pas-se-limiter-aux-seules-administartions-et-collectivites-locales-mais-etendre-aussi-auz-filiales-directes-de-l-etat-sncf-edf-france-televisions-etc", 
            "id": "36790", 
            "opinion": "1"
        }, 
        {
            "article_title": "Transparence profonde des march\u00e9s publiques", 
            "date": "2015-10-07T18:22:00+0200", 
            "link": "http://www.republique-numerique.fr/projects/projet-de-loi-numerique/consultation/consultation/opinions/section-1-ouverture-des-donnees-publiques-1/article-1-elargissement-du-champ-de-diffusion-par-l-administration/versions/transparence-profonde-des-marches-publiques", 
            "id": "36796", 
            "opinion": "1"
        }, 
        {
            "article_title": "Utiliser les logiciels libres & GNU/Linux dans les \u00e9coles et les universit\u00e9s", 
            "date": "2015-10-07T18:23:00+0200", 
            "link": "http://www.republique-numerique.fr/projects/projet-de-loi-numerique/consultation/consultation/opinions/section-2-service-public-de-la-donnee-1/utiliser-les-logiciels-libres-gnu-linux-dans-les-ecoles-et-les-universites", 
            "id": "36800", 
            "opinion": "-1"
        }, 
        {
            "article_title": "Etendre cette proposition \u00e0 toutes les entreprises dont l'\u00e9tat est actionnaire majoritaire", 
            "date": "2015-10-07T18:24:00+0200", 
            "link": "http://www.republique-numerique.fr/projects/projet-de-loi-numerique/consultation/consultation/opinions/section-2-service-public-de-la-donnee-1/utiliser-les-logiciels-libres-gnu-linux-dans-les-ecoles-et-les-universites/versions/etendre-cette-proposition-a-toutes-les-entreprises-dont-l-etat-est-actionnaire-majoritaire", 
            "id": "36802", 
            "opinion": "-1"
        }, 
        {
            "article_title": "Attention \u00e0 ne pas r\u00e9duire les comp\u00e9tences des \u00e9tudiants en millieu professionnel", 
            "date": "2015-10-07T18:37:00+0200", 
            "link": "http://www.republique-numerique.fr/projects/projet-de-loi-numerique/consultation/consultation/opinions/section-2-service-public-de-la-donnee-1/utiliser-les-logiciels-libres-gnu-linux-dans-les-ecoles-et-les-universites/versions/attention-a-ne-pas-reduire-les-competences-des-etudiants-en-millieu-professionnel", 
            "id": "36840", 
            "opinion": "1"
        }, 
        {
            "article_title": "Certains logiciels utilis\u00e9s dans les domaines tec...", 
            "date": "2015-10-07T18:37:00+0200", 
            "link": "http://www.republique-numerique.fr/projects/projet-de-loi-numerique/consultation/consultation/opinions/section-2-service-public-de-la-donnee-1/utiliser-les-logiciels-libres-gnu-linux-dans-les-ecoles-et-les-universites/versions/attention-a-ne-pas-reduire-les-competences-des-etudiants-en-millieu-professionnel#arg-2167", 
            "id": "36841", 
            "opinion": "1"
        }, 
        {
            "article_title": "Dans le fond je suis d'accord, mais le probl\u00e8me e...", 
            "date": "2015-10-07T18:37:00+0200", 
            "link": "http://www.republique-numerique.fr/projects/projet-de-loi-numerique/consultation/consultation/opinions/section-2-service-public-de-la-donnee-1/utiliser-les-logiciels-libres-gnu-linux-dans-les-ecoles-et-les-universites/versions/utiliser-des-systemes-d-exploitations-et-des-logiciels-libres#arg-1429", 
            "id": "36843", 
            "opinion": "1"
        }, 
        {
            "article_title": "Laisser le choix", 
            "date": "2015-10-07T18:41:00+0200", 
            "link": "http://www.republique-numerique.fr/projects/projet-de-loi-numerique/consultation/consultation/opinions/section-2-service-public-de-la-donnee-1/utiliser-les-logiciels-libres-gnu-linux-dans-les-ecoles-et-les-universites/versions/laisser-le-choix", 
            "id": "36856", 
            "opinion": "1"
        }, 
        {
            "article_title": "La licence GPL est une licence sp\u00e9cifi\u00e9e par un ...", 
            "date": "2015-10-07T18:47:00+0200", 
            "link": "http://www.republique-numerique.fr/projects/projet-de-loi-numerique/consultation/consultation/opinions/section-2-service-public-de-la-donnee-1/utiliser-les-logiciels-libres-gnu-linux-dans-les-ecoles-et-les-universites/versions/licence-gpl#arg-1469", 
            "id": "36885", 
            "opinion": "1"
        }, 
        {
            "article_title": "Ouvrir les donn\u00e9es ayant servi \u00e0 la r\u00e9daction d'un rapport publique", 
            "date": "2015-10-07T18:48:00+0200", 
            "link": "http://www.republique-numerique.fr/projects/projet-de-loi-numerique/consultation/consultation/opinions/section-1-ouverture-des-donnees-publiques-1/ouvrir-les-donnees-ayant-servi-a-la-redaction-d-un-rapport-publique", 
            "id": "36894", 
            "opinion": "1"
        }, 
        {
            "article_title": "Article 5 - Cr\u00e9ation d'un compte unique des services administratifs en ligne pour chaque citoyen", 
            "date": "2015-10-07T18:48:00+0200", 
            "link": "http://www.republique-numerique.fr/projects/projet-de-loi-numerique/consultation/consultation/opinions/section-2-service-public-de-la-donnee-1/article-5-creation-d-un-compte-unique-des-services-administratifs-en-ligne-pour-chaque-citoyen", 
            "id": "36895", 
            "opinion": "1"
        }, 
        {
            "article_title": "Article 8.0 - Libert\u00e9 de partage du savoir num\u00e9rique", 
            "date": "2015-10-07T18:49:00+0200", 
            "link": "http://www.republique-numerique.fr/projects/projet-de-loi-numerique/consultation/consultation/opinions/section-1-les-communs/article-8-0-liberte-de-partage-du-savoir-numerique", 
            "id": "36899", 
            "opinion": "1"
        }, 
        {
            "article_title": "Cette proposition est id\u00e9ologique. Par contre, da...", 
            "date": "2015-10-07T18:50:00+0200", 
            "link": "http://www.republique-numerique.fr/projects/projet-de-loi-numerique/consultation/consultation/opinions/section-2-travaux-de-recherche-et-de-statistique/article-11-0-financement-public-du-logiciel-libre#arg-1231", 
            "id": "36905", 
            "opinion": "1"
        }, 
        {
            "article_title": "Quand au sujet des licences, je vous fais remarque...", 
            "date": "2015-10-07T18:51:00+0200", 
            "link": "http://www.republique-numerique.fr/projects/projet-de-loi-numerique/consultation/consultation/opinions/section-2-travaux-de-recherche-et-de-statistique/article-11-0-financement-public-du-logiciel-libre#arg-1201", 
            "id": "36913", 
            "opinion": "1"
        }, 
        {
            "article_title": "L'\u00e9tat n'est pas l\u00e0 pour produire. De par mon ex...", 
            "date": "2015-10-07T18:51:00+0200", 
            "link": "http://www.republique-numerique.fr/projects/projet-de-loi-numerique/consultation/consultation/opinions/section-2-travaux-de-recherche-et-de-statistique/article-11-0-financement-public-du-logiciel-libre#arg-1198", 
            "id": "36916", 
            "opinion": "1"
        }, 
        {
            "article_title": "Ce point avait donn\u00e9 lieu \u00e0 un d\u00e9bat tr\u00e8s int\ufffd...", 
            "date": "2015-10-07T18:51:00+0200", 
            "link": "http://www.republique-numerique.fr/projects/projet-de-loi-numerique/consultation/consultation/opinions/section-2-travaux-de-recherche-et-de-statistique/article-11-0-financement-public-du-logiciel-libre#arg-1007", 
            "id": "36918", 
            "opinion": "1"
        }, 
        {
            "article_title": "les logiciels libres sous-tendent plusieurs busine...", 
            "date": "2015-10-07T18:51:00+0200", 
            "link": "http://www.republique-numerique.fr/projects/projet-de-loi-numerique/consultation/consultation/opinions/section-2-travaux-de-recherche-et-de-statistique/article-11-0-financement-public-du-logiciel-libre#arg-801", 
            "id": "36920", 
            "opinion": "1"
        }, 
        {
            "article_title": "Plut\u00f4t d'accord avec Pierre. Finance public = arg...", 
            "date": "2015-10-07T18:51:00+0200", 
            "link": "http://www.republique-numerique.fr/projects/projet-de-loi-numerique/consultation/consultation/opinions/section-2-travaux-de-recherche-et-de-statistique/article-11-0-financement-public-du-logiciel-libre#arg-618", 
            "id": "36921", 
            "opinion": "1"
        }, 
        {
            "article_title": "Soumettre le \"libre\" aux d\u00e9cisions de l'Etat, c'e...", 
            "date": "2015-10-07T18:51:00+0200", 
            "link": "http://www.republique-numerique.fr/projects/projet-de-loi-numerique/consultation/consultation/opinions/section-2-travaux-de-recherche-et-de-statistique/article-11-0-financement-public-du-logiciel-libre#arg-353", 
            "id": "36922", 
            "opinion": "1"
        }, 
        {
            "article_title": "Obliger \u00e0 utiliser certain outils plut\u00f4t que d'a...", 
            "date": "2015-10-07T18:52:00+0200", 
            "link": "http://www.republique-numerique.fr/projects/projet-de-loi-numerique/consultation/consultation/opinions/section-2-travaux-de-recherche-et-de-statistique/utiliser-des-outils-open-source-pour-ecrire-des-lois-numeriquement#arg-1349", 
            "id": "36924", 
            "opinion": "1"
        }, 
        {
            "article_title": "Quand bien m\u00eame les sources sont publi\u00e9es, rien ...", 
            "date": "2015-10-07T18:52:00+0200", 
            "link": "http://www.republique-numerique.fr/projects/projet-de-loi-numerique/consultation/consultation/opinions/section-2-travaux-de-recherche-et-de-statistique/utiliser-des-outils-open-source-pour-ecrire-des-lois-numeriquement#arg-1132", 
            "id": "36925", 
            "opinion": "1"
        }, 
        {
            "article_title": "laisser le choix aux utilisateurs car nous ne somm...", 
            "date": "2015-10-07T18:54:00+0200", 
            "link": "http://www.republique-numerique.fr/projects/projet-de-loi-numerique/consultation/consultation/opinions/section-3-loyaute-des-plateformes/interdiction-de-la-vente-liee-ordinateur-systeme-d-exploitation#arg-1845", 
            "id": "36942", 
            "opinion": "1"
        }, 
        {
            "article_title": "Je sais bien que cela touche en particulier les ve...", 
            "date": "2015-10-07T18:54:00+0200", 
            "link": "http://www.republique-numerique.fr/projects/projet-de-loi-numerique/consultation/consultation/opinions/section-3-loyaute-des-plateformes/interdiction-de-la-vente-liee-ordinateur-systeme-d-exploitation#arg-1710", 
            "id": "36944", 
            "opinion": "1"
        }, 
        {
            "article_title": "Voil\u00e0 \u00e0 mon avis ce qu\u2019il faudrait faire : fai...", 
            "date": "2015-10-07T18:54:00+0200", 
            "link": "http://www.republique-numerique.fr/projects/projet-de-loi-numerique/consultation/consultation/opinions/section-3-loyaute-des-plateformes/interdiction-de-la-vente-liee-ordinateur-systeme-d-exploitation#arg-1711", 
            "id": "36945", 
            "opinion": "1"
        }, 
        {
            "article_title": "Interdiction de la vente li\u00e9e ordinateur/syst\u00e8me d'exploitation", 
            "date": "2015-10-07T18:54:00+0200", 
            "link": "http://www.republique-numerique.fr/projects/projet-de-loi-numerique/consultation/consultation/opinions/section-3-loyaute-des-plateformes/interdiction-de-la-vente-liee-ordinateur-systeme-d-exploitation", 
            "id": "36947", 
            "opinion": "-1"
        }, 
        {
            "article_title": "Peu de chose \u00e0 voir avec une loi num\u00e9rique....", 
            "date": "2015-10-07T18:54:00+0200", 
            "link": "http://www.republique-numerique.fr/projects/projet-de-loi-numerique/consultation/consultation/opinions/section-3-loyaute-des-plateformes/interdiction-de-la-vente-liee-ordinateur-systeme-d-exploitation#arg-1520", 
            "id": "36948", 
            "opinion": "1"
        }, 
        {
            "article_title": "Pouvoir utiliser un OS diff\u00e9rent (notamment sur l...", 
            "date": "2015-10-07T18:54:00+0200", 
            "link": "http://www.republique-numerique.fr/projects/projet-de-loi-numerique/consultation/consultation/opinions/section-3-loyaute-des-plateformes/interdiction-de-la-vente-liee-ordinateur-systeme-d-exploitation#arg-1378", 
            "id": "36950", 
            "opinion": "1"
        }, 
        {
            "article_title": "C'est beaucoup trop restrictif si on le cantonne a...", 
            "date": "2015-10-07T18:54:00+0200", 
            "link": "http://www.republique-numerique.fr/projects/projet-de-loi-numerique/consultation/consultation/opinions/section-3-loyaute-des-plateformes/interdiction-de-la-vente-liee-ordinateur-systeme-d-exploitation#arg-1150", 
            "id": "36952", 
            "opinion": "1"
        }, 
        {
            "article_title": "Ona le droit de demander un ordinateur sans OS....", 
            "date": "2015-10-07T18:54:00+0200", 
            "link": "http://www.republique-numerique.fr/projects/projet-de-loi-numerique/consultation/consultation/opinions/section-3-loyaute-des-plateformes/interdiction-de-la-vente-liee-ordinateur-systeme-d-exploitation#arg-978", 
            "id": "36953", 
            "opinion": "1"
        }, 
        {
            "article_title": "Pas d'interdiction, un ordinateur doit \u00eatre achet...", 
            "date": "2015-10-07T18:54:00+0200", 
            "link": "http://www.republique-numerique.fr/projects/projet-de-loi-numerique/consultation/consultation/opinions/section-3-loyaute-des-plateformes/interdiction-de-la-vente-liee-ordinateur-systeme-d-exploitation#arg-954", 
            "id": "36954", 
            "opinion": "1"
        }, 
        {
            "article_title": "Je pense plus qu'il devrait y avoir un choix laiss...", 
            "date": "2015-10-07T18:54:00+0200", 
            "link": "http://www.republique-numerique.fr/projects/projet-de-loi-numerique/consultation/consultation/opinions/section-3-loyaute-des-plateformes/interdiction-de-la-vente-liee-ordinateur-systeme-d-exploitation#arg-676", 
            "id": "36955", 
            "opinion": "1"
        }, 
        {
            "article_title": "Interdire cette vente li\u00e9e serait rajouter un obs...", 
            "date": "2015-10-07T18:54:00+0200", 
            "link": "http://www.republique-numerique.fr/projects/projet-de-loi-numerique/consultation/consultation/opinions/section-3-loyaute-des-plateformes/interdiction-de-la-vente-liee-ordinateur-systeme-d-exploitation#arg-654", 
            "id": "36956", 
            "opinion": "1"
        }, 
        {
            "article_title": "Une licence OEM est li\u00e9e au mat\u00e9riel et le fourn...", 
            "date": "2015-10-07T18:54:00+0200", 
            "link": "http://www.republique-numerique.fr/projects/projet-de-loi-numerique/consultation/consultation/opinions/section-3-loyaute-des-plateformes/interdiction-de-la-vente-liee-ordinateur-systeme-d-exploitation#arg-576", 
            "id": "36957", 
            "opinion": "1"
        }, 
        {
            "article_title": "Limitation de la publicit\u00e9 sur le net", 
            "date": "2015-10-07T18:57:00+0200", 
            "link": "http://www.republique-numerique.fr/projects/projet-de-loi-numerique/consultation/consultation/opinions/section-4-information-des-consommateurs/limitation-de-la-publicite-sur-le-net", 
            "id": "36973", 
            "opinion": "1"
        }, 
        {
            "article_title": "\u00e7a, fallait pas nous donner la possibilit\u00e9 de no...", 
            "date": "2015-10-07T18:58:00+0200", 
            "link": "http://www.republique-numerique.fr/projects/projet-de-loi-numerique/consultation/consultation/opinions/section-2-confidentialite-des-correspondances-privees/amendement-de-la-loi-renseignement-pour-ajout-du-juge-judiciaire#arg-1584", 
            "id": "36978", 
            "opinion": "1"
        }, 
        {
            "article_title": "@gef :La CNCTR, m\u00eame si elle dispose de membres...", 
            "date": "2015-10-07T18:58:00+0200", 
            "link": "http://www.republique-numerique.fr/projects/projet-de-loi-numerique/consultation/consultation/opinions/section-2-confidentialite-des-correspondances-privees/amendement-de-la-loi-renseignement-pour-ajout-du-juge-judiciaire#arg-1539", 
            "id": "36979", 
            "opinion": "1"
        }, 
        {
            "article_title": "Mettre le Num\u00e9rique en avant est une tr\u00e8s bonne ...", 
            "date": "2015-10-07T18:58:00+0200", 
            "link": "http://www.republique-numerique.fr/projects/projet-de-loi-numerique/consultation/consultation/opinions/section-2-confidentialite-des-correspondances-privees/amendement-de-la-loi-renseignement-pour-ajout-du-juge-judiciaire#arg-1538", 
            "id": "36980", 
            "opinion": "1"
        }, 
        {
            "article_title": "Pour que le citoyen puisse avoir acc\u00e8s \u00e0 ses don...", 
            "date": "2015-10-07T18:58:00+0200", 
            "link": "http://www.republique-numerique.fr/projects/projet-de-loi-numerique/consultation/consultation/opinions/section-2-confidentialite-des-correspondances-privees/amendement-de-la-loi-renseignement-pour-ajout-du-juge-judiciaire#arg-1396", 
            "id": "36981", 
            "opinion": "1"
        }, 
        {
            "article_title": "La proposition de Solarus est, selon moi, \u00e0 compr...", 
            "date": "2015-10-07T18:58:00+0200", 
            "link": "http://www.republique-numerique.fr/projects/projet-de-loi-numerique/consultation/consultation/opinions/section-2-confidentialite-des-correspondances-privees/amendement-de-la-loi-renseignement-pour-ajout-du-juge-judiciaire#arg-1140", 
            "id": "36982", 
            "opinion": "1"
        }, 
        {
            "article_title": "Les interceptions sans contr\u00f4le judiciaire, c'est...", 
            "date": "2015-10-07T18:58:00+0200", 
            "link": "http://www.republique-numerique.fr/projects/projet-de-loi-numerique/consultation/consultation/opinions/section-2-confidentialite-des-correspondances-privees/amendement-de-la-loi-renseignement-pour-ajout-du-juge-judiciaire#arg-970", 
            "id": "36984", 
            "opinion": "1"
        }, 
        {
            "article_title": "la s\u00e9paration des pouvoir est un fondement de not...", 
            "date": "2015-10-07T18:58:00+0200", 
            "link": "http://www.republique-numerique.fr/projects/projet-de-loi-numerique/consultation/consultation/opinions/section-2-confidentialite-des-correspondances-privees/amendement-de-la-loi-renseignement-pour-ajout-du-juge-judiciaire#arg-426", 
            "id": "36985", 
            "opinion": "1"
        }, 
        {
            "article_title": "Amender en urgence la loi renseignement, encadrer ...", 
            "date": "2015-10-07T18:58:00+0200", 
            "link": "http://www.republique-numerique.fr/projects/projet-de-loi-numerique/consultation/consultation/opinions/section-2-confidentialite-des-correspondances-privees/amendement-de-la-loi-renseignement-pour-ajout-du-juge-judiciaire#arg-283", 
            "id": "36986", 
            "opinion": "1"
        }, 
        {
            "article_title": "La s\u00e9paration des pouvoir est ce qui est de plus ...", 
            "date": "2015-10-07T18:58:00+0200", 
            "link": "http://www.republique-numerique.fr/projects/projet-de-loi-numerique/consultation/consultation/opinions/section-2-confidentialite-des-correspondances-privees/amendement-de-la-loi-renseignement-pour-ajout-du-juge-judiciaire#arg-115", 
            "id": "36987", 
            "opinion": "1"
        }, 
        {
            "article_title": "C'est le pilier d'une d\u00e9mocratie, la s\u00e9paration ...", 
            "date": "2015-10-07T18:58:00+0200", 
            "link": "http://www.republique-numerique.fr/projects/projet-de-loi-numerique/consultation/consultation/opinions/section-2-confidentialite-des-correspondances-privees/amendement-de-la-loi-renseignement-pour-ajout-du-juge-judiciaire#arg-104", 
            "id": "36988", 
            "opinion": "1"
        }, 
        {
            "article_title": "En effet, certains articles du \"Projet de loi pour...", 
            "date": "2015-10-07T18:58:00+0200", 
            "link": "http://www.republique-numerique.fr/projects/projet-de-loi-numerique/consultation/consultation/opinions/section-2-confidentialite-des-correspondances-privees/amendement-de-la-loi-renseignement-pour-ajout-du-juge-judiciaire#arg-98", 
            "id": "36989", 
            "opinion": "1"
        }, 
        {
            "article_title": "Article 23 - D\u00e9veloppement des usages num\u00e9riques dans les territoires", 
            "date": "2015-10-07T18:58:00+0200", 
            "link": "http://www.republique-numerique.fr/projects/projet-de-loi-numerique/consultation/consultation/opinions/section-1-competences-et-organisation/article-23-schema-directeur-numerique-des-collectivites", 
            "id": "36992", 
            "opinion": "1"
        }, 
        {
            "article_title": "Droit \u00e0 l'internet", 
            "date": "2015-10-07T18:59:00+0200", 
            "link": "http://www.republique-numerique.fr/projects/projet-de-loi-numerique/consultation/consultation/opinions/section-1-competences-et-organisation/droit-a-l-internet", 
            "id": "36994", 
            "opinion": "1"
        }, 
        {
            "article_title": "Apprentissage de la programmation", 
            "date": "2015-10-07T18:59:00+0200", 
            "link": "http://www.republique-numerique.fr/projects/projet-de-loi-numerique/consultation/consultation/opinions/section-1-competences-et-organisation/apprentissage-de-la-programmation", 
            "id": "36998", 
            "opinion": "-1"
        }, 
        {
            "article_title": "Implication des citoyens dans la r\u00e9daction et l'\u00e9laboration des lois via le net", 
            "date": "2015-10-07T19:02:00+0200", 
            "link": "http://www.republique-numerique.fr/projects/projet-de-loi-numerique/consultation/consultation/opinions/section-1-competences-et-organisation/implication-des-citoyens-dans-la-redaction-et-l-elaboration-des-lois-via-le-net", 
            "id": "37021", 
            "opinion": "1"
        }, 
        {
            "article_title": "Article 26bis - Portage de la plateforme contribuez.republique-numerique.fr \u00e0 d'autre projet de loi", 
            "date": "2015-10-07T19:05:00+0200", 
            "link": "http://www.republique-numerique.fr/projects/projet-de-loi-numerique/consultation/consultation/opinions/section-1-recommande-electronique/article-26bis-portage-de-la-plateforme-contribuez-republique-numerique-fr-a-d-autre-projet-de-loi", 
            "id": "37039", 
            "opinion": "1"
        }, 
        {
            "article_title": "Cr\u00e9ation d'un plate-forme de r\u00e9vision de la consitution", 
            "date": "2015-10-07T19:05:00+0200", 
            "link": "http://www.republique-numerique.fr/projects/projet-de-loi-numerique/consultation/consultation/opinions/section-1-recommande-electronique/creation-d-un-plate-forme-de-revision-de-la-consitution", 
            "id": "37040", 
            "opinion": "1"
        }, 
        {
            "article_title": "Am\u00e9liorer l'ergonomie et la gestion des sites administratifs", 
            "date": "2015-10-07T19:06:00+0200", 
            "link": "http://www.republique-numerique.fr/projects/projet-de-loi-numerique/consultation/consultation/opinions/section-2-accessibilite-des-personnes-handicapees-aux-sites-internet-publics/ameliorer-l-ergonomie-et-la-gestion-des-sites-administratifs", 
            "id": "37042", 
            "opinion": "1"
        }, 
        {
            "article_title": "Article 30 - Maintien de la connexion", 
            "date": "2015-10-07T19:06:00+0200", 
            "link": "http://www.republique-numerique.fr/projects/projet-de-loi-numerique/consultation/consultation/opinions/section-3-maintien-de-la-connexion-internet/article-30-maintien-temporaire-de-la-connexion", 
            "id": "37044", 
            "opinion": "1"
        }, 
        {
            "article_title": "Obligation pour les op\u00e9rateurs de proposer un service d'acc\u00e8s \u00e0 Internet nu", 
            "date": "2015-10-07T19:09:00+0200", 
            "link": "http://www.republique-numerique.fr/projects/projet-de-loi-numerique/consultation/consultation/opinions/section-3-maintien-de-la-connexion-internet/obligation-pour-les-operateurs-de-proposer-un-service-d-acces-a-internet-nu", 
            "id": "37054", 
            "opinion": "1"
        }, 
        {
            "article_title": "Manque d'amour envers les \u00eatres", 
            "date": "2015-10-07T19:34:00+0200", 
            "link": "http://www.republique-numerique.fr/projects/projet-de-loi-numerique/consultation/consultation/opinions/section-1-ouverture-des-donnees-publiques-1/article-1-elargissement-du-champ-de-diffusion-par-l-administration/versions/manque-d-amour-envers-les-etres", 
            "id": "37172", 
            "opinion": "-1"
        }, 
        {
            "article_title": "Mettre sur pied une \u00e9cole pour initier au num\u00e9rique nos 618.00 \u00e9lus", 
            "date": "2015-10-07T19:36:00+0200", 
            "link": "http://www.republique-numerique.fr/projects/projet-de-loi-numerique/consultation/consultation/opinions/section-1-les-communs/mettre-sur-pied-une-ecole-pour-initier-au-numerique-nos-618-00-elus", 
            "id": "37179", 
            "opinion": "1"
        }, 
        {
            "article_title": "Proposer des ordinateurs grand-public \"propres\" avec Syst\u00e8mes GNU/Linux ou sans OS et ouvert \u00e0 la r\u00e9installation", 
            "date": "2015-10-07T19:36:00+0200", 
            "link": "http://www.republique-numerique.fr/projects/projet-de-loi-numerique/consultation/consultation/opinions/section-1-les-communs/proposer-des-ordinateurs-grand-public-propres-avec-systemes-gnu-linux-ou-sans-os-et-ouvert-a-la-reinstallation", 
            "id": "37181", 
            "opinion": "-1"
        }, 
        {
            "article_title": "Ajouter la promotion du chiffrement des communications dans les missions de la CNIL", 
            "date": "2015-10-09T07:33:00+0200", 
            "link": "http://www.republique-numerique.fr/projects/projet-de-loi-numerique/consultation/consultation/opinions/section-1-protection-des-donnees-a-caractere-personnel/article-17-missions-de-la-cnil/versions/ajouter-la-promotion-du-chiffrement-des-communications-dans-les-missions-de-la-cnil", 
            "id": "41649", 
            "opinion": "1"
        }
    ], 
    "sources": [], 
    "votes_count": 58, 
    "arguments": [
        {
            "article_title": "Signaler", 
            "votes": 1, 
            "article_link": "http://www.republique-numerique.fr/consultations/projet-de-loi-numerique/consultation/consultation/opinions/section-2-travaux-de-recherche-et-de-statistique/article-11-0-financement-public-du-logiciel-libre/arguments/2530/report", 
            "link": "http://www.republique-numerique.fr/consultations/projet-de-loi-numerique/consultation/consultation/opinions/section-2-travaux-de-recherche-et-de-statistique/article-11-0-financement-public-du-logiciel-libre/arguments/2530/report#arg-2530", 
            "date": "2015-10-07T18:50:00+0200", 
            "id": "2530"
        }, 
        {
            "article_title": "Signaler", 
            "votes": 3, 
            "article_link": "http://www.republique-numerique.fr/consultations/projet-de-loi-numerique/consultation/consultation/opinions/section-2-travaux-de-recherche-et-de-statistique/utiliser-des-outils-open-source-pour-ecrire-des-lois-numeriquement/arguments/2532/report", 
            "link": "http://www.republique-numerique.fr/consultations/projet-de-loi-numerique/consultation/consultation/opinions/section-2-travaux-de-recherche-et-de-statistique/utiliser-des-outils-open-source-pour-ecrire-des-lois-numeriquement/arguments/2532/report#arg-2532", 
            "date": "2015-10-07T18:53:00+0200", 
            "id": "2532"
        }, 
        {
            "article_title": "Signaler", 
            "votes": 4, 
            "article_link": "http://www.republique-numerique.fr/consultations/projet-de-loi-numerique/consultation/consultation/opinions/section-3-loyaute-des-plateformes/interdiction-de-la-vente-liee-ordinateur-systeme-d-exploitation/arguments/2534/report", 
            "link": "http://www.republique-numerique.fr/consultations/projet-de-loi-numerique/consultation/consultation/opinions/section-3-loyaute-des-plateformes/interdiction-de-la-vente-liee-ordinateur-systeme-d-exploitation/arguments/2534/report#arg-2534", 
            "date": "2015-10-07T18:56:00+0200", 
            "id": "2534"
        }, 
        {
            "article_title": "Signaler", 
            "votes": 5, 
            "article_link": "http://www.republique-numerique.fr/consultations/projet-de-loi-numerique/consultation/consultation/opinions/section-1-competences-et-organisation/apprentissage-de-la-programmation/arguments/2538/report", 
            "link": "http://www.republique-numerique.fr/consultations/projet-de-loi-numerique/consultation/consultation/opinions/section-1-competences-et-organisation/apprentissage-de-la-programmation/arguments/2538/report#arg-2538", 
            "date": "2015-10-07T19:02:00+0200", 
            "id": "2538"
        }, 
        {
            "article_title": "Signaler", 
            "votes": 2, 
            "article_link": "http://www.republique-numerique.fr/consultations/projet-de-loi-numerique/consultation/consultation/opinions/section-1-competences-et-organisation/implication-des-citoyens-dans-la-redaction-et-l-elaboration-des-lois-via-le-net/arguments/2539/report", 
            "link": "http://www.republique-numerique.fr/consultations/projet-de-loi-numerique/consultation/consultation/opinions/section-1-competences-et-organisation/implication-des-citoyens-dans-la-redaction-et-l-elaboration-des-lois-via-le-net/arguments/2539/report#arg-2539", 
            "date": "2015-10-07T19:04:00+0200", 
            "id": "2539"
        }, 
        {
            "article_title": "Signaler", 
            "votes": 3, 
            "article_link": "http://www.republique-numerique.fr/consultations/projet-de-loi-numerique/consultation/consultation/opinions/section-3-maintien-de-la-connexion-internet/obligation-pour-les-operateurs-de-proposer-un-service-d-acces-a-internet-nu/arguments/2541/report", 
            "link": "http://www.republique-numerique.fr/consultations/projet-de-loi-numerique/consultation/consultation/opinions/section-3-maintien-de-la-connexion-internet/obligation-pour-les-operateurs-de-proposer-un-service-d-acces-a-internet-nu/arguments/2541/report#arg-2541", 
            "date": "2015-10-07T19:09:00+0200", 
            "id": "2541"
        }
    ], 
    "arguments_count": 10, 
    "propositions_count": 1, 
    "contributions_count": 11
}