{
    "modifications": [], 
    "modifications_count": 0, 
    "sources_count": 0, 
    "propositions": [], 
    "votes": [
        {
            "article_title": "Maintien des cabines t\u00e9l\u00e9phoniques : Garantie acheminement Appels et Appels d'Urgence en cas de coupure \u00e9lectrique", 
            "date": "2015-10-07T11:07:00+0200", 
            "link": "http://www.republique-numerique.fr/projects/projet-de-loi-numerique/consultation/consultation/opinions/section-3-maintien-de-la-connexion-internet/maintien-des-cabines-telephoniques-garantie-acheminement-appels-et-appels-d-urgence-en-cas-de-coupure-electrique", 
            "id": "35251", 
            "opinion": "1"
        }, 
        {
            "article_title": "Non exclusion des citoyens r\u00e9ticents \u00e0 l'\u00e9gare du num\u00e9rique", 
            "date": "2015-10-07T11:13:00+0200", 
            "link": "http://www.republique-numerique.fr/projects/projet-de-loi-numerique/consultation/consultation/opinions/section-1-ouverture-des-donnees-publiques-1/non-exclusion-des-citoyens-reticents-a-l-egare-du-numerique", 
            "id": "35271", 
            "opinion": "1"
        }, 
        {
            "article_title": "article primordiale Acc\u00e8s a la 4G et la fibre pour tous", 
            "date": "2015-10-07T11:17:00+0200", 
            "link": "http://www.republique-numerique.fr/projects/projet-de-loi-numerique/consultation/consultation/opinions/section-1-ouverture-des-donnees-publiques-1/article-primordiale-acces-a-la-4g-et-la-fibre-pour-tous", 
            "id": "35291", 
            "opinion": "-1"
        }, 
        {
            "article_title": "Ouvrir le droit de vote aux intelligences artificielles qui sont \u00e9quivalentes ou sup\u00e9rieures aux \u00eatres humains.", 
            "date": "2015-10-07T11:18:00+0200", 
            "link": "http://www.republique-numerique.fr/projects/projet-de-loi-numerique/consultation/consultation/opinions/section-1-ouverture-des-donnees-publiques-1/ouvrir-le-droit-de-vote-aux-intelligences-artificielles-qui-sont-equivalentes-ou-superieures-aux-etres-humains", 
            "id": "35295", 
            "opinion": "-1"
        }, 
        {
            "article_title": "Acc\u00e8s aux personnes isol\u00e9es et \u00e2g\u00e9es", 
            "date": "2015-10-07T11:22:00+0200", 
            "link": "http://www.republique-numerique.fr/projects/projet-de-loi-numerique/consultation/consultation/opinions/section-1-accessibilite-des-personnes-handicapees-aux-services-telephoniques/acces-aux-personnes-isolees-et-agees", 
            "id": "35311", 
            "opinion": "-1"
        }, 
        {
            "article_title": "Article 27 - Paiement par SMS", 
            "date": "2015-10-07T11:25:00+0200", 
            "link": "http://www.republique-numerique.fr/projects/projet-de-loi-numerique/consultation/consultation/opinions/section-2-paiement-par-sms/article-27-paiement-par-sms", 
            "id": "35335", 
            "opinion": "-1"
        }, 
        {
            "article_title": "Inter-op\u00e9rabilit\u00e9 des acc\u00e8s WiFi publics", 
            "date": "2015-10-07T11:36:00+0200", 
            "link": "http://www.republique-numerique.fr/projects/projet-de-loi-numerique/consultation/consultation/opinions/section-2-couverture-numerique/inter-operabilite-des-acces-wifi-publics", 
            "id": "35377", 
            "opinion": "-1"
        }, 
        {
            "article_title": "informer les usagers sur les niveaux d'\u00e9mission", 
            "date": "2015-10-07T11:38:00+0200", 
            "link": "http://www.republique-numerique.fr/projects/projet-de-loi-numerique/consultation/consultation/opinions/section-2-couverture-numerique/informer-les-usagers-sur-les-niveaux-d-emission", 
            "id": "35386", 
            "opinion": "1"
        }, 
        {
            "article_title": "Un aspect du danger du num\u00e9rique a \u00e9t\u00e9 oubli\u00e9....", 
            "date": "2015-10-07T11:40:00+0200", 
            "link": "http://www.republique-numerique.fr/projects/projet-de-loi-numerique/consultation/consultation/opinions/section-4-information-des-consommateurs/sensibilisation-aux-dangers-du-numerique#arg-2408", 
            "id": "35390", 
            "opinion": "1"
        }, 
        {
            "article_title": "Beaucoup confondent \u00e8re du num\u00e9rique et moyens d...", 
            "date": "2015-10-07T11:41:00+0200", 
            "link": "http://www.republique-numerique.fr/projects/projet-de-loi-numerique/consultation/consultation/opinions/section-1-competences-et-organisation/developpement-de-la-couverture-numerique-dans-les-transports-en-commun-publics#arg-2473", 
            "id": "35398", 
            "opinion": "1"
        }, 
        {
            "article_title": "D\u00e9veloppement de la couverture num\u00e9rique dans les transports en commun publics", 
            "date": "2015-10-07T11:41:00+0200", 
            "link": "http://www.republique-numerique.fr/projects/projet-de-loi-numerique/consultation/consultation/opinions/section-1-competences-et-organisation/developpement-de-la-couverture-numerique-dans-les-transports-en-commun-publics", 
            "id": "35399", 
            "opinion": "-1"
        }
    ], 
    "sources": [], 
    "votes_count": 11, 
    "arguments": [], 
    "arguments_count": 0, 
    "propositions_count": 0, 
    "contributions_count": 0
}