{
    "modifications": [], 
    "modifications_count": 0, 
    "sources_count": 0, 
    "propositions": [
        {
            "article_title": "article primordiale Acc\u00e8s a la 4G et la fibre pour tous", 
            "votes": {
                "data-ok": "9", 
                "data-mitige": "4", 
                "data-nok": "14"
            }, 
            "stats": {
                "modification": "1", 
                "source": "0", 
                "votes": "27", 
                "arguments": "2"
            }, 
            "id": "359", 
            "article_link": "/projects/projet-de-loi-numerique/consultation/consultation/opinions/section-1-ouverture-des-donnees-publiques-1/article-primordiale-acces-a-la-4g-et-la-fibre-pour-tous"
        }
    ], 
    "votes": [], 
    "sources": [], 
    "votes_count": 0, 
    "arguments": [], 
    "arguments_count": 0, 
    "propositions_count": 1, 
    "contributions_count": 1
}