{
    "modifications": [], 
    "modifications_count": 0, 
    "sources_count": 0, 
    "propositions": [], 
    "votes": [
        {
            "article_title": "Le don par SMS pour toutes les associations", 
            "date": "2015-10-14T11:45:00+0200", 
            "link": "http://www.republique-numerique.fr/projects/projet-de-loi-numerique/consultation/consultation/opinions/section-2-paiement-par-sms/article-27-paiement-par-sms/versions/le-don-par-sms-pour-toutes-les-associations", 
            "id": "82281", 
            "opinion": "1"
        }, 
        {
            "article_title": "Consacrer un droit effectif \u00e0 la portabilit\u00e9", 
            "date": "2015-10-14T11:46:00+0200", 
            "link": "http://www.republique-numerique.fr/projects/projet-de-loi-numerique/consultation/consultation/opinions/section-2-portabilite-des-donnees/article-12-portabilite-des-donnees/versions/consacrer-un-droit-effectif-a-la-portabilite", 
            "id": "82303", 
            "opinion": "1"
        }
    ], 
    "sources": [], 
    "votes_count": 2, 
    "arguments": [], 
    "arguments_count": 0, 
    "propositions_count": 0, 
    "contributions_count": 0
}