{
    "modifications": [], 
    "modifications_count": 0, 
    "sources_count": 0, 
    "propositions": [], 
    "votes": [
        {
            "article_title": "Article 1 - Open data par d\u00e9faut (obligation de diffuser en ligne les principaux documents et donn\u00e9es des organismes publics)", 
            "date": "2015-10-13T16:55:00+0200", 
            "link": "http://www.republique-numerique.fr/projects/projet-de-loi-numerique/consultation/consultation/opinions/section-1-ouverture-des-donnees-publiques-1/article-1-elargissement-du-champ-de-diffusion-par-l-administration", 
            "id": "72284", 
            "opinion": "1"
        }, 
        {
            "article_title": "Article 2 - Libre r\u00e9utilisation des donn\u00e9es des services publics industriels et commerciaux", 
            "date": "2015-10-13T16:57:00+0200", 
            "link": "http://www.republique-numerique.fr/projects/projet-de-loi-numerique/consultation/consultation/opinions/section-1-ouverture-des-donnees-publiques-1/article-2-principe-de-libre-reutilisation-des-donnees-pour-les-spic", 
            "id": "72330", 
            "opinion": "0"
        }, 
        {
            "article_title": "Clarifier la port\u00e9e du droit de r\u00e9utilisation qui couvre \u00e0 la fois l'information publique et son contenant", 
            "date": "2015-10-13T16:58:00+0200", 
            "link": "http://www.republique-numerique.fr/projects/projet-de-loi-numerique/consultation/consultation/opinions/section-1-ouverture-des-donnees-publiques-1/article-2-principe-de-libre-reutilisation-des-donnees-pour-les-spic/versions/clarifier-la-portee-du-droit-de-reutilisation-qui-couvre-a-la-fois-l-information-publique-et-son-contenant", 
            "id": "72349", 
            "opinion": "1"
        }, 
        {
            "article_title": "Quid du droit des donn\u00e9es \u00e0 caract\u00e8re personnel ?", 
            "date": "2015-10-13T17:03:00+0200", 
            "link": "http://www.republique-numerique.fr/projects/projet-de-loi-numerique/consultation/consultation/opinions/section-1-ouverture-des-donnees-publiques-1/article-3-dispositions-diverses/versions/quid-du-droit-des-donnees-a-caractere-personnel", 
            "id": "72417", 
            "opinion": "1"
        }
    ], 
    "sources": [], 
    "votes_count": 4, 
    "arguments": [], 
    "arguments_count": 0, 
    "propositions_count": 0, 
    "contributions_count": 0
}