{
    "modifications": [], 
    "modifications_count": 0, 
    "sources_count": 0, 
    "propositions": [], 
    "votes": [
        {
            "article_title": "Utiliser les logiciels libres & GNU/Linux dans les \u00e9coles et les universit\u00e9s", 
            "date": "2015-10-18T17:34:00+0200", 
            "link": "http://www.republique-numerique.fr/projects/projet-de-loi-numerique/consultation/consultation/opinions/section-2-service-public-de-la-donnee-1/utiliser-les-logiciels-libres-gnu-linux-dans-les-ecoles-et-les-universites", 
            "id": "157021", 
            "opinion": "1"
        }, 
        {
            "article_title": "Cr\u00e9ation d'un service national d'audit des besoins logiciels de l'administration", 
            "date": "2015-10-18T17:34:00+0200", 
            "link": "http://www.republique-numerique.fr/projects/projet-de-loi-numerique/consultation/consultation/opinions/section-2-service-public-de-la-donnee-1/creation-d-un-service-national-d-audit-des-besoins-logiciels-de-l-administration", 
            "id": "157040", 
            "opinion": "1"
        }, 
        {
            "article_title": "Bloquer les publicit\u00e9s par d\u00e9faut dans les lieux destin\u00e9s \u00e0 l'Education.", 
            "date": "2015-10-18T17:35:00+0200", 
            "link": "http://www.republique-numerique.fr/projects/projet-de-loi-numerique/consultation/consultation/opinions/section-2-service-public-de-la-donnee-1/bloquer-les-publicites-par-defaut-dans-les-lieux-destines-a-l-education", 
            "id": "157069", 
            "opinion": "-1"
        }, 
        {
            "article_title": "Obligation de la pr\u00e9sence de l'extension .xxx pour les sites publiant des contenus \u00e9rotiques ou pornographiques", 
            "date": "2015-10-18T17:38:00+0200", 
            "link": "http://www.republique-numerique.fr/projects/projet-de-loi-numerique/consultation/consultation/opinions/section-2-service-public-de-la-donnee-1/obligation-de-la-presence-de-l-extension-xxx-pour-les-sites-publiant-des-contenus-erotiques-ou-pornographiques", 
            "id": "157183", 
            "opinion": "-1"
        }, 
        {
            "article_title": "Utilisation de GNU/Linux dans l'administration", 
            "date": "2015-10-18T17:41:00+0200", 
            "link": "http://www.republique-numerique.fr/projects/projet-de-loi-numerique/consultation/consultation/opinions/section-3-donnees-d-interet-general/utilisation-de-gnu-linux-dans-l-administration", 
            "id": "157264", 
            "opinion": "1"
        }, 
        {
            "article_title": "utiliser des outils open source pour ecrire des lois numeriquement", 
            "date": "2015-10-18T17:43:00+0200", 
            "link": "http://www.republique-numerique.fr/projects/projet-de-loi-numerique/consultation/consultation/opinions/section-2-travaux-de-recherche-et-de-statistique/utiliser-des-outils-open-source-pour-ecrire-des-lois-numeriquement", 
            "id": "157326", 
            "opinion": "1"
        }
    ], 
    "sources": [], 
    "votes_count": 6, 
    "arguments": [], 
    "arguments_count": 0, 
    "propositions_count": 0, 
    "contributions_count": 0
}