{
    "modifications": [], 
    "modifications_count": 0, 
    "sources_count": 0, 
    "propositions": [], 
    "votes": [
        {
            "article_title": "Prix du service d'accessibilit\u00e9", 
            "date": "2015-10-18T18:59:00+0200", 
            "link": "http://www.republique-numerique.fr/projects/projet-de-loi-numerique/consultation/consultation/opinions/section-1-accessibilite-des-personnes-handicapees-aux-services-telephoniques/prix-du-service-d-accessibilite", 
            "id": "159313", 
            "opinion": "1"
        }, 
        {
            "article_title": "Dignit\u00e9 des personnes sourdes et malentendantes", 
            "date": "2015-10-18T19:00:00+0200", 
            "link": "http://www.republique-numerique.fr/projects/projet-de-loi-numerique/consultation/consultation/opinions/section-1-accessibilite-des-personnes-handicapees-aux-services-telephoniques/dignite-des-personnes-sourdes-et-malentendantes", 
            "id": "159339", 
            "opinion": "1"
        }, 
        {
            "article_title": "Journal t\u00e9l\u00e9vis\u00e9 en Langue des Signes", 
            "date": "2015-10-18T19:00:00+0200", 
            "link": "http://www.republique-numerique.fr/projects/projet-de-loi-numerique/consultation/consultation/opinions/section-2-accessibilite-des-personnes-handicapees-aux-sites-internet-publics/journal-televise-en-langue-des-signes", 
            "id": "159350", 
            "opinion": "1"
        }, 
        {
            "article_title": "Traduction en LSF des sites internet du service public", 
            "date": "2015-10-18T19:01:00+0200", 
            "link": "http://www.republique-numerique.fr/projects/projet-de-loi-numerique/consultation/consultation/opinions/section-2-accessibilite-des-personnes-handicapees-aux-sites-internet-publics/traduction-en-lsf-des-sites-internet-de-service-public", 
            "id": "159355", 
            "opinion": "1"
        }, 
        {
            "article_title": "Clarification du service d'accessibilit\u00e9", 
            "date": "2015-10-18T19:01:00+0200", 
            "link": "http://www.republique-numerique.fr/projects/projet-de-loi-numerique/consultation/consultation/opinions/section-1-accessibilite-des-personnes-handicapees-aux-services-telephoniques/article-28-accueil-telephonique-des-personnes-publiques-et-des-entreprises-offre-pour-les-deficients-auditifs/versions/clarification-du-service-d-accessibilite", 
            "id": "159359", 
            "opinion": "1"
        }, 
        {
            "article_title": "Stigmatisation par \"d\u00e9ficience\"", 
            "date": "2015-10-18T19:02:00+0200", 
            "link": "http://www.republique-numerique.fr/projects/projet-de-loi-numerique/consultation/consultation/opinions/section-1-accessibilite-des-personnes-handicapees-aux-services-telephoniques/article-28-accueil-telephonique-des-personnes-publiques-et-des-entreprises-offre-pour-les-deficients-auditifs/versions/stigmatisation-par-deficience", 
            "id": "159371", 
            "opinion": "1"
        }
    ], 
    "sources": [], 
    "votes_count": 6, 
    "arguments": [], 
    "arguments_count": 0, 
    "propositions_count": 0, 
    "contributions_count": 0
}