{
    "modifications": [
        {
            "stats": {
                "source": "1", 
                "votes": "40", 
                "arguments": "2"
            }, 
            "votes": {
                "data-ok": "39", 
                "data-mitige": "1", 
                "data-nok": "0"
            }, 
            "link": "/projects/projet-de-loi-numerique/consultation/consultation/opinions/section-1-ouverture-des-donnees-publiques-1/article-1-elargissement-du-champ-de-diffusion-par-l-administration/versions/champ-d-application-de-l-article-1-etendu-aux-collectivites-locales", 
            "id": "98", 
            "title": "Champ d'application de l'article 1 \u00e9tendu aux collectivit\u00e9s locales"
        }, 
        {
            "stats": {
                "source": "0", 
                "votes": "17", 
                "argument": "0"
            }, 
            "votes": {
                "data-ok": "13", 
                "data-mitige": "3", 
                "data-nok": "1"
            }, 
            "link": "/projects/projet-de-loi-numerique/consultation/consultation/opinions/section-3-donnees-d-interet-general/article-7-acces-de-la-statistique-publique-aux-bases-de-donnees-privees/versions/acces-aux-donnees-de-sante-de-type-pmsi-dans-le-cadre-des-enquetes-de-l-insee", 
            "id": "107", 
            "title": "Acc\u00e9s aux donn\u00e9es de sant\u00e9 (de type PMSI) dans le cadre des enqu\u00eates de l'INSEE"
        }, 
        {
            "stats": {
                "source": "0", 
                "votes": "13", 
                "argument": "0"
            }, 
            "votes": {
                "data-ok": "13", 
                "data-mitige": "0", 
                "data-nok": "0"
            }, 
            "link": "/projects/projet-de-loi-numerique/consultation/consultation/opinions/section-1-les-communs/article-8-definition-du-domaine-commun-informationnel/versions/modification-3deg-alinea", 
            "id": "112", 
            "title": "Modification 3\u00b0 alin\u00e9a"
        }, 
        {
            "stats": {
                "source": "0", 
                "votes": "15", 
                "arguments": "3"
            }, 
            "votes": {
                "data-ok": "12", 
                "data-mitige": "2", 
                "data-nok": "1"
            }, 
            "link": "/projects/projet-de-loi-numerique/consultation/consultation/opinions/section-2-travaux-de-recherche-et-de-statistique/article-10-nir-statistique/versions/inclure-l-acces-aux-donnees-du-pmsi", 
            "id": "117", 
            "title": "Inclure l'acc\u00e8s aux donn\u00e9es du PMSI"
        }, 
        {
            "stats": {
                "source": "0", 
                "votes": "63", 
                "arguments": "6"
            }, 
            "votes": {
                "data-ok": "61", 
                "data-mitige": "1", 
                "data-nok": "1"
            }, 
            "link": "/projects/projet-de-loi-numerique/consultation/consultation/opinions/section-2-portabilite-des-donnees/article-12-portabilite-des-donnees/versions/utilisation-de-formats-libres-et-ouverts-pour-l-echange-des-donnees", 
            "id": "135", 
            "title": "Utilisation de formats libres et ouverts pour l'\u00e9change des donn\u00e9es"
        }, 
        {
            "stats": {
                "source": "0", 
                "votes": "12", 
                "argument": "0"
            }, 
            "votes": {
                "data-ok": "11", 
                "data-mitige": "0", 
                "data-nok": "1"
            }, 
            "link": "/projects/projet-de-loi-numerique/consultation/consultation/opinions/section-1-protection-des-donnees-a-caractere-personnel/article-17-missions-de-la-cnil/versions/participation-a-la-cnctr", 
            "id": "137", 
            "title": "Participation \u00e0 la CNCTR"
        }, 
        {
            "stats": {
                "source": "0", 
                "votes": "31", 
                "arguments": "5"
            }, 
            "votes": {
                "data-ok": "29", 
                "data-mitige": "1", 
                "data-nok": "1"
            }, 
            "link": "/projects/projet-de-loi-numerique/consultation/consultation/opinions/section-1-protection-des-donnees-a-caractere-personnel/article-21-procedure-de-sanction-de-la-cnil/versions/pourquoi-exclure-l-etat-de-la-sanction", 
            "id": "139", 
            "title": "Pourquoi exclure l'Etat de la sanction ?"
        }
    ], 
    "modifications_count": 7, 
    "sources_count": 0, 
    "propositions": [
        {
            "article_title": "T\u00e9l\u00e9chargement des vid\u00e9os francetv pluzz", 
            "votes": {
                "data-ok": "31", 
                "data-mitige": "2", 
                "data-nok": "6"
            }, 
            "stats": {
                "modification": "0", 
                "source": "0", 
                "votes": "39", 
                "arguments": "4"
            }, 
            "id": "456", 
            "article_link": "/projects/projet-de-loi-numerique/consultation/consultation/opinions/section-1-ouverture-des-donnees-publiques-1/telechargement-des-videos-francetv-pluzz"
        }, 
        {
            "article_title": "Baisser le prix du livre num\u00e9rique", 
            "votes": {
                "data-ok": "12", 
                "data-mitige": "2", 
                "data-nok": "18"
            }, 
            "stats": {
                "modification": "0", 
                "source": "0", 
                "votes": "32", 
                "arguments": "3"
            }, 
            "id": "515", 
            "article_link": "/projects/projet-de-loi-numerique/consultation/consultation/opinions/section-1-les-communs/baisser-le-prix-du-livre-numerique"
        }
    ], 
    "votes": [
        {
            "article_title": "Article 1 - Open data par d\u00e9faut (obligation de diffuser en ligne les principaux documents et donn\u00e9es des organismes publics)", 
            "date": "2015-09-26T14:27:00+0200", 
            "link": "http://www.republique-numerique.fr/projects/projet-de-loi-numerique/consultation/consultation/opinions/section-1-ouverture-des-donnees-publiques-1/article-1-elargissement-du-champ-de-diffusion-par-l-administration", 
            "id": "804", 
            "opinion": "1"
        }, 
        {
            "article_title": "Article 2 - Libre r\u00e9utilisation des donn\u00e9es des services publics industriels et commerciaux", 
            "date": "2015-09-26T14:27:00+0200", 
            "link": "http://www.republique-numerique.fr/projects/projet-de-loi-numerique/consultation/consultation/opinions/section-1-ouverture-des-donnees-publiques-1/article-2-principe-de-libre-reutilisation-des-donnees-pour-les-spic", 
            "id": "806", 
            "opinion": "1"
        }, 
        {
            "article_title": "Article 3 - Droit d\u2019acc\u00e8s des organismes publics aux donn\u00e9es publiques & de r\u00e9utilisation d\u2019informations comportant des donn\u00e9es personnelles d\u00e9j\u00e0 publi\u00e9es", 
            "date": "2015-09-26T14:28:00+0200", 
            "link": "http://www.republique-numerique.fr/projects/projet-de-loi-numerique/consultation/consultation/opinions/section-1-ouverture-des-donnees-publiques-1/article-3-dispositions-diverses", 
            "id": "812", 
            "opinion": "1"
        }, 
        {
            "article_title": "Article 4 - Cr\u00e9ation d\u2019un service public de la donn\u00e9e (garantie de qualit\u00e9 des donn\u00e9es publiques de r\u00e9f\u00e9rence)", 
            "date": "2015-09-26T14:30:00+0200", 
            "link": "http://www.republique-numerique.fr/projects/projet-de-loi-numerique/consultation/consultation/opinions/section-2-service-public-de-la-donnee-1/article-4-creation-d-un-service-public-de-la-donnee", 
            "id": "822", 
            "opinion": "1"
        }, 
        {
            "article_title": "Article 5 - Ouverture des donn\u00e9es des d\u00e9l\u00e9gations de service public", 
            "date": "2015-09-26T14:31:00+0200", 
            "link": "http://www.republique-numerique.fr/projects/projet-de-loi-numerique/consultation/consultation/opinions/section-3-donnees-d-interet-general/article-5-ouverture-des-donnees-par-defaut-dans-les-contrats-de-dsp", 
            "id": "830", 
            "opinion": "1"
        }, 
        {
            "article_title": "Article 6 - Ouverture des donn\u00e9es des subventions publiques", 
            "date": "2015-09-26T14:32:00+0200", 
            "link": "http://www.republique-numerique.fr/projects/projet-de-loi-numerique/consultation/consultation/opinions/section-3-donnees-d-interet-general/article-6-ouverture-des-donnees-dans-les-conventions-de-subventions", 
            "id": "838", 
            "opinion": "1"
        }, 
        {
            "article_title": "Acc\u00e9s aux donn\u00e9es de sant\u00e9 (de type PMSI) dans le cadre des enqu\u00eates de l'INSEE", 
            "date": "2015-09-26T14:34:00+0200", 
            "link": "http://www.republique-numerique.fr/projects/projet-de-loi-numerique/consultation/consultation/opinions/section-3-donnees-d-interet-general/article-7-acces-de-la-statistique-publique-aux-bases-de-donnees-privees/versions/acces-aux-donnees-de-sante-de-type-pmsi-dans-le-cadre-des-enquetes-de-l-insee", 
            "id": "847", 
            "opinion": "1"
        }, 
        {
            "article_title": "Modification 3\u00b0 alin\u00e9a", 
            "date": "2015-09-26T14:35:00+0200", 
            "link": "http://www.republique-numerique.fr/projects/projet-de-loi-numerique/consultation/consultation/opinions/section-1-les-communs/article-8-definition-du-domaine-commun-informationnel/versions/modification-3deg-alinea", 
            "id": "852", 
            "opinion": "1"
        }, 
        {
            "article_title": "Article 9 - Libre acc\u00e8s aux publications scientifiques de la recherche publique", 
            "date": "2015-09-26T14:38:00+0200", 
            "link": "http://www.republique-numerique.fr/projects/projet-de-loi-numerique/consultation/consultation/opinions/section-2-travaux-de-recherche-et-de-statistique/article-9-acces-aux-travaux-de-la-recherche-financee-par-des-fonds-publics", 
            "id": "868", 
            "opinion": "1"
        }, 
        {
            "article_title": "Article 11 - Neutralit\u00e9 de l\u2019internet", 
            "date": "2015-09-26T16:24:00+0200", 
            "link": "http://www.republique-numerique.fr/projects/projet-de-loi-numerique/consultation/consultation/opinions/section-1-neutralite-de-l-internet/article-11-neutralite-de-l-internet", 
            "id": "1350", 
            "opinion": "1"
        }, 
        {
            "article_title": "Article 11bis - Transparence des algorithmes utilis\u00e9s par les services publiques et renforcement de la s\u00e9curit\u00e9 en ligne", 
            "date": "2015-09-26T16:25:00+0200", 
            "link": "http://www.republique-numerique.fr/projects/projet-de-loi-numerique/consultation/consultation/opinions/section-1-neutralite-de-l-internet/article-11bis-transparence-des-algorithmes-utilises-par-les-services-publiques", 
            "id": "1358", 
            "opinion": "1"
        }, 
        {
            "article_title": "Article 13 - Principe de loyaut\u00e9 des plateformes en lignes", 
            "date": "2015-09-26T16:31:00+0200", 
            "link": "http://www.republique-numerique.fr/projects/projet-de-loi-numerique/consultation/consultation/opinions/section-3-loyaute-des-plateformes/article-13-principe-de-loyaute-vis-a-vis-des-consommateurs", 
            "id": "1391", 
            "opinion": "1"
        }, 
        {
            "article_title": "Utilisation de formats libres et ouverts pour l'\u00e9change des donn\u00e9es", 
            "date": "2015-09-26T16:32:00+0200", 
            "link": "http://www.republique-numerique.fr/projects/projet-de-loi-numerique/consultation/consultation/opinions/section-2-portabilite-des-donnees/article-12-portabilite-des-donnees/versions/utilisation-de-formats-libres-et-ouverts-pour-l-echange-des-donnees", 
            "id": "1398", 
            "opinion": "1"
        }, 
        {
            "article_title": "Sanctionner les plateformes en cas de non-respect de ses obligations", 
            "date": "2015-09-26T16:33:00+0200", 
            "link": "http://www.republique-numerique.fr/projects/projet-de-loi-numerique/consultation/consultation/opinions/section-3-loyaute-des-plateformes/article-14-regulation/versions/sanctions-1", 
            "id": "1402", 
            "opinion": "1"
        }, 
        {
            "article_title": "Article 15 - Mieux informer sur les avis en ligne et sur les d\u00e9bits", 
            "date": "2015-09-26T16:35:00+0200", 
            "link": "http://www.republique-numerique.fr/projects/projet-de-loi-numerique/consultation/consultation/opinions/section-4-information-des-consommateurs/article-15-information-des-consommateurs-et-avis-en-ligne", 
            "id": "1420", 
            "opinion": "1"
        }, 
        {
            "article_title": "Cr\u00e9ation d'un statut de l'acteur collaboratif", 
            "date": "2015-09-26T16:36:00+0200", 
            "link": "http://www.republique-numerique.fr/projects/projet-de-loi-numerique/consultation/consultation/opinions/section-4-information-des-consommateurs/creation-d-un-statut-de-l-acteur-collaboratif", 
            "id": "1425", 
            "opinion": "1"
        }, 
        {
            "article_title": "Article 16 - Libre disposition de ses donn\u00e9es", 
            "date": "2015-09-26T16:38:00+0200", 
            "link": "http://www.republique-numerique.fr/projects/projet-de-loi-numerique/consultation/consultation/opinions/section-1-protection-des-donnees-a-caractere-personnel/article-16-libre-disposition-de-ses-donnees-a-caractere-personnel", 
            "id": "1434", 
            "opinion": "1"
        }, 
        {
            "article_title": "Participation \u00e0 la CNCTR", 
            "date": "2015-09-26T16:41:00+0200", 
            "link": "http://www.republique-numerique.fr/projects/projet-de-loi-numerique/consultation/consultation/opinions/section-1-protection-des-donnees-a-caractere-personnel/article-17-missions-de-la-cnil/versions/participation-a-la-cnctr", 
            "id": "1448", 
            "opinion": "1"
        }, 
        {
            "article_title": "Ajout de la certification du d\u00e9l\u00e9gu\u00e9 \u00e0 la protection des donn\u00e9es", 
            "date": "2015-09-26T16:42:00+0200", 
            "link": "http://www.republique-numerique.fr/projects/projet-de-loi-numerique/consultation/consultation/opinions/section-1-protection-des-donnees-a-caractere-personnel/article-18-certificat-de-conformite/versions/ajout-de-la-certification-du-delegue-a-la-protection-des-donnees", 
            "id": "1454", 
            "opinion": "1"
        }, 
        {
            "article_title": "Modification premier alin\u00e9a", 
            "date": "2015-09-26T16:43:00+0200", 
            "link": "http://www.republique-numerique.fr/projects/projet-de-loi-numerique/consultation/consultation/opinions/section-1-protection-des-donnees-a-caractere-personnel/article-19-droit-a-l-oubli-pour-les-mineurs-procedure-acceleree/versions/modification-premier-alinea", 
            "id": "1463", 
            "opinion": "1"
        }, 
        {
            "article_title": "Enregistrement des directives aupr\u00e8s de la CNIL", 
            "date": "2015-09-26T16:44:00+0200", 
            "link": "http://www.republique-numerique.fr/projects/projet-de-loi-numerique/consultation/consultation/opinions/section-1-protection-des-donnees-a-caractere-personnel/article-20-personnes-decedees/versions/enregistrement-des-directives-aupres-de-la-cnil", 
            "id": "1467", 
            "opinion": "1"
        }, 
        {
            "article_title": "Pourquoi exclure l'Etat de la sanction ?", 
            "date": "2015-09-26T16:47:00+0200", 
            "link": "http://www.republique-numerique.fr/projects/projet-de-loi-numerique/consultation/consultation/opinions/section-1-protection-des-donnees-a-caractere-personnel/article-21-procedure-de-sanction-de-la-cnil/versions/pourquoi-exclure-l-etat-de-la-sanction", 
            "id": "1487", 
            "opinion": "1"
        }, 
        {
            "article_title": "Outiller les collectivit\u00e9s locales pour la mutualisation des projets num\u00e9rique locaux", 
            "date": "2015-09-26T16:55:00+0200", 
            "link": "http://www.republique-numerique.fr/projects/projet-de-loi-numerique/consultation/consultation/opinions/section-1-competences-et-organisation/article-23-schema-directeur-numerique-des-collectivites/versions/outiller-les-collectivites-locales-pour-la-mutualisation-des-projets-numerique-locaux", 
            "id": "1524", 
            "opinion": "1"
        }, 
        {
            "article_title": "Droit \u00e0 l'internet", 
            "date": "2015-09-26T16:55:00+0200", 
            "link": "http://www.republique-numerique.fr/projects/projet-de-loi-numerique/consultation/consultation/opinions/section-1-competences-et-organisation/droit-a-l-internet", 
            "id": "1525", 
            "opinion": "1"
        }, 
        {
            "article_title": "Article 24 - Ouverture des donn\u00e9es de la couverture num\u00e9rique des territoires", 
            "date": "2015-09-26T16:57:00+0200", 
            "link": "http://www.republique-numerique.fr/projects/projet-de-loi-numerique/consultation/consultation/opinions/section-2-couverture-numerique/article-24-publicite-de-la-qualite-des-services-numeriques", 
            "id": "1533", 
            "opinion": "1"
        }, 
        {
            "article_title": "Article 25 - Modification des principes d\u2019\u00e9tablissement des redevances d\u2019utilisation des fr\u00e9quences", 
            "date": "2015-09-26T16:58:00+0200", 
            "link": "http://www.republique-numerique.fr/projects/projet-de-loi-numerique/consultation/consultation/opinions/section-2-couverture-numerique/article-25-principe-de-calcul-des-redevances-d-usage-des-frequences", 
            "id": "1537", 
            "opinion": "1"
        }, 
        {
            "article_title": "R\u00e9seau internet public", 
            "date": "2015-09-26T16:58:00+0200", 
            "link": "http://www.republique-numerique.fr/projects/projet-de-loi-numerique/consultation/consultation/opinions/section-2-couverture-numerique/reseau-internet-public", 
            "id": "1543", 
            "opinion": "1"
        }, 
        {
            "article_title": "Obligation de rendre les appareils connect\u00e9s compatibles avec le protocole IPv6", 
            "date": "2015-09-26T16:59:00+0200", 
            "link": "http://www.republique-numerique.fr/projects/projet-de-loi-numerique/consultation/consultation/opinions/section-2-couverture-numerique/obligation-de-rendre-les-appareils-connectes-compatibles-avec-le-protocole-ipv6", 
            "id": "1552", 
            "opinion": "1"
        }, 
        {
            "article_title": "L'obligation des FAI de permettre l'auto-h\u00e9bergement", 
            "date": "2015-09-26T16:59:00+0200", 
            "link": "http://www.republique-numerique.fr/projects/projet-de-loi-numerique/consultation/consultation/opinions/section-2-couverture-numerique/l-obligation-des-fai-de-permettre-l-auto-hebergement", 
            "id": "1556", 
            "opinion": "1"
        }, 
        {
            "article_title": "Une lettre recommand\u00e9e \u00e9lectronique de m\u00eame valeur que la lettre recommand\u00e9e postale", 
            "date": "2015-09-26T17:01:00+0200", 
            "link": "http://www.republique-numerique.fr/projects/projet-de-loi-numerique/consultation/consultation/opinions/section-1-recommande-electronique/article-26-recommande-electronique/versions/une-lettre-recommandee-electronique-de-meme-valeur-que-la-lettre-recommandee-postale", 
            "id": "1578", 
            "opinion": "1"
        }, 
        {
            "article_title": "Article 26bis - Portage de la plateforme contribuez.republique-numerique.fr \u00e0 d'autre projet de loi", 
            "date": "2015-09-26T17:02:00+0200", 
            "link": "http://www.republique-numerique.fr/projects/projet-de-loi-numerique/consultation/consultation/opinions/section-1-recommande-electronique/article-26bis-portage-de-la-plateforme-contribuez-republique-numerique-fr-a-d-autre-projet-de-loi", 
            "id": "1586", 
            "opinion": "1"
        }, 
        {
            "article_title": "ajout d'une demande de mot de passe ou d'un syst\u00e8me de v\u00e9rification de l'identit\u00e9", 
            "date": "2015-09-26T17:03:00+0200", 
            "link": "http://www.republique-numerique.fr/projects/projet-de-loi-numerique/consultation/consultation/opinions/section-2-paiement-par-sms/article-27-paiement-par-sms/versions/ajout-d-une-demande-de-mot-de-passe-ou-d-un-systeme-de-verification-de-l-identite", 
            "id": "1596", 
            "opinion": "1"
        }, 
        {
            "article_title": "Un paiement s\u00e9curis\u00e9", 
            "date": "2015-09-26T17:03:00+0200", 
            "link": "http://www.republique-numerique.fr/projects/projet-de-loi-numerique/consultation/consultation/opinions/section-2-paiement-par-sms/article-27-paiement-par-sms/versions/un-paiement-securise", 
            "id": "1602", 
            "opinion": "1"
        }, 
        {
            "article_title": "Article 28 - Accessibilit\u00e9 des services publics, des services client et des offres de communications \u00e9lectroniques aux personnes sourdes et malentendantes", 
            "date": "2015-09-26T17:04:00+0200", 
            "link": "http://www.republique-numerique.fr/projects/projet-de-loi-numerique/consultation/consultation/opinions/section-1-accessibilite-des-personnes-handicapees-aux-services-telephoniques/article-28-accueil-telephonique-des-personnes-publiques-et-des-entreprises-offre-pour-les-deficients-auditifs", 
            "id": "1611", 
            "opinion": "1"
        }, 
        {
            "article_title": "\u00c9tendre la port\u00e9e de l'amendement aux sites des entreprises fournisseurs de l'\u00c9tat, des collectivit\u00e9s territoriales et des entreprises publiques", 
            "date": "2015-09-26T17:06:00+0200", 
            "link": "http://www.republique-numerique.fr/projects/projet-de-loi-numerique/consultation/consultation/opinions/section-2-accessibilite-des-personnes-handicapees-aux-sites-internet-publics/article-29-accessibilite-numerique-des-services-publics/versions/etendre-la-portee-de-l-amendement-aux-sites-des-entreprises-fournisseurs-de-l-etat-des-collectivites-territoriales-et-des-entreprises-publiques", 
            "id": "1623", 
            "opinion": "1"
        }, 
        {
            "article_title": "Article 30 - Maintien de la connexion", 
            "date": "2015-09-26T17:07:00+0200", 
            "link": "http://www.republique-numerique.fr/projects/projet-de-loi-numerique/consultation/consultation/opinions/section-3-maintien-de-la-connexion-internet/article-30-maintien-temporaire-de-la-connexion", 
            "id": "1631", 
            "opinion": "1"
        }, 
        {
            "article_title": "Acc\u00e8s des personnes d\u00e9tenues au num\u00e9rique", 
            "date": "2015-09-26T17:08:00+0200", 
            "link": "http://www.republique-numerique.fr/projects/projet-de-loi-numerique/consultation/consultation/opinions/section-3-maintien-de-la-connexion-internet/acces-des-personnes-detenues-au-numerique", 
            "id": "1636", 
            "opinion": "0"
        }, 
        {
            "article_title": "chiffrement", 
            "date": "2015-09-29T10:09:00+0200", 
            "link": "http://www.republique-numerique.fr/projects/projet-de-loi-numerique/consultation/consultation/opinions/section-2-confidentialite-des-correspondances-privees/article-22-respect-des-correspondances-privees-numeriques/versions/chiffrement", 
            "id": "14421", 
            "opinion": "1"
        }, 
        {
            "article_title": "T\u00e9l\u00e9chargement des vid\u00e9os francetv pluzz", 
            "date": "2015-10-07T12:20:00+0200", 
            "link": "http://www.republique-numerique.fr/projects/projet-de-loi-numerique/consultation/consultation/opinions/section-1-ouverture-des-donnees-publiques-1/telechargement-des-videos-francetv-pluzz", 
            "id": "35532", 
            "opinion": "1"
        }, 
        {
            "article_title": "Num\u00e9risation des syst\u00e8mes de soins", 
            "date": "2015-10-07T12:27:00+0200", 
            "link": "http://www.republique-numerique.fr/projects/projet-de-loi-numerique/consultation/consultation/opinions/section-2-service-public-de-la-donnee-1/numerisation-des-systemes-de-soins", 
            "id": "35564", 
            "opinion": "-1"
        }, 
        {
            "article_title": "Acc\u00e8s aux statistiques de sant\u00e9 de la CPAM", 
            "date": "2015-10-07T12:32:00+0200", 
            "link": "http://www.republique-numerique.fr/projects/projet-de-loi-numerique/consultation/consultation/opinions/section-3-donnees-d-interet-general/acces-aux-statistiques-de-sante-de-la-cpam", 
            "id": "35572", 
            "opinion": "1"
        }, 
        {
            "article_title": "Article 8 bis - Libert\u00e9 de panorama", 
            "date": "2015-10-07T12:33:00+0200", 
            "link": "http://www.republique-numerique.fr/projects/projet-de-loi-numerique/consultation/consultation/opinions/section-1-les-communs/liberte-de-panorama", 
            "id": "35574", 
            "opinion": "1"
        }, 
        {
            "article_title": "Mettre sur pied une \u00e9cole pour initier au num\u00e9rique nos 618.00 \u00e9lus", 
            "date": "2015-10-07T12:34:00+0200", 
            "link": "http://www.republique-numerique.fr/projects/projet-de-loi-numerique/consultation/consultation/opinions/section-1-les-communs/mettre-sur-pied-une-ecole-pour-initier-au-numerique-nos-618-00-elus", 
            "id": "35576", 
            "opinion": "1"
        }, 
        {
            "article_title": "Instaurer la libert\u00e9 de panorama en France", 
            "date": "2015-10-07T12:36:00+0200", 
            "link": "http://www.republique-numerique.fr/projects/projet-de-loi-numerique/consultation/consultation/opinions/section-1-les-communs/instaurer-la-liberte-de-panorama-en-france", 
            "id": "35577", 
            "opinion": "1"
        }, 
        {
            "article_title": "Obligation de d\u00e9p\u00f4t des publications scientifiques dans une archive ouverte", 
            "date": "2015-10-07T12:39:00+0200", 
            "link": "http://www.republique-numerique.fr/projects/projet-de-loi-numerique/consultation/consultation/opinions/section-2-travaux-de-recherche-et-de-statistique/pour-une-obligation-de-depot-des-publications-scientifiques-dans-une-archive-ouverte", 
            "id": "35578", 
            "opinion": "1"
        }, 
        {
            "article_title": "Exception de fouille de textes et de donn\u00e9es", 
            "date": "2015-10-07T12:39:00+0200", 
            "link": "http://www.republique-numerique.fr/projects/projet-de-loi-numerique/consultation/consultation/opinions/section-2-travaux-de-recherche-et-de-statistique/exception-de-fouille-de-texte-et-de-donnees", 
            "id": "35579", 
            "opinion": "1"
        }, 
        {
            "article_title": "Interdiction de la vente li\u00e9e ordinateur/syst\u00e8me d'exploitation", 
            "date": "2015-10-07T12:42:00+0200", 
            "link": "http://www.republique-numerique.fr/projects/projet-de-loi-numerique/consultation/consultation/opinions/section-3-loyaute-des-plateformes/interdiction-de-la-vente-liee-ordinateur-systeme-d-exploitation", 
            "id": "35585", 
            "opinion": "1"
        }, 
        {
            "article_title": "La reconnaissance du droit au chiffrement", 
            "date": "2015-10-07T12:44:00+0200", 
            "link": "http://www.republique-numerique.fr/projects/projet-de-loi-numerique/consultation/consultation/opinions/section-1-protection-des-donnees-a-caractere-personnel/la-reconnaissance-du-droit-au-chiffrement", 
            "id": "35588", 
            "opinion": "1"
        }, 
        {
            "article_title": "R\u00e9duire la dur\u00e9e de conservation des donn\u00e9es de connexion", 
            "date": "2015-10-07T12:44:00+0200", 
            "link": "http://www.republique-numerique.fr/projects/projet-de-loi-numerique/consultation/consultation/opinions/section-1-protection-des-donnees-a-caractere-personnel/reduire-la-duree-de-conservation-des-donnees-de-connexion", 
            "id": "35589", 
            "opinion": "1"
        }, 
        {
            "article_title": "Droit d'avoir un pseudo num\u00e9rique", 
            "date": "2015-10-07T12:44:00+0200", 
            "link": "http://www.republique-numerique.fr/projects/projet-de-loi-numerique/consultation/consultation/opinions/section-1-protection-des-donnees-a-caractere-personnel/droit-d-avoir-un-pseudo-numerique", 
            "id": "35590", 
            "opinion": "1"
        }, 
        {
            "article_title": "Article 22 - Secret des correspondances num\u00e9riques", 
            "date": "2015-10-07T12:46:00+0200", 
            "link": "http://www.republique-numerique.fr/projects/projet-de-loi-numerique/consultation/consultation/opinions/section-2-confidentialite-des-correspondances-privees/article-22-respect-des-correspondances-privees-numeriques", 
            "id": "35594", 
            "opinion": "1"
        }, 
        {
            "article_title": "Amendement de la Loi Renseignement pour ajout du juge judiciaire", 
            "date": "2015-10-07T12:47:00+0200", 
            "link": "http://www.republique-numerique.fr/projects/projet-de-loi-numerique/consultation/consultation/opinions/section-2-confidentialite-des-correspondances-privees/amendement-de-la-loi-renseignement-pour-ajout-du-juge-judiciaire", 
            "id": "35595", 
            "opinion": "1"
        }, 
        {
            "article_title": "Imposer le chiffrement par d\u00e9faut des courriers \u00e9lectroniques par les divers prestataires", 
            "date": "2015-10-07T12:47:00+0200", 
            "link": "http://www.republique-numerique.fr/projects/projet-de-loi-numerique/consultation/consultation/opinions/section-2-confidentialite-des-correspondances-privees/imposer-le-chiffrement-par-defaut-des-courriers-electroniques-par-les-divers-prestataires", 
            "id": "35596", 
            "opinion": "1"
        }, 
        {
            "article_title": "Impunit\u00e9 pour les lanceurs d'alerte qui mettent en lumi\u00e8re les abus des organismes priv\u00e9s ou publics", 
            "date": "2015-10-07T12:48:00+0200", 
            "link": "http://www.republique-numerique.fr/projects/projet-de-loi-numerique/consultation/consultation/opinions/section-2-confidentialite-des-correspondances-privees/impunite-pour-les-lanceurs-d-alerte-qui-mettent-en-lumiere-les-abus-des-organismes-prives-ou-publics", 
            "id": "35598", 
            "opinion": "1"
        }, 
        {
            "article_title": "22 bis : affirmer et encourager le droit au chiffrement des communications", 
            "date": "2015-10-07T12:48:00+0200", 
            "link": "http://www.republique-numerique.fr/projects/projet-de-loi-numerique/consultation/consultation/opinions/section-2-confidentialite-des-correspondances-privees/22-bis-affirmer-et-encourager-le-droit-au-chiffrement-des-communications", 
            "id": "35601", 
            "opinion": "1"
        }, 
        {
            "article_title": "23 : Autoriser les actions de groupe notamment en mati\u00e8re d'atteinte au droit sur les donn\u00e9es personnelles et la neutralit\u00e9 du Net", 
            "date": "2015-10-07T12:48:00+0200", 
            "link": "http://www.republique-numerique.fr/projects/projet-de-loi-numerique/consultation/consultation/opinions/section-2-confidentialite-des-correspondances-privees/23-autoriser-les-actions-de-groupe-notamment-en-matiere-d-atteinte-au-droit-sur-les-donnees-personnelles-et-la-neutralite-du-net", 
            "id": "35602", 
            "opinion": "1"
        }, 
        {
            "article_title": "Apprentissage de connaissance de base en informatique", 
            "date": "2015-10-07T13:33:00+0200", 
            "link": "http://www.republique-numerique.fr/projects/projet-de-loi-numerique/consultation/consultation/opinions/section-1-competences-et-organisation/apprentissage-de-la-programmation/versions/apprentissage-de-connaissance-de-base-en-informatique", 
            "id": "35668", 
            "opinion": "1"
        }, 
        {
            "article_title": "Fourniture de mat\u00e9riels sans surcharge d'OS propri\u00e9taires par les collectivit\u00e9s.", 
            "date": "2015-10-07T13:34:00+0200", 
            "link": "http://www.republique-numerique.fr/projects/projet-de-loi-numerique/consultation/consultation/opinions/section-1-competences-et-organisation/fourniture-de-materiels-sans-surcharge-d-os-proprietaires-par-les-collectivites", 
            "id": "35674", 
            "opinion": "1"
        }, 
        {
            "article_title": "Enseignement de l'informatique", 
            "date": "2015-10-07T13:36:00+0200", 
            "link": "http://www.republique-numerique.fr/projects/projet-de-loi-numerique/consultation/consultation/opinions/section-1-competences-et-organisation/enseignement-de-l-informatique", 
            "id": "35682", 
            "opinion": "1"
        }, 
        {
            "article_title": "Favoriser le t\u00e9l\u00e9travail pour r\u00e9duire les d\u00e9placements domicile travail", 
            "date": "2015-10-07T13:39:00+0200", 
            "link": "http://www.republique-numerique.fr/projects/projet-de-loi-numerique/consultation/consultation/opinions/section-2-couverture-numerique/favoriser-le-teletravail-pour-reduire-les-deplacements-domicile-travail", 
            "id": "35696", 
            "opinion": "1"
        }, 
        {
            "article_title": "Article 27 - Du paiement \u00e0 l'\u00e8re num\u00e9rique", 
            "date": "2015-10-07T13:41:00+0200", 
            "link": "http://www.republique-numerique.fr/projects/projet-de-loi-numerique/consultation/consultation/opinions/section-2-paiement-par-sms/article-27-du-paiement-a-l-ere-numerique", 
            "id": "35712", 
            "opinion": "-1"
        }, 
        {
            "article_title": "Obliger les FAI \u00e0 rendre le service qu'ils ont vendu", 
            "date": "2015-10-07T13:45:00+0200", 
            "link": "http://www.republique-numerique.fr/projects/projet-de-loi-numerique/consultation/consultation/opinions/section-3-maintien-de-la-connexion-internet/obliger-les-fai-a-rendre-le-service-qu-ils-ont-vendu", 
            "id": "35745", 
            "opinion": "1"
        }, 
        {
            "article_title": "Obligation pour les op\u00e9rateurs de proposer un service d'acc\u00e8s \u00e0 Internet nu", 
            "date": "2015-10-07T13:47:00+0200", 
            "link": "http://www.republique-numerique.fr/projects/projet-de-loi-numerique/consultation/consultation/opinions/section-3-maintien-de-la-connexion-internet/obligation-pour-les-operateurs-de-proposer-un-service-d-acces-a-internet-nu", 
            "id": "35748", 
            "opinion": "1"
        }, 
        {
            "article_title": "Baisser le prix du livre num\u00e9rique", 
            "date": "2015-10-10T12:58:00+0200", 
            "link": "http://www.republique-numerique.fr/projects/projet-de-loi-numerique/consultation/consultation/opinions/section-1-les-communs/baisser-le-prix-du-livre-numerique", 
            "id": "45582", 
            "opinion": "1"
        }
    ], 
    "sources": [], 
    "votes_count": 64, 
    "arguments": [
        {
            "article_title": "Signaler", 
            "votes": 0, 
            "article_link": "http://www.republique-numerique.fr/consultations/projet-de-loi-numerique/consultation/consultation/opinions/section-2-service-public-de-la-donnee-1/numerisation-des-systemes-de-soins/arguments/2478/report", 
            "link": "http://www.republique-numerique.fr/consultations/projet-de-loi-numerique/consultation/consultation/opinions/section-2-service-public-de-la-donnee-1/numerisation-des-systemes-de-soins/arguments/2478/report#arg-2478", 
            "date": "2015-10-07T12:27:00+0200", 
            "id": "2478"
        }
    ], 
    "arguments_count": 1, 
    "propositions_count": 2, 
    "contributions_count": 10
}