{
    "modifications": [], 
    "modifications_count": 0, 
    "sources_count": 0, 
    "propositions": [], 
    "votes": [
        {
            "article_title": "Droit \u00e0 la fibre pour les \"hyper ruraux\" !", 
            "date": "2015-10-11T21:11:00+0200", 
            "link": "http://www.republique-numerique.fr/projects/projet-de-loi-numerique/consultation/consultation/opinions/section-2-couverture-numerique/droit-a-la-fibre-pour-les-hyper-ruraux", 
            "id": "50232", 
            "opinion": "1"
        }, 
        {
            "article_title": "La fibre optique est absolument indispensable pour...", 
            "date": "2015-10-11T21:26:00+0200", 
            "link": "http://www.republique-numerique.fr/projects/projet-de-loi-numerique/consultation/consultation/opinions/section-2-couverture-numerique/droit-a-la-fibre-pour-les-hyper-ruraux#arg-2856", 
            "id": "50271", 
            "opinion": "1"
        }, 
        {
            "article_title": "Favoriser le t\u00e9l\u00e9travail pour r\u00e9duire les d\u00e9placements domicile travail", 
            "date": "2015-10-11T21:31:00+0200", 
            "link": "http://www.republique-numerique.fr/projects/projet-de-loi-numerique/consultation/consultation/opinions/section-2-couverture-numerique/favoriser-le-teletravail-pour-reduire-les-deplacements-domicile-travail", 
            "id": "50279", 
            "opinion": "1"
        }, 
        {
            "article_title": "DROIT \u00e0 la FIBRE", 
            "date": "2015-10-11T21:36:00+0200", 
            "link": "http://www.republique-numerique.fr/projects/projet-de-loi-numerique/consultation/consultation/opinions/section-1-ouverture-des-donnees-publiques-1/droit-a-la-fibre", 
            "id": "50297", 
            "opinion": "1"
        }, 
        {
            "article_title": "DROIT \u00e0 la FIBRE pour tous !", 
            "date": "2015-10-11T21:38:00+0200", 
            "link": "http://www.republique-numerique.fr/projects/projet-de-loi-numerique/consultation/consultation/opinions/section-1-neutralite-de-l-internet/droit-a-la-fibre-pour-tous", 
            "id": "50302", 
            "opinion": "1"
        }
    ], 
    "sources": [], 
    "votes_count": 5, 
    "arguments": [], 
    "arguments_count": 0, 
    "propositions_count": 0, 
    "contributions_count": 0
}