{
    "modifications": [], 
    "modifications_count": 0, 
    "sources_count": 0, 
    "propositions": [], 
    "votes": [
        {
            "article_title": "Utiliser les logiciels libres & GNU/Linux dans les \u00e9coles et les universit\u00e9s", 
            "date": "2015-10-06T14:52:00+0200", 
            "link": "http://www.republique-numerique.fr/projects/projet-de-loi-numerique/consultation/consultation/opinions/section-2-service-public-de-la-donnee-1/utiliser-les-logiciels-libres-gnu-linux-dans-les-ecoles-et-les-universites", 
            "id": "33411", 
            "opinion": "1"
        }, 
        {
            "article_title": "Donner la priorit\u00e9 aux logiciels libres et aux formats ouverts dans le service public national et local", 
            "date": "2015-10-10T13:21:00+0200", 
            "link": "http://www.republique-numerique.fr/projects/projet-de-loi-numerique/consultation/consultation/opinions/section-3-loyaute-des-plateformes/donner-la-priorite-aux-logiciels-libres-et-aux-formats-ouverts-dans-le-service-public-national-et-local", 
            "id": "45627", 
            "opinion": "1"
        }
    ], 
    "sources": [], 
    "votes_count": 2, 
    "arguments": [
        {
            "article_title": "Signaler", 
            "votes": 3, 
            "article_link": "http://www.republique-numerique.fr/consultations/projet-de-loi-numerique/consultation/consultation/opinions/section-3-donnees-d-interet-general/utilisation-de-gnu-linux-dans-l-administration/arguments/3033/report", 
            "link": "http://www.republique-numerique.fr/consultations/projet-de-loi-numerique/consultation/consultation/opinions/section-3-donnees-d-interet-general/utilisation-de-gnu-linux-dans-l-administration/arguments/3033/report#arg-3033", 
            "date": "2015-10-10T19:23:00+0200", 
            "id": "3033"
        }
    ], 
    "arguments_count": 1, 
    "propositions_count": 0, 
    "contributions_count": 1
}