{
    "modifications": [], 
    "modifications_count": 0, 
    "sources_count": 0, 
    "propositions": [], 
    "votes": [
        {
            "article_title": "Les politiques territoriales de la m\u00e9diation num\u00e9rique", 
            "date": "2015-10-16T12:43:00+0200", 
            "link": "http://www.republique-numerique.fr/projects/projet-de-loi-numerique/consultation/consultation/opinions/section-1-competences-et-organisation/les-politiques-territoriales-de-la-mediation-numerique", 
            "id": "112549", 
            "opinion": "1"
        }, 
        {
            "article_title": "La fabrication num\u00e9rique pour lutter contre l\u2019obsolescence programm\u00e9e.", 
            "date": "2015-10-16T12:44:00+0200", 
            "link": "http://www.republique-numerique.fr/projects/projet-de-loi-numerique/consultation/consultation/opinions/section-3-donnees-d-interet-general/la-fabrication-numerique-pour-lutter-contre-l-obsolescence-programmee", 
            "id": "112583", 
            "opinion": "1"
        }, 
        {
            "article_title": "L\u2019agr\u00e9ment \u00ab acteur de la m\u00e9diation num\u00e9rique d\u2019utilit\u00e9 sociale \u00bb", 
            "date": "2015-10-16T12:47:00+0200", 
            "link": "http://www.republique-numerique.fr/projects/projet-de-loi-numerique/consultation/consultation/opinions/section-1-competences-et-organisation/l-agrement-acteur-de-la-mediation-numerique-d-utilite-sociale", 
            "id": "112646", 
            "opinion": "1"
        }, 
        {
            "article_title": "Les p\u00f4les r\u00e9gionaux de la m\u00e9diation num\u00e9rique", 
            "date": "2015-10-16T12:48:00+0200", 
            "link": "http://www.republique-numerique.fr/projects/projet-de-loi-numerique/consultation/consultation/opinions/section-1-competences-et-organisation/les-poles-regionaux-de-la-mediation-numerique", 
            "id": "112690", 
            "opinion": "1"
        }, 
        {
            "article_title": "La fili\u00e8re de activit\u00e9s et m\u00e9tiers de la m\u00e9diation num\u00e9rique", 
            "date": "2015-10-16T12:50:00+0200", 
            "link": "http://www.republique-numerique.fr/projects/projet-de-loi-numerique/consultation/consultation/opinions/section-1-competences-et-organisation/la-filiere-de-activites-et-metiers-de-la-mediation-numerique", 
            "id": "112735", 
            "opinion": "1"
        }, 
        {
            "article_title": "Label \u201cEntreprise num\u00e9rique citoyenne \u201d", 
            "date": "2015-10-16T12:50:00+0200", 
            "link": "http://www.republique-numerique.fr/projects/projet-de-loi-numerique/consultation/consultation/opinions/section-1-competences-et-organisation/label-entreprise-numerique-citoyenne", 
            "id": "112746", 
            "opinion": "1"
        }, 
        {
            "article_title": "Article 3 - Droit d\u2019acc\u00e8s des organismes publics aux donn\u00e9es publiques & de r\u00e9utilisation d\u2019informations comportant des donn\u00e9es personnelles d\u00e9j\u00e0 publi\u00e9es", 
            "date": "2015-10-16T13:00:00+0200", 
            "link": "http://www.republique-numerique.fr/projects/projet-de-loi-numerique/consultation/consultation/opinions/section-1-ouverture-des-donnees-publiques-1/article-3-dispositions-diverses", 
            "id": "112939", 
            "opinion": "0"
        }, 
        {
            "article_title": "Article 30 - Maintien de la connexion", 
            "date": "2015-10-16T13:06:00+0200", 
            "link": "http://www.republique-numerique.fr/projects/projet-de-loi-numerique/consultation/consultation/opinions/section-3-maintien-de-la-connexion-internet/article-30-maintien-temporaire-de-la-connexion", 
            "id": "113025", 
            "opinion": "1"
        }, 
        {
            "article_title": "Une disposition l\u00e9gale doit avoir une valeur norm...", 
            "date": "2015-10-16T13:22:00+0200", 
            "link": "http://www.republique-numerique.fr/projects/projet-de-loi-numerique/consultation/consultation/opinions/section-1-protection-des-donnees-a-caractere-personnel/article-16-libre-disposition-de-ses-donnees-a-caractere-personnel#arg-1771", 
            "id": "113193", 
            "opinion": "1"
        }, 
        {
            "article_title": "Qu'entend-on par \"donn\u00e9es personnelles ne portant...", 
            "date": "2015-10-16T13:26:00+0200", 
            "link": "http://www.republique-numerique.fr/projects/projet-de-loi-numerique/consultation/consultation/opinions/section-1-ouverture-des-donnees-publiques-1/article-3-dispositions-diverses#arg-3100", 
            "id": "113254", 
            "opinion": "1"
        }, 
        {
            "article_title": "Je suis assez partag\u00e9... En tant que chercheur en...", 
            "date": "2015-10-16T13:27:00+0200", 
            "link": "http://www.republique-numerique.fr/projects/projet-de-loi-numerique/consultation/consultation/opinions/section-1-ouverture-des-donnees-publiques-1/article-3-dispositions-diverses#arg-2684", 
            "id": "113266", 
            "opinion": "1"
        }, 
        {
            "article_title": "Retrait de l'article 8", 
            "date": "2015-10-16T13:34:00+0200", 
            "link": "http://www.republique-numerique.fr/projects/projet-de-loi-numerique/consultation/consultation/opinions/section-1-les-communs/article-8-definition-du-domaine-commun-informationnel/versions/retrait-de-l-article-8", 
            "id": "113361", 
            "opinion": "1"
        }
    ], 
    "sources": [], 
    "votes_count": 12, 
    "arguments": [], 
    "arguments_count": 0, 
    "propositions_count": 0, 
    "contributions_count": 0
}