{
    "modifications": [], 
    "modifications_count": 0, 
    "sources_count": 0, 
    "propositions": [], 
    "votes": [
        {
            "article_title": "Interdiction de la vente li\u00e9e ordinateur/syst\u00e8me d'exploitation", 
            "date": "2015-10-12T22:28:00+0200", 
            "link": "http://www.republique-numerique.fr/projects/projet-de-loi-numerique/consultation/consultation/opinions/section-3-loyaute-des-plateformes/interdiction-de-la-vente-liee-ordinateur-systeme-d-exploitation", 
            "id": "57097", 
            "opinion": "1"
        }, 
        {
            "article_title": "Attendre la d\u00e9cision de la Cour Europ\u00e9enne de Justice (CJUE)", 
            "date": "2015-10-12T22:39:00+0200", 
            "link": "http://www.republique-numerique.fr/projects/projet-de-loi-numerique/consultation/consultation/opinions/section-3-loyaute-des-plateformes/interdiction-de-la-vente-liee-ordinateur-systeme-d-exploitation/versions/attendre-la-decision-de-la-cour-europeenne-de-justice-cjue", 
            "id": "57230", 
            "opinion": "-1"
        }, 
        {
            "article_title": "Utiliser les logiciels libres & GNU/Linux dans les \u00e9coles et les universit\u00e9s", 
            "date": "2015-10-12T22:46:00+0200", 
            "link": "http://www.republique-numerique.fr/projects/projet-de-loi-numerique/consultation/consultation/opinions/section-2-service-public-de-la-donnee-1/utiliser-les-logiciels-libres-gnu-linux-dans-les-ecoles-et-les-universites", 
            "id": "57301", 
            "opinion": "1"
        }, 
        {
            "article_title": "Article additionnel : Les comp\u00e9titions de jeux vid\u00e9o \u00ab e-sport \u00bb", 
            "date": "2015-10-18T18:19:00+0200", 
            "link": "http://www.republique-numerique.fr/projects/projet-de-loi-numerique/consultation/consultation/opinions/section-2-travaux-de-recherche-et-de-statistique/les-competitions-de-jeux-video-e-sport", 
            "id": "158303", 
            "opinion": "-1"
        }, 
        {
            "article_title": "En l'\u00e9tat je vote fortement CONTRE cet article ca...", 
            "date": "2015-10-18T19:13:00+0200", 
            "link": "http://www.republique-numerique.fr/projects/projet-de-loi-numerique/consultation/consultation/opinions/section-2-travaux-de-recherche-et-de-statistique/les-competitions-de-jeux-video-e-sport#arg-5692", 
            "id": "159615", 
            "opinion": "1"
        }, 
        {
            "article_title": "Hors-sujet je ne sais pas, mais franchement il y a...", 
            "date": "2015-10-18T19:13:00+0200", 
            "link": "http://www.republique-numerique.fr/projects/projet-de-loi-numerique/consultation/consultation/opinions/section-2-travaux-de-recherche-et-de-statistique/les-competitions-de-jeux-video-e-sport#arg-5652", 
            "id": "159622", 
            "opinion": "1"
        }, 
        {
            "article_title": "Hors sujet....", 
            "date": "2015-10-18T19:14:00+0200", 
            "link": "http://www.republique-numerique.fr/projects/projet-de-loi-numerique/consultation/consultation/opinions/section-2-travaux-de-recherche-et-de-statistique/les-competitions-de-jeux-video-e-sport#arg-5352", 
            "id": "159628", 
            "opinion": "1"
        }, 
        {
            "article_title": "\"lorsque l\u2019habilit\u00e9 et les combinaisons de l\u2019...", 
            "date": "2015-10-18T19:14:00+0200", 
            "link": "http://www.republique-numerique.fr/projects/projet-de-loi-numerique/consultation/consultation/opinions/section-2-travaux-de-recherche-et-de-statistique/les-competitions-de-jeux-video-e-sport#arg-5123", 
            "id": "159631", 
            "opinion": "1"
        }, 
        {
            "article_title": "Le fait est que la quasi-totalit\u00e9 des joueurs de ...", 
            "date": "2015-10-18T19:15:00+0200", 
            "link": "http://www.republique-numerique.fr/projects/projet-de-loi-numerique/consultation/consultation/opinions/section-2-travaux-de-recherche-et-de-statistique/les-competitions-de-jeux-video-e-sport#arg-4987", 
            "id": "159664", 
            "opinion": "1"
        }, 
        {
            "article_title": "Article 12 - Portabilit\u00e9 des donn\u00e9es", 
            "date": "2015-10-18T19:49:00+0200", 
            "link": "http://www.republique-numerique.fr/projects/projet-de-loi-numerique/consultation/consultation/opinions/section-2-portabilite-des-donnees/article-12-portabilite-des-donnees", 
            "id": "160508", 
            "opinion": "1"
        }, 
        {
            "article_title": "88% de pour, mais 28 arguments contre, 12 argument...", 
            "date": "2015-10-18T21:49:00+0200", 
            "link": "http://www.republique-numerique.fr/projects/projet-de-loi-numerique/consultation/consultation/opinions/section-2-portabilite-des-donnees/article-12-portabilite-des-donnees#arg-5997", 
            "id": "163158", 
            "opinion": "1"
        }, 
        {
            "article_title": "L'UJA appelle de ses v\u0153ux \u00e0 ce que l'application...", 
            "date": "2015-10-18T23:50:00+0200", 
            "link": "http://www.republique-numerique.fr/projects/projet-de-loi-numerique/consultation/consultation/opinions/section-2-portabilite-des-donnees/article-12-portabilite-des-donnees#arg-5077", 
            "id": "166342", 
            "opinion": "1"
        }, 
        {
            "article_title": "La notion de portabilit\u00e9 doit \u00eatre \u00e9tendue \u00e0 t...", 
            "date": "2015-10-18T23:51:00+0200", 
            "link": "http://www.republique-numerique.fr/projects/projet-de-loi-numerique/consultation/consultation/opinions/section-2-portabilite-des-donnees/article-12-portabilite-des-donnees#arg-3287", 
            "id": "166359", 
            "opinion": "1"
        }, 
        {
            "article_title": "Concernant la portabilit\u00e9 des donn\u00e9es et l\u2019aff...", 
            "date": "2015-10-18T23:52:00+0200", 
            "link": "http://www.republique-numerique.fr/projects/projet-de-loi-numerique/consultation/consultation/opinions/section-2-portabilite-des-donnees/article-12-portabilite-des-donnees#arg-2026", 
            "id": "166387", 
            "opinion": "1"
        }
    ], 
    "sources": [], 
    "votes_count": 14, 
    "arguments": [
        {
            "article_title": "Signaler", 
            "votes": 1, 
            "article_link": "http://www.republique-numerique.fr/consultations/projet-de-loi-numerique/consultation/consultation/opinions/section-2-travaux-de-recherche-et-de-statistique/les-competitions-de-jeux-video-e-sport/arguments/5957/report", 
            "link": "http://www.republique-numerique.fr/consultations/projet-de-loi-numerique/consultation/consultation/opinions/section-2-travaux-de-recherche-et-de-statistique/les-competitions-de-jeux-video-e-sport/arguments/5957/report#arg-5957", 
            "date": "2015-10-18T18:12:00+0200", 
            "id": "5957"
        }, 
        {
            "article_title": "Signaler", 
            "votes": 0, 
            "article_link": "http://www.republique-numerique.fr/consultations/projet-de-loi-numerique/consultation/consultation/opinions/section-2-portabilite-des-donnees/article-12-portabilite-des-donnees/arguments/6215/report", 
            "link": "http://www.republique-numerique.fr/consultations/projet-de-loi-numerique/consultation/consultation/opinions/section-2-portabilite-des-donnees/article-12-portabilite-des-donnees/arguments/6215/report#arg-6215", 
            "date": "2015-10-18T23:45:00+0200", 
            "id": "6215"
        }, 
        {
            "article_title": "Signaler", 
            "votes": 0, 
            "article_link": "http://www.republique-numerique.fr/consultations/projet-de-loi-numerique/consultation/consultation/opinions/section-2-portabilite-des-donnees/article-12-portabilite-des-donnees/arguments/6216/report", 
            "link": "http://www.republique-numerique.fr/consultations/projet-de-loi-numerique/consultation/consultation/opinions/section-2-portabilite-des-donnees/article-12-portabilite-des-donnees/arguments/6216/report#arg-6216", 
            "date": "2015-10-18T23:46:00+0200", 
            "id": "6216"
        }
    ], 
    "arguments_count": 3, 
    "propositions_count": 0, 
    "contributions_count": 3
}