{
    "modifications": [], 
    "modifications_count": 0, 
    "sources_count": 0, 
    "propositions": [], 
    "votes": [
        {
            "article_title": "Article 9 - Libre acc\u00e8s aux publications scientifiques de la recherche publique", 
            "date": "2015-10-05T17:14:00+0200", 
            "link": "http://www.republique-numerique.fr/projects/projet-de-loi-numerique/consultation/consultation/opinions/section-2-travaux-de-recherche-et-de-statistique/article-9-acces-aux-travaux-de-la-recherche-financee-par-des-fonds-publics", 
            "id": "31834", 
            "opinion": "-1"
        }, 
        {
            "article_title": "Aligner les d\u00e9lais d'embargo sur ceux de la Communaut\u00e9 Europ\u00e9enne (6 et 12 mois)", 
            "date": "2015-10-05T17:18:00+0200", 
            "link": "http://www.republique-numerique.fr/projects/projet-de-loi-numerique/consultation/consultation/opinions/section-2-travaux-de-recherche-et-de-statistique/article-9-acces-aux-travaux-de-la-recherche-financee-par-des-fonds-publics/versions/aligner-les-delais-d-embargo-sur-ceux-de-la-communaute-europeenne-6-et-12-mois", 
            "id": "31849", 
            "opinion": "1"
        }, 
        {
            "article_title": "L'alignement de la l\u00e9gislation fran\u00e7aise avec le...", 
            "date": "2015-10-05T17:19:00+0200", 
            "link": "http://www.republique-numerique.fr/projects/projet-de-loi-numerique/consultation/consultation/opinions/section-2-travaux-de-recherche-et-de-statistique/article-9-acces-aux-travaux-de-la-recherche-financee-par-des-fonds-publics/versions/aligner-les-delais-d-embargo-sur-ceux-de-la-communaute-europeenne-6-et-12-mois#arg-1209", 
            "id": "31853", 
            "opinion": "1"
        }, 
        {
            "article_title": "Il manque \u00e0 cette r\u00e9daction l'exigence de cr\u00e9er...", 
            "date": "2015-10-05T17:25:00+0200", 
            "link": "http://www.republique-numerique.fr/projects/projet-de-loi-numerique/consultation/consultation/opinions/section-2-travaux-de-recherche-et-de-statistique/article-9-acces-aux-travaux-de-la-recherche-financee-par-des-fonds-publics/versions/une-duree-d-embargo-plus-courte-ne-pas-entraver-le-tdm-fouille-de-texte-et-de-donnees-et-ne-pas-interdire-une-exploitation-commerciale#arg-1932", 
            "id": "31871", 
            "opinion": "1"
        }, 
        {
            "article_title": "Les d\u00e9lais d'embargo doivent \u00eatre au maximum \u00e9g...", 
            "date": "2015-10-05T17:26:00+0200", 
            "link": "http://www.republique-numerique.fr/projects/projet-de-loi-numerique/consultation/consultation/opinions/section-2-travaux-de-recherche-et-de-statistique/article-9-acces-aux-travaux-de-la-recherche-financee-par-des-fonds-publics/versions/une-duree-d-embargo-plus-courte-ne-pas-entraver-le-tdm-fouille-de-texte-et-de-donnees-et-ne-pas-interdire-une-exploitation-commerciale#arg-2061", 
            "id": "31873", 
            "opinion": "1"
        }, 
        {
            "article_title": "Une dur\u00e9e d'embargo plus courte, ne pas entraver le TDM (fouille de texte et de donn\u00e9es) et ne pas interdire une exploitation commerciale", 
            "date": "2015-10-05T17:30:00+0200", 
            "link": "http://www.republique-numerique.fr/projects/projet-de-loi-numerique/consultation/consultation/opinions/section-2-travaux-de-recherche-et-de-statistique/article-9-acces-aux-travaux-de-la-recherche-financee-par-des-fonds-publics/versions/une-duree-d-embargo-plus-courte-ne-pas-entraver-le-tdm-fouille-de-texte-et-de-donnees-et-ne-pas-interdire-une-exploitation-commerciale", 
            "id": "31878", 
            "opinion": "1"
        }
    ], 
    "sources": [], 
    "votes_count": 6, 
    "arguments": [], 
    "arguments_count": 1, 
    "propositions_count": 0, 
    "contributions_count": 1
}