{
    "modifications": [
        {
            "stats": {
                "vote": "1", 
                "source": "0", 
                "argument": "1"
            }, 
            "votes": {
                "data-ok": "0", 
                "data-mitige": "0", 
                "data-nok": "1"
            }, 
            "link": "/projects/projet-de-loi-numerique/consultation/consultation/opinions/section-1-ouverture-des-donnees-publiques-1/le-vote-par-internet/versions/vote-par-sms", 
            "id": "1240", 
            "title": "Vote par SMS"
        }
    ], 
    "modifications_count": 1, 
    "sources_count": 0, 
    "propositions": [], 
    "votes": [
        {
            "article_title": "Article additionnel : Les comp\u00e9titions de jeux vid\u00e9o \u00ab e-sport \u00bb", 
            "date": "2015-10-16T19:12:00+0200", 
            "link": "http://www.republique-numerique.fr/projects/projet-de-loi-numerique/consultation/consultation/opinions/section-2-travaux-de-recherche-et-de-statistique/les-competitions-de-jeux-video-e-sport", 
            "id": "122105", 
            "opinion": "1"
        }, 
        {
            "article_title": "Article 1 - Open data par d\u00e9faut (obligation de diffuser en ligne les principaux documents et donn\u00e9es des organismes publics)", 
            "date": "2015-10-16T19:18:00+0200", 
            "link": "http://www.republique-numerique.fr/projects/projet-de-loi-numerique/consultation/consultation/opinions/section-1-ouverture-des-donnees-publiques-1/article-1-elargissement-du-champ-de-diffusion-par-l-administration", 
            "id": "122353", 
            "opinion": "1"
        }, 
        {
            "article_title": "remplacer \"standard ouvert\" par \"format ouvert et libre de droits\"", 
            "date": "2015-10-16T19:20:00+0200", 
            "link": "http://www.republique-numerique.fr/projects/projet-de-loi-numerique/consultation/consultation/opinions/section-1-ouverture-des-donnees-publiques-1/article-1-elargissement-du-champ-de-diffusion-par-l-administration/versions/remplacer-standard-ouvert-par-format-ouvert-et-libre-de-droits", 
            "id": "122418", 
            "opinion": "1"
        }, 
        {
            "article_title": "Renforcer les m\u00e9canismes de protections des donn\u00e9es \u00e0 caract\u00e8re personnel dans l'article\u00a01, 3\u00b0.", 
            "date": "2015-10-16T19:24:00+0200", 
            "link": "http://www.republique-numerique.fr/projects/projet-de-loi-numerique/consultation/consultation/opinions/section-1-ouverture-des-donnees-publiques-1/article-1-elargissement-du-champ-de-diffusion-par-l-administration/versions/renforcer-les-mecanismes-de-protections-des-donnees-a-caractere-personnel-dans-l-article-1-3deg", 
            "id": "122573", 
            "opinion": "1"
        }, 
        {
            "article_title": "Article 2 - Libre r\u00e9utilisation des donn\u00e9es des services publics industriels et commerciaux", 
            "date": "2015-10-16T19:25:00+0200", 
            "link": "http://www.republique-numerique.fr/projects/projet-de-loi-numerique/consultation/consultation/opinions/section-1-ouverture-des-donnees-publiques-1/article-2-principe-de-libre-reutilisation-des-donnees-pour-les-spic", 
            "id": "122625", 
            "opinion": "1"
        }, 
        {
            "article_title": "Toujours sous le controle de la CNIL", 
            "date": "2015-10-16T19:26:00+0200", 
            "link": "http://www.republique-numerique.fr/projects/projet-de-loi-numerique/consultation/consultation/opinions/section-1-ouverture-des-donnees-publiques-1/article-2-principe-de-libre-reutilisation-des-donnees-pour-les-spic/versions/toujours-sous-le-controle-de-la-cnil", 
            "id": "122651", 
            "opinion": "1"
        }, 
        {
            "article_title": "Anonymisation des donn\u00e9es", 
            "date": "2015-10-16T19:27:00+0200", 
            "link": "http://www.republique-numerique.fr/projects/projet-de-loi-numerique/consultation/consultation/opinions/section-1-ouverture-des-donnees-publiques-1/article-2-principe-de-libre-reutilisation-des-donnees-pour-les-spic/versions/anonymisation-des-donnees", 
            "id": "122676", 
            "opinion": "1"
        }, 
        {
            "article_title": "Compl\u00e8tement d'accord. Par exemple les fichiers d...", 
            "date": "2015-10-16T19:27:00+0200", 
            "link": "http://www.republique-numerique.fr/projects/projet-de-loi-numerique/consultation/consultation/opinions/section-1-ouverture-des-donnees-publiques-1/article-2-principe-de-libre-reutilisation-des-donnees-pour-les-spic/versions/anonymisation-des-donnees#arg-4478", 
            "id": "122694", 
            "opinion": "1"
        }, 
        {
            "article_title": "La r\u00e9utilisation des donn\u00e9es \u00e0 caract\u00e8re personnel doit \u00eatre declar\u00e9e \u00e0 la CNIL qui peut s'y opposer.", 
            "date": "2015-10-16T19:29:00+0200", 
            "link": "http://www.republique-numerique.fr/projects/projet-de-loi-numerique/consultation/consultation/opinions/section-1-ouverture-des-donnees-publiques-1/article-3-dispositions-diverses/versions/la-reutilisation-des-donnees-a-caractere-personnel-doit-etre-declaree-a-la-cnil-qui-peut-s-y-opposer", 
            "id": "122744", 
            "opinion": "1"
        }, 
        {
            "article_title": "interdire la commercialisation des donnees publiques gratuites", 
            "date": "2015-10-16T19:29:00+0200", 
            "link": "http://www.republique-numerique.fr/projects/projet-de-loi-numerique/consultation/consultation/opinions/section-1-ouverture-des-donnees-publiques-1/article-2-principe-de-libre-reutilisation-des-donnees-pour-les-spic/versions/interdire-la-commercialisation-des-donnees-publiques-gratuites", 
            "id": "122769", 
            "opinion": "1"
        }, 
        {
            "article_title": "Le Vote par internet", 
            "date": "2015-10-16T19:33:00+0200", 
            "link": "http://www.republique-numerique.fr/projects/projet-de-loi-numerique/consultation/consultation/opinions/section-1-ouverture-des-donnees-publiques-1/le-vote-par-internet", 
            "id": "122886", 
            "opinion": "1"
        }, 
        {
            "article_title": "le vote \u00e9lectronique doit \u00eatre banni dans notre soci\u00e9t\u00e9 d\u00e9mocratique", 
            "date": "2015-10-16T19:57:00+0200", 
            "link": "http://www.republique-numerique.fr/projects/projet-de-loi-numerique/consultation/consultation/opinions/section-1-ouverture-des-donnees-publiques-1/le-vote-par-internet/versions/le-vote-electronique-doit-etre-banni-dans-notre-societe-democratique", 
            "id": "123640", 
            "opinion": "-1"
        }, 
        {
            "article_title": "La technologie du blockchain permet aujourd'hui d\ufffd...", 
            "date": "2015-10-16T19:59:00+0200", 
            "link": "http://www.republique-numerique.fr/projects/projet-de-loi-numerique/consultation/consultation/opinions/section-1-ouverture-des-donnees-publiques-1/le-vote-par-internet#arg-2910", 
            "id": "123705", 
            "opinion": "1"
        }, 
        {
            "article_title": "\"R\u00e9publique num\u00e9rique\" - C'est le titre de la co...", 
            "date": "2015-10-16T20:33:00+0200", 
            "link": "http://www.republique-numerique.fr/projects/projet-de-loi-numerique/consultation/consultation/opinions/section-1-ouverture-des-donnees-publiques-1/le-vote-par-internet#arg-4241", 
            "id": "124604", 
            "opinion": "1"
        }, 
        {
            "article_title": "Renouveler cette exp\u00e9rience. La plateforme www.re...", 
            "date": "2015-10-16T20:33:00+0200", 
            "link": "http://www.republique-numerique.fr/projects/projet-de-loi-numerique/consultation/consultation/opinions/section-1-ouverture-des-donnees-publiques-1/le-vote-par-internet#arg-4213", 
            "id": "124608", 
            "opinion": "1"
        }
    ], 
    "sources": [], 
    "votes_count": 15, 
    "arguments": [
        {
            "article_title": "Signaler", 
            "votes": 1, 
            "article_link": "http://www.republique-numerique.fr/consultations/projet-de-loi-numerique/consultation/consultation/opinions/section-1-ouverture-des-donnees-publiques-1/le-vote-par-internet/arguments/5019/report", 
            "link": "http://www.republique-numerique.fr/consultations/projet-de-loi-numerique/consultation/consultation/opinions/section-1-ouverture-des-donnees-publiques-1/le-vote-par-internet/arguments/5019/report#arg-5019", 
            "date": "2015-10-16T20:33:00+0200", 
            "id": "5019"
        }
    ], 
    "arguments_count": 1, 
    "propositions_count": 0, 
    "contributions_count": 2
}