{
    "modifications": [], 
    "modifications_count": 0, 
    "sources_count": 0, 
    "propositions": [], 
    "votes": [
        {
            "article_title": "prendre en compte le handicap des personnes \u00e9lectrosensibles, pr\u00e9venir les risques sanitaires li\u00e9s aux champs \u00e9lectromagn\u00e9tiques et laisser aux citoyens le choix d'un service publique num\u00e9rique ou non num\u00e9rique y compris dans les \u00e9coles", 
            "date": "2015-10-17T20:44:00+0200", 
            "link": "http://www.republique-numerique.fr/projects/projet-de-loi-numerique/consultation/consultation/opinions/section-2-accessibilite-des-personnes-handicapees-aux-sites-internet-publics/prendre-en-compte-le-handicap-des-personnes-electrosensibles-prevenir-les-risques-sanitaires-lies-aux-champs-electromagnetiques-et-laisser-aux-citoyens-le-choix-d-un-service-publique-numerique-ou-non-numerique-y-compris-dans-les-ecoles", 
            "id": "143834", 
            "opinion": "1"
        }
    ], 
    "sources": [], 
    "votes_count": 1, 
    "arguments": [], 
    "arguments_count": 0, 
    "propositions_count": 0, 
    "contributions_count": 0
}