{
    "modifications": [], 
    "modifications_count": 0, 
    "sources_count": 0, 
    "propositions": [
        {
            "article_title": "D\u00e9fendre les valeurs de notre civilisation face aux g\u00e9ants d\u2019Internet am\u00e9ricains", 
            "votes": {
                "data-ok": "2", 
                "data-mitige": "3", 
                "data-nok": "0"
            }, 
            "stats": {
                "modification": "0", 
                "source": "0", 
                "votes": "5", 
                "argument": "1"
            }, 
            "id": "403", 
            "article_link": "/projects/projet-de-loi-numerique/consultation/consultation/opinions/section-1-protection-des-donnees-a-caractere-personnel/defendre-les-valeurs-de-notre-civilisation-face-aux-geants-d-internet-americains"
        }
    ], 
    "votes": [
        {
            "article_title": "Interdire l'obligation ou l'incitation \u00e0 accepter les mouchards (cookies)", 
            "date": "2015-10-17T21:31:00+0200", 
            "link": "http://www.republique-numerique.fr/projects/projet-de-loi-numerique/consultation/consultation/opinions/section-1-protection-des-donnees-a-caractere-personnel/interdire-l-obligation-ou-l-incitation-a-accepter-les-mouchards-cookies", 
            "id": "144519", 
            "opinion": "1"
        }, 
        {
            "article_title": "P\u00e9nalisation de la d\u00e9sanonymisation de donn\u00e9es", 
            "date": "2015-10-17T21:32:00+0200", 
            "link": "http://www.republique-numerique.fr/projects/projet-de-loi-numerique/consultation/consultation/opinions/section-1-protection-des-donnees-a-caractere-personnel/penalisation-de-la-desanonymisation-de-donnees", 
            "id": "144535", 
            "opinion": "1"
        }, 
        {
            "article_title": "Confier la r\u00e9flexion \u00e9thique sur les impacts du num\u00e9rique \u00e0 une instance sp\u00e9cifique", 
            "date": "2015-10-17T21:33:00+0200", 
            "link": "http://www.republique-numerique.fr/projects/projet-de-loi-numerique/consultation/consultation/opinions/section-1-protection-des-donnees-a-caractere-personnel/confier-la-reflexion-ethique-sur-les-impacts-du-numerique-a-une-instance-specifique", 
            "id": "144543", 
            "opinion": "1"
        }, 
        {
            "article_title": "Interdiction du commerce des donn\u00e9es personnelles", 
            "date": "2015-10-17T21:33:00+0200", 
            "link": "http://www.republique-numerique.fr/projects/projet-de-loi-numerique/consultation/consultation/opinions/section-1-protection-des-donnees-a-caractere-personnel/interdiction-du-commerce-des-donnees-personnelles", 
            "id": "144554", 
            "opinion": "1"
        }
    ], 
    "sources": [], 
    "votes_count": 4, 
    "arguments": [], 
    "arguments_count": 0, 
    "propositions_count": 1, 
    "contributions_count": 1
}