{
    "modifications": [], 
    "modifications_count": 0, 
    "sources_count": 0, 
    "propositions": [], 
    "votes": [
        {
            "article_title": "Instaurer la libert\u00e9 de panorama en France", 
            "date": "2015-10-09T16:05:00+0200", 
            "link": "http://www.republique-numerique.fr/projects/projet-de-loi-numerique/consultation/consultation/opinions/section-1-les-communs/instaurer-la-liberte-de-panorama-en-france", 
            "id": "43517", 
            "opinion": "1"
        }, 
        {
            "article_title": "Libert\u00e9 de panorama \u00e0 usage non commercial", 
            "date": "2015-10-09T16:05:00+0200", 
            "link": "http://www.republique-numerique.fr/projects/projet-de-loi-numerique/consultation/consultation/opinions/section-1-les-communs/instaurer-la-liberte-de-panorama-en-france/versions/liberte-de-panorama-a-usage-non-commercial", 
            "id": "43518", 
            "opinion": "-1"
        }
    ], 
    "sources": [], 
    "votes_count": 2, 
    "arguments": [], 
    "arguments_count": 0, 
    "propositions_count": 0, 
    "contributions_count": 0
}