{
    "modifications": [], 
    "modifications_count": 0, 
    "sources_count": 0, 
    "propositions": [], 
    "votes": [
        {
            "article_title": "Article 2 - Libre r\u00e9utilisation des donn\u00e9es des services publics industriels et commerciaux", 
            "date": "2015-10-18T23:01:00+0200", 
            "link": "http://www.republique-numerique.fr/projects/projet-de-loi-numerique/consultation/consultation/opinions/section-1-ouverture-des-donnees-publiques-1/article-2-principe-de-libre-reutilisation-des-donnees-pour-les-spic", 
            "id": "164938", 
            "opinion": "-1"
        }, 
        {
            "article_title": "Article 9 - Libre acc\u00e8s aux publications scientifiques de la recherche publique", 
            "date": "2015-10-18T23:02:00+0200", 
            "link": "http://www.republique-numerique.fr/projects/projet-de-loi-numerique/consultation/consultation/opinions/section-2-travaux-de-recherche-et-de-statistique/article-9-acces-aux-travaux-de-la-recherche-financee-par-des-fonds-publics", 
            "id": "164963", 
            "opinion": "-1"
        }, 
        {
            "article_title": "Une dur\u00e9e d'embargo plus courte, ne pas entraver le TDM (fouille de texte et de donn\u00e9es) et ne pas interdire une exploitation commerciale", 
            "date": "2015-10-18T23:03:00+0200", 
            "link": "http://www.republique-numerique.fr/projects/projet-de-loi-numerique/consultation/consultation/opinions/section-2-travaux-de-recherche-et-de-statistique/article-9-acces-aux-travaux-de-la-recherche-financee-par-des-fonds-publics/versions/une-duree-d-embargo-plus-courte-ne-pas-entraver-le-tdm-fouille-de-texte-et-de-donnees-et-ne-pas-interdire-une-exploitation-commerciale", 
            "id": "165004", 
            "opinion": "1"
        }, 
        {
            "article_title": "Article 11 - Neutralit\u00e9 de l\u2019internet", 
            "date": "2015-10-18T23:04:00+0200", 
            "link": "http://www.republique-numerique.fr/projects/projet-de-loi-numerique/consultation/consultation/opinions/section-1-neutralite-de-l-internet/article-11-neutralite-de-l-internet", 
            "id": "165019", 
            "opinion": "1"
        }, 
        {
            "article_title": "Article 30 - Maintien de la connexion", 
            "date": "2015-10-18T23:05:00+0200", 
            "link": "http://www.republique-numerique.fr/projects/projet-de-loi-numerique/consultation/consultation/opinions/section-3-maintien-de-la-connexion-internet/article-30-maintien-temporaire-de-la-connexion", 
            "id": "165045", 
            "opinion": "1"
        }, 
        {
            "article_title": "Article 29 - Accessibilit\u00e9 aux personnes handicap\u00e9es des sites internet des administrations", 
            "date": "2015-10-18T23:06:00+0200", 
            "link": "http://www.republique-numerique.fr/projects/projet-de-loi-numerique/consultation/consultation/opinions/section-2-accessibilite-des-personnes-handicapees-aux-sites-internet-publics/article-29-accessibilite-numerique-des-services-publics", 
            "id": "165075", 
            "opinion": "0"
        }, 
        {
            "article_title": "R\u00e9f\u00e9rencer les jeux de donn\u00e9es sur www.data.gouv.fr et appliquer la Licence Ouverte.", 
            "date": "2015-10-18T23:10:00+0200", 
            "link": "http://www.republique-numerique.fr/projects/projet-de-loi-numerique/consultation/consultation/opinions/section-1-ouverture-des-donnees-publiques-1/article-1-elargissement-du-champ-de-diffusion-par-l-administration/versions/referencer-les-jeux-de-donnees-sur-www-data-gouv-fr-et-appliquer-la-licence-ouverte", 
            "id": "165203", 
            "opinion": "1"
        }, 
        {
            "article_title": "Article 1 - Open data par d\u00e9faut (obligation de diffuser en ligne les principaux documents et donn\u00e9es des organismes publics)", 
            "date": "2015-10-18T23:11:00+0200", 
            "link": "http://www.republique-numerique.fr/projects/projet-de-loi-numerique/consultation/consultation/opinions/section-1-ouverture-des-donnees-publiques-1/article-1-elargissement-du-champ-de-diffusion-par-l-administration", 
            "id": "165215", 
            "opinion": "0"
        }, 
        {
            "article_title": "La r\u00e9utilisation des donn\u00e9es \u00e0 caract\u00e8re personnel doit \u00eatre declar\u00e9e \u00e0 la CNIL qui peut s'y opposer.", 
            "date": "2015-10-18T23:13:00+0200", 
            "link": "http://www.republique-numerique.fr/projects/projet-de-loi-numerique/consultation/consultation/opinions/section-1-ouverture-des-donnees-publiques-1/article-3-dispositions-diverses/versions/la-reutilisation-des-donnees-a-caractere-personnel-doit-etre-declaree-a-la-cnil-qui-peut-s-y-opposer", 
            "id": "165285", 
            "opinion": "1"
        }, 
        {
            "article_title": "Article 3 - Droit d\u2019acc\u00e8s des organismes publics aux donn\u00e9es publiques & de r\u00e9utilisation d\u2019informations comportant des donn\u00e9es personnelles d\u00e9j\u00e0 publi\u00e9es", 
            "date": "2015-10-18T23:13:00+0200", 
            "link": "http://www.republique-numerique.fr/projects/projet-de-loi-numerique/consultation/consultation/opinions/section-1-ouverture-des-donnees-publiques-1/article-3-dispositions-diverses", 
            "id": "165291", 
            "opinion": "0"
        }, 
        {
            "article_title": "Article 6 - Ouverture des donn\u00e9es des subventions publiques", 
            "date": "2015-10-18T23:15:00+0200", 
            "link": "http://www.republique-numerique.fr/projects/projet-de-loi-numerique/consultation/consultation/opinions/section-3-donnees-d-interet-general/article-6-ouverture-des-donnees-dans-les-conventions-de-subventions", 
            "id": "165348", 
            "opinion": "-1"
        }, 
        {
            "article_title": "suppression art. 6, alin\u00e9a 2 (les donn\u00e9es associatives ne sont pas \u00e0 vendre!)", 
            "date": "2015-10-18T23:15:00+0200", 
            "link": "http://www.republique-numerique.fr/projects/projet-de-loi-numerique/consultation/consultation/opinions/section-3-donnees-d-interet-general/article-6-ouverture-des-donnees-dans-les-conventions-de-subventions/versions/suppression-art-6-alinea-2-les-donnees-associatives-ne-sont-pas-a-vendre", 
            "id": "165371", 
            "opinion": "1"
        }, 
        {
            "article_title": "Article 7 - Acc\u00e8s de la statistique publique \u00e0 certaines bases de donn\u00e9es priv\u00e9es", 
            "date": "2015-10-18T23:26:00+0200", 
            "link": "http://www.republique-numerique.fr/projects/projet-de-loi-numerique/consultation/consultation/opinions/section-3-donnees-d-interet-general/article-7-acces-de-la-statistique-publique-aux-bases-de-donnees-privees", 
            "id": "165708", 
            "opinion": "1"
        }, 
        {
            "article_title": "Article 12 - Portabilit\u00e9 des donn\u00e9es", 
            "date": "2015-10-18T23:35:00+0200", 
            "link": "http://www.republique-numerique.fr/projects/projet-de-loi-numerique/consultation/consultation/opinions/section-2-portabilite-des-donnees/article-12-portabilite-des-donnees", 
            "id": "165944", 
            "opinion": "1"
        }, 
        {
            "article_title": "Encourager l\u2019introduction de crit\u00e8res objectifs et univoques sur la distinction professionnel/consommateur", 
            "date": "2015-10-18T23:36:00+0200", 
            "link": "http://www.republique-numerique.fr/projects/projet-de-loi-numerique/consultation/consultation/opinions/section-3-loyaute-des-plateformes/article-13-principe-de-loyaute-vis-a-vis-des-consommateurs/versions/encourager-l-introduction-de-criteres-objectifs-et-univoques-sur-la-distinction-professionnel-consommateur", 
            "id": "165993", 
            "opinion": "1"
        }, 
        {
            "article_title": "S'aligner sur le Code de la consommation en pr\u00e9voyant la d\u00e9livrance d'une information loyale, lisible, compr\u00e9hensible et transparente", 
            "date": "2015-10-18T23:37:00+0200", 
            "link": "http://www.republique-numerique.fr/projects/projet-de-loi-numerique/consultation/consultation/opinions/section-3-loyaute-des-plateformes/article-13-principe-de-loyaute-vis-a-vis-des-consommateurs/versions/s-aligner-sur-le-code-de-la-consommation-en-prevoyant-la-delivrance-d-une-information-loyale-lisible-comprehensible-et-transparente", 
            "id": "166004", 
            "opinion": "1"
        }, 
        {
            "article_title": "Article 14 - Informer sur les pratiques des plateformes en ligne", 
            "date": "2015-10-18T23:42:00+0200", 
            "link": "http://www.republique-numerique.fr/projects/projet-de-loi-numerique/consultation/consultation/opinions/section-3-loyaute-des-plateformes/article-14-regulation", 
            "id": "166129", 
            "opinion": "-1"
        }, 
        {
            "article_title": "Promotion de la norme AFNOR par les pouvoirs publics", 
            "date": "2015-10-18T23:45:00+0200", 
            "link": "http://www.republique-numerique.fr/projects/projet-de-loi-numerique/consultation/consultation/opinions/section-4-information-des-consommateurs/article-15-information-des-consommateurs-et-avis-en-ligne/versions/promotion-de-la-norme-afnor-par-les-pouvoirs-publics", 
            "id": "166234", 
            "opinion": "1"
        }, 
        {
            "article_title": "Article 16 - Libre disposition de ses donn\u00e9es", 
            "date": "2015-10-18T23:49:00+0200", 
            "link": "http://www.republique-numerique.fr/projects/projet-de-loi-numerique/consultation/consultation/opinions/section-1-protection-des-donnees-a-caractere-personnel/article-16-libre-disposition-de-ses-donnees-a-caractere-personnel", 
            "id": "166329", 
            "opinion": "1"
        }, 
        {
            "article_title": "Article 17 - Evolution des missions de la CNIL", 
            "date": "2015-10-18T23:50:00+0200", 
            "link": "http://www.republique-numerique.fr/projects/projet-de-loi-numerique/consultation/consultation/opinions/section-1-protection-des-donnees-a-caractere-personnel/article-17-missions-de-la-cnil", 
            "id": "166343", 
            "opinion": "1"
        }, 
        {
            "article_title": "Expliciter le caract\u00e8re ind\u00e9pendant et consultatif de la r\u00e9flexion \u00e9thique", 
            "date": "2015-10-18T23:51:00+0200", 
            "link": "http://www.republique-numerique.fr/projects/projet-de-loi-numerique/consultation/consultation/opinions/section-1-protection-des-donnees-a-caractere-personnel/article-17-missions-de-la-cnil/versions/expliciter-le-caractere-independant-et-consultatif-de-la-reflexion-ethique", 
            "id": "166358", 
            "opinion": "1"
        }, 
        {
            "article_title": "Evaluation par une tierce-partie ind\u00e9pendante", 
            "date": "2015-10-18T23:53:00+0200", 
            "link": "http://www.republique-numerique.fr/projects/projet-de-loi-numerique/consultation/consultation/opinions/section-1-protection-des-donnees-a-caractere-personnel/article-18-certificat-de-conformite/versions/evaluation-par-une-tierce-partie-independante", 
            "id": "166404", 
            "opinion": "1"
        }, 
        {
            "article_title": "Article 19 - Droit \u00e0 l\u2019oubli pour les mineurs", 
            "date": "2015-10-18T23:56:00+0200", 
            "link": "http://www.republique-numerique.fr/projects/projet-de-loi-numerique/consultation/consultation/opinions/section-1-protection-des-donnees-a-caractere-personnel/article-19-droit-a-l-oubli-pour-les-mineurs-procedure-acceleree", 
            "id": "166469", 
            "opinion": "-1"
        }, 
        {
            "article_title": "Contribution du Conseil sup\u00e9rieur du notariat : observations sur la mort num\u00e9rique (art. 20)", 
            "date": "2015-10-18T23:57:00+0200", 
            "link": "http://www.republique-numerique.fr/projects/projet-de-loi-numerique/consultation/consultation/opinions/section-1-protection-des-donnees-a-caractere-personnel/article-20-personnes-decedees/versions/contribution-du-conseil-superieur-du-notariat-observations-sur-la-mort-numerique-art-20", 
            "id": "166507", 
            "opinion": "1"
        }, 
        {
            "article_title": "Pourquoi exclure l'Etat de la sanction ?", 
            "date": "2015-10-18T23:58:00+0200", 
            "link": "http://www.republique-numerique.fr/projects/projet-de-loi-numerique/consultation/consultation/opinions/section-1-protection-des-donnees-a-caractere-personnel/article-21-procedure-de-sanction-de-la-cnil/versions/pourquoi-exclure-l-etat-de-la-sanction", 
            "id": "166535", 
            "opinion": "1"
        }
    ], 
    "sources": [], 
    "votes_count": 25, 
    "arguments": [], 
    "arguments_count": 0, 
    "propositions_count": 0, 
    "contributions_count": 0
}