{
    "modifications": [], 
    "modifications_count": 0, 
    "sources_count": 0, 
    "propositions": [], 
    "votes": [
        {
            "article_title": "Article 1 - Open data par d\u00e9faut (obligation de diffuser en ligne les principaux documents et donn\u00e9es des organismes publics)", 
            "date": "2015-09-27T10:53:00+0200", 
            "link": "http://www.republique-numerique.fr/projects/projet-de-loi-numerique/consultation/consultation/opinions/section-1-ouverture-des-donnees-publiques-1/article-1-elargissement-du-champ-de-diffusion-par-l-administration", 
            "id": "4365", 
            "opinion": "1"
        }, 
        {
            "article_title": "Indiquer la source des donn\u00e9es Open Data", 
            "date": "2015-09-27T10:54:00+0200", 
            "link": "http://www.republique-numerique.fr/projects/projet-de-loi-numerique/consultation/consultation/opinions/section-1-ouverture-des-donnees-publiques-1/article-1-elargissement-du-champ-de-diffusion-par-l-administration/versions/indiquer-la-source-des-donnees-open-data", 
            "id": "4370", 
            "opinion": "1"
        }, 
        {
            "article_title": "Absence de sanction de l'irrespect de l'obligation de diffusion publique en ligne", 
            "date": "2015-09-27T10:55:00+0200", 
            "link": "http://www.republique-numerique.fr/projects/projet-de-loi-numerique/consultation/consultation/opinions/section-1-ouverture-des-donnees-publiques-1/article-1-elargissement-du-champ-de-diffusion-par-l-administration/versions/absence-de-sanction-de-l-irrespect-de-l-obligation-de-diffusion-publique-en-ligne", 
            "id": "4378", 
            "opinion": "1"
        }, 
        {
            "article_title": "Article 2 - Libre r\u00e9utilisation des donn\u00e9es des services publics industriels et commerciaux", 
            "date": "2015-09-27T10:57:00+0200", 
            "link": "http://www.republique-numerique.fr/projects/projet-de-loi-numerique/consultation/consultation/opinions/section-1-ouverture-des-donnees-publiques-1/article-2-principe-de-libre-reutilisation-des-donnees-pour-les-spic", 
            "id": "4386", 
            "opinion": "1"
        }, 
        {
            "article_title": "Article 3 - Droit d\u2019acc\u00e8s des organismes publics aux donn\u00e9es publiques & de r\u00e9utilisation d\u2019informations comportant des donn\u00e9es personnelles d\u00e9j\u00e0 publi\u00e9es", 
            "date": "2015-09-27T10:58:00+0200", 
            "link": "http://www.republique-numerique.fr/projects/projet-de-loi-numerique/consultation/consultation/opinions/section-1-ouverture-des-donnees-publiques-1/article-3-dispositions-diverses", 
            "id": "4391", 
            "opinion": "1"
        }, 
        {
            "article_title": "Ouvrir les donn\u00e9es ayant servi \u00e0 la r\u00e9daction d'un rapport publique", 
            "date": "2015-09-27T11:00:00+0200", 
            "link": "http://www.republique-numerique.fr/projects/projet-de-loi-numerique/consultation/consultation/opinions/section-1-ouverture-des-donnees-publiques-1/ouvrir-les-donnees-ayant-servi-a-la-redaction-d-un-rapport-publique", 
            "id": "4402", 
            "opinion": "1"
        }, 
        {
            "article_title": "ouverture du code des algorithmes publics", 
            "date": "2015-09-27T11:00:00+0200", 
            "link": "http://www.republique-numerique.fr/projects/projet-de-loi-numerique/consultation/consultation/opinions/section-1-ouverture-des-donnees-publiques-1/ouverture-du-code-des-algorithmes-publics", 
            "id": "4405", 
            "opinion": "1"
        }, 
        {
            "article_title": "Diffusion sous licence libre des \u0153uvres num\u00e9riques cr\u00e9\u00e9es avec un financement public", 
            "date": "2015-09-27T11:01:00+0200", 
            "link": "http://www.republique-numerique.fr/projects/projet-de-loi-numerique/consultation/consultation/opinions/section-1-ouverture-des-donnees-publiques-1/diffusion-sous-licence-libre-des-oeuvres-numeriques-creees-avec-un-financement-public", 
            "id": "4409", 
            "opinion": "1"
        }, 
        {
            "article_title": "Aujourd'hui on paie une taxe pour pouvoir stocker,...", 
            "date": "2015-09-27T12:28:00+0200", 
            "link": "http://www.republique-numerique.fr/projects/projet-de-loi-numerique/consultation/consultation/opinions/section-1-ouverture-des-donnees-publiques-1/suppression-de-la-taxe-copie-privee#arg-450", 
            "id": "4845", 
            "opinion": "1"
        }, 
        {
            "article_title": "Suppression de la taxe copie priv\u00e9e", 
            "date": "2015-09-27T12:28:00+0200", 
            "link": "http://www.republique-numerique.fr/projects/projet-de-loi-numerique/consultation/consultation/opinions/section-1-ouverture-des-donnees-publiques-1/suppression-de-la-taxe-copie-privee", 
            "id": "4846", 
            "opinion": "1"
        }, 
        {
            "article_title": "veritable acceleration du deploiement de la fibre optique", 
            "date": "2015-09-27T12:33:00+0200", 
            "link": "http://www.republique-numerique.fr/projects/projet-de-loi-numerique/consultation/consultation/opinions/section-1-ouverture-des-donnees-publiques-1/veritable-acceleration-du-deploiement-de-la-fibre-optique", 
            "id": "4867", 
            "opinion": "1"
        }, 
        {
            "article_title": "Article 4 - Cr\u00e9ation d\u2019un service public de la donn\u00e9e (garantie de qualit\u00e9 des donn\u00e9es publiques de r\u00e9f\u00e9rence)", 
            "date": "2015-09-27T12:36:00+0200", 
            "link": "http://www.republique-numerique.fr/projects/projet-de-loi-numerique/consultation/consultation/opinions/section-2-service-public-de-la-donnee-1/article-4-creation-d-un-service-public-de-la-donnee", 
            "id": "4880", 
            "opinion": "1"
        }, 
        {
            "article_title": "Article 5 - Ouverture des donn\u00e9es des d\u00e9l\u00e9gations de service public", 
            "date": "2015-09-27T12:39:00+0200", 
            "link": "http://www.republique-numerique.fr/projects/projet-de-loi-numerique/consultation/consultation/opinions/section-3-donnees-d-interet-general/article-5-ouverture-des-donnees-par-defaut-dans-les-contrats-de-dsp", 
            "id": "4891", 
            "opinion": "1"
        }, 
        {
            "article_title": "Article 6 - Ouverture des donn\u00e9es des subventions publiques", 
            "date": "2015-09-27T12:41:00+0200", 
            "link": "http://www.republique-numerique.fr/projects/projet-de-loi-numerique/consultation/consultation/opinions/section-3-donnees-d-interet-general/article-6-ouverture-des-donnees-dans-les-conventions-de-subventions", 
            "id": "4903", 
            "opinion": "1"
        }, 
        {
            "article_title": "Article 7 - Acc\u00e8s de la statistique publique \u00e0 certaines bases de donn\u00e9es priv\u00e9es", 
            "date": "2015-09-27T12:43:00+0200", 
            "link": "http://www.republique-numerique.fr/projects/projet-de-loi-numerique/consultation/consultation/opinions/section-3-donnees-d-interet-general/article-7-acces-de-la-statistique-publique-aux-bases-de-donnees-privees", 
            "id": "4917", 
            "opinion": "0"
        }, 
        {
            "article_title": "L'id\u00e9e de prot\u00e9ger les lanceurs d'alerte est bie...", 
            "date": "2015-09-27T12:45:00+0200", 
            "link": "http://www.republique-numerique.fr/projects/projet-de-loi-numerique/consultation/consultation/opinions/section-3-donnees-d-interet-general/protection-recompense-et-indemnisation-des-lanceurs-d-alertes#arg-384", 
            "id": "4930", 
            "opinion": "1"
        }, 
        {
            "article_title": "Protection juridique et personnelle oui (un citoye...", 
            "date": "2015-09-27T12:45:00+0200", 
            "link": "http://www.republique-numerique.fr/projects/projet-de-loi-numerique/consultation/consultation/opinions/section-3-donnees-d-interet-general/protection-recompense-et-indemnisation-des-lanceurs-d-alertes#arg-227", 
            "id": "4931", 
            "opinion": "1"
        }, 
        {
            "article_title": "Protection, r\u00e9compense et ind\u00e9mnisation des lanceurs d'alertes", 
            "date": "2015-09-27T12:45:00+0200", 
            "link": "http://www.republique-numerique.fr/projects/projet-de-loi-numerique/consultation/consultation/opinions/section-3-donnees-d-interet-general/protection-recompense-et-indemnisation-des-lanceurs-d-alertes", 
            "id": "4932", 
            "opinion": "1"
        }, 
        {
            "article_title": "Article 8 - D\u00e9finition positive du domaine commun informationnel", 
            "date": "2015-09-27T12:47:00+0200", 
            "link": "http://www.republique-numerique.fr/projects/projet-de-loi-numerique/consultation/consultation/opinions/section-1-les-communs/article-8-definition-du-domaine-commun-informationnel", 
            "id": "4939", 
            "opinion": "1"
        }, 
        {
            "article_title": "Mettre sur pied une \u00e9cole pour initier au num\u00e9rique nos 618.00 \u00e9lus", 
            "date": "2015-09-27T12:50:00+0200", 
            "link": "http://www.republique-numerique.fr/projects/projet-de-loi-numerique/consultation/consultation/opinions/section-1-les-communs/mettre-sur-pied-une-ecole-pour-initier-au-numerique-nos-618-00-elus", 
            "id": "4945", 
            "opinion": "1"
        }, 
        {
            "article_title": "Article 9 - Libre acc\u00e8s aux publications scientifiques de la recherche publique", 
            "date": "2015-09-27T12:54:00+0200", 
            "link": "http://www.republique-numerique.fr/projects/projet-de-loi-numerique/consultation/consultation/opinions/section-2-travaux-de-recherche-et-de-statistique/article-9-acces-aux-travaux-de-la-recherche-financee-par-des-fonds-publics", 
            "id": "4960", 
            "opinion": "1"
        }, 
        {
            "article_title": "Article 10 - Proc\u00e9dure assouplie pour les travaux statistiques ou de recherche utilisant le num\u00e9ro de s\u00e9curit\u00e9 sociale (recours \u00e0 un \u00ab NIR statistique \u00bb)", 
            "date": "2015-09-27T12:56:00+0200", 
            "link": "http://www.republique-numerique.fr/projects/projet-de-loi-numerique/consultation/consultation/opinions/section-2-travaux-de-recherche-et-de-statistique/article-10-nir-statistique", 
            "id": "4978", 
            "opinion": "0"
        }, 
        {
            "article_title": "Article 11 - Neutralit\u00e9 de l\u2019internet", 
            "date": "2015-09-27T12:57:00+0200", 
            "link": "http://www.republique-numerique.fr/projects/projet-de-loi-numerique/consultation/consultation/opinions/section-1-neutralite-de-l-internet/article-11-neutralite-de-l-internet", 
            "id": "4984", 
            "opinion": "1"
        }, 
        {
            "article_title": "Article 12 - Portabilit\u00e9 des donn\u00e9es", 
            "date": "2015-09-27T13:04:00+0200", 
            "link": "http://www.republique-numerique.fr/projects/projet-de-loi-numerique/consultation/consultation/opinions/section-2-portabilite-des-donnees/article-12-portabilite-des-donnees", 
            "id": "5021", 
            "opinion": "1"
        }, 
        {
            "article_title": "Article 13 - Principe de loyaut\u00e9 des plateformes en lignes", 
            "date": "2015-09-27T13:06:00+0200", 
            "link": "http://www.republique-numerique.fr/projects/projet-de-loi-numerique/consultation/consultation/opinions/section-3-loyaute-des-plateformes/article-13-principe-de-loyaute-vis-a-vis-des-consommateurs", 
            "id": "5032", 
            "opinion": "1"
        }, 
        {
            "article_title": "Article 14 - Informer sur les pratiques des plateformes en ligne", 
            "date": "2015-09-27T13:06:00+0200", 
            "link": "http://www.republique-numerique.fr/projects/projet-de-loi-numerique/consultation/consultation/opinions/section-3-loyaute-des-plateformes/article-14-regulation", 
            "id": "5033", 
            "opinion": "1"
        }, 
        {
            "article_title": "Article 15 - Mieux informer sur les avis en ligne et sur les d\u00e9bits", 
            "date": "2015-09-27T13:08:00+0200", 
            "link": "http://www.republique-numerique.fr/projects/projet-de-loi-numerique/consultation/consultation/opinions/section-4-information-des-consommateurs/article-15-information-des-consommateurs-et-avis-en-ligne", 
            "id": "5047", 
            "opinion": "1"
        }, 
        {
            "article_title": "Cr\u00e9ation d'un statut de l'acteur collaboratif", 
            "date": "2015-09-27T13:11:00+0200", 
            "link": "http://www.republique-numerique.fr/projects/projet-de-loi-numerique/consultation/consultation/opinions/section-4-information-des-consommateurs/creation-d-un-statut-de-l-acteur-collaboratif", 
            "id": "5058", 
            "opinion": "1"
        }, 
        {
            "article_title": "Article 15.0 - Permettre une meilleure distinction des \"publicit\u00e9s d\u00e9guis\u00e9es\" sur les supports m\u00e9diatiques.", 
            "date": "2015-09-27T13:12:00+0200", 
            "link": "http://www.republique-numerique.fr/projects/projet-de-loi-numerique/consultation/consultation/opinions/section-4-information-des-consommateurs/article-15-0-permettre-une-meilleure-distinction-des-publicites-deguisees-sur-les-supports-mediatiques", 
            "id": "5062", 
            "opinion": "1"
        }, 
        {
            "article_title": "Article 16 - Libre disposition de ses donn\u00e9es", 
            "date": "2015-09-27T13:13:00+0200", 
            "link": "http://www.republique-numerique.fr/projects/projet-de-loi-numerique/consultation/consultation/opinions/section-1-protection-des-donnees-a-caractere-personnel/article-16-libre-disposition-de-ses-donnees-a-caractere-personnel", 
            "id": "5068", 
            "opinion": "1"
        }, 
        {
            "article_title": "Article 17 - Evolution des missions de la CNIL", 
            "date": "2015-09-27T13:13:00+0200", 
            "link": "http://www.republique-numerique.fr/projects/projet-de-loi-numerique/consultation/consultation/opinions/section-1-protection-des-donnees-a-caractere-personnel/article-17-missions-de-la-cnil", 
            "id": "5072", 
            "opinion": "1"
        }, 
        {
            "article_title": "Article 18 - Certificat de conformit\u00e9", 
            "date": "2015-09-27T13:14:00+0200", 
            "link": "http://www.republique-numerique.fr/projects/projet-de-loi-numerique/consultation/consultation/opinions/section-1-protection-des-donnees-a-caractere-personnel/article-18-certificat-de-conformite", 
            "id": "5075", 
            "opinion": "0"
        }, 
        {
            "article_title": "Article 19 - Droit \u00e0 l\u2019oubli pour les mineurs", 
            "date": "2015-09-27T13:15:00+0200", 
            "link": "http://www.republique-numerique.fr/projects/projet-de-loi-numerique/consultation/consultation/opinions/section-1-protection-des-donnees-a-caractere-personnel/article-19-droit-a-l-oubli-pour-les-mineurs-procedure-acceleree", 
            "id": "5084", 
            "opinion": "0"
        }, 
        {
            "article_title": "Article 20 - Mort num\u00e9rique", 
            "date": "2015-09-27T13:16:00+0200", 
            "link": "http://www.republique-numerique.fr/projects/projet-de-loi-numerique/consultation/consultation/opinions/section-1-protection-des-donnees-a-caractere-personnel/article-20-personnes-decedees", 
            "id": "5094", 
            "opinion": "0"
        }, 
        {
            "article_title": "Article 22 - Secret des correspondances num\u00e9riques", 
            "date": "2015-09-27T13:19:00+0200", 
            "link": "http://www.republique-numerique.fr/projects/projet-de-loi-numerique/consultation/consultation/opinions/section-2-confidentialite-des-correspondances-privees/article-22-respect-des-correspondances-privees-numeriques", 
            "id": "5117", 
            "opinion": "0"
        }, 
        {
            "article_title": "Amendement de la Loi Renseignement pour ajout du juge judiciaire", 
            "date": "2015-09-27T13:20:00+0200", 
            "link": "http://www.republique-numerique.fr/projects/projet-de-loi-numerique/consultation/consultation/opinions/section-2-confidentialite-des-correspondances-privees/amendement-de-la-loi-renseignement-pour-ajout-du-juge-judiciaire", 
            "id": "5129", 
            "opinion": "0"
        }, 
        {
            "article_title": "Article 23 - D\u00e9veloppement des usages num\u00e9riques dans les territoires", 
            "date": "2015-09-27T13:21:00+0200", 
            "link": "http://www.republique-numerique.fr/projects/projet-de-loi-numerique/consultation/consultation/opinions/section-1-competences-et-organisation/article-23-schema-directeur-numerique-des-collectivites", 
            "id": "5131", 
            "opinion": "1"
        }, 
        {
            "article_title": "Droit \u00e0 l'internet", 
            "date": "2015-09-27T13:21:00+0200", 
            "link": "http://www.republique-numerique.fr/projects/projet-de-loi-numerique/consultation/consultation/opinions/section-1-competences-et-organisation/droit-a-l-internet", 
            "id": "5135", 
            "opinion": "1"
        }, 
        {
            "article_title": "Apprentissage de la programmation", 
            "date": "2015-09-27T13:22:00+0200", 
            "link": "http://www.republique-numerique.fr/projects/projet-de-loi-numerique/consultation/consultation/opinions/section-1-competences-et-organisation/apprentissage-de-la-programmation", 
            "id": "5140", 
            "opinion": "1"
        }, 
        {
            "article_title": "Article 24 - Ouverture des donn\u00e9es de la couverture num\u00e9rique des territoires", 
            "date": "2015-09-27T13:23:00+0200", 
            "link": "http://www.republique-numerique.fr/projects/projet-de-loi-numerique/consultation/consultation/opinions/section-2-couverture-numerique/article-24-publicite-de-la-qualite-des-services-numeriques", 
            "id": "5147", 
            "opinion": "1"
        }, 
        {
            "article_title": "Article 25 - Modification des principes d\u2019\u00e9tablissement des redevances d\u2019utilisation des fr\u00e9quences", 
            "date": "2015-09-27T13:24:00+0200", 
            "link": "http://www.republique-numerique.fr/projects/projet-de-loi-numerique/consultation/consultation/opinions/section-2-couverture-numerique/article-25-principe-de-calcul-des-redevances-d-usage-des-frequences", 
            "id": "5155", 
            "opinion": "1"
        }, 
        {
            "article_title": "Article 26 - D\u00e9finition d\u2019un cadre de confiance pour le recommand\u00e9 \u00e9lectronique", 
            "date": "2015-09-27T13:25:00+0200", 
            "link": "http://www.republique-numerique.fr/projects/projet-de-loi-numerique/consultation/consultation/opinions/section-1-recommande-electronique/article-26-recommande-electronique", 
            "id": "5167", 
            "opinion": "1"
        }, 
        {
            "article_title": "Article 27 - Paiement par SMS", 
            "date": "2015-09-27T13:26:00+0200", 
            "link": "http://www.republique-numerique.fr/projects/projet-de-loi-numerique/consultation/consultation/opinions/section-2-paiement-par-sms/article-27-paiement-par-sms", 
            "id": "5176", 
            "opinion": "-1"
        }, 
        {
            "article_title": "Article 28 - Accessibilit\u00e9 des services publics, des services client et des offres de communications \u00e9lectroniques aux personnes sourdes et malentendantes", 
            "date": "2015-09-27T13:27:00+0200", 
            "link": "http://www.republique-numerique.fr/projects/projet-de-loi-numerique/consultation/consultation/opinions/section-1-accessibilite-des-personnes-handicapees-aux-services-telephoniques/article-28-accueil-telephonique-des-personnes-publiques-et-des-entreprises-offre-pour-les-deficients-auditifs", 
            "id": "5185", 
            "opinion": "1"
        }, 
        {
            "article_title": "Article 29 - Accessibilit\u00e9 aux personnes handicap\u00e9es des sites internet des administrations", 
            "date": "2015-09-27T13:28:00+0200", 
            "link": "http://www.republique-numerique.fr/projects/projet-de-loi-numerique/consultation/consultation/opinions/section-2-accessibilite-des-personnes-handicapees-aux-sites-internet-publics/article-29-accessibilite-numerique-des-services-publics", 
            "id": "5189", 
            "opinion": "0"
        }, 
        {
            "article_title": "Article 30 - Maintien de la connexion", 
            "date": "2015-09-27T13:29:00+0200", 
            "link": "http://www.republique-numerique.fr/projects/projet-de-loi-numerique/consultation/consultation/opinions/section-3-maintien-de-la-connexion-internet/article-30-maintien-temporaire-de-la-connexion", 
            "id": "5192", 
            "opinion": "1"
        }, 
        {
            "article_title": "Acc\u00e8s des personnes d\u00e9tenues au num\u00e9rique", 
            "date": "2015-09-27T13:29:00+0200", 
            "link": "http://www.republique-numerique.fr/projects/projet-de-loi-numerique/consultation/consultation/opinions/section-3-maintien-de-la-connexion-internet/acces-des-personnes-detenues-au-numerique", 
            "id": "5196", 
            "opinion": "1"
        }, 
        {
            "article_title": "Un des supports personnels d'acc\u00e8s \u00e0 internet sera d\u00e9clar\u00e9 insaisissable", 
            "date": "2015-09-27T13:30:00+0200", 
            "link": "http://www.republique-numerique.fr/projects/projet-de-loi-numerique/consultation/consultation/opinions/section-3-maintien-de-la-connexion-internet/un-des-supports-personnels-d-acces-a-internet-sera-declare-insaisissable", 
            "id": "5198", 
            "opinion": "1"
        }, 
        {
            "article_title": "Toute donn\u00e9e de sant\u00e9 produite par quiconque est d\u00e8s sa cr\u00e9ation la propri\u00e9t\u00e9 de la personne \u00e0 laquelle les donn\u00e9es s\u2019appliquent.", 
            "date": "2015-09-28T21:23:00+0200", 
            "link": "http://www.republique-numerique.fr/projects/projet-de-loi-numerique/consultation/consultation/opinions/section-1-protection-des-donnees-a-caractere-personnel/toute-donnee-de-sante-produite-par-quiconque-est-des-sa-creation-la-propriete-de-la-personne-a-laquelle-les-donnees-s-appliquent", 
            "id": "12657", 
            "opinion": "1"
        }
    ], 
    "sources": [], 
    "votes_count": 49, 
    "arguments": [], 
    "arguments_count": 0, 
    "propositions_count": 0, 
    "contributions_count": 0
}