{
    "modifications": [], 
    "modifications_count": 0, 
    "sources_count": 0, 
    "propositions": [
        {
            "article_title": "L\u00e9gislation de L'Escadron Noeliste.", 
            "votes": {
                "data-ok": "6", 
                "data-mitige": "0", 
                "data-nok": "2"
            }, 
            "stats": {
                "modification": "0", 
                "source": "0", 
                "votes": "8", 
                "argument": "0"
            }, 
            "id": "414", 
            "article_link": "/projects/projet-de-loi-numerique/consultation/consultation/opinions/section-2-confidentialite-des-correspondances-privees/legislation-de-l-escadron-noeliste"
        }, 
        {
            "article_title": "L\u00e9gislation de Le Morse.", 
            "votes": {
                "data-ok": "5", 
                "data-mitige": "0", 
                "data-nok": "1"
            }, 
            "stats": {
                "modification": "0", 
                "source": "0", 
                "votes": "6", 
                "argument": "0"
            }, 
            "id": "413", 
            "article_link": "/projects/projet-de-loi-numerique/consultation/consultation/opinions/section-2-confidentialite-des-correspondances-privees/legislation-de-le-morse"
        }
    ], 
    "votes": [
        {
            "article_title": "L\u00e9gislation de L'Escadron Noeliste.", 
            "date": "2015-10-04T16:02:00+0200", 
            "link": "http://www.republique-numerique.fr/projects/projet-de-loi-numerique/consultation/consultation/opinions/section-2-confidentialite-des-correspondances-privees/legislation-de-l-escadron-noeliste", 
            "id": "29656", 
            "opinion": "1"
        }, 
        {
            "article_title": "L\u00e9gislation de Le Morse.", 
            "date": "2015-10-04T16:02:00+0200", 
            "link": "http://www.republique-numerique.fr/projects/projet-de-loi-numerique/consultation/consultation/opinions/section-2-confidentialite-des-correspondances-privees/legislation-de-le-morse", 
            "id": "29657", 
            "opinion": "1"
        }
    ], 
    "sources": [], 
    "votes_count": 2, 
    "arguments": [], 
    "arguments_count": 0, 
    "propositions_count": 2, 
    "contributions_count": 2
}