{
    "modifications": [], 
    "modifications_count": 0, 
    "sources_count": 0, 
    "propositions": [], 
    "votes": [
        {
            "article_title": "Simplification de la proc\u00e9dure si passage devant le Comit\u00e9 du Secret Statistique", 
            "date": "2015-10-15T19:45:00+0200", 
            "link": "http://www.republique-numerique.fr/projects/projet-de-loi-numerique/consultation/consultation/opinions/section-2-travaux-de-recherche-et-de-statistique/article-10-nir-statistique/versions/simplification-de-la-procedure-si-passage-devant-le-comite-du-secret", 
            "id": "102781", 
            "opinion": "1"
        }, 
        {
            "article_title": "Article 10 - Proc\u00e9dure assouplie pour les travaux statistiques ou de recherche utilisant le num\u00e9ro de s\u00e9curit\u00e9 sociale (recours \u00e0 un \u00ab NIR statistique \u00bb)", 
            "date": "2015-10-15T19:46:00+0200", 
            "link": "http://www.republique-numerique.fr/projects/projet-de-loi-numerique/consultation/consultation/opinions/section-2-travaux-de-recherche-et-de-statistique/article-10-nir-statistique", 
            "id": "102785", 
            "opinion": "1"
        }
    ], 
    "sources": [], 
    "votes_count": 2, 
    "arguments": [], 
    "arguments_count": 0, 
    "propositions_count": 0, 
    "contributions_count": 0
}