{
    "modifications": [], 
    "modifications_count": 0, 
    "sources_count": 0, 
    "propositions": [], 
    "votes": [
        {
            "article_title": "Donner la priorit\u00e9 aux logiciels libres et aux formats ouverts dans le service public national et local", 
            "date": "2015-10-16T11:05:00+0200", 
            "link": "http://www.republique-numerique.fr/projects/projet-de-loi-numerique/consultation/consultation/opinions/section-3-loyaute-des-plateformes/donner-la-priorite-aux-logiciels-libres-et-aux-formats-ouverts-dans-le-service-public-national-et-local", 
            "id": "110453", 
            "opinion": "1"
        }, 
        {
            "article_title": "Utilisation de GNU/Linux dans l'administration", 
            "date": "2015-10-16T11:07:00+0200", 
            "link": "http://www.republique-numerique.fr/projects/projet-de-loi-numerique/consultation/consultation/opinions/section-3-donnees-d-interet-general/utilisation-de-gnu-linux-dans-l-administration", 
            "id": "110504", 
            "opinion": "1"
        }, 
        {
            "article_title": "Pr\u00e9ciser le p\u00e9rim\u00e8tre d'application de la Neutralit\u00e9 du Net", 
            "date": "2015-10-16T11:53:00+0200", 
            "link": "http://www.republique-numerique.fr/projects/projet-de-loi-numerique/consultation/consultation/opinions/section-1-neutralite-de-l-internet/article-11-neutralite-de-l-internet/versions/preciser-le-perimetre-d-application-de-la-neutralite-du-net", 
            "id": "111623", 
            "opinion": "1"
        }, 
        {
            "article_title": "Utiliser les logiciels libres & GNU/Linux dans les \u00e9coles et les universit\u00e9s", 
            "date": "2015-10-16T11:54:00+0200", 
            "link": "http://www.republique-numerique.fr/projects/projet-de-loi-numerique/consultation/consultation/opinions/section-2-service-public-de-la-donnee-1/utiliser-les-logiciels-libres-gnu-linux-dans-les-ecoles-et-les-universites", 
            "id": "111629", 
            "opinion": "1"
        }, 
        {
            "article_title": "Prot\u00e9ger le droit des auteurs d'articles scientifiques, pour permettre le libre acc\u00e8s \u00e0 la recherche scientifique", 
            "date": "2015-10-16T11:54:00+0200", 
            "link": "http://www.republique-numerique.fr/projects/projet-de-loi-numerique/consultation/consultation/opinions/section-2-travaux-de-recherche-et-de-statistique/article-9-acces-aux-travaux-de-la-recherche-financee-par-des-fonds-publics/versions/proteger-le-droit-des-auteurs-d-articles-scientifiques-pour-permettre-le-libre-acces-a-la-recherche-scientifique", 
            "id": "111635", 
            "opinion": "1"
        }, 
        {
            "article_title": "Consacrer un droit effectif \u00e0 la portabilit\u00e9", 
            "date": "2015-10-16T11:54:00+0200", 
            "link": "http://www.republique-numerique.fr/projects/projet-de-loi-numerique/consultation/consultation/opinions/section-2-portabilite-des-donnees/article-12-portabilite-des-donnees/versions/consacrer-un-droit-effectif-a-la-portabilite", 
            "id": "111647", 
            "opinion": "1"
        }, 
        {
            "article_title": "Interdiction de la vente li\u00e9e ordinateur/syst\u00e8me d'exploitation", 
            "date": "2015-10-16T11:55:00+0200", 
            "link": "http://www.republique-numerique.fr/projects/projet-de-loi-numerique/consultation/consultation/opinions/section-3-loyaute-des-plateformes/interdiction-de-la-vente-liee-ordinateur-systeme-d-exploitation", 
            "id": "111666", 
            "opinion": "1"
        }, 
        {
            "article_title": "Instaurer la libert\u00e9 de panorama en France", 
            "date": "2015-10-16T11:56:00+0200", 
            "link": "http://www.republique-numerique.fr/projects/projet-de-loi-numerique/consultation/consultation/opinions/section-1-les-communs/instaurer-la-liberte-de-panorama-en-france", 
            "id": "111676", 
            "opinion": "1"
        }, 
        {
            "article_title": "Paquets IP-CERFA", 
            "date": "2015-10-16T11:59:00+0200", 
            "link": "http://www.republique-numerique.fr/projects/projet-de-loi-numerique/consultation/consultation/opinions/section-2-confidentialite-des-correspondances-privees/paquets-ip-cerfa", 
            "id": "111765", 
            "opinion": "-1"
        }, 
        {
            "article_title": "Article 7 - Acc\u00e8s de la statistique publique \u00e0 certaines bases de donn\u00e9es priv\u00e9es", 
            "date": "2015-10-16T14:02:00+0200", 
            "link": "http://www.republique-numerique.fr/projects/projet-de-loi-numerique/consultation/consultation/opinions/section-3-donnees-d-interet-general/article-7-acces-de-la-statistique-publique-aux-bases-de-donnees-privees", 
            "id": "113843", 
            "opinion": "-1"
        }
    ], 
    "sources": [], 
    "votes_count": 10, 
    "arguments": [], 
    "arguments_count": 0, 
    "propositions_count": 0, 
    "contributions_count": 0
}