{
    "modifications": [], 
    "modifications_count": 0, 
    "sources_count": 0, 
    "propositions": [], 
    "votes": [
        {
            "article_title": "Article 1 - Open data par d\u00e9faut (obligation de diffuser en ligne les principaux documents et donn\u00e9es des organismes publics)", 
            "date": "2015-10-18T15:22:00+0200", 
            "link": "http://www.republique-numerique.fr/projects/projet-de-loi-numerique/consultation/consultation/opinions/section-1-ouverture-des-donnees-publiques-1/article-1-elargissement-du-champ-de-diffusion-par-l-administration", 
            "id": "153959", 
            "opinion": "1"
        }, 
        {
            "article_title": "Article 2 - Libre r\u00e9utilisation des donn\u00e9es des services publics industriels et commerciaux", 
            "date": "2015-10-18T15:24:00+0200", 
            "link": "http://www.republique-numerique.fr/projects/projet-de-loi-numerique/consultation/consultation/opinions/section-1-ouverture-des-donnees-publiques-1/article-2-principe-de-libre-reutilisation-des-donnees-pour-les-spic", 
            "id": "153990", 
            "opinion": "1"
        }, 
        {
            "article_title": "Article 11 - Neutralit\u00e9 de l\u2019internet", 
            "date": "2015-10-18T15:28:00+0200", 
            "link": "http://www.republique-numerique.fr/projects/projet-de-loi-numerique/consultation/consultation/opinions/section-1-neutralite-de-l-internet/article-11-neutralite-de-l-internet", 
            "id": "154038", 
            "opinion": "1"
        }, 
        {
            "article_title": "Pr\u00e9ciser le p\u00e9rim\u00e8tre d'application de la Neutralit\u00e9 du Net", 
            "date": "2015-10-18T15:29:00+0200", 
            "link": "http://www.republique-numerique.fr/projects/projet-de-loi-numerique/consultation/consultation/opinions/section-1-neutralite-de-l-internet/article-11-neutralite-de-l-internet/versions/preciser-le-perimetre-d-application-de-la-neutralite-du-net", 
            "id": "154042", 
            "opinion": "1"
        }, 
        {
            "article_title": "Le don par SMS pour les OSBL d'int\u00e9r\u00eat g\u00e9n\u00e9ral et faisant appel \u00e0 la g\u00e9n\u00e9rosit\u00e9", 
            "date": "2015-10-18T15:32:00+0200", 
            "link": "http://www.republique-numerique.fr/projects/projet-de-loi-numerique/consultation/consultation/opinions/section-2-paiement-par-sms/article-27-paiement-par-sms/versions/le-don-par-sms-pour-les-osbl-d-interet-general-et-faisant-appel-a-la-generosite", 
            "id": "154096", 
            "opinion": "1"
        }, 
        {
            "article_title": "Article 6 - Ouverture des donn\u00e9es des subventions publiques", 
            "date": "2015-10-18T15:33:00+0200", 
            "link": "http://www.republique-numerique.fr/projects/projet-de-loi-numerique/consultation/consultation/opinions/section-3-donnees-d-interet-general/article-6-ouverture-des-donnees-dans-les-conventions-de-subventions", 
            "id": "154115", 
            "opinion": "1"
        }, 
        {
            "article_title": "Acc\u00e8s facilit\u00e9 aux donn\u00e9es de subventions par secteur aid\u00e9, type d'aide, objectif poursuivi et organisme b\u00e9n\u00e9ficiaire (exemple des aides \u00e0 la presse)", 
            "date": "2015-10-18T15:33:00+0200", 
            "link": "http://www.republique-numerique.fr/projects/projet-de-loi-numerique/consultation/consultation/opinions/section-3-donnees-d-interet-general/article-6-ouverture-des-donnees-dans-les-conventions-de-subventions/versions/acces-facilite-aux-donnees-de-subventions-par-secteur-aide-type-d-aide-objectif-poursuivi-et-organisme-beneficiaire", 
            "id": "154131", 
            "opinion": "1"
        }, 
        {
            "article_title": "Pour une science ouverte : l'acc\u00e8s et l'exploitation des bien communs de la connaissance ne doivent pas \u00eatre entrav\u00e9s", 
            "date": "2015-10-18T15:35:00+0200", 
            "link": "http://www.republique-numerique.fr/projects/projet-de-loi-numerique/consultation/consultation/opinions/section-2-travaux-de-recherche-et-de-statistique/article-9-acces-aux-travaux-de-la-recherche-financee-par-des-fonds-publics/versions/pour-une-science-ouverte-l-acces-et-l-exploitation-des-bien-communs-de-la-connaissance-ne-doivent-pas-etre-entraves", 
            "id": "154171", 
            "opinion": "1"
        }, 
        {
            "article_title": "Il est indispensable de r\u00e9aliser des \u00e9tudes d'impact au plus vite. D\u00e9lais d'embargos pas inf\u00e9rieurs \u00e0 12 mois en STM et \u00e0 24 mois en SHS.", 
            "date": "2015-10-18T15:36:00+0200", 
            "link": "http://www.republique-numerique.fr/projects/projet-de-loi-numerique/consultation/consultation/opinions/section-2-travaux-de-recherche-et-de-statistique/article-9-acces-aux-travaux-de-la-recherche-financee-par-des-fonds-publics/versions/il-est-indispensable-de-realiser-des-etudes-d-impact-au-plus-vite-delais-d-embargos-pas-inferieurs-a-12-mois-en-stm-et-a-24-mois-en-shs", 
            "id": "154197", 
            "opinion": "-1"
        }, 
        {
            "article_title": "Assurer la compatibilit\u00e9 avec les licences libres", 
            "date": "2015-10-18T15:38:00+0200", 
            "link": "http://www.republique-numerique.fr/projects/projet-de-loi-numerique/consultation/consultation/opinions/section-2-travaux-de-recherche-et-de-statistique/article-9-acces-aux-travaux-de-la-recherche-financee-par-des-fonds-publics/versions/assurer-la-compatibilite-avec-les-licences-libres", 
            "id": "154226", 
            "opinion": "1"
        }, 
        {
            "article_title": "Une dur\u00e9e d'embargo plus courte, ne pas entraver le TDM (fouille de texte et de donn\u00e9es) et ne pas interdire une exploitation commerciale", 
            "date": "2015-10-18T15:39:00+0200", 
            "link": "http://www.republique-numerique.fr/projects/projet-de-loi-numerique/consultation/consultation/opinions/section-2-travaux-de-recherche-et-de-statistique/article-9-acces-aux-travaux-de-la-recherche-financee-par-des-fonds-publics/versions/une-duree-d-embargo-plus-courte-et-ne-pas-entraver-le-tdm-text-and-data-mining", 
            "id": "154244", 
            "opinion": "1"
        }, 
        {
            "article_title": "D\u00e9voiler les interactions entre le Gouvernement et les lobbystes", 
            "date": "2015-10-18T15:53:00+0200", 
            "link": "http://www.republique-numerique.fr/projects/projet-de-loi-numerique/consultation/consultation/opinions/section-3-donnees-d-interet-general/devoiler-les-interactions-entre-le-gouvernement-et-les-lobbystes", 
            "id": "154545", 
            "opinion": "1"
        }
    ], 
    "sources": [], 
    "votes_count": 12, 
    "arguments": [], 
    "arguments_count": 0, 
    "propositions_count": 0, 
    "contributions_count": 0
}