{
    "modifications": [], 
    "modifications_count": 0, 
    "sources_count": 0, 
    "propositions": [], 
    "votes": [
        {
            "article_title": "Une dur\u00e9e d'embargo plus courte, ne pas entraver le TDM (fouille de texte et de donn\u00e9es) et ne pas interdire une exploitation commerciale", 
            "date": "2015-10-13T09:09:00+0200", 
            "link": "http://www.republique-numerique.fr/projects/projet-de-loi-numerique/consultation/consultation/opinions/section-2-travaux-de-recherche-et-de-statistique/article-9-acces-aux-travaux-de-la-recherche-financee-par-des-fonds-publics/versions/une-duree-d-embargo-plus-courte-ne-pas-entraver-le-tdm-fouille-de-texte-et-de-donnees-et-ne-pas-interdire-une-exploitation-commerciale", 
            "id": "59511", 
            "opinion": "1"
        }, 
        {
            "article_title": "Confier la r\u00e9flexion \u00e9thique sur les impacts du num\u00e9rique \u00e0 une instance sp\u00e9cifique", 
            "date": "2015-10-13T09:10:00+0200", 
            "link": "http://www.republique-numerique.fr/projects/projet-de-loi-numerique/consultation/consultation/opinions/section-1-protection-des-donnees-a-caractere-personnel/confier-la-reflexion-ethique-sur-les-impacts-du-numerique-a-une-instance-specifique", 
            "id": "59528", 
            "opinion": "1"
        }, 
        {
            "article_title": "Doter la France d'une repr\u00e9sentation structur\u00e9e et officielle dans la gouvernance de l'Internet", 
            "date": "2015-10-13T09:11:00+0200", 
            "link": "http://www.republique-numerique.fr/projects/projet-de-loi-numerique/consultation/consultation/opinions/section-1-neutralite-de-l-internet/doter-la-france-d-une-representation-structuree-et-officielle-dans-la-gouvernance-de-l-internet", 
            "id": "59545", 
            "opinion": "1"
        }, 
        {
            "article_title": "Utiliser Wikip\u00e9dia comme outil p\u00e9dagogique et \u00e9ducatif pour apprendre des comp\u00e9tences et des valeurs", 
            "date": "2015-10-13T09:13:00+0200", 
            "link": "http://www.republique-numerique.fr/projects/projet-de-loi-numerique/consultation/consultation/opinions/section-1-les-communs/utiliser-wikipedia-comme-outil-pedagogique-et-educatif-pour-apprendre-des-competences-et-des-valeurs", 
            "id": "59573", 
            "opinion": "-1"
        }, 
        {
            "article_title": "Former les \u00e9tudiants \u00e0 Wikip\u00e9dia deviendra rapidement une obligation car tous l'utilisent d\u00e9j\u00e0.", 
            "date": "2015-10-13T09:14:00+0200", 
            "link": "http://www.republique-numerique.fr/projects/projet-de-loi-numerique/consultation/consultation/opinions/section-1-les-communs/utiliser-wikipedia-comme-outil-pedagogique-et-educatif-pour-apprendre-des-competences-et-des-valeurs/versions/former-les-etudiants-a-wikipedia-deviendra-rapidement-une-obligation-car-tous-l-utilisent-deja", 
            "id": "59575", 
            "opinion": "-1"
        }, 
        {
            "article_title": "fausse \"bonne id\u00e9e\"", 
            "date": "2015-10-13T09:15:00+0200", 
            "link": "http://www.republique-numerique.fr/projects/projet-de-loi-numerique/consultation/consultation/opinions/section-1-les-communs/utiliser-wikipedia-comme-outil-pedagogique-et-educatif-pour-apprendre-des-competences-et-des-valeurs/versions/fausse-bonne-idee", 
            "id": "59588", 
            "opinion": "0"
        }, 
        {
            "article_title": "SANCTUAIRE PUBLIQUE DE LA DONNEE", 
            "date": "2015-10-13T09:17:00+0200", 
            "link": "http://www.republique-numerique.fr/projects/projet-de-loi-numerique/consultation/consultation/opinions/section-2-service-public-de-la-donnee-1/sanctuaire-publique-de-la-donnee", 
            "id": "59617", 
            "opinion": "-1"
        }, 
        {
            "article_title": "Article 5 - Cr\u00e9ation d'un compte unique des services administratifs en ligne pour chaque citoyen", 
            "date": "2015-10-13T09:18:00+0200", 
            "link": "http://www.republique-numerique.fr/projects/projet-de-loi-numerique/consultation/consultation/opinions/section-2-service-public-de-la-donnee-1/article-5-creation-d-un-compte-unique-des-services-administratifs-en-ligne-pour-chaque-citoyen", 
            "id": "59625", 
            "opinion": "1"
        }, 
        {
            "article_title": "article plut\u00f4t dangeureux", 
            "date": "2015-10-13T09:20:00+0200", 
            "link": "http://www.republique-numerique.fr/projects/projet-de-loi-numerique/consultation/consultation/opinions/section-3-donnees-d-interet-general/article-7-acces-de-la-statistique-publique-aux-bases-de-donnees-privees/versions/article-plutot-dangeureux", 
            "id": "59654", 
            "opinion": "0"
        }, 
        {
            "article_title": "Article 7 - Acc\u00e8s de la statistique publique \u00e0 certaines bases de donn\u00e9es priv\u00e9es", 
            "date": "2015-10-13T09:20:00+0200", 
            "link": "http://www.republique-numerique.fr/projects/projet-de-loi-numerique/consultation/consultation/opinions/section-3-donnees-d-interet-general/article-7-acces-de-la-statistique-publique-aux-bases-de-donnees-privees", 
            "id": "59658", 
            "opinion": "0"
        }, 
        {
            "article_title": "Utilisation de GNU/Linux dans l'administration", 
            "date": "2015-10-13T09:20:00+0200", 
            "link": "http://www.republique-numerique.fr/projects/projet-de-loi-numerique/consultation/consultation/opinions/section-3-donnees-d-interet-general/utilisation-de-gnu-linux-dans-l-administration", 
            "id": "59661", 
            "opinion": "1"
        }, 
        {
            "article_title": "Elargir aux services publics", 
            "date": "2015-10-13T09:21:00+0200", 
            "link": "http://www.republique-numerique.fr/projects/projet-de-loi-numerique/consultation/consultation/opinions/section-3-donnees-d-interet-general/utilisation-de-gnu-linux-dans-l-administration/versions/elargir-aux-services-publics", 
            "id": "59663", 
            "opinion": "1"
        }, 
        {
            "article_title": "Garantie de souverainet\u00e9 des logiciels traitant de donn\u00e9es citoyennes", 
            "date": "2015-10-13T09:21:00+0200", 
            "link": "http://www.republique-numerique.fr/projects/projet-de-loi-numerique/consultation/consultation/opinions/section-3-donnees-d-interet-general/utilisation-de-gnu-linux-dans-l-administration/versions/garantie-de-souverainete-des-logiciels-traitant-de-donnees-citoyennes", 
            "id": "59674", 
            "opinion": "1"
        }, 
        {
            "article_title": "Utilisation d'un syst\u00e8me compil\u00e9 par l'Etat", 
            "date": "2015-10-13T09:22:00+0200", 
            "link": "http://www.republique-numerique.fr/projects/projet-de-loi-numerique/consultation/consultation/opinions/section-3-donnees-d-interet-general/utilisation-de-gnu-linux-dans-l-administration/versions/utilisation-d-un-systeme-compile-par-l-etat", 
            "id": "59679", 
            "opinion": "1"
        }, 
        {
            "article_title": "Article 8.0 - Libert\u00e9 de partage du savoir num\u00e9rique", 
            "date": "2015-10-13T09:23:00+0200", 
            "link": "http://www.republique-numerique.fr/projects/projet-de-loi-numerique/consultation/consultation/opinions/section-1-les-communs/article-8-0-liberte-de-partage-du-savoir-numerique", 
            "id": "59687", 
            "opinion": "1"
        }, 
        {
            "article_title": "DRM", 
            "date": "2015-10-13T09:23:00+0200", 
            "link": "http://www.republique-numerique.fr/projects/projet-de-loi-numerique/consultation/consultation/opinions/section-1-les-communs/article-8-0-liberte-de-partage-du-savoir-numerique/versions/drm", 
            "id": "59695", 
            "opinion": "1"
        }, 
        {
            "article_title": "Des cours libres de droit", 
            "date": "2015-10-13T09:25:00+0200", 
            "link": "http://www.republique-numerique.fr/projects/projet-de-loi-numerique/consultation/consultation/opinions/section-1-les-communs/creer-et-developper-la-publication-des-cours-et-des-devoirs-scolaire-en-ligne/versions/des-cours-libres-de-droit", 
            "id": "59717", 
            "opinion": "1"
        }, 
        {
            "article_title": "pour les enseignats qui le souhaitent", 
            "date": "2015-10-13T09:25:00+0200", 
            "link": "http://www.republique-numerique.fr/projects/projet-de-loi-numerique/consultation/consultation/opinions/section-1-les-communs/creer-et-developper-la-publication-des-cours-et-des-devoirs-scolaire-en-ligne/versions/pour-les-enseignats-qui-le-souhaitent", 
            "id": "59727", 
            "opinion": "1"
        }, 
        {
            "article_title": "fausse bonne id\u00e9e", 
            "date": "2015-10-13T09:26:00+0200", 
            "link": "http://www.republique-numerique.fr/projects/projet-de-loi-numerique/consultation/consultation/opinions/section-1-les-communs/creer-et-developper-la-publication-des-cours-et-des-devoirs-scolaire-en-ligne/versions/fausse-bonne-idee-1", 
            "id": "59735", 
            "opinion": "1"
        }, 
        {
            "article_title": "Portail scolaire complet depuis l'entr\u00e9e au primaire", 
            "date": "2015-10-13T09:26:00+0200", 
            "link": "http://www.republique-numerique.fr/projects/projet-de-loi-numerique/consultation/consultation/opinions/section-1-les-communs/creer-et-developper-la-publication-des-cours-et-des-devoirs-scolaire-en-ligne/versions/portail-scolaire-complet-depuis-l-entree-au-primaire", 
            "id": "59739", 
            "opinion": "1"
        }, 
        {
            "article_title": "Si la CopyLeft n'induit pas de r\u00e9mun\u00e9ration ou r...", 
            "date": "2015-10-13T09:28:00+0200", 
            "link": "http://www.republique-numerique.fr/projects/projet-de-loi-numerique/consultation/consultation/opinions/section-1-les-communs/reconnaissance-du-copyleft-droit-au-remix#arg-287", 
            "id": "59752", 
            "opinion": "1"
        }, 
        {
            "article_title": "RECONNAISSANCE DU COPYLEFT / DROIT AU REMIX", 
            "date": "2015-10-13T09:28:00+0200", 
            "link": "http://www.republique-numerique.fr/projects/projet-de-loi-numerique/consultation/consultation/opinions/section-1-les-communs/reconnaissance-du-copyleft-droit-au-remix", 
            "id": "59753", 
            "opinion": "1"
        }, 
        {
            "article_title": "recherche publique, acc\u00e8s public", 
            "date": "2015-10-13T09:30:00+0200", 
            "link": "http://www.republique-numerique.fr/projects/projet-de-loi-numerique/consultation/consultation/opinions/section-2-travaux-de-recherche-et-de-statistique/article-9-acces-aux-travaux-de-la-recherche-financee-par-des-fonds-publics/versions/recherche-publique-acces-public", 
            "id": "59782", 
            "opinion": "1"
        }, 
        {
            "article_title": "Article 9 - Libre acc\u00e8s aux publications scientifiques de la recherche publique", 
            "date": "2015-10-13T09:31:00+0200", 
            "link": "http://www.republique-numerique.fr/projects/projet-de-loi-numerique/consultation/consultation/opinions/section-2-travaux-de-recherche-et-de-statistique/article-9-acces-aux-travaux-de-la-recherche-financee-par-des-fonds-publics", 
            "id": "59787", 
            "opinion": "1"
        }, 
        {
            "article_title": "Financement non obligatoire", 
            "date": "2015-10-13T09:32:00+0200", 
            "link": "http://www.republique-numerique.fr/projects/projet-de-loi-numerique/consultation/consultation/opinions/section-2-travaux-de-recherche-et-de-statistique/article-11-0-financement-public-du-logiciel-libre/versions/financement-non-obligatoire", 
            "id": "59811", 
            "opinion": "1"
        }, 
        {
            "article_title": "Quand bien m\u00eame les sources sont publi\u00e9es, rien ...", 
            "date": "2015-10-13T09:33:00+0200", 
            "link": "http://www.republique-numerique.fr/projects/projet-de-loi-numerique/consultation/consultation/opinions/section-2-travaux-de-recherche-et-de-statistique/utiliser-des-outils-open-source-pour-ecrire-des-lois-numeriquement#arg-1131", 
            "id": "59824", 
            "opinion": "1"
        }, 
        {
            "article_title": "Article 11 - Neutralit\u00e9 de l\u2019internet", 
            "date": "2015-10-13T09:35:00+0200", 
            "link": "http://www.republique-numerique.fr/projects/projet-de-loi-numerique/consultation/consultation/opinions/section-1-neutralite-de-l-internet/article-11-neutralite-de-l-internet", 
            "id": "59836", 
            "opinion": "1"
        }, 
        {
            "article_title": "Inscrire dans la loi le d\u00e9lit de non respect de la neutralit\u00e9 du net", 
            "date": "2015-10-13T09:35:00+0200", 
            "link": "http://www.republique-numerique.fr/projects/projet-de-loi-numerique/consultation/consultation/opinions/section-1-neutralite-de-l-internet/inscrire-dans-la-loi-le-delit-de-non-respect-de-la-neutralite-du-net", 
            "id": "59839", 
            "opinion": "1"
        }, 
        {
            "article_title": "Article 12 - Portabilit\u00e9 des donn\u00e9es", 
            "date": "2015-10-13T09:37:00+0200", 
            "link": "http://www.republique-numerique.fr/projects/projet-de-loi-numerique/consultation/consultation/opinions/section-2-portabilite-des-donnees/article-12-portabilite-des-donnees", 
            "id": "59874", 
            "opinion": "1"
        }, 
        {
            "article_title": "Consacrer un droit d'information sur les modalit\u00e9s du stockage des fichiers et donn\u00e9es-utilisateur", 
            "date": "2015-10-13T09:37:00+0200", 
            "link": "http://www.republique-numerique.fr/projects/projet-de-loi-numerique/consultation/consultation/opinions/section-2-portabilite-des-donnees/article-12-portabilite-des-donnees/versions/consacrer-un-droit-d-information-sur-les-modalites-du-stockage-des-fichiers-et-donnees-utilisateur", 
            "id": "59879", 
            "opinion": "1"
        }, 
        {
            "article_title": "Obligation d\u2019information sur les possibilit\u00e9s d\u2019acc\u00e8s en continu aux donn\u00e9es via des interfaces informatiques", 
            "date": "2015-10-13T09:38:00+0200", 
            "link": "http://www.republique-numerique.fr/projects/projet-de-loi-numerique/consultation/consultation/opinions/section-2-portabilite-des-donnees/obligation-d-information-sur-les-possibilites-d-acces-en-continu-aux-donnees-via-des-interfaces-informatiques", 
            "id": "59888", 
            "opinion": "1"
        }, 
        {
            "article_title": "C'est une bonne id\u00e9e, mais je compte proposer que...", 
            "date": "2015-10-13T09:39:00+0200", 
            "link": "http://www.republique-numerique.fr/projects/projet-de-loi-numerique/consultation/consultation/opinions/section-3-loyaute-des-plateformes/droits-des-consommateurs-a-disposer-de-leurs-contenus-physiques-et-dematerialises#arg-2795", 
            "id": "59903", 
            "opinion": "1"
        }, 
        {
            "article_title": "Droits des consommateurs \u00e0 disposer de leurs contenus physiques et d\u00e9mat\u00e9rialis\u00e9s.", 
            "date": "2015-10-13T09:39:00+0200", 
            "link": "http://www.republique-numerique.fr/projects/projet-de-loi-numerique/consultation/consultation/opinions/section-3-loyaute-des-plateformes/droits-des-consommateurs-a-disposer-de-leurs-contenus-physiques-et-dematerialises", 
            "id": "59904", 
            "opinion": "1"
        }, 
        {
            "article_title": "Le pire, ce sont les e-books qu'on ach\u00e8te et qu'o...", 
            "date": "2015-10-13T09:39:00+0200", 
            "link": "http://www.republique-numerique.fr/projects/projet-de-loi-numerique/consultation/consultation/opinions/section-3-loyaute-des-plateformes/droits-des-consommateurs-a-disposer-de-leurs-contenus-physiques-et-dematerialises#arg-615", 
            "id": "59910", 
            "opinion": "1"
        }, 
        {
            "article_title": "Il semble en effet aberrant de ne pouvoir disposer...", 
            "date": "2015-10-13T09:40:00+0200", 
            "link": "http://www.republique-numerique.fr/projects/projet-de-loi-numerique/consultation/consultation/opinions/section-3-loyaute-des-plateformes/droits-des-consommateurs-a-disposer-de-leurs-contenus-physiques-et-dematerialises#arg-390", 
            "id": "59924", 
            "opinion": "1"
        }, 
        {
            "article_title": "Interdiction de la vente li\u00e9e ordinateur/syst\u00e8me d'exploitation", 
            "date": "2015-10-13T09:42:00+0200", 
            "link": "http://www.republique-numerique.fr/projects/projet-de-loi-numerique/consultation/consultation/opinions/section-3-loyaute-des-plateformes/interdiction-de-la-vente-liee-ordinateur-systeme-d-exploitation", 
            "id": "59960", 
            "opinion": "1"
        }, 
        {
            "article_title": "Article 13 - Principe de loyaut\u00e9 des plateformes en lignes", 
            "date": "2015-10-13T09:42:00+0200", 
            "link": "http://www.republique-numerique.fr/projects/projet-de-loi-numerique/consultation/consultation/opinions/section-3-loyaute-des-plateformes/article-13-principe-de-loyaute-vis-a-vis-des-consommateurs", 
            "id": "59973", 
            "opinion": "1"
        }, 
        {
            "article_title": "Limitation de la publicit\u00e9 sur le net", 
            "date": "2015-10-13T09:44:00+0200", 
            "link": "http://www.republique-numerique.fr/projects/projet-de-loi-numerique/consultation/consultation/opinions/section-4-information-des-consommateurs/limitation-de-la-publicite-sur-le-net", 
            "id": "60001", 
            "opinion": "1"
        }, 
        {
            "article_title": "Interdiction des publicit\u00e9s intrusives", 
            "date": "2015-10-13T09:44:00+0200", 
            "link": "http://www.republique-numerique.fr/projects/projet-de-loi-numerique/consultation/consultation/opinions/section-4-information-des-consommateurs/limitation-de-la-publicite-sur-le-net/versions/interdiction-des-publicites-intrusives", 
            "id": "60005", 
            "opinion": "1"
        }, 
        {
            "article_title": "Article 16 - Libre disposition de ses donn\u00e9es", 
            "date": "2015-10-13T09:45:00+0200", 
            "link": "http://www.republique-numerique.fr/projects/projet-de-loi-numerique/consultation/consultation/opinions/section-1-protection-des-donnees-a-caractere-personnel/article-16-libre-disposition-de-ses-donnees-a-caractere-personnel", 
            "id": "60020", 
            "opinion": "1"
        }, 
        {
            "article_title": "Article 17 - Evolution des missions de la CNIL", 
            "date": "2015-10-13T09:46:00+0200", 
            "link": "http://www.republique-numerique.fr/projects/projet-de-loi-numerique/consultation/consultation/opinions/section-1-protection-des-donnees-a-caractere-personnel/article-17-missions-de-la-cnil", 
            "id": "60039", 
            "opinion": "1"
        }, 
        {
            "article_title": "Ajouter la promotion du chiffrement des communications dans les missions de la CNIL", 
            "date": "2015-10-13T09:46:00+0200", 
            "link": "http://www.republique-numerique.fr/projects/projet-de-loi-numerique/consultation/consultation/opinions/section-1-protection-des-donnees-a-caractere-personnel/article-17-missions-de-la-cnil/versions/ajouter-la-promotion-du-chiffrement-des-communications-dans-les-missions-de-la-cnil", 
            "id": "60041", 
            "opinion": "1"
        }, 
        {
            "article_title": "Amendement de la Loi Renseignement pour ajout du juge judiciaire", 
            "date": "2015-10-13T09:47:00+0200", 
            "link": "http://www.republique-numerique.fr/projects/projet-de-loi-numerique/consultation/consultation/opinions/section-2-confidentialite-des-correspondances-privees/amendement-de-la-loi-renseignement-pour-ajout-du-juge-judiciaire", 
            "id": "60052", 
            "opinion": "1"
        }, 
        {
            "article_title": "Article 22 - Secret des correspondances num\u00e9riques", 
            "date": "2015-10-13T09:47:00+0200", 
            "link": "http://www.republique-numerique.fr/projects/projet-de-loi-numerique/consultation/consultation/opinions/section-2-confidentialite-des-correspondances-privees/article-22-respect-des-correspondances-privees-numeriques", 
            "id": "60054", 
            "opinion": "1"
        }, 
        {
            "article_title": "Service Public d'Identit\u00e9 \u00e9lectronique", 
            "date": "2015-10-13T09:48:00+0200", 
            "link": "http://www.republique-numerique.fr/projects/projet-de-loi-numerique/consultation/consultation/opinions/section-2-confidentialite-des-correspondances-privees/service-public-d-identite-electronique", 
            "id": "60062", 
            "opinion": "1"
        }, 
        {
            "article_title": "Article 23 - D\u00e9veloppement des usages num\u00e9riques dans les territoires", 
            "date": "2015-10-13T09:49:00+0200", 
            "link": "http://www.republique-numerique.fr/projects/projet-de-loi-numerique/consultation/consultation/opinions/section-1-competences-et-organisation/article-23-schema-directeur-numerique-des-collectivites", 
            "id": "60072", 
            "opinion": "1"
        }, 
        {
            "article_title": "Programmation (la vraie)", 
            "date": "2015-10-13T09:52:00+0200", 
            "link": "http://www.republique-numerique.fr/projects/projet-de-loi-numerique/consultation/consultation/opinions/section-1-competences-et-organisation/apprentissage-de-la-programmation/versions/programmation-la-vraie", 
            "id": "60116", 
            "opinion": "1"
        }, 
        {
            "article_title": "Droit d'acc\u00e8s gratuit", 
            "date": "2015-10-13T09:53:00+0200", 
            "link": "http://www.republique-numerique.fr/projects/projet-de-loi-numerique/consultation/consultation/opinions/section-1-competences-et-organisation/droit-a-l-internet/versions/droit-d-acces-gratuit", 
            "id": "60135", 
            "opinion": "1"
        }, 
        {
            "article_title": "couverture du territoire", 
            "date": "2015-10-13T09:53:00+0200", 
            "link": "http://www.republique-numerique.fr/projects/projet-de-loi-numerique/consultation/consultation/opinions/section-1-competences-et-organisation/droit-a-l-internet/versions/couverture-du-territoire", 
            "id": "60140", 
            "opinion": "1"
        }, 
        {
            "article_title": "Implication des citoyens dans la r\u00e9daction et l'\u00e9laboration des lois via le net", 
            "date": "2015-10-13T09:54:00+0200", 
            "link": "http://www.republique-numerique.fr/projects/projet-de-loi-numerique/consultation/consultation/opinions/section-1-competences-et-organisation/implication-des-citoyens-dans-la-redaction-et-l-elaboration-des-lois-via-le-net", 
            "id": "60152", 
            "opinion": "1"
        }, 
        {
            "article_title": "Article 24 - Ouverture des donn\u00e9es de la couverture num\u00e9rique des territoires", 
            "date": "2015-10-13T09:55:00+0200", 
            "link": "http://www.republique-numerique.fr/projects/projet-de-loi-numerique/consultation/consultation/opinions/section-2-couverture-numerique/article-24-publicite-de-la-qualite-des-services-numeriques", 
            "id": "60157", 
            "opinion": "1"
        }, 
        {
            "article_title": "R\u00e9seau internet public", 
            "date": "2015-10-13T09:56:00+0200", 
            "link": "http://www.republique-numerique.fr/projects/projet-de-loi-numerique/consultation/consultation/opinions/section-2-couverture-numerique/reseau-internet-public", 
            "id": "60167", 
            "opinion": "1"
        }, 
        {
            "article_title": "Limitation de la connexion pour \u00e9viter les abus", 
            "date": "2015-10-13T09:58:00+0200", 
            "link": "http://www.republique-numerique.fr/projects/projet-de-loi-numerique/consultation/consultation/opinions/section-3-maintien-de-la-connexion-internet/article-30-maintien-temporaire-de-la-connexion/versions/limitation-de-la-connexion-pour-eviter-les-abus", 
            "id": "60210", 
            "opinion": "1"
        }, 
        {
            "article_title": "Acc\u00e8s des personnes d\u00e9tenues au num\u00e9rique", 
            "date": "2015-10-13T09:59:00+0200", 
            "link": "http://www.republique-numerique.fr/projects/projet-de-loi-numerique/consultation/consultation/opinions/section-3-maintien-de-la-connexion-internet/acces-des-personnes-detenues-au-numerique", 
            "id": "60218", 
            "opinion": "-1"
        }, 
        {
            "article_title": "@Fran\u00e7ois Briat Une v\u00e9ritable d\u00e9mocratie direct...", 
            "date": "2015-10-13T10:05:00+0200", 
            "link": "http://www.republique-numerique.fr/projects/projet-de-loi-numerique/consultation/consultation/opinions/section-1-ouverture-des-donnees-publiques-1/le-vote-par-internet/versions/plateforme-de-democratie-directe#arg-1858", 
            "id": "60291", 
            "opinion": "1"
        }, 
        {
            "article_title": "plateforme de democratie directe", 
            "date": "2015-10-13T10:06:00+0200", 
            "link": "http://www.republique-numerique.fr/projects/projet-de-loi-numerique/consultation/consultation/opinions/section-1-ouverture-des-donnees-publiques-1/le-vote-par-internet/versions/plateforme-de-democratie-directe", 
            "id": "60300", 
            "opinion": "1"
        }, 
        {
            "article_title": "Le Vote par internet", 
            "date": "2015-10-13T10:07:00+0200", 
            "link": "http://www.republique-numerique.fr/projects/projet-de-loi-numerique/consultation/consultation/opinions/section-1-ouverture-des-donnees-publiques-1/le-vote-par-internet", 
            "id": "60311", 
            "opinion": "0"
        }, 
        {
            "article_title": "Attention \u00e0 ne pas remplacer les permanences des \u00e9lus", 
            "date": "2015-10-13T10:08:00+0200", 
            "link": "http://www.republique-numerique.fr/projects/projet-de-loi-numerique/consultation/consultation/opinions/section-1-competences-et-organisation/implication-des-citoyens-dans-la-redaction-et-l-elaboration-des-lois-via-le-net/versions/attention-a-ne-pas-remplacer-les-permanences-des-elus", 
            "id": "60333", 
            "opinion": "1"
        }, 
        {
            "article_title": "Encadrement et simplification des CGU et CGV.", 
            "date": "2015-10-13T10:09:00+0200", 
            "link": "http://www.republique-numerique.fr/projects/projet-de-loi-numerique/consultation/consultation/opinions/section-1-recommande-electronique/encadrement-et-simplification-des-cgu-et-cgv", 
            "id": "60340", 
            "opinion": "1"
        }, 
        {
            "article_title": "Obligation de rendre les appareils connect\u00e9s compatibles avec le protocole IPv6", 
            "date": "2015-10-13T10:09:00+0200", 
            "link": "http://www.republique-numerique.fr/projects/projet-de-loi-numerique/consultation/consultation/opinions/section-2-couverture-numerique/obligation-de-rendre-les-appareils-connectes-compatibles-avec-le-protocole-ipv6", 
            "id": "60345", 
            "opinion": "1"
        }, 
        {
            "article_title": "Prot\u00e9ger le droit des auteurs d'articles scientifiques, pour permettre le libre acc\u00e8s \u00e0 la recherche scientifique", 
            "date": "2015-10-13T10:15:00+0200", 
            "link": "http://www.republique-numerique.fr/projects/projet-de-loi-numerique/consultation/consultation/opinions/section-2-travaux-de-recherche-et-de-statistique/article-9-acces-aux-travaux-de-la-recherche-financee-par-des-fonds-publics/versions/proteger-le-droit-des-auteurs-d-articles-scientifiques-pour-permettre-le-libre-acces-a-la-recherche-scientifique", 
            "id": "60420", 
            "opinion": "1"
        }, 
        {
            "article_title": "Garantir l'autorisation du d\u00e9p\u00f4t imm\u00e9diat de la version \"auteur\" dans une archive ouverte", 
            "date": "2015-10-14T12:42:00+0200", 
            "link": "http://www.republique-numerique.fr/projects/projet-de-loi-numerique/consultation/consultation/opinions/section-2-travaux-de-recherche-et-de-statistique/article-9-acces-aux-travaux-de-la-recherche-financee-par-des-fonds-publics/versions/garantir-l-autorisation-du-depot-immediat-de-la-version-auteur-dans-une-archive-ouverte", 
            "id": "83100", 
            "opinion": "1"
        }
    ], 
    "sources": [], 
    "votes_count": 62, 
    "arguments": [], 
    "arguments_count": 0, 
    "propositions_count": 0, 
    "contributions_count": 0
}