{
    "modifications": [], 
    "modifications_count": 0, 
    "sources_count": 0, 
    "propositions": [], 
    "votes": [
        {
            "article_title": "Renforcer les m\u00e9canismes de protections des donn\u00e9es \u00e0 caract\u00e8re personnel dans l'article\u00a01, 3\u00b0.", 
            "date": "2015-10-18T10:39:00+0200", 
            "link": "http://www.republique-numerique.fr/projects/projet-de-loi-numerique/consultation/consultation/opinions/section-1-ouverture-des-donnees-publiques-1/article-1-elargissement-du-champ-de-diffusion-par-l-administration/versions/renforcer-les-mecanismes-de-protections-des-donnees-a-caractere-personnel-dans-l-article-1-3deg", 
            "id": "149534", 
            "opinion": "1"
        }, 
        {
            "article_title": "Supprimer int\u00e9gralement l'article\u00a07", 
            "date": "2015-10-18T10:42:00+0200", 
            "link": "http://www.republique-numerique.fr/projects/projet-de-loi-numerique/consultation/consultation/opinions/section-3-donnees-d-interet-general/article-7-acces-de-la-statistique-publique-aux-bases-de-donnees-privees/versions/supprimer-integralement-l-article-7", 
            "id": "149561", 
            "opinion": "0"
        }, 
        {
            "article_title": "Renforcer les m\u00e9canismes de protection des donn\u00e9es \u00e0 caract\u00e8re personnel (relatifs au NIR)", 
            "date": "2015-10-18T10:45:00+0200", 
            "link": "http://www.republique-numerique.fr/projects/projet-de-loi-numerique/consultation/consultation/opinions/section-2-travaux-de-recherche-et-de-statistique/article-10-nir-statistique/versions/renforcer-les-mecanismes-de-protection-des-donnees-a-caractere-personnel", 
            "id": "149611", 
            "opinion": "1"
        }, 
        {
            "article_title": "Renforcer les m\u00e9canismes de protections des donn\u00e9es \u00e0 caract\u00e8re personnel (2)", 
            "date": "2015-10-18T11:31:00+0200", 
            "link": "http://www.republique-numerique.fr/projects/projet-de-loi-numerique/consultation/consultation/opinions/section-2-travaux-de-recherche-et-de-statistique/article-10-nir-statistique/versions/renforcer-les-mecanismes-de-protections-des-donnees-a-caractere-personnel-2", 
            "id": "150339", 
            "opinion": "1"
        }, 
        {
            "article_title": "R\u00e9tablir certains dispositifs supprim\u00e9s au sein de la loi Informatique et libert\u00e9s", 
            "date": "2015-10-18T11:55:00+0200", 
            "link": "http://www.republique-numerique.fr/projects/projet-de-loi-numerique/consultation/consultation/opinions/section-1-protection-des-donnees-a-caractere-personnel/retablir-certains-dispositifs-supprimes-au-sein-de-la-loi-informatique-et-libertes", 
            "id": "150808", 
            "opinion": "1"
        }, 
        {
            "article_title": "Renforcement des sanctions financi\u00e8res de la CNIL", 
            "date": "2015-10-18T12:19:00+0200", 
            "link": "http://www.republique-numerique.fr/projects/projet-de-loi-numerique/consultation/consultation/opinions/section-1-protection-des-donnees-a-caractere-personnel/renforcement-des-sanctions-financieres-de-la-cnil", 
            "id": "151199", 
            "opinion": "1"
        }, 
        {
            "article_title": "Suppression de l'alin\u00e9a e) pour renforcer cette th\u00e9matique au sein d'une structure transverse d\u00e9di\u00e9e.", 
            "date": "2015-10-18T12:19:00+0200", 
            "link": "http://www.republique-numerique.fr/projects/projet-de-loi-numerique/consultation/consultation/opinions/section-1-protection-des-donnees-a-caractere-personnel/article-17-missions-de-la-cnil/versions/suppression-de-l-alinea-e-pour-renforcer-cette-thematique-au-sein-d-une-structure-transverse-dediee", 
            "id": "151204", 
            "opinion": "1"
        }
    ], 
    "sources": [], 
    "votes_count": 7, 
    "arguments": [], 
    "arguments_count": 0, 
    "propositions_count": 0, 
    "contributions_count": 0
}