{
    "modifications": [], 
    "modifications_count": 0, 
    "sources_count": 0, 
    "propositions": [], 
    "votes": [
        {
            "article_title": "Donner la priorit\u00e9 aux logiciels libres et aux formats ouverts dans le service public national et local", 
            "date": "2015-10-17T21:37:00+0200", 
            "link": "http://www.republique-numerique.fr/projects/projet-de-loi-numerique/consultation/consultation/opinions/section-3-loyaute-des-plateformes/donner-la-priorite-aux-logiciels-libres-et-aux-formats-ouverts-dans-le-service-public-national-et-local", 
            "id": "144581", 
            "opinion": "1"
        }, 
        {
            "article_title": "Le code source d'un logiciel est un document administratif communicable", 
            "date": "2015-10-17T21:37:00+0200", 
            "link": "http://www.republique-numerique.fr/projects/projet-de-loi-numerique/consultation/consultation/opinions/section-1-ouverture-des-donnees-publiques-1/le-code-source-d-un-logiciel-est-un-document-administratif-communicable", 
            "id": "144587", 
            "opinion": "1"
        }, 
        {
            "article_title": "Utiliser les logiciels libres & GNU/Linux dans les \u00e9coles et les universit\u00e9s", 
            "date": "2015-10-17T21:39:00+0200", 
            "link": "http://www.republique-numerique.fr/projects/projet-de-loi-numerique/consultation/consultation/opinions/section-2-service-public-de-la-donnee-1/utiliser-les-logiciels-libres-gnu-linux-dans-les-ecoles-et-les-universites", 
            "id": "144617", 
            "opinion": "1"
        }, 
        {
            "article_title": "Protection des correspondants", 
            "date": "2015-10-17T21:39:00+0200", 
            "link": "http://www.republique-numerique.fr/projects/projet-de-loi-numerique/consultation/consultation/opinions/section-2-confidentialite-des-correspondances-privees/protection-des-correspondants", 
            "id": "144619", 
            "opinion": "1"
        }, 
        {
            "article_title": "Interdiction de la vente li\u00e9e ordinateur/syst\u00e8me d'exploitation", 
            "date": "2015-10-17T21:39:00+0200", 
            "link": "http://www.republique-numerique.fr/projects/projet-de-loi-numerique/consultation/consultation/opinions/section-3-loyaute-des-plateformes/interdiction-de-la-vente-liee-ordinateur-systeme-d-exploitation", 
            "id": "144621", 
            "opinion": "1"
        }, 
        {
            "article_title": "\u00c9viter la l\u00e9galisation du copyfraud", 
            "date": "2015-10-17T21:44:00+0200", 
            "link": "http://www.republique-numerique.fr/projects/projet-de-loi-numerique/consultation/consultation/opinions/section-1-les-communs/article-8-definition-du-domaine-commun-informationnel/versions/eviter-la-legalisation-du-copyfraud", 
            "id": "144696", 
            "opinion": "1"
        }, 
        {
            "article_title": "\u00c9largir les possibilit\u00e9s d'action contre les atteintes au domaine commun informationnel", 
            "date": "2015-10-17T21:44:00+0200", 
            "link": "http://www.republique-numerique.fr/projects/projet-de-loi-numerique/consultation/consultation/opinions/section-1-les-communs/article-8-definition-du-domaine-commun-informationnel/versions/elargir-les-possibilites-d-action-contre-les-atteintes-au-domaine-commun-informationnel", 
            "id": "144701", 
            "opinion": "1"
        }, 
        {
            "article_title": "article 8 bis \u00ab\u00a0D\u00e9finition des communs volontaires\u00a0\u00bb", 
            "date": "2015-10-17T21:45:00+0200", 
            "link": "http://www.republique-numerique.fr/projects/projet-de-loi-numerique/consultation/consultation/opinions/section-1-les-communs/article-8-bis-definition-des-communs-volontaires", 
            "id": "144708", 
            "opinion": "1"
        }, 
        {
            "article_title": "Pr\u00e9ciser le p\u00e9rim\u00e8tre d'application de la Neutralit\u00e9 du Net", 
            "date": "2015-10-17T21:45:00+0200", 
            "link": "http://www.republique-numerique.fr/projects/projet-de-loi-numerique/consultation/consultation/opinions/section-1-neutralite-de-l-internet/article-11-neutralite-de-l-internet/versions/preciser-le-perimetre-d-application-de-la-neutralite-du-net", 
            "id": "144712", 
            "opinion": "1"
        }, 
        {
            "article_title": "Services sp\u00e9cialis\u00e9s et discrimination tarifaire", 
            "date": "2015-10-17T21:45:00+0200", 
            "link": "http://www.republique-numerique.fr/projects/projet-de-loi-numerique/consultation/consultation/opinions/section-1-neutralite-de-l-internet/article-11-neutralite-de-l-internet/versions/services-specialises-et-discrimination-tarifaire", 
            "id": "144714", 
            "opinion": "1"
        }, 
        {
            "article_title": "Ajouter la promotion du chiffrement des communications dans les missions de la CNIL", 
            "date": "2015-10-17T21:45:00+0200", 
            "link": "http://www.republique-numerique.fr/projects/projet-de-loi-numerique/consultation/consultation/opinions/section-1-protection-des-donnees-a-caractere-personnel/article-17-missions-de-la-cnil/versions/ajouter-la-promotion-du-chiffrement-des-communications-dans-les-missions-de-la-cnil", 
            "id": "144719", 
            "opinion": "1"
        }, 
        {
            "article_title": "22 bis : affirmer et encourager le droit au chiffrement des communications", 
            "date": "2015-10-17T21:45:00+0200", 
            "link": "http://www.republique-numerique.fr/projects/projet-de-loi-numerique/consultation/consultation/opinions/section-2-confidentialite-des-correspondances-privees/22-bis-affirmer-et-encourager-le-droit-au-chiffrement-des-communications", 
            "id": "144722", 
            "opinion": "1"
        }, 
        {
            "article_title": "23 : Autoriser les actions de groupe notamment en mati\u00e8re d'atteinte au droit sur les donn\u00e9es personnelles et la neutralit\u00e9 du Net", 
            "date": "2015-10-17T21:45:00+0200", 
            "link": "http://www.republique-numerique.fr/projects/projet-de-loi-numerique/consultation/consultation/opinions/section-2-confidentialite-des-correspondances-privees/23-autoriser-les-actions-de-groupe-notamment-en-matiere-d-atteinte-au-droit-sur-les-donnees-personnelles-et-la-neutralite-du-net", 
            "id": "144724", 
            "opinion": "1"
        }, 
        {
            "article_title": "Utilisation de GNU/Linux dans l'administration", 
            "date": "2015-10-17T21:46:00+0200", 
            "link": "http://www.republique-numerique.fr/projects/projet-de-loi-numerique/consultation/consultation/opinions/section-3-donnees-d-interet-general/utilisation-de-gnu-linux-dans-l-administration", 
            "id": "144736", 
            "opinion": "1"
        }, 
        {
            "article_title": "Instaurer la libert\u00e9 de panorama en France", 
            "date": "2015-10-17T21:47:00+0200", 
            "link": "http://www.republique-numerique.fr/projects/projet-de-loi-numerique/consultation/consultation/opinions/section-1-les-communs/instaurer-la-liberte-de-panorama-en-france", 
            "id": "144753", 
            "opinion": "1"
        }
    ], 
    "sources": [], 
    "votes_count": 15, 
    "arguments": [], 
    "arguments_count": 0, 
    "propositions_count": 0, 
    "contributions_count": 0
}