{
    "modifications": [], 
    "modifications_count": 0, 
    "sources_count": 0, 
    "propositions": [], 
    "votes": [
        {
            "article_title": "Ne pas oublier les sets de donn\u00e9es li\u00e9s \u00e0 un article", 
            "date": "2015-09-28T07:53:00+0200", 
            "link": "http://www.republique-numerique.fr/projects/projet-de-loi-numerique/consultation/consultation/opinions/section-2-travaux-de-recherche-et-de-statistique/article-9-acces-aux-travaux-de-la-recherche-financee-par-des-fonds-publics/versions/ne-pas-oublier-les-sets-de-donnees-lies-a-un-article", 
            "id": "7918", 
            "opinion": "1"
        }, 
        {
            "article_title": "Garantir le libre acc\u00e8s aux r\u00e9sultats de la recherche financ\u00e9e par des fonds publics", 
            "date": "2015-10-05T16:56:00+0200", 
            "link": "http://www.republique-numerique.fr/projects/projet-de-loi-numerique/consultation/consultation/opinions/section-2-travaux-de-recherche-et-de-statistique/article-9-acces-aux-travaux-de-la-recherche-financee-par-des-fonds-publics/versions/garantir-le-libre-acces-aux-resultats-de-la-recherche-financee-par-des-fonds-publics", 
            "id": "31763", 
            "opinion": "1"
        }, 
        {
            "article_title": "Obligation de d\u00e9p\u00f4t des publications scientifiques dans une archive ouverte", 
            "date": "2015-10-05T16:56:00+0200", 
            "link": "http://www.republique-numerique.fr/projects/projet-de-loi-numerique/consultation/consultation/opinions/section-2-travaux-de-recherche-et-de-statistique/pour-une-obligation-de-depot-des-publications-scientifiques-dans-une-archive-ouverte", 
            "id": "31765", 
            "opinion": "1"
        }, 
        {
            "article_title": "Exception de fouille de textes et de donn\u00e9es", 
            "date": "2015-10-05T16:56:00+0200", 
            "link": "http://www.republique-numerique.fr/projects/projet-de-loi-numerique/consultation/consultation/opinions/section-2-travaux-de-recherche-et-de-statistique/exception-de-fouille-de-texte-et-de-donnees", 
            "id": "31766", 
            "opinion": "1"
        }, 
        {
            "article_title": "POUR UNE GARANTIE DE DIFFUSION EN ACC\u00c8S OUVERT", 
            "date": "2015-10-10T21:50:00+0200", 
            "link": "http://www.republique-numerique.fr/projects/projet-de-loi-numerique/consultation/consultation/opinions/section-2-travaux-de-recherche-et-de-statistique/article-9-acces-aux-travaux-de-la-recherche-financee-par-des-fonds-publics/versions/pour-une-garantie-de-diffusion-en-acces-ouvert", 
            "id": "47250", 
            "opinion": "1"
        }, 
        {
            "article_title": "Article 9 - Libre acc\u00e8s aux publications scientifiques de la recherche publique", 
            "date": "2015-10-10T21:50:00+0200", 
            "link": "http://www.republique-numerique.fr/projects/projet-de-loi-numerique/consultation/consultation/opinions/section-2-travaux-de-recherche-et-de-statistique/article-9-acces-aux-travaux-de-la-recherche-financee-par-des-fonds-publics", 
            "id": "47251", 
            "opinion": "-1"
        }, 
        {
            "article_title": "Une dur\u00e9e d'embargo plus courte, ne pas entraver le TDM (fouille de texte et de donn\u00e9es) et ne pas interdire une exploitation commerciale", 
            "date": "2015-10-10T21:50:00+0200", 
            "link": "http://www.republique-numerique.fr/projects/projet-de-loi-numerique/consultation/consultation/opinions/section-2-travaux-de-recherche-et-de-statistique/article-9-acces-aux-travaux-de-la-recherche-financee-par-des-fonds-publics/versions/une-duree-d-embargo-plus-courte-ne-pas-entraver-le-tdm-fouille-de-texte-et-de-donnees-et-ne-pas-interdire-une-exploitation-commerciale", 
            "id": "47255", 
            "opinion": "1"
        }, 
        {
            "article_title": "Obligation de publier en open data les contenus exploit\u00e9s par des prestataires priv\u00e9s pour le compte de collectivit\u00e9s", 
            "date": "2015-10-15T10:53:00+0200", 
            "link": "http://www.republique-numerique.fr/projects/projet-de-loi-numerique/consultation/consultation/opinions/section-1-ouverture-des-donnees-publiques-1/article-1-elargissement-du-champ-de-diffusion-par-l-administration/versions/obligation-de-publier-en-open-data-les-contenus-exploites-par-des-prestataires-prives-pour-le-compte-de-collectivites", 
            "id": "93534", 
            "opinion": "1"
        }, 
        {
            "article_title": "Instaurer un d\u00e9lai unique pour la protection des donn\u00e9es de la recherche", 
            "date": "2015-10-15T10:53:00+0200", 
            "link": "http://www.republique-numerique.fr/projects/projet-de-loi-numerique/consultation/consultation/opinions/section-1-les-communs/article-8-definition-du-domaine-commun-informationnel/versions/instaurer-un-delais-unique-pour-la-protection-des-donnees-de-la-recherche", 
            "id": "93535", 
            "opinion": "1"
        }, 
        {
            "article_title": "Mention suppl\u00e9mentaire conforme aux pr\u00e9connisations de l'OCDE", 
            "date": "2015-10-15T10:53:00+0200", 
            "link": "http://www.republique-numerique.fr/projects/projet-de-loi-numerique/consultation/consultation/opinions/section-2-travaux-de-recherche-et-de-statistique/article-9-acces-aux-travaux-de-la-recherche-financee-par-des-fonds-publics/versions/mention-supplementaire-conforme-aux-preconnisations-de-l-ocde", 
            "id": "93537", 
            "opinion": "1"
        }, 
        {
            "article_title": "Se r\u00e9f\u00e9rer au R\u00e9f\u00e9rentiel G\u00e9n\u00e9ral d\u2019Accessibilit\u00e9 pour les Administrations issu du d\u00e9cret 2009-546", 
            "date": "2015-10-15T10:53:00+0200", 
            "link": "http://www.republique-numerique.fr/projects/projet-de-loi-numerique/consultation/consultation/opinions/section-2-accessibilite-des-personnes-handicapees-aux-sites-internet-publics/article-29-accessibilite-numerique-des-services-publics/versions/se-referer-au-referentiel-general-d-accessibilite-pour-les-administrations-issu-du-decret-2009-546", 
            "id": "93540", 
            "opinion": "1"
        }
    ], 
    "sources": [], 
    "votes_count": 11, 
    "arguments": [], 
    "arguments_count": 0, 
    "propositions_count": 0, 
    "contributions_count": 0
}