{
    "modifications": [
        {
            "stats": {
                "source": "0", 
                "votes": "31", 
                "arguments": "3"
            }, 
            "votes": {
                "data-ok": "12", 
                "data-mitige": "0", 
                "data-nok": "19"
            }, 
            "link": "/projects/projet-de-loi-numerique/consultation/consultation/opinions/section-1-ouverture-des-donnees-publiques-1/article-1-elargissement-du-champ-de-diffusion-par-l-administration/versions/diffusion-sans-anonymisation-si-disposition-legale-et-si-autorisation-de-la-personne-concernee-pas-ou", 
            "id": "527", 
            "title": "Diffusion sans anonymisation si disposition l\u00e9gislative ET accord de la personne concern\u00e9e, pas OU"
        }
    ], 
    "modifications_count": 1, 
    "sources_count": 0, 
    "propositions": [], 
    "votes": [
        {
            "article_title": "Article 1 - Open data par d\u00e9faut (obligation de diffuser en ligne les principaux documents et donn\u00e9es des organismes publics)", 
            "date": "2015-10-01T13:32:00+0200", 
            "link": "http://www.republique-numerique.fr/projects/projet-de-loi-numerique/consultation/consultation/opinions/section-1-ouverture-des-donnees-publiques-1/article-1-elargissement-du-champ-de-diffusion-par-l-administration", 
            "id": "23495", 
            "opinion": "1"
        }, 
        {
            "article_title": "Diffusion sans anonymisation si disposition l\u00e9gislative ET accord de la personne concern\u00e9e, pas OU", 
            "date": "2015-10-01T13:44:00+0200", 
            "link": "http://www.republique-numerique.fr/projects/projet-de-loi-numerique/consultation/consultation/opinions/section-1-ouverture-des-donnees-publiques-1/article-1-elargissement-du-champ-de-diffusion-par-l-administration/versions/diffusion-sans-anonymisation-si-disposition-legale-et-si-autorisation-de-la-personne-concernee-pas-ou", 
            "id": "23575", 
            "opinion": "1"
        }, 
        {
            "article_title": "Tracabilit\u00e9 de l'origine des donn\u00e9es utilis\u00e9es", 
            "date": "2015-10-01T13:47:00+0200", 
            "link": "http://www.republique-numerique.fr/projects/projet-de-loi-numerique/consultation/consultation/opinions/section-1-ouverture-des-donnees-publiques-1/article-2-principe-de-libre-reutilisation-des-donnees-pour-les-spic/versions/tracabilite-de-l-origine-des-donnees-utilisees", 
            "id": "23596", 
            "opinion": "1"
        }
    ], 
    "sources": [], 
    "votes_count": 3, 
    "arguments": [], 
    "arguments_count": 0, 
    "propositions_count": 0, 
    "contributions_count": 1
}