{
    "modifications": [], 
    "modifications_count": 0, 
    "sources_count": 0, 
    "propositions": [
        {
            "article_title": "Autoriser un acc\u00e8s \"fair\" aux donn\u00e9es et avis cr\u00e9\u00e9s par les internautes sur les plateformes", 
            "votes": {
                "data-ok": "1", 
                "data-mitige": "0", 
                "data-nok": "0"
            }, 
            "stats": {
                "vote": "1", 
                "modification": "0", 
                "argument": "1", 
                "source": "0"
            }, 
            "id": "767", 
            "article_link": "/projects/projet-de-loi-numerique/consultation/consultation/opinions/section-3-loyaute-des-plateformes/autoriser-un-acces-fair-aux-donnees-et-avis-crees-par-les-internautes-sur-les-plateformes"
        }
    ], 
    "votes": [
        {
            "article_title": "Autoriser un acc\u00e8s \"fair\" aux donn\u00e9es et avis cr\u00e9\u00e9s par les internautes sur les plateformes", 
            "date": "2015-10-18T21:22:00+0200", 
            "link": "http://www.republique-numerique.fr/projects/projet-de-loi-numerique/consultation/consultation/opinions/section-3-loyaute-des-plateformes/autoriser-un-acces-fair-aux-donnees-et-avis-crees-par-les-internautes-sur-les-plateformes", 
            "id": "162507", 
            "opinion": "1"
        }
    ], 
    "sources": [], 
    "votes_count": 1, 
    "arguments": [
        {
            "article_title": "Signaler", 
            "votes": 0, 
            "article_link": "http://www.republique-numerique.fr/consultations/projet-de-loi-numerique/consultation/consultation/opinions/section-3-loyaute-des-plateformes/autoriser-un-acces-fair-aux-donnees-et-avis-crees-par-les-internautes-sur-les-plateformes/arguments/6094/report", 
            "link": "http://www.republique-numerique.fr/consultations/projet-de-loi-numerique/consultation/consultation/opinions/section-3-loyaute-des-plateformes/autoriser-un-acces-fair-aux-donnees-et-avis-crees-par-les-internautes-sur-les-plateformes/arguments/6094/report#arg-6094", 
            "date": "2015-10-18T21:23:00+0200", 
            "id": "6094"
        }
    ], 
    "arguments_count": 1, 
    "propositions_count": 1, 
    "contributions_count": 2
}