{
    "modifications": [], 
    "modifications_count": 0, 
    "sources_count": 0, 
    "propositions": [], 
    "votes": [
        {
            "article_title": "Maintien des cabines t\u00e9l\u00e9phoniques : Garantie acheminement Appels et Appels d'Urgence en cas de coupure \u00e9lectrique", 
            "date": "2015-10-05T14:25:00+0200", 
            "link": "http://www.republique-numerique.fr/projects/projet-de-loi-numerique/consultation/consultation/opinions/section-3-maintien-de-la-connexion-internet/maintien-des-cabines-telephoniques-garantie-acheminement-appels-et-appels-d-urgence-en-cas-de-coupure-electrique", 
            "id": "31456", 
            "opinion": "1"
        }
    ], 
    "sources": [], 
    "votes_count": 1, 
    "arguments": [], 
    "arguments_count": 0, 
    "propositions_count": 0, 
    "contributions_count": 0
}