{
    "modifications": [], 
    "modifications_count": 0, 
    "sources_count": 0, 
    "propositions": [], 
    "votes": [
        {
            "article_title": "Ouvrir les donn\u00e9es ayant servi \u00e0 la r\u00e9daction d'un rapport publique", 
            "date": "2015-10-18T18:01:00+0200", 
            "link": "http://www.republique-numerique.fr/projects/projet-de-loi-numerique/consultation/consultation/opinions/section-1-ouverture-des-donnees-publiques-1/ouvrir-les-donnees-ayant-servi-a-la-redaction-d-un-rapport-publique", 
            "id": "157888", 
            "opinion": "1"
        }, 
        {
            "article_title": "Article 2 - Libre r\u00e9utilisation des donn\u00e9es des services publics industriels et commerciaux", 
            "date": "2015-10-18T18:01:00+0200", 
            "link": "http://www.republique-numerique.fr/projects/projet-de-loi-numerique/consultation/consultation/opinions/section-1-ouverture-des-donnees-publiques-1/article-2-principe-de-libre-reutilisation-des-donnees-pour-les-spic", 
            "id": "157892", 
            "opinion": "1"
        }, 
        {
            "article_title": "Article 1 - Open data par d\u00e9faut (obligation de diffuser en ligne les principaux documents et donn\u00e9es des organismes publics)", 
            "date": "2015-10-18T18:01:00+0200", 
            "link": "http://www.republique-numerique.fr/projects/projet-de-loi-numerique/consultation/consultation/opinions/section-1-ouverture-des-donnees-publiques-1/article-1-elargissement-du-champ-de-diffusion-par-l-administration", 
            "id": "157898", 
            "opinion": "1"
        }, 
        {
            "article_title": "Article 3 - Droit d\u2019acc\u00e8s des organismes publics aux donn\u00e9es publiques & de r\u00e9utilisation d\u2019informations comportant des donn\u00e9es personnelles d\u00e9j\u00e0 publi\u00e9es", 
            "date": "2015-10-18T18:01:00+0200", 
            "link": "http://www.republique-numerique.fr/projects/projet-de-loi-numerique/consultation/consultation/opinions/section-1-ouverture-des-donnees-publiques-1/article-3-dispositions-diverses", 
            "id": "157909", 
            "opinion": "1"
        }, 
        {
            "article_title": "Transparence / S\u00e9curit\u00e9", 
            "date": "2015-10-18T18:02:00+0200", 
            "link": "http://www.republique-numerique.fr/projects/projet-de-loi-numerique/consultation/consultation/opinions/section-1-ouverture-des-donnees-publiques-1/transparence-securite", 
            "id": "157929", 
            "opinion": "1"
        }, 
        {
            "article_title": "Digitalisation de l'appareil d'\u00e9tat", 
            "date": "2015-10-18T18:02:00+0200", 
            "link": "http://www.republique-numerique.fr/projects/projet-de-loi-numerique/consultation/consultation/opinions/section-1-ouverture-des-donnees-publiques-1/digitalisation-de-l-appareil-d-etat", 
            "id": "157937", 
            "opinion": "1"
        }, 
        {
            "article_title": "Article (num\u00e9ro \u00e0 incr\u00e9menter) - De l'acc\u00e8s au code source", 
            "date": "2015-10-18T18:02:00+0200", 
            "link": "http://www.republique-numerique.fr/projects/projet-de-loi-numerique/consultation/consultation/opinions/section-1-ouverture-des-donnees-publiques-1/article-numero-a-incrementer-de-l-acces-au-code-source", 
            "id": "157941", 
            "opinion": "1"
        }, 
        {
            "article_title": "DROIT A L' INFORMATION UNIVERSEL & EUROPEEN", 
            "date": "2015-10-18T18:03:00+0200", 
            "link": "http://www.republique-numerique.fr/projects/projet-de-loi-numerique/consultation/consultation/opinions/section-1-ouverture-des-donnees-publiques-1/droit-a-l-information-universel-europeen", 
            "id": "157947", 
            "opinion": "1"
        }, 
        {
            "article_title": "Le code source d'un logiciel est un document administratif communicable", 
            "date": "2015-10-18T18:03:00+0200", 
            "link": "http://www.republique-numerique.fr/projects/projet-de-loi-numerique/consultation/consultation/opinions/section-1-ouverture-des-donnees-publiques-1/le-code-source-d-un-logiciel-est-un-document-administratif-communicable", 
            "id": "157952", 
            "opinion": "1"
        }, 
        {
            "article_title": "ouverture du code des algorithmes publics", 
            "date": "2015-10-18T18:03:00+0200", 
            "link": "http://www.republique-numerique.fr/projects/projet-de-loi-numerique/consultation/consultation/opinions/section-1-ouverture-des-donnees-publiques-1/ouverture-du-code-des-algorithmes-publics", 
            "id": "157960", 
            "opinion": "1"
        }, 
        {
            "article_title": "Suppression de la taxe copie priv\u00e9e", 
            "date": "2015-10-18T18:04:00+0200", 
            "link": "http://www.republique-numerique.fr/projects/projet-de-loi-numerique/consultation/consultation/opinions/section-1-ouverture-des-donnees-publiques-1/suppression-de-la-taxe-copie-privee", 
            "id": "157967", 
            "opinion": "1"
        }, 
        {
            "article_title": "Cr\u00e9er un droit de citation audiovisuelle", 
            "date": "2015-10-18T18:04:00+0200", 
            "link": "http://www.republique-numerique.fr/projects/projet-de-loi-numerique/consultation/consultation/opinions/section-1-ouverture-des-donnees-publiques-1/creer-un-droit-de-citation-audiovisuelle", 
            "id": "157972", 
            "opinion": "1"
        }, 
        {
            "article_title": "Article 5 - Cr\u00e9ation d'un compte unique des services administratifs en ligne pour chaque citoyen", 
            "date": "2015-10-18T18:07:00+0200", 
            "link": "http://www.republique-numerique.fr/projects/projet-de-loi-numerique/consultation/consultation/opinions/section-2-service-public-de-la-donnee-1/article-5-creation-d-un-compte-unique-des-services-administratifs-en-ligne-pour-chaque-citoyen", 
            "id": "158038", 
            "opinion": "1"
        }, 
        {
            "article_title": "Protection, r\u00e9compense et ind\u00e9mnisation des lanceurs d'alertes", 
            "date": "2015-10-18T18:07:00+0200", 
            "link": "http://www.republique-numerique.fr/projects/projet-de-loi-numerique/consultation/consultation/opinions/section-3-donnees-d-interet-general/protection-recompense-et-indemnisation-des-lanceurs-d-alertes", 
            "id": "158039", 
            "opinion": "1"
        }, 
        {
            "article_title": "Article 8.0 - Libert\u00e9 de partage du savoir num\u00e9rique", 
            "date": "2015-10-18T18:07:00+0200", 
            "link": "http://www.republique-numerique.fr/projects/projet-de-loi-numerique/consultation/consultation/opinions/section-1-les-communs/article-8-0-liberte-de-partage-du-savoir-numerique", 
            "id": "158041", 
            "opinion": "1"
        }, 
        {
            "article_title": "DRM", 
            "date": "2015-10-18T18:08:00+0200", 
            "link": "http://www.republique-numerique.fr/projects/projet-de-loi-numerique/consultation/consultation/opinions/section-1-les-communs/article-8-0-liberte-de-partage-du-savoir-numerique/versions/drm", 
            "id": "158046", 
            "opinion": "1"
        }, 
        {
            "article_title": "RECONNAISSANCE DU COPYLEFT / DROIT AU REMIX", 
            "date": "2015-10-18T18:08:00+0200", 
            "link": "http://www.republique-numerique.fr/projects/projet-de-loi-numerique/consultation/consultation/opinions/section-1-les-communs/reconnaissance-du-copyleft-droit-au-remix", 
            "id": "158049", 
            "opinion": "1"
        }, 
        {
            "article_title": "Cr\u00e9er et d\u00e9velopper la publication des cours et des devoirs scolaire en ligne", 
            "date": "2015-10-18T18:08:00+0200", 
            "link": "http://www.republique-numerique.fr/projects/projet-de-loi-numerique/consultation/consultation/opinions/section-1-les-communs/creer-et-developper-la-publication-des-cours-et-des-devoirs-scolaire-en-ligne", 
            "id": "158050", 
            "opinion": "1"
        }, 
        {
            "article_title": "Article 11.0 - Financement public du logiciel libre", 
            "date": "2015-10-18T18:09:00+0200", 
            "link": "http://www.republique-numerique.fr/projects/projet-de-loi-numerique/consultation/consultation/opinions/section-2-travaux-de-recherche-et-de-statistique/article-11-0-financement-public-du-logiciel-libre", 
            "id": "158068", 
            "opinion": "1"
        }, 
        {
            "article_title": "Article 11 - Neutralit\u00e9 de l\u2019internet", 
            "date": "2015-10-18T18:09:00+0200", 
            "link": "http://www.republique-numerique.fr/projects/projet-de-loi-numerique/consultation/consultation/opinions/section-1-neutralite-de-l-internet/article-11-neutralite-de-l-internet", 
            "id": "158070", 
            "opinion": "1"
        }, 
        {
            "article_title": "Inscrire dans la loi le d\u00e9lit de non respect de la neutralit\u00e9 du net", 
            "date": "2015-10-18T18:09:00+0200", 
            "link": "http://www.republique-numerique.fr/projects/projet-de-loi-numerique/consultation/consultation/opinions/section-1-neutralite-de-l-internet/inscrire-dans-la-loi-le-delit-de-non-respect-de-la-neutralite-du-net", 
            "id": "158071", 
            "opinion": "1"
        }, 
        {
            "article_title": "Article 11bis - Transparence des algorithmes utilis\u00e9s par les services publiques et renforcement de la s\u00e9curit\u00e9 en ligne", 
            "date": "2015-10-18T18:09:00+0200", 
            "link": "http://www.republique-numerique.fr/projects/projet-de-loi-numerique/consultation/consultation/opinions/section-1-neutralite-de-l-internet/article-11bis-transparence-des-algorithmes-utilises-par-les-services-publiques", 
            "id": "158074", 
            "opinion": "1"
        }, 
        {
            "article_title": "Doter la France d'une repr\u00e9sentation structur\u00e9e et officielle dans la gouvernance de l'Internet", 
            "date": "2015-10-18T18:10:00+0200", 
            "link": "http://www.republique-numerique.fr/projects/projet-de-loi-numerique/consultation/consultation/opinions/section-1-neutralite-de-l-internet/doter-la-france-d-une-representation-structuree-et-officielle-dans-la-gouvernance-de-l-internet", 
            "id": "158078", 
            "opinion": "1"
        }, 
        {
            "article_title": "Loyaut\u00e9 du DNS", 
            "date": "2015-10-18T18:10:00+0200", 
            "link": "http://www.republique-numerique.fr/projects/projet-de-loi-numerique/consultation/consultation/opinions/section-1-neutralite-de-l-internet/loyaute-du-dns", 
            "id": "158082", 
            "opinion": "1"
        }, 
        {
            "article_title": "Article 12 - Portabilit\u00e9 des donn\u00e9es", 
            "date": "2015-10-18T18:10:00+0200", 
            "link": "http://www.republique-numerique.fr/projects/projet-de-loi-numerique/consultation/consultation/opinions/section-2-portabilite-des-donnees/article-12-portabilite-des-donnees", 
            "id": "158084", 
            "opinion": "1"
        }, 
        {
            "article_title": "Article 13 - Principe de loyaut\u00e9 des plateformes en lignes", 
            "date": "2015-10-18T18:10:00+0200", 
            "link": "http://www.republique-numerique.fr/projects/projet-de-loi-numerique/consultation/consultation/opinions/section-3-loyaute-des-plateformes/article-13-principe-de-loyaute-vis-a-vis-des-consommateurs", 
            "id": "158091", 
            "opinion": "1"
        }, 
        {
            "article_title": "Article 14 - Informer sur les pratiques des plateformes en ligne", 
            "date": "2015-10-18T18:10:00+0200", 
            "link": "http://www.republique-numerique.fr/projects/projet-de-loi-numerique/consultation/consultation/opinions/section-3-loyaute-des-plateformes/article-14-regulation", 
            "id": "158094", 
            "opinion": "1"
        }, 
        {
            "article_title": "Droits des consommateurs \u00e0 disposer de leurs contenus physiques et d\u00e9mat\u00e9rialis\u00e9s.", 
            "date": "2015-10-18T18:10:00+0200", 
            "link": "http://www.republique-numerique.fr/projects/projet-de-loi-numerique/consultation/consultation/opinions/section-3-loyaute-des-plateformes/droits-des-consommateurs-a-disposer-de-leurs-contenus-physiques-et-dematerialises", 
            "id": "158098", 
            "opinion": "1"
        }, 
        {
            "article_title": "Article 15.0 - Permettre une meilleure distinction des \"publicit\u00e9s d\u00e9guis\u00e9es\" sur les supports m\u00e9diatiques.", 
            "date": "2015-10-18T18:11:00+0200", 
            "link": "http://www.republique-numerique.fr/projects/projet-de-loi-numerique/consultation/consultation/opinions/section-4-information-des-consommateurs/article-15-0-permettre-une-meilleure-distinction-des-publicites-deguisees-sur-les-supports-mediatiques", 
            "id": "158103", 
            "opinion": "1"
        }, 
        {
            "article_title": "Article 15 - Mieux informer sur les avis en ligne et sur les d\u00e9bits", 
            "date": "2015-10-18T18:11:00+0200", 
            "link": "http://www.republique-numerique.fr/projects/projet-de-loi-numerique/consultation/consultation/opinions/section-4-information-des-consommateurs/article-15-information-des-consommateurs-et-avis-en-ligne", 
            "id": "158106", 
            "opinion": "1"
        }, 
        {
            "article_title": "Amendement de la Loi Renseignement pour ajout du juge judiciaire", 
            "date": "2015-10-18T18:11:00+0200", 
            "link": "http://www.republique-numerique.fr/projects/projet-de-loi-numerique/consultation/consultation/opinions/section-2-confidentialite-des-correspondances-privees/amendement-de-la-loi-renseignement-pour-ajout-du-juge-judiciaire", 
            "id": "158110", 
            "opinion": "1"
        }, 
        {
            "article_title": "Imposer le chiffrement par d\u00e9faut des courriers \u00e9lectroniques par les divers prestataires", 
            "date": "2015-10-18T18:11:00+0200", 
            "link": "http://www.republique-numerique.fr/projects/projet-de-loi-numerique/consultation/consultation/opinions/section-2-confidentialite-des-correspondances-privees/imposer-le-chiffrement-par-defaut-des-courriers-electroniques-par-les-divers-prestataires", 
            "id": "158115", 
            "opinion": "1"
        }, 
        {
            "article_title": "Article 24 - Ouverture des donn\u00e9es de la couverture num\u00e9rique des territoires", 
            "date": "2015-10-18T18:11:00+0200", 
            "link": "http://www.republique-numerique.fr/projects/projet-de-loi-numerique/consultation/consultation/opinions/section-2-couverture-numerique/article-24-publicite-de-la-qualite-des-services-numeriques", 
            "id": "158117", 
            "opinion": "1"
        }
    ], 
    "sources": [], 
    "votes_count": 33, 
    "arguments": [], 
    "arguments_count": 0, 
    "propositions_count": 0, 
    "contributions_count": 0
}