{
    "modifications": [], 
    "modifications_count": 0, 
    "sources_count": 0, 
    "propositions": [], 
    "votes": [
        {
            "article_title": "Article 1 - Open data par d\u00e9faut (obligation de diffuser en ligne les principaux documents et donn\u00e9es des organismes publics)", 
            "date": "2015-10-08T15:29:00+0200", 
            "link": "http://www.republique-numerique.fr/projects/projet-de-loi-numerique/consultation/consultation/opinions/section-1-ouverture-des-donnees-publiques-1/article-1-elargissement-du-champ-de-diffusion-par-l-administration", 
            "id": "40012", 
            "opinion": "1"
        }, 
        {
            "article_title": "La propri\u00e9t\u00e9 intellectuelle est un mirage", 
            "date": "2015-10-08T15:31:00+0200", 
            "link": "http://www.republique-numerique.fr/projects/projet-de-loi-numerique/consultation/consultation/opinions/section-1-ouverture-des-donnees-publiques-1/article-2-principe-de-libre-reutilisation-des-donnees-pour-les-spic/versions/la-propriete-intellectuelle-est-un-mirage", 
            "id": "40016", 
            "opinion": "-1"
        }, 
        {
            "article_title": "Article 2 - Libre r\u00e9utilisation des donn\u00e9es des services publics industriels et commerciaux", 
            "date": "2015-10-08T15:32:00+0200", 
            "link": "http://www.republique-numerique.fr/projects/projet-de-loi-numerique/consultation/consultation/opinions/section-1-ouverture-des-donnees-publiques-1/article-2-principe-de-libre-reutilisation-des-donnees-pour-les-spic", 
            "id": "40018", 
            "opinion": "1"
        }, 
        {
            "article_title": "Le Vote par internet", 
            "date": "2015-10-08T15:33:00+0200", 
            "link": "http://www.republique-numerique.fr/projects/projet-de-loi-numerique/consultation/consultation/opinions/section-1-ouverture-des-donnees-publiques-1/le-vote-par-internet", 
            "id": "40020", 
            "opinion": "-1"
        }, 
        {
            "article_title": "Le syst\u00e8me peut sembler \"archa\u00efque\" et en m\u00eame ...", 
            "date": "2015-10-08T15:33:00+0200", 
            "link": "http://www.republique-numerique.fr/projects/projet-de-loi-numerique/consultation/consultation/opinions/section-1-ouverture-des-donnees-publiques-1/le-vote-par-internet#arg-2615", 
            "id": "40023", 
            "opinion": "1"
        }, 
        {
            "article_title": "Le vote par Internet, tout comme le vote \u00e9lectron...", 
            "date": "2015-10-08T15:33:00+0200", 
            "link": "http://www.republique-numerique.fr/projects/projet-de-loi-numerique/consultation/consultation/opinions/section-1-ouverture-des-donnees-publiques-1/le-vote-par-internet#arg-2540", 
            "id": "40024", 
            "opinion": "1"
        }, 
        {
            "article_title": "Ce ne peut \u00eatre envisageable que si le piratage o...", 
            "date": "2015-10-08T15:33:00+0200", 
            "link": "http://www.republique-numerique.fr/projects/projet-de-loi-numerique/consultation/consultation/opinions/section-1-ouverture-des-donnees-publiques-1/le-vote-par-internet#arg-2414", 
            "id": "40026", 
            "opinion": "1"
        }, 
        {
            "article_title": "tous les experts en s\u00e9curit\u00e9 informatique vous d...", 
            "date": "2015-10-08T15:34:00+0200", 
            "link": "http://www.republique-numerique.fr/projects/projet-de-loi-numerique/consultation/consultation/opinions/section-1-ouverture-des-donnees-publiques-1/le-vote-par-internet#arg-2313", 
            "id": "40027", 
            "opinion": "1"
        }, 
        {
            "article_title": "La d\u00e9monstration a \u00e9t\u00e9 faite par Volskwagen qu'...", 
            "date": "2015-10-08T15:34:00+0200", 
            "link": "http://www.republique-numerique.fr/projects/projet-de-loi-numerique/consultation/consultation/opinions/section-1-ouverture-des-donnees-publiques-1/le-vote-par-internet#arg-2260", 
            "id": "40028", 
            "opinion": "1"
        }, 
        {
            "article_title": "\u00c9tant du m\u00e9tier, je confirme l'impossibilit\u00e9 de...", 
            "date": "2015-10-08T15:34:00+0200", 
            "link": "http://www.republique-numerique.fr/projects/projet-de-loi-numerique/consultation/consultation/opinions/section-1-ouverture-des-donnees-publiques-1/le-vote-par-internet#arg-2112", 
            "id": "40031", 
            "opinion": "1"
        }, 
        {
            "article_title": "Le votes \u00e9lectronique est nullement fiable. Et il...", 
            "date": "2015-10-08T15:34:00+0200", 
            "link": "http://www.republique-numerique.fr/projects/projet-de-loi-numerique/consultation/consultation/opinions/section-1-ouverture-des-donnees-publiques-1/le-vote-par-internet#arg-1260", 
            "id": "40032", 
            "opinion": "1"
        }, 
        {
            "article_title": "Ouvrir les donn\u00e9es ayant servi \u00e0 la r\u00e9daction d'un rapport publique", 
            "date": "2015-10-08T15:35:00+0200", 
            "link": "http://www.republique-numerique.fr/projects/projet-de-loi-numerique/consultation/consultation/opinions/section-1-ouverture-des-donnees-publiques-1/ouvrir-les-donnees-ayant-servi-a-la-redaction-d-un-rapport-publique", 
            "id": "40035", 
            "opinion": "1"
        }, 
        {
            "article_title": "Totalement d'accord avec le principe. Les rapports...", 
            "date": "2015-10-08T15:36:00+0200", 
            "link": "http://www.republique-numerique.fr/projects/projet-de-loi-numerique/consultation/consultation/opinions/section-1-ouverture-des-donnees-publiques-1/ouvrir-les-donnees-ayant-servi-a-la-redaction-d-un-rapport-publique#arg-2662", 
            "id": "40036", 
            "opinion": "1"
        }, 
        {
            "article_title": "Rendre public la pr\u00e9sences des diff\u00e9rents ministres, d\u00e9put\u00e9s, etc... aux conseils.", 
            "date": "2015-10-08T15:39:00+0200", 
            "link": "http://www.republique-numerique.fr/projects/projet-de-loi-numerique/consultation/consultation/opinions/section-1-ouverture-des-donnees-publiques-1/rendre-public-la-presences-des-differents-ministres-deputes-etc-aux-conseils", 
            "id": "40048", 
            "opinion": "1"
        }, 
        {
            "article_title": "Pr\u00e9voir des justifications d'absence.", 
            "date": "2015-10-08T15:39:00+0200", 
            "link": "http://www.republique-numerique.fr/projects/projet-de-loi-numerique/consultation/consultation/opinions/section-1-ouverture-des-donnees-publiques-1/rendre-public-la-presences-des-differents-ministres-deputes-etc-aux-conseils/versions/prevoir-des-justifications-d-absence", 
            "id": "40049", 
            "opinion": "1"
        }, 
        {
            "article_title": "Cr\u00e9ation d'ateliers citoyens numeriques", 
            "date": "2015-10-08T15:40:00+0200", 
            "link": "http://www.republique-numerique.fr/projects/projet-de-loi-numerique/consultation/consultation/opinions/section-1-ouverture-des-donnees-publiques-1/creation-d-ateliers-citoyens-numeriques", 
            "id": "40053", 
            "opinion": "1"
        }, 
        {
            "article_title": "Education populaire au num\u00e9rique", 
            "date": "2015-10-08T15:40:00+0200", 
            "link": "http://www.republique-numerique.fr/projects/projet-de-loi-numerique/consultation/consultation/opinions/section-1-ouverture-des-donnees-publiques-1/creation-d-ateliers-citoyens-numeriques/versions/education-populaire-au-numerique", 
            "id": "40057", 
            "opinion": "1"
        }, 
        {
            "article_title": "Publication en ligne des budgets de chaque organisme d'Etat", 
            "date": "2015-10-08T15:42:00+0200", 
            "link": "http://www.republique-numerique.fr/projects/projet-de-loi-numerique/consultation/consultation/opinions/section-1-ouverture-des-donnees-publiques-1/publication-en-ligne-des-budgets-de-chaque-organisme-d-etat", 
            "id": "40071", 
            "opinion": "0"
        }, 
        {
            "article_title": "http://www.performance-publique.budget.gouv.fr...", 
            "date": "2015-10-08T15:42:00+0200", 
            "link": "http://www.republique-numerique.fr/projects/projet-de-loi-numerique/consultation/consultation/opinions/section-1-ouverture-des-donnees-publiques-1/publication-en-ligne-des-budgets-de-chaque-organisme-d-etat#arg-565", 
            "id": "40072", 
            "opinion": "1"
        }, 
        {
            "article_title": "Non exclusion des citoyens r\u00e9ticents \u00e0 l'\u00e9gare du num\u00e9rique", 
            "date": "2015-10-08T15:45:00+0200", 
            "link": "http://www.republique-numerique.fr/projects/projet-de-loi-numerique/consultation/consultation/opinions/section-1-ouverture-des-donnees-publiques-1/non-exclusion-des-citoyens-reticents-a-l-egare-du-numerique", 
            "id": "40079", 
            "opinion": "1"
        }, 
        {
            "article_title": "Cr\u00e9er un droit de citation audiovisuelle", 
            "date": "2015-10-08T15:46:00+0200", 
            "link": "http://www.republique-numerique.fr/projects/projet-de-loi-numerique/consultation/consultation/opinions/section-1-ouverture-des-donnees-publiques-1/creer-un-droit-de-citation-audiovisuelle", 
            "id": "40081", 
            "opinion": "1"
        }, 
        {
            "article_title": "Hebergement des services de l'\u00e9tat", 
            "date": "2015-10-08T15:47:00+0200", 
            "link": "http://www.republique-numerique.fr/projects/projet-de-loi-numerique/consultation/consultation/opinions/section-1-ouverture-des-donnees-publiques-1/hebergement-des-services-de-l-etat", 
            "id": "40083", 
            "opinion": "1"
        }, 
        {
            "article_title": "Services dans pays aux m\u00eames lois", 
            "date": "2015-10-08T15:48:00+0200", 
            "link": "http://www.republique-numerique.fr/projects/projet-de-loi-numerique/consultation/consultation/opinions/section-1-ouverture-des-donnees-publiques-1/hebergement-des-services-de-l-etat/versions/services-dans-pays-aux-memes-lois", 
            "id": "40084", 
            "opinion": "1"
        }, 
        {
            "article_title": "Il faut laisser le choix, disposer d'une identific...", 
            "date": "2015-10-08T15:48:00+0200", 
            "link": "http://www.republique-numerique.fr/projects/projet-de-loi-numerique/consultation/consultation/opinions/section-1-ouverture-des-donnees-publiques-1/interdiction-par-les-banques-d-utiliser-des-acces-securises-aux-comptes-impliquant-pour-le-client-l-usage-d-un-smartphone#arg-2189", 
            "id": "40086", 
            "opinion": "1"
        }, 
        {
            "article_title": "Construire sa personnalit\u00e9 num\u00e9rique\u00a0: un droit fondamental du citoyen", 
            "date": "2015-10-08T15:50:00+0200", 
            "link": "http://www.republique-numerique.fr/projects/projet-de-loi-numerique/consultation/consultation/opinions/section-1-ouverture-des-donnees-publiques-1/construire-sa-personnalite-numerique-un-droit-fondamental-du-citoyen", 
            "id": "40092", 
            "opinion": "0"
        }, 
        {
            "article_title": "Article 11 - Neutralit\u00e9 de l\u2019internet", 
            "date": "2015-10-08T15:57:00+0200", 
            "link": "http://www.republique-numerique.fr/projects/projet-de-loi-numerique/consultation/consultation/opinions/section-1-neutralite-de-l-internet/article-11-neutralite-de-l-internet", 
            "id": "40103", 
            "opinion": "1"
        }, 
        {
            "article_title": "Services sp\u00e9cialis\u00e9s et discrimination tarifaire", 
            "date": "2015-10-08T15:58:00+0200", 
            "link": "http://www.republique-numerique.fr/projects/projet-de-loi-numerique/consultation/consultation/opinions/section-1-neutralite-de-l-internet/article-11-neutralite-de-l-internet/versions/services-specialises-et-discrimination-tarifaire", 
            "id": "40105", 
            "opinion": "1"
        }, 
        {
            "article_title": "22 bis : affirmer et encourager le droit au chiffrement des communications", 
            "date": "2015-10-08T15:59:00+0200", 
            "link": "http://www.republique-numerique.fr/projects/projet-de-loi-numerique/consultation/consultation/opinions/section-2-confidentialite-des-correspondances-privees/22-bis-affirmer-et-encourager-le-droit-au-chiffrement-des-communications", 
            "id": "40106", 
            "opinion": "1"
        }, 
        {
            "article_title": "Interdir la discrimination pour usage du chiffrement", 
            "date": "2015-10-08T15:59:00+0200", 
            "link": "http://www.republique-numerique.fr/projects/projet-de-loi-numerique/consultation/consultation/opinions/section-2-confidentialite-des-correspondances-privees/22-bis-affirmer-et-encourager-le-droit-au-chiffrement-des-communications/versions/interdir-la-discrimination-pour-usage-du-chiffrement", 
            "id": "40108", 
            "opinion": "1"
        }
    ], 
    "sources": [], 
    "votes_count": 29, 
    "arguments": [], 
    "arguments_count": 0, 
    "propositions_count": 0, 
    "contributions_count": 0
}