{
    "modifications": [], 
    "modifications_count": 0, 
    "sources_count": 0, 
    "propositions": [], 
    "votes": [
        {
            "article_title": "Article 15.0 - Permettre une meilleure distinction des \"publicit\u00e9s d\u00e9guis\u00e9es\" sur les supports m\u00e9diatiques.", 
            "date": "2015-09-27T22:34:00+0200", 
            "link": "http://www.republique-numerique.fr/projects/projet-de-loi-numerique/consultation/consultation/opinions/section-4-information-des-consommateurs/article-15-0-permettre-une-meilleure-distinction-des-publicites-deguisees-sur-les-supports-mediatiques", 
            "id": "7328", 
            "opinion": "1"
        }, 
        {
            "article_title": "Un argument assez \u00e9vident serait de remarquer que...", 
            "date": "2015-09-27T22:34:00+0200", 
            "link": "http://www.republique-numerique.fr/projects/projet-de-loi-numerique/consultation/consultation/opinions/section-4-information-des-consommateurs/article-15-0-permettre-une-meilleure-distinction-des-publicites-deguisees-sur-les-supports-mediatiques#arg-379", 
            "id": "7333", 
            "opinion": "1"
        }, 
        {
            "article_title": "Mail re\u00e7u par les mod\u00e9rateur du site R\u00e9publique...", 
            "date": "2015-09-27T22:34:00+0200", 
            "link": "http://www.republique-numerique.fr/projects/projet-de-loi-numerique/consultation/consultation/opinions/section-4-information-des-consommateurs/article-15-0-permettre-une-meilleure-distinction-des-publicites-deguisees-sur-les-supports-mediatiques#arg-494", 
            "id": "7334", 
            "opinion": "1"
        }, 
        {
            "article_title": "J'ai failli me faire avoir par ce \"faux profil\" ma...", 
            "date": "2015-09-27T22:34:00+0200", 
            "link": "http://www.republique-numerique.fr/projects/projet-de-loi-numerique/consultation/consultation/opinions/section-4-information-des-consommateurs/article-15-0-permettre-une-meilleure-distinction-des-publicites-deguisees-sur-les-supports-mediatiques#arg-459", 
            "id": "7335", 
            "opinion": "1"
        }, 
        {
            "article_title": "Article 8 - D\u00e9finition positive du domaine commun informationnel", 
            "date": "2015-09-27T22:38:00+0200", 
            "link": "http://www.republique-numerique.fr/projects/projet-de-loi-numerique/consultation/consultation/opinions/section-1-les-communs/article-8-definition-du-domaine-commun-informationnel", 
            "id": "7339", 
            "opinion": "1"
        }, 
        {
            "article_title": "Cr\u00e9er des sanctions et supprimer l'agr\u00e9ment", 
            "date": "2015-09-27T22:39:00+0200", 
            "link": "http://www.republique-numerique.fr/projects/projet-de-loi-numerique/consultation/consultation/opinions/section-1-les-communs/article-8-definition-du-domaine-commun-informationnel/versions/creer-des-sanctions-et-supprimer-l-agrement", 
            "id": "7344", 
            "opinion": "1"
        }, 
        {
            "article_title": "Et en cas de non application", 
            "date": "2015-10-15T16:15:00+0200", 
            "link": "http://www.republique-numerique.fr/projects/projet-de-loi-numerique/consultation/consultation/opinions/section-4-information-des-consommateurs/article-15-0-permettre-une-meilleure-distinction-des-publicites-deguisees-sur-les-supports-mediatiques/versions/et-en-cas-de-non-application", 
            "id": "98884", 
            "opinion": "1"
        }, 
        {
            "article_title": "L'op\u00e9ration cryptographique irr\u00e9versible d\u00e9crit...", 
            "date": "2015-10-15T16:15:00+0200", 
            "link": "http://www.republique-numerique.fr/projects/projet-de-loi-numerique/consultation/consultation/opinions/section-2-travaux-de-recherche-et-de-statistique/article-10-nir-statistique#arg-3282", 
            "id": "98899", 
            "opinion": "1"
        }, 
        {
            "article_title": "Le vote \u00e9lectronique anonyme n'est pas s\u00fbr, et n...", 
            "date": "2015-10-15T16:16:00+0200", 
            "link": "http://www.republique-numerique.fr/projects/projet-de-loi-numerique/consultation/consultation/opinions/section-1-ouverture-des-donnees-publiques-1/le-vote-par-internet#arg-3291", 
            "id": "98908", 
            "opinion": "1"
        }, 
        {
            "article_title": "\u00c9viter la l\u00e9galisation du copyfraud", 
            "date": "2015-10-15T16:17:00+0200", 
            "link": "http://www.republique-numerique.fr/projects/projet-de-loi-numerique/consultation/consultation/opinions/section-1-les-communs/article-8-definition-du-domaine-commun-informationnel/versions/eviter-la-legalisation-du-copyfraud", 
            "id": "98931", 
            "opinion": "1"
        }, 
        {
            "article_title": "\u00c9largir les possibilit\u00e9s d'action contre les atteintes au domaine commun informationnel", 
            "date": "2015-10-15T16:19:00+0200", 
            "link": "http://www.republique-numerique.fr/projects/projet-de-loi-numerique/consultation/consultation/opinions/section-1-les-communs/article-8-definition-du-domaine-commun-informationnel/versions/elargir-les-possibilites-d-action-contre-les-atteintes-au-domaine-commun-informationnel", 
            "id": "98966", 
            "opinion": "1"
        }, 
        {
            "article_title": "Int\u00e9grer les reproductions fid\u00e8les d'oeuvres en deux dimensions \u00e0 la d\u00e9finition du domaine commun informationnel", 
            "date": "2015-10-15T16:19:00+0200", 
            "link": "http://www.republique-numerique.fr/projects/projet-de-loi-numerique/consultation/consultation/opinions/section-1-les-communs/article-8-definition-du-domaine-commun-informationnel/versions/integrer-les-reproductions-fideles-d-oeuvres-en-deux-dimensions-a-la-definition-du-domaine-commun-informationnel", 
            "id": "98984", 
            "opinion": "1"
        }, 
        {
            "article_title": "Cet article flou et facteur de contentieux devrait \u00eatre retir\u00e9 du projet de loi", 
            "date": "2015-10-15T16:20:00+0200", 
            "link": "http://www.republique-numerique.fr/projects/projet-de-loi-numerique/consultation/consultation/opinions/section-1-les-communs/article-8-definition-du-domaine-commun-informationnel/versions/cet-article-flou-et-facteur-de-contentieux-devrait-etre-retire-du-projet-de-loi", 
            "id": "98994", 
            "opinion": "-1"
        }, 
        {
            "article_title": "Instaurer des sanctions p\u00e9nales pour les atteintes au domaine commun informationnel", 
            "date": "2015-10-15T16:21:00+0200", 
            "link": "http://www.republique-numerique.fr/projects/projet-de-loi-numerique/consultation/consultation/opinions/section-1-les-communs/article-8-definition-du-domaine-commun-informationnel/versions/instaurer-des-sanctions-penales-pour-les-atteintes-au-domaine-commun-informationnel", 
            "id": "99018", 
            "opinion": "1"
        }, 
        {
            "article_title": "Retrait de l'article 8", 
            "date": "2015-10-15T16:21:00+0200", 
            "link": "http://www.republique-numerique.fr/projects/projet-de-loi-numerique/consultation/consultation/opinions/section-1-les-communs/article-8-definition-du-domaine-commun-informationnel/versions/retrait-de-l-article-8", 
            "id": "99024", 
            "opinion": "-1"
        }, 
        {
            "article_title": "Le SNE m\u00e9lange de fa\u00e7on \u00e9hont\u00e9 le domaine publ...", 
            "date": "2015-10-15T16:21:00+0200", 
            "link": "http://www.republique-numerique.fr/projects/projet-de-loi-numerique/consultation/consultation/opinions/section-1-les-communs/article-8-definition-du-domaine-commun-informationnel/versions/retrait-de-l-article-8#arg-3343", 
            "id": "99026", 
            "opinion": "1"
        }, 
        {
            "article_title": "Cr\u00e9er un domaine public volontaire", 
            "date": "2015-10-15T16:22:00+0200", 
            "link": "http://www.republique-numerique.fr/projects/projet-de-loi-numerique/consultation/consultation/opinions/section-1-les-communs/article-8-definition-du-domaine-commun-informationnel/versions/creer-un-domaine-public-volontaire", 
            "id": "99065", 
            "opinion": "1"
        }, 
        {
            "article_title": "Supprimer cet article, vague et peu rigoureux, ne permettant pas de mobiliser dans la probl\u00e9matique des \"communs\" ce qui pourrait l'\u00eatre pour am\u00e9liorer la r\u00e9gulation du Web", 
            "date": "2015-10-15T16:22:00+0200", 
            "link": "http://www.republique-numerique.fr/projects/projet-de-loi-numerique/consultation/consultation/opinions/section-1-les-communs/article-8-definition-du-domaine-commun-informationnel/versions/supprimer-cet-article-vague-et-peu-rigoureux-ne-permettant-pas-de-mobiliser-dans-la-problematique-des-communs-ce-qui-pourrait-l-etre-pour-ameliorer-la-regulation-du-web", 
            "id": "99083", 
            "opinion": "-1"
        }, 
        {
            "article_title": "Instaurer la libert\u00e9 de panorama en France", 
            "date": "2015-10-15T16:25:00+0200", 
            "link": "http://www.republique-numerique.fr/projects/projet-de-loi-numerique/consultation/consultation/opinions/section-1-les-communs/instaurer-la-liberte-de-panorama-en-france", 
            "id": "99154", 
            "opinion": "1"
        }, 
        {
            "article_title": "Libert\u00e9 de panorama sous licence CC BY-NC-SA 3.0 FR", 
            "date": "2015-10-15T16:25:00+0200", 
            "link": "http://www.republique-numerique.fr/projects/projet-de-loi-numerique/consultation/consultation/opinions/section-1-les-communs/instaurer-la-liberte-de-panorama-en-france/versions/liberte-de-panorama-sous-licence-cc-by-nc-sa-3-0-fr", 
            "id": "99161", 
            "opinion": "-1"
        }, 
        {
            "article_title": "Libert\u00e9 de panorama \u00e0 usage non commercial", 
            "date": "2015-10-15T16:25:00+0200", 
            "link": "http://www.republique-numerique.fr/projects/projet-de-loi-numerique/consultation/consultation/opinions/section-1-les-communs/instaurer-la-liberte-de-panorama-en-france/versions/liberte-de-panorama-a-usage-non-commercial", 
            "id": "99166", 
            "opinion": "-1"
        }, 
        {
            "article_title": "Int\u00e9grer les donn\u00e9es de connexion dans le champ du secret des correspondances", 
            "date": "2015-10-15T16:25:00+0200", 
            "link": "http://www.republique-numerique.fr/projects/projet-de-loi-numerique/consultation/consultation/opinions/section-2-confidentialite-des-correspondances-privees/article-22-respect-des-correspondances-privees-numeriques/versions/integrer-les-donnees-de-connexion-dans-le-champ-du-secret-des-correspondances", 
            "id": "99174", 
            "opinion": "1"
        }, 
        {
            "article_title": "ouverture du code des algorithmes publics", 
            "date": "2015-10-15T16:26:00+0200", 
            "link": "http://www.republique-numerique.fr/projects/projet-de-loi-numerique/consultation/consultation/opinions/section-1-ouverture-des-donnees-publiques-1/ouverture-du-code-des-algorithmes-publics", 
            "id": "99176", 
            "opinion": "1"
        }, 
        {
            "article_title": "Toute restriction \u00e0 l'acc\u00e8s aux publications scientifiques est n\u00e9faste et co\u00fbteuse.", 
            "date": "2015-10-15T16:26:00+0200", 
            "link": "http://www.republique-numerique.fr/projects/projet-de-loi-numerique/consultation/consultation/opinions/section-2-travaux-de-recherche-et-de-statistique/article-9-acces-aux-travaux-de-la-recherche-financee-par-des-fonds-publics/versions/toute-restriction-a-l-acces-aux-publications-scientifiques-est-nefaste-et-couteuse", 
            "id": "99185", 
            "opinion": "1"
        }, 
        {
            "article_title": "Article 15 de la loi de 1978 modifi\u00e9e pour r\u00e9afirm\u00e9 le principe: \"La r\u00e9utilisation d'informations publiques est gratuite\"", 
            "date": "2015-10-15T16:27:00+0200", 
            "link": "http://www.republique-numerique.fr/projects/projet-de-loi-numerique/consultation/consultation/opinions/section-1-ouverture-des-donnees-publiques-1/article-1-elargissement-du-champ-de-diffusion-par-l-administration/versions/article-15-de-la-loi-de-1978-modifiee-pour-reafirme-le-principe-la-reutilisation-d-informations-publiques-est-gratuite", 
            "id": "99229", 
            "opinion": "1"
        }, 
        {
            "article_title": "Transformer la facult\u00e9 pour le b\u00e9n\u00e9ficaire de la subvention de rendre accessible les donn\u00e9es de l'action en obligation", 
            "date": "2015-10-15T16:27:00+0200", 
            "link": "http://www.republique-numerique.fr/projects/projet-de-loi-numerique/consultation/consultation/opinions/section-3-donnees-d-interet-general/article-6-ouverture-des-donnees-dans-les-conventions-de-subventions/versions/transformer-la-faculte-pour-le-beneficaire-de-la-subvention-de-rendre-accessible-les-donnees-de-l-action-en-obligation", 
            "id": "99232", 
            "opinion": "1"
        }, 
        {
            "article_title": "Consacrer un droit effectif \u00e0 la portabilit\u00e9", 
            "date": "2015-10-15T16:28:00+0200", 
            "link": "http://www.republique-numerique.fr/projects/projet-de-loi-numerique/consultation/consultation/opinions/section-2-portabilite-des-donnees/article-12-portabilite-des-donnees/versions/consacrer-un-droit-effectif-a-la-portabilite", 
            "id": "99234", 
            "opinion": "1"
        }, 
        {
            "article_title": "Une dur\u00e9e d'embargo plus courte, ne pas entraver le TDM (fouille de texte et de donn\u00e9es) et ne pas interdire une exploitation commerciale", 
            "date": "2015-10-15T16:28:00+0200", 
            "link": "http://www.republique-numerique.fr/projects/projet-de-loi-numerique/consultation/consultation/opinions/section-2-travaux-de-recherche-et-de-statistique/article-9-acces-aux-travaux-de-la-recherche-financee-par-des-fonds-publics/versions/une-duree-d-embargo-plus-courte-ne-pas-entraver-le-tdm-fouille-de-texte-et-de-donnees-et-ne-pas-interdire-une-exploitation-commerciale", 
            "id": "99240", 
            "opinion": "1"
        }, 
        {
            "article_title": "Introduire le principe du contradictoire dans le retrait/d\u00e9r\u00e9f\u00e9rencement de contenus par les plateformes", 
            "date": "2015-10-15T16:28:00+0200", 
            "link": "http://www.republique-numerique.fr/projects/projet-de-loi-numerique/consultation/consultation/opinions/section-3-loyaute-des-plateformes/article-13-principe-de-loyaute-vis-a-vis-des-consommateurs/versions/introduire-le-principe-du-contradictoire-dans-le-retrait-dereferencement-de-contenus-par-les-plateformes", 
            "id": "99241", 
            "opinion": "1"
        }, 
        {
            "article_title": "Ajouter la promotion du chiffrement des communications dans les missions de la CNIL", 
            "date": "2015-10-15T16:28:00+0200", 
            "link": "http://www.republique-numerique.fr/projects/projet-de-loi-numerique/consultation/consultation/opinions/section-1-protection-des-donnees-a-caractere-personnel/article-17-missions-de-la-cnil/versions/ajouter-la-promotion-du-chiffrement-des-communications-dans-les-missions-de-la-cnil", 
            "id": "99244", 
            "opinion": "1"
        }, 
        {
            "article_title": "23 : Autoriser les actions de groupe notamment en mati\u00e8re d'atteinte au droit sur les donn\u00e9es personnelles et la neutralit\u00e9 du Net", 
            "date": "2015-10-15T16:28:00+0200", 
            "link": "http://www.republique-numerique.fr/projects/projet-de-loi-numerique/consultation/consultation/opinions/section-2-confidentialite-des-correspondances-privees/23-autoriser-les-actions-de-groupe-notamment-en-matiere-d-atteinte-au-droit-sur-les-donnees-personnelles-et-la-neutralite-du-net", 
            "id": "99248", 
            "opinion": "1"
        }, 
        {
            "article_title": "22 bis : affirmer et encourager le droit au chiffrement des communications", 
            "date": "2015-10-15T16:29:00+0200", 
            "link": "http://www.republique-numerique.fr/projects/projet-de-loi-numerique/consultation/consultation/opinions/section-2-confidentialite-des-correspondances-privees/22-bis-affirmer-et-encourager-le-droit-au-chiffrement-des-communications", 
            "id": "99262", 
            "opinion": "1"
        }, 
        {
            "article_title": "article 8 bis \u00ab\u00a0D\u00e9finition des communs volontaires\u00a0\u00bb", 
            "date": "2015-10-15T16:29:00+0200", 
            "link": "http://www.republique-numerique.fr/projects/projet-de-loi-numerique/consultation/consultation/opinions/section-1-les-communs/article-8-bis-definition-des-communs-volontaires", 
            "id": "99264", 
            "opinion": "1"
        }, 
        {
            "article_title": "Trente-six mois pour les sciences humaines et sociales", 
            "date": "2015-10-15T16:29:00+0200", 
            "link": "http://www.republique-numerique.fr/projects/projet-de-loi-numerique/consultation/consultation/opinions/section-2-travaux-de-recherche-et-de-statistique/article-9-acces-aux-travaux-de-la-recherche-financee-par-des-fonds-publics/versions/trente-six-mois-pour-les-sciences-humaines-et-sociales", 
            "id": "99266", 
            "opinion": "-1"
        }, 
        {
            "article_title": "Interdiction de la vente li\u00e9e ordinateur/syst\u00e8me d'exploitation", 
            "date": "2015-10-15T16:29:00+0200", 
            "link": "http://www.republique-numerique.fr/projects/projet-de-loi-numerique/consultation/consultation/opinions/section-3-loyaute-des-plateformes/interdiction-de-la-vente-liee-ordinateur-systeme-d-exploitation", 
            "id": "99268", 
            "opinion": "1"
        }, 
        {
            "article_title": "Article 16 - Libre disposition de ses donn\u00e9es", 
            "date": "2015-10-15T16:29:00+0200", 
            "link": "http://www.republique-numerique.fr/projects/projet-de-loi-numerique/consultation/consultation/opinions/section-1-protection-des-donnees-a-caractere-personnel/article-16-libre-disposition-de-ses-donnees-a-caractere-personnel", 
            "id": "99270", 
            "opinion": "1"
        }, 
        {
            "article_title": "Soumettre le responsable de traitement \u00e0 une obligation de r\u00e9sultat quant \u00e0 la s\u00e9curit\u00e9 des donn\u00e9es", 
            "date": "2015-10-15T16:29:00+0200", 
            "link": "http://www.republique-numerique.fr/projects/projet-de-loi-numerique/consultation/consultation/opinions/section-1-protection-des-donnees-a-caractere-personnel/article-16-libre-disposition-de-ses-donnees-a-caractere-personnel/versions/soumettre-le-responsable-de-traitement-a-une-obligation-de-resultat-quant-a-la-securite-des-donnees", 
            "id": "99273", 
            "opinion": "1"
        }, 
        {
            "article_title": "Article 17 - Evolution des missions de la CNIL", 
            "date": "2015-10-15T16:29:00+0200", 
            "link": "http://www.republique-numerique.fr/projects/projet-de-loi-numerique/consultation/consultation/opinions/section-1-protection-des-donnees-a-caractere-personnel/article-17-missions-de-la-cnil", 
            "id": "99277", 
            "opinion": "1"
        }, 
        {
            "article_title": "Article 1 - Open data par d\u00e9faut (obligation de diffuser en ligne les principaux documents et donn\u00e9es des organismes publics)", 
            "date": "2015-10-15T16:30:00+0200", 
            "link": "http://www.republique-numerique.fr/projects/projet-de-loi-numerique/consultation/consultation/opinions/section-1-ouverture-des-donnees-publiques-1/article-1-elargissement-du-champ-de-diffusion-par-l-administration", 
            "id": "99284", 
            "opinion": "1"
        }, 
        {
            "article_title": "Donnees publiques non libre pour un but commercial", 
            "date": "2015-10-15T16:30:00+0200", 
            "link": "http://www.republique-numerique.fr/projects/projet-de-loi-numerique/consultation/consultation/opinions/section-1-ouverture-des-donnees-publiques-1/article-1-elargissement-du-champ-de-diffusion-par-l-administration/versions/donnees-publiques-non-libre-pour-un-but-commercial", 
            "id": "99305", 
            "opinion": "-1"
        }, 
        {
            "article_title": "Retirer le Conseil d'\u00c9tat des exceptions \u00e0 la CADA", 
            "date": "2015-10-15T16:58:00+0200", 
            "link": "http://www.republique-numerique.fr/projects/projet-de-loi-numerique/consultation/consultation/opinions/section-1-ouverture-des-donnees-publiques-1/retirer-le-conseil-d-etat-des-exceptions-a-la-cada", 
            "id": "99848", 
            "opinion": "1"
        }, 
        {
            "article_title": "Coupler la mise en place ou le maintien de toute redevance \u00e0 une alternative communautaire en partage \u00e0 l'identique", 
            "date": "2015-10-15T16:59:00+0200", 
            "link": "http://www.republique-numerique.fr/projects/projet-de-loi-numerique/consultation/consultation/opinions/section-1-ouverture-des-donnees-publiques-1/coupler-la-mise-en-place-ou-le-maintien-de-toute-redevance-a-une-alternative-communautaire-en-partage-a-l-identique", 
            "id": "99856", 
            "opinion": "1"
        }, 
        {
            "article_title": "Publier en Open Data les informations li\u00e9es aux fonctions des \u00e9lus, leurs activit\u00e9s \u00e9lectives, le d\u00e9tail de leurs indemnit\u00e9s et leurs liens d\u2019int\u00e9r\u00eats", 
            "date": "2015-10-15T16:59:00+0200", 
            "link": "http://www.republique-numerique.fr/projects/projet-de-loi-numerique/consultation/consultation/opinions/section-1-ouverture-des-donnees-publiques-1/publier-en-open-data-les-informations-liees-aux-fonctions-des-elus-leurs-activites-electives-le-detail-de-leurs-indemnites-et-leurs-liens-d-interets", 
            "id": "99868", 
            "opinion": "1"
        }, 
        {
            "article_title": "Article 8 bis - Libert\u00e9 de panorama", 
            "date": "2015-10-16T11:07:00+0200", 
            "link": "http://www.republique-numerique.fr/projects/projet-de-loi-numerique/consultation/consultation/opinions/section-1-les-communs/liberte-de-panorama", 
            "id": "110520", 
            "opinion": "1"
        }, 
        {
            "article_title": "On s'en fout de wikim\u00e9dia", 
            "date": "2015-10-16T11:08:00+0200", 
            "link": "http://www.republique-numerique.fr/projects/projet-de-loi-numerique/consultation/consultation/opinions/section-1-les-communs/liberte-de-panorama/versions/on-s-en-fout-de-wikimedia", 
            "id": "110528", 
            "opinion": "-1"
        }, 
        {
            "article_title": "EXCLURE LES UTILISATIONS COMMERCIALES", 
            "date": "2015-10-16T11:08:00+0200", 
            "link": "http://www.republique-numerique.fr/projects/projet-de-loi-numerique/consultation/consultation/opinions/section-1-les-communs/liberte-de-panorama/versions/exclure-les-utilisations-commerciales", 
            "id": "110540", 
            "opinion": "-1"
        }
    ], 
    "sources": [], 
    "votes_count": 46, 
    "arguments": [], 
    "arguments_count": 1, 
    "propositions_count": 0, 
    "contributions_count": 1
}