{
    "modifications": [
        {
            "stats": {
                "vote": "1", 
                "source": "0", 
                "argument": "0"
            }, 
            "votes": {
                "data-ok": "1", 
                "data-mitige": "0", 
                "data-nok": "0"
            }, 
            "link": "/projects/projet-de-loi-numerique/consultation/consultation/opinions/section-1-protection-des-donnees-a-caractere-personnel/article-17-missions-de-la-cnil/versions/redaction-trop-large-qui-pourrais-concerner-les-journalistes-il-vaut-mieux-rester-sur-traitement-automatise-commecoeurde-cible", 
            "id": "1000", 
            "title": "redaction trop large qui pourrais concerner les journalistes il vaut mieux rester sur traitement automatis\u00e9 commecoeurde cible"
        }, 
        {
            "stats": {
                "source": "0", 
                "votes": "3", 
                "argument": "0"
            }, 
            "votes": {
                "data-ok": "2", 
                "data-mitige": "0", 
                "data-nok": "1"
            }, 
            "link": "/projects/projet-de-loi-numerique/consultation/consultation/opinions/section-1-protection-des-donnees-a-caractere-personnel/article-17-missions-de-la-cnil/versions/scandale-ashley-madison-obligation-d-information-sur-le-chiffrement-et-la-protection-des-donnees-personnel", 
            "id": "1001", 
            "title": "scandale Ashley Madison... obligation d information sur le chiffrement et la protection des donn\u00e9es personnel"
        }
    ], 
    "modifications_count": 2, 
    "sources_count": 0, 
    "propositions": [
        {
            "article_title": "Centralisation et publication de l'ensemble des donn\u00e9es d'appel d'offre publique", 
            "votes": {
                "data-ok": "19", 
                "data-mitige": "1", 
                "data-nok": "1"
            }, 
            "stats": {
                "modification": "1", 
                "source": "0", 
                "votes": "21", 
                "argument": "1"
            }, 
            "id": "384", 
            "article_link": "/projects/projet-de-loi-numerique/consultation/consultation/opinions/section-1-ouverture-des-donnees-publiques-1/centralisation-et-publication-de-l-ensemble-des-donnees-d-appel-d-offre-publique"
        }, 
        {
            "article_title": "la publicit\u00e9 des prix: moyen de lutte contre le prix calcul\u00e9 sur votre historique de navigation", 
            "votes": {
                "data-ok": "14", 
                "data-mitige": "1", 
                "data-nok": "1"
            }, 
            "stats": {
                "modification": "0", 
                "source": "0", 
                "votes": "16", 
                "argument": "1"
            }, 
            "id": "416", 
            "article_link": "/projects/projet-de-loi-numerique/consultation/consultation/opinions/section-3-loyaute-des-plateformes/la-publicite-des-prix-moyen-de-lutte-contre-le-prix-calcule-sur-votre-historique-de-navigation"
        }
    ], 
    "votes": [
        {
            "article_title": "Lisibilit\u00e9 du texte", 
            "date": "2015-10-01T08:05:00+0200", 
            "link": "http://www.republique-numerique.fr/projects/projet-de-loi-numerique/consultation/consultation/opinions/section-1-ouverture-des-donnees-publiques-1/article-1-elargissement-du-champ-de-diffusion-par-l-administration/versions/lisibilite-du-texte", 
            "id": "22496", 
            "opinion": "0"
        }, 
        {
            "article_title": "Absence d'obligation de num\u00e9risation et de publication des archives", 
            "date": "2015-10-01T08:07:00+0200", 
            "link": "http://www.republique-numerique.fr/projects/projet-de-loi-numerique/consultation/consultation/opinions/section-1-ouverture-des-donnees-publiques-1/article-1-elargissement-du-champ-de-diffusion-par-l-administration/versions/absence-d-obligation-de-numerisation-et-de-publication-des-archives", 
            "id": "22497", 
            "opinion": "-1"
        }, 
        {
            "article_title": "Diffusion sans anonymisation si disposition l\u00e9gislative ET accord de la personne concern\u00e9e, pas OU", 
            "date": "2015-10-01T20:42:00+0200", 
            "link": "http://www.republique-numerique.fr/projects/projet-de-loi-numerique/consultation/consultation/opinions/section-1-ouverture-des-donnees-publiques-1/article-1-elargissement-du-champ-de-diffusion-par-l-administration/versions/diffusion-sans-anonymisation-si-disposition-legale-et-si-autorisation-de-la-personne-concernee-pas-ou", 
            "id": "24691", 
            "opinion": "-1"
        }, 
        {
            "article_title": "Propri\u00e9t\u00e9 et protection de la r\u00e9publique.", 
            "date": "2015-10-01T20:43:00+0200", 
            "link": "http://www.republique-numerique.fr/projects/projet-de-loi-numerique/consultation/consultation/opinions/section-1-ouverture-des-donnees-publiques-1/article-1-elargissement-du-champ-de-diffusion-par-l-administration/versions/propriete-et-protection-de-la-republique", 
            "id": "24692", 
            "opinion": "-1"
        }, 
        {
            "article_title": "Pr\u00e9cision et francisation du titre de l'article premier + ajout de la notion de gratuit\u00e9", 
            "date": "2015-10-01T20:46:00+0200", 
            "link": "http://www.republique-numerique.fr/projects/projet-de-loi-numerique/consultation/consultation/opinions/section-1-ouverture-des-donnees-publiques-1/article-1-elargissement-du-champ-de-diffusion-par-l-administration/versions/principe-de-l-open-data-donnees-ouvertes-par-defaut-obligation-faite-aux-organismes-publics-de-diffuser-en-ligne-leurs-principaux-documents-et-donnees", 
            "id": "24693", 
            "opinion": "1"
        }, 
        {
            "article_title": "Le projet de loi marche sur la t\u00eate : voici trois propositions .", 
            "date": "2015-10-01T20:47:00+0200", 
            "link": "http://www.republique-numerique.fr/projects/projet-de-loi-numerique/consultation/consultation/opinions/section-1-ouverture-des-donnees-publiques-1/article-1-elargissement-du-champ-de-diffusion-par-l-administration/versions/le-projet-de-loi-marche-sur-la-tete-voici-trois-propositions", 
            "id": "24695", 
            "opinion": "-1"
        }, 
        {
            "article_title": "Les formats microsoft sont tous ouverts et dispose...", 
            "date": "2015-10-01T20:48:00+0200", 
            "link": "http://www.republique-numerique.fr/projects/projet-de-loi-numerique/consultation/consultation/opinions/section-1-ouverture-des-donnees-publiques-1/article-1-elargissement-du-champ-de-diffusion-par-l-administration/versions/faire-mention-explicite-d-un-format-non-proprietaire-pour-eviter-les-formats-de-fichiers-microsoft-par-defaut#arg-1919", 
            "id": "24696", 
            "opinion": "1"
        }, 
        {
            "article_title": "Faire mention explicite d'un format non propri\u00e9taire, pour \u00e9viter les formats de fichiers Microsoft par d\u00e9faut", 
            "date": "2015-10-01T20:48:00+0200", 
            "link": "http://www.republique-numerique.fr/projects/projet-de-loi-numerique/consultation/consultation/opinions/section-1-ouverture-des-donnees-publiques-1/article-1-elargissement-du-champ-de-diffusion-par-l-administration/versions/faire-mention-explicite-d-un-format-non-proprietaire-pour-eviter-les-formats-de-fichiers-microsoft-par-defaut", 
            "id": "24697", 
            "opinion": "-1"
        }, 
        {
            "article_title": "Les d\u00e9l\u00e9gations de service publiques sont de plu...", 
            "date": "2015-10-01T20:50:00+0200", 
            "link": "http://www.republique-numerique.fr/projects/projet-de-loi-numerique/consultation/consultation/opinions/section-1-ouverture-des-donnees-publiques-1/article-1-elargissement-du-champ-de-diffusion-par-l-administration/versions/il-ne-faut-pas-se-limiter-aux-seules-administartions-et-collectivites-locales-mais-etendre-aussi-auz-filiales-directes-de-l-etat-sncf-edf-france-televisions-etc#arg-1920", 
            "id": "24698", 
            "opinion": "1"
        }, 
        {
            "article_title": "il ne faut pas se limiter aux seules administartions et collectivit\u00e9s locales mais \u00e9tendre aussi auz filiales directes de l'\u00c9tat ( SNCF, EDF, France T\u00e9l\u00e9visions ...etc).", 
            "date": "2015-10-01T20:50:00+0200", 
            "link": "http://www.republique-numerique.fr/projects/projet-de-loi-numerique/consultation/consultation/opinions/section-1-ouverture-des-donnees-publiques-1/article-1-elargissement-du-champ-de-diffusion-par-l-administration/versions/il-ne-faut-pas-se-limiter-aux-seules-administartions-et-collectivites-locales-mais-etendre-aussi-auz-filiales-directes-de-l-etat-sncf-edf-france-televisions-etc", 
            "id": "24699", 
            "opinion": "-1"
        }, 
        {
            "article_title": "Consentement des personnes et exclusion des collectivit\u00e9s", 
            "date": "2015-10-01T20:52:00+0200", 
            "link": "http://www.republique-numerique.fr/projects/projet-de-loi-numerique/consultation/consultation/opinions/section-1-ouverture-des-donnees-publiques-1/article-1-elargissement-du-champ-de-diffusion-par-l-administration/versions/consentement-des-personnes-et-exclusion-des-collectivites", 
            "id": "24700", 
            "opinion": "1"
        }, 
        {
            "article_title": "Le format des donn\u00e9es et le choix des standards est important", 
            "date": "2015-10-01T20:54:00+0200", 
            "link": "http://www.republique-numerique.fr/projects/projet-de-loi-numerique/consultation/consultation/opinions/section-1-ouverture-des-donnees-publiques-1/article-1-elargissement-du-champ-de-diffusion-par-l-administration/versions/le-format-des-donnees-et-le-choix-des-standards-est-important", 
            "id": "24701", 
            "opinion": "-1"
        }, 
        {
            "article_title": "Article 1 - Open data par d\u00e9faut (obligation de diffuser en ligne les principaux documents et donn\u00e9es des organismes publics)", 
            "date": "2015-10-01T20:54:00+0200", 
            "link": "http://www.republique-numerique.fr/projects/projet-de-loi-numerique/consultation/consultation/opinions/section-1-ouverture-des-donnees-publiques-1/article-1-elargissement-du-champ-de-diffusion-par-l-administration", 
            "id": "24702", 
            "opinion": "1"
        }, 
        {
            "article_title": "Peut-\u00eatre serait-il judicieux au regard de la div...", 
            "date": "2015-10-01T20:55:00+0200", 
            "link": "http://www.republique-numerique.fr/projects/projet-de-loi-numerique/consultation/consultation/opinions/section-1-ouverture-des-donnees-publiques-1/article-1-elargissement-du-champ-de-diffusion-par-l-administration/versions/facilite-d-acces-aux-donnees-publiees#arg-1554", 
            "id": "24703", 
            "opinion": "1"
        }, 
        {
            "article_title": "Facilit\u00e9 d'acc\u00e8s aux donn\u00e9es publi\u00e9es", 
            "date": "2015-10-01T20:55:00+0200", 
            "link": "http://www.republique-numerique.fr/projects/projet-de-loi-numerique/consultation/consultation/opinions/section-1-ouverture-des-donnees-publiques-1/article-1-elargissement-du-champ-de-diffusion-par-l-administration/versions/facilite-d-acces-aux-donnees-publiees", 
            "id": "24704", 
            "opinion": "0"
        }, 
        {
            "article_title": "Portail global d'acc\u00e8s aux donn\u00e9es publi\u00e9es", 
            "date": "2015-10-01T20:56:00+0200", 
            "link": "http://www.republique-numerique.fr/projects/projet-de-loi-numerique/consultation/consultation/opinions/section-1-ouverture-des-donnees-publiques-1/article-1-elargissement-du-champ-de-diffusion-par-l-administration/versions/portail-global-d-acces-aux-donnees-publiees", 
            "id": "24705", 
            "opinion": "1"
        }, 
        {
            "article_title": "P\u00e9dagogie du big data", 
            "date": "2015-10-01T20:57:00+0200", 
            "link": "http://www.republique-numerique.fr/projects/projet-de-loi-numerique/consultation/consultation/opinions/section-1-ouverture-des-donnees-publiques-1/article-1-elargissement-du-champ-de-diffusion-par-l-administration/versions/pedagogie-du-big-data", 
            "id": "24706", 
            "opinion": "0"
        }, 
        {
            "article_title": "Transparence profonde des march\u00e9s publiques", 
            "date": "2015-10-01T21:00:00+0200", 
            "link": "http://www.republique-numerique.fr/projects/projet-de-loi-numerique/consultation/consultation/opinions/section-1-ouverture-des-donnees-publiques-1/article-1-elargissement-du-champ-de-diffusion-par-l-administration/versions/transparence-profonde-des-marches-publiques", 
            "id": "24709", 
            "opinion": "1"
        }, 
        {
            "article_title": "accessibilit\u00e9 et l\u00e9gistique", 
            "date": "2015-10-01T22:27:00+0200", 
            "link": "http://www.republique-numerique.fr/projects/projet-de-loi-numerique/consultation/consultation/opinions/section-1-ouverture-des-donnees-publiques-1/article-1-elargissement-du-champ-de-diffusion-par-l-administration/versions/accessibilite-et-legistique", 
            "id": "24855", 
            "opinion": "-1"
        }, 
        {
            "article_title": "Ouverture des donn\u00e9es d'int\u00e9r\u00eat scientifique ou p\u00e9dagogique.", 
            "date": "2015-10-01T22:30:00+0200", 
            "link": "http://www.republique-numerique.fr/projects/projet-de-loi-numerique/consultation/consultation/opinions/section-1-ouverture-des-donnees-publiques-1/article-1-elargissement-du-champ-de-diffusion-par-l-administration/versions/ouverture-des-donnees-d-interet-scientifique-ou-pedagogique", 
            "id": "24860", 
            "opinion": "-1"
        }, 
        {
            "article_title": "Publication en ligne du budget de l'Etat", 
            "date": "2015-10-01T22:31:00+0200", 
            "link": "http://www.republique-numerique.fr/projects/projet-de-loi-numerique/consultation/consultation/opinions/section-1-ouverture-des-donnees-publiques-1/article-1-elargissement-du-champ-de-diffusion-par-l-administration/versions/publication-en-ligne-du-budget-de-l-etat", 
            "id": "24863", 
            "opinion": "1"
        }, 
        {
            "article_title": "D\u00e9finir pr\u00e9cis\u00e9ment le concept de donn\u00e9es personnelles", 
            "date": "2015-10-01T22:32:00+0200", 
            "link": "http://www.republique-numerique.fr/projects/projet-de-loi-numerique/consultation/consultation/opinions/section-1-ouverture-des-donnees-publiques-1/article-1-elargissement-du-champ-de-diffusion-par-l-administration/versions/definir-precisement-le-concept-de-donnees-personnelles", 
            "id": "24865", 
            "opinion": "-1"
        }, 
        {
            "article_title": "Article inconstitutionnel attentatoire au principe de vie priv\u00e9e en violation du 8\u00a72 CEDH et 17\u00a72 PIDCP", 
            "date": "2015-10-01T22:33:00+0200", 
            "link": "http://www.republique-numerique.fr/projects/projet-de-loi-numerique/consultation/consultation/opinions/section-1-ouverture-des-donnees-publiques-1/article-1-elargissement-du-champ-de-diffusion-par-l-administration/versions/article-inconstitutionnel-attentatoire-au-principe-de-vie-privee-en-violation-du-8ss2-cedh-et-17ss2-pidcp", 
            "id": "24866", 
            "opinion": "-1"
        }, 
        {
            "article_title": "Protection des donn\u00e9es \u00e0 caract\u00e8re personnel", 
            "date": "2015-10-01T22:34:00+0200", 
            "link": "http://www.republique-numerique.fr/projects/projet-de-loi-numerique/consultation/consultation/opinions/section-1-ouverture-des-donnees-publiques-1/article-1-elargissement-du-champ-de-diffusion-par-l-administration/versions/protection-des-donnees-a-caractere-personnel", 
            "id": "24868", 
            "opinion": "-1"
        }, 
        {
            "article_title": "Open Data : par d\u00e9faut et diffusion de l'information en instantan\u00e9 \u00e9galement par d\u00e9faut.", 
            "date": "2015-10-01T22:34:00+0200", 
            "link": "http://www.republique-numerique.fr/projects/projet-de-loi-numerique/consultation/consultation/opinions/section-1-ouverture-des-donnees-publiques-1/article-1-elargissement-du-champ-de-diffusion-par-l-administration/versions/open-data-par-defaut-et-diffusion-de-l-information-en-instantane-egalement-par-defaut", 
            "id": "24869", 
            "opinion": "-1"
        }, 
        {
            "article_title": "remplacer \"open data\" par \"donn\u00e9es ouvertes\" dans votre pr\u00e9sentation", 
            "date": "2015-10-01T22:35:00+0200", 
            "link": "http://www.republique-numerique.fr/projects/projet-de-loi-numerique/consultation/consultation/opinions/section-1-ouverture-des-donnees-publiques-1/article-1-elargissement-du-champ-de-diffusion-par-l-administration/versions/remplacer-open-data-par-donnees-ouvertes-dans-votre-presentation", 
            "id": "24870", 
            "opinion": "1"
        }, 
        {
            "article_title": "Contr\u00f4le des publications", 
            "date": "2015-10-01T22:36:00+0200", 
            "link": "http://www.republique-numerique.fr/projects/projet-de-loi-numerique/consultation/consultation/opinions/section-1-ouverture-des-donnees-publiques-1/article-1-elargissement-du-champ-de-diffusion-par-l-administration/versions/controle-des-publications", 
            "id": "24874", 
            "opinion": "-1"
        }, 
        {
            "article_title": "Pas de condition d'exclusion pour l'anonymat", 
            "date": "2015-10-01T22:37:00+0200", 
            "link": "http://www.republique-numerique.fr/projects/projet-de-loi-numerique/consultation/consultation/opinions/section-1-ouverture-des-donnees-publiques-1/article-1-elargissement-du-champ-de-diffusion-par-l-administration/versions/pas-de-condition-d-exclusion-pour-l-anonymat", 
            "id": "24876", 
            "opinion": "-1"
        }, 
        {
            "article_title": "Publication en temps r\u00e9el des donn\u00e9es sur l'environnement", 
            "date": "2015-10-01T22:37:00+0200", 
            "link": "http://www.republique-numerique.fr/projects/projet-de-loi-numerique/consultation/consultation/opinions/section-1-ouverture-des-donnees-publiques-1/article-1-elargissement-du-champ-de-diffusion-par-l-administration/versions/publication-en-temps-reel-des-donnees-sur-l-environnement", 
            "id": "24880", 
            "opinion": "1"
        }, 
        {
            "article_title": "L'importance des donn\u00e9es locales", 
            "date": "2015-10-01T22:38:00+0200", 
            "link": "http://www.republique-numerique.fr/projects/projet-de-loi-numerique/consultation/consultation/opinions/section-1-ouverture-des-donnees-publiques-1/article-1-elargissement-du-champ-de-diffusion-par-l-administration/versions/l-importance-des-donnees-locales", 
            "id": "24881", 
            "opinion": "1"
        }, 
        {
            "article_title": "Des exceptions possibles pour les donn\u00e9es de la recherche publique", 
            "date": "2015-10-01T22:39:00+0200", 
            "link": "http://www.republique-numerique.fr/projects/projet-de-loi-numerique/consultation/consultation/opinions/section-1-ouverture-des-donnees-publiques-1/article-1-elargissement-du-champ-de-diffusion-par-l-administration/versions/des-exceptions-possibles-pour-les-donnees-de-la-recherche-publique", 
            "id": "24882", 
            "opinion": "0"
        }, 
        {
            "article_title": "Une ouverture totale dans le temps et dans l'espace", 
            "date": "2015-10-01T22:40:00+0200", 
            "link": "http://www.republique-numerique.fr/projects/projet-de-loi-numerique/consultation/consultation/opinions/section-1-ouverture-des-donnees-publiques-1/article-1-elargissement-du-champ-de-diffusion-par-l-administration/versions/une-ouverture-totale-dans-le-temps-et-dans-l-espace", 
            "id": "24885", 
            "opinion": "-1"
        }, 
        {
            "article_title": "renforcement des dispositions d'anonymisation des donn\u00e9es \u00e0 caract\u00e8re personnel", 
            "date": "2015-10-01T22:40:00+0200", 
            "link": "http://www.republique-numerique.fr/projects/projet-de-loi-numerique/consultation/consultation/opinions/section-1-ouverture-des-donnees-publiques-1/article-1-elargissement-du-champ-de-diffusion-par-l-administration/versions/renforcement-des-dispositions-d-anonymisation-des-donnees-a-caractere-personnel", 
            "id": "24887", 
            "opinion": "0"
        }, 
        {
            "article_title": "de la Dimension Educative ...", 
            "date": "2015-10-01T22:41:00+0200", 
            "link": "http://www.republique-numerique.fr/projects/projet-de-loi-numerique/consultation/consultation/opinions/section-1-ouverture-des-donnees-publiques-1/article-1-elargissement-du-champ-de-diffusion-par-l-administration/versions/de-la-dimension-educative", 
            "id": "24888", 
            "opinion": "1"
        }, 
        {
            "article_title": "Indexation par les moteurs de recherche", 
            "date": "2015-10-01T22:41:00+0200", 
            "link": "http://www.republique-numerique.fr/projects/projet-de-loi-numerique/consultation/consultation/opinions/section-1-ouverture-des-donnees-publiques-1/article-1-elargissement-du-champ-de-diffusion-par-l-administration/versions/indexation-par-les-moteurs-de-recherche", 
            "id": "24890", 
            "opinion": "-1"
        }, 
        {
            "article_title": "Lev\u00e9e de l'anonymat", 
            "date": "2015-10-01T22:47:00+0200", 
            "link": "http://www.republique-numerique.fr/projects/projet-de-loi-numerique/consultation/consultation/opinions/section-1-ouverture-des-donnees-publiques-1/article-1-elargissement-du-champ-de-diffusion-par-l-administration/versions/levee-de-l-anonymat", 
            "id": "24912", 
            "opinion": "-1"
        }, 
        {
            "article_title": "Evite de restreindre les donn\u00e9es aux \"documents\" pour les rendre utiles", 
            "date": "2015-10-01T22:47:00+0200", 
            "link": "http://www.republique-numerique.fr/projects/projet-de-loi-numerique/consultation/consultation/opinions/section-1-ouverture-des-donnees-publiques-1/article-1-elargissement-du-champ-de-diffusion-par-l-administration/versions/evite-de-restreindre-les-donnees-aux-documents-pour-les-rendre-utiles", 
            "id": "24917", 
            "opinion": "1"
        }, 
        {
            "article_title": "Amendement relatif \u00e0 l'extension des disposition de l'Article I \u00e0 toutes les institutions y compris les collectivit\u00e9s locales et territoriales", 
            "date": "2015-10-01T22:48:00+0200", 
            "link": "http://www.republique-numerique.fr/projects/projet-de-loi-numerique/consultation/consultation/opinions/section-1-ouverture-des-donnees-publiques-1/article-1-elargissement-du-champ-de-diffusion-par-l-administration/versions/amendement-relatif-a-l-extension-des-disposition-de-l-article-i-a-toutes-les-institutions-y-compris-les-collectivites-locales-et-territoriales", 
            "id": "24921", 
            "opinion": "-1"
        }, 
        {
            "article_title": "approche incorrecte", 
            "date": "2015-10-01T22:49:00+0200", 
            "link": "http://www.republique-numerique.fr/projects/projet-de-loi-numerique/consultation/consultation/opinions/section-1-ouverture-des-donnees-publiques-1/article-1-elargissement-du-champ-de-diffusion-par-l-administration/versions/approche-incorrecte", 
            "id": "24924", 
            "opinion": "-1"
        }, 
        {
            "article_title": "utilisation syst\u00e9amtique de la langue fran\u00e7aise uniquement. valable pour toute cette Loi", 
            "date": "2015-10-01T22:53:00+0200", 
            "link": "http://www.republique-numerique.fr/projects/projet-de-loi-numerique/consultation/consultation/opinions/section-1-ouverture-des-donnees-publiques-1/article-1-elargissement-du-champ-de-diffusion-par-l-administration/versions/utilisation-systeamtique-de-la-langue-francaise-uniquement-valable-pour-toute-cette-loi", 
            "id": "24929", 
            "opinion": "1"
        }, 
        {
            "article_title": "Open Data obligatoire pour tout set produit dans un \u00e9tablissement ou par un personnel financ\u00e9 sur des fonds publics", 
            "date": "2015-10-01T22:53:00+0200", 
            "link": "http://www.republique-numerique.fr/projects/projet-de-loi-numerique/consultation/consultation/opinions/section-1-ouverture-des-donnees-publiques-1/article-1-elargissement-du-champ-de-diffusion-par-l-administration/versions/open-data-obligatoire-pour-tout-set-produit-dans-un-etablissement-ou-par-un-personnel-finance-sur-des-fonds-publics", 
            "id": "24930", 
            "opinion": "-1"
        }, 
        {
            "article_title": "La CADA et la diffusion des donn\u00e9es", 
            "date": "2015-10-01T22:54:00+0200", 
            "link": "http://www.republique-numerique.fr/projects/projet-de-loi-numerique/consultation/consultation/opinions/section-1-ouverture-des-donnees-publiques-1/article-1-elargissement-du-champ-de-diffusion-par-l-administration/versions/la-cada-et-la-diffusion-des-donnees", 
            "id": "24931", 
            "opinion": "-1"
        }, 
        {
            "article_title": "Pr\u00e9ciser le format des donn\u00e9es", 
            "date": "2015-10-01T22:55:00+0200", 
            "link": "http://www.republique-numerique.fr/projects/projet-de-loi-numerique/consultation/consultation/opinions/section-1-ouverture-des-donnees-publiques-1/article-1-elargissement-du-champ-de-diffusion-par-l-administration/versions/preciser-le-format-des-donnees", 
            "id": "24933", 
            "opinion": "-1"
        }, 
        {
            "article_title": "Mettre syst\u00e9matiquement un lien S.V.P.", 
            "date": "2015-10-01T22:55:00+0200", 
            "link": "http://www.republique-numerique.fr/projects/projet-de-loi-numerique/consultation/consultation/opinions/section-1-ouverture-des-donnees-publiques-1/article-1-elargissement-du-champ-de-diffusion-par-l-administration/versions/mettre-systematiquement-un-lien-s-v-p", 
            "id": "24936", 
            "opinion": "1"
        }, 
        {
            "article_title": "Ajout d'une notion de temps", 
            "date": "2015-10-01T22:56:00+0200", 
            "link": "http://www.republique-numerique.fr/projects/projet-de-loi-numerique/consultation/consultation/opinions/section-1-ouverture-des-donnees-publiques-1/article-1-elargissement-du-champ-de-diffusion-par-l-administration/versions/ajout-d-une-notion-de-temps", 
            "id": "24937", 
            "opinion": "1"
        }, 
        {
            "article_title": "Indiquer la source des donn\u00e9es Open Data", 
            "date": "2015-10-01T22:56:00+0200", 
            "link": "http://www.republique-numerique.fr/projects/projet-de-loi-numerique/consultation/consultation/opinions/section-1-ouverture-des-donnees-publiques-1/article-1-elargissement-du-champ-de-diffusion-par-l-administration/versions/indiquer-la-source-des-donnees-open-data", 
            "id": "24938", 
            "opinion": "1"
        }, 
        {
            "article_title": "OUVERTURE DES DONNEES PUBLIQUES", 
            "date": "2015-10-01T22:56:00+0200", 
            "link": "http://www.republique-numerique.fr/projects/projet-de-loi-numerique/consultation/consultation/opinions/section-1-ouverture-des-donnees-publiques-1/article-1-elargissement-du-champ-de-diffusion-par-l-administration/versions/ouverture-des-donnees-publiques", 
            "id": "24940", 
            "opinion": "1"
        }, 
        {
            "article_title": "ouverture des algorythmes", 
            "date": "2015-10-01T22:57:00+0200", 
            "link": "http://www.republique-numerique.fr/projects/projet-de-loi-numerique/consultation/consultation/opinions/section-1-ouverture-des-donnees-publiques-1/article-1-elargissement-du-champ-de-diffusion-par-l-administration/versions/ouverture-des-algorythmes", 
            "id": "24942", 
            "opinion": "-1"
        }, 
        {
            "article_title": "Validation des proc\u00e9d\u00e9s d'anonymisation des donn\u00e9es \u00e0 carat\u00e8re personnel", 
            "date": "2015-10-01T22:57:00+0200", 
            "link": "http://www.republique-numerique.fr/projects/projet-de-loi-numerique/consultation/consultation/opinions/section-1-ouverture-des-donnees-publiques-1/article-1-elargissement-du-champ-de-diffusion-par-l-administration/versions/validation-des-procedes-d-anonymisation-des-donnees-a-caratere-personnel", 
            "id": "24946", 
            "opinion": "1"
        }, 
        {
            "article_title": "Champ d'application de l'article 1 \u00e9tendu aux collectivit\u00e9s locales", 
            "date": "2015-10-01T22:58:00+0200", 
            "link": "http://www.republique-numerique.fr/projects/projet-de-loi-numerique/consultation/consultation/opinions/section-1-ouverture-des-donnees-publiques-1/article-1-elargissement-du-champ-de-diffusion-par-l-administration/versions/champ-d-application-de-l-article-1-etendu-aux-collectivites-locales", 
            "id": "24947", 
            "opinion": "1"
        }, 
        {
            "article_title": "Article 15 de la loi de 1978 modifi\u00e9e pour r\u00e9afirm\u00e9 le principe: \"La r\u00e9utilisation d'informations publiques est gratuite\"", 
            "date": "2015-10-01T22:58:00+0200", 
            "link": "http://www.republique-numerique.fr/projects/projet-de-loi-numerique/consultation/consultation/opinions/section-1-ouverture-des-donnees-publiques-1/article-1-elargissement-du-champ-de-diffusion-par-l-administration/versions/article-15-de-la-loi-de-1978-modifiee-pour-reafirme-le-principe-la-reutilisation-d-informations-publiques-est-gratuite", 
            "id": "24949", 
            "opinion": "1"
        }, 
        {
            "article_title": "Le Vote par internet", 
            "date": "2015-10-01T22:58:00+0200", 
            "link": "http://www.republique-numerique.fr/projects/projet-de-loi-numerique/consultation/consultation/opinions/section-1-ouverture-des-donnees-publiques-1/le-vote-par-internet", 
            "id": "24951", 
            "opinion": "-1"
        }, 
        {
            "article_title": "Article 2 - Libre r\u00e9utilisation des donn\u00e9es des services publics industriels et commerciaux", 
            "date": "2015-10-01T22:59:00+0200", 
            "link": "http://www.republique-numerique.fr/projects/projet-de-loi-numerique/consultation/consultation/opinions/section-1-ouverture-des-donnees-publiques-1/article-2-principe-de-libre-reutilisation-des-donnees-pour-les-spic", 
            "id": "24954", 
            "opinion": "1"
        }, 
        {
            "article_title": "Article 3 - Droit d\u2019acc\u00e8s des organismes publics aux donn\u00e9es publiques & de r\u00e9utilisation d\u2019informations comportant des donn\u00e9es personnelles d\u00e9j\u00e0 publi\u00e9es", 
            "date": "2015-10-01T23:02:00+0200", 
            "link": "http://www.republique-numerique.fr/projects/projet-de-loi-numerique/consultation/consultation/opinions/section-1-ouverture-des-donnees-publiques-1/article-3-dispositions-diverses", 
            "id": "24956", 
            "opinion": "1"
        }, 
        {
            "article_title": "Associer \u00e0 cette article l'interdiction pour l'administration de demander au contribuable (personne morale ou physique) plusieurs fois la m\u00eame information", 
            "date": "2015-10-01T23:02:00+0200", 
            "link": "http://www.republique-numerique.fr/projects/projet-de-loi-numerique/consultation/consultation/opinions/section-1-ouverture-des-donnees-publiques-1/article-3-dispositions-diverses/versions/assicier-a-cette-article-l-interdiction-a-l-administration-de-demander-au-contribuable-personne-morale-ou-physique-deux-fois-la-meme-information", 
            "id": "24957", 
            "opinion": "1"
        }, 
        {
            "article_title": "La publication par erreur de donn\u00e9es ou sans consentement ne doit pas entrainer une diffusion", 
            "date": "2015-10-01T23:03:00+0200", 
            "link": "http://www.republique-numerique.fr/projects/projet-de-loi-numerique/consultation/consultation/opinions/section-1-ouverture-des-donnees-publiques-1/article-3-dispositions-diverses/versions/la-publication-par-erreur-de-donnees-ou-sans-consentement-ne-doit-pas-entrainer-une-diffusion", 
            "id": "24958", 
            "opinion": "1"
        }, 
        {
            "article_title": "Article 27 - Paiement par SMS", 
            "date": "2015-10-01T23:43:00+0200", 
            "link": "http://www.republique-numerique.fr/projects/projet-de-loi-numerique/consultation/consultation/opinions/section-2-paiement-par-sms/article-27-paiement-par-sms", 
            "id": "24986", 
            "opinion": "-1"
        }, 
        {
            "article_title": "SANCTUAIRE PUBLIQUE DE LA DONNEE", 
            "date": "2015-10-02T07:52:00+0200", 
            "link": "http://www.republique-numerique.fr/projects/projet-de-loi-numerique/consultation/consultation/opinions/section-2-service-public-de-la-donnee-1/sanctuaire-publique-de-la-donnee", 
            "id": "25055", 
            "opinion": "-1"
        }, 
        {
            "article_title": "logiciels libres", 
            "date": "2015-10-02T07:54:00+0200", 
            "link": "http://www.republique-numerique.fr/projects/projet-de-loi-numerique/consultation/consultation/opinions/section-2-service-public-de-la-donnee-1/logiciels-libres", 
            "id": "25058", 
            "opinion": "0"
        }, 
        {
            "article_title": "Qwant", 
            "date": "2015-10-02T07:54:00+0200", 
            "link": "http://www.republique-numerique.fr/projects/projet-de-loi-numerique/consultation/consultation/opinions/section-2-service-public-de-la-donnee-1/qwant", 
            "id": "25060", 
            "opinion": "0"
        }, 
        {
            "article_title": "Bloquer les publicit\u00e9s par d\u00e9faut dans les lieux destin\u00e9s \u00e0 l'Education.", 
            "date": "2015-10-02T07:55:00+0200", 
            "link": "http://www.republique-numerique.fr/projects/projet-de-loi-numerique/consultation/consultation/opinions/section-2-service-public-de-la-donnee-1/bloquer-les-publicites-par-defaut-dans-les-lieux-destines-a-l-education", 
            "id": "25062", 
            "opinion": "0"
        }, 
        {
            "article_title": "Cr\u00e9ation d'un service national d'audit des besoins logiciels de l'administration", 
            "date": "2015-10-02T07:56:00+0200", 
            "link": "http://www.republique-numerique.fr/projects/projet-de-loi-numerique/consultation/consultation/opinions/section-2-service-public-de-la-donnee-1/creation-d-un-service-national-d-audit-des-besoins-logiciels-de-l-administration", 
            "id": "25063", 
            "opinion": "1"
        }, 
        {
            "article_title": "Publication/Annonce des divulgation accidentelle de donn\u00e9es personnelles", 
            "date": "2015-10-02T07:57:00+0200", 
            "link": "http://www.republique-numerique.fr/projects/projet-de-loi-numerique/consultation/consultation/opinions/section-2-service-public-de-la-donnee-1/publication-annonce-des-divulgation-accidentelle-de-donnees-personnelles", 
            "id": "25064", 
            "opinion": "1"
        }, 
        {
            "article_title": "S\u00e9curit\u00e9, confidentialit\u00e9 et int\u00e9grit\u00e9 des donn\u00e9es publiques", 
            "date": "2015-10-02T07:58:00+0200", 
            "link": "http://www.republique-numerique.fr/projects/projet-de-loi-numerique/consultation/consultation/opinions/section-2-service-public-de-la-donnee-1/securite-confidentialite-et-integrite-des-donnees-publiques", 
            "id": "25065", 
            "opinion": "0"
        }, 
        {
            "article_title": "Utiliser les logiciels libres & GNU/Linux dans les \u00e9coles et les universit\u00e9s", 
            "date": "2015-10-02T07:59:00+0200", 
            "link": "http://www.republique-numerique.fr/projects/projet-de-loi-numerique/consultation/consultation/opinions/section-2-service-public-de-la-donnee-1/utiliser-les-logiciels-libres-gnu-linux-dans-les-ecoles-et-les-universites", 
            "id": "25066", 
            "opinion": "1"
        }, 
        {
            "article_title": "Article 5 - Cr\u00e9ation d'un compte unique des services administratifs en ligne pour chaque citoyen", 
            "date": "2015-10-02T08:01:00+0200", 
            "link": "http://www.republique-numerique.fr/projects/projet-de-loi-numerique/consultation/consultation/opinions/section-2-service-public-de-la-donnee-1/article-5-creation-d-un-compte-unique-des-services-administratifs-en-ligne-pour-chaque-citoyen", 
            "id": "25067", 
            "opinion": "1"
        }, 
        {
            "article_title": "Centralisation et publication de l'ensemble des donn\u00e9es d'appel d'offre publique", 
            "date": "2015-10-02T19:58:00+0200", 
            "link": "http://www.republique-numerique.fr/projects/projet-de-loi-numerique/consultation/consultation/opinions/section-1-ouverture-des-donnees-publiques-1/centralisation-et-publication-de-l-ensemble-des-donnees-d-appel-d-offre-publique", 
            "id": "27080", 
            "opinion": "1"
        }, 
        {
            "article_title": "concurence commerciale loyale", 
            "date": "2015-10-05T00:22:00+0200", 
            "link": "http://www.republique-numerique.fr/projects/projet-de-loi-numerique/consultation/consultation/opinions/section-3-loyaute-des-plateformes/concurence-commerciale-loyale", 
            "id": "30341", 
            "opinion": "1"
        }, 
        {
            "article_title": "la publicit\u00e9 des prix: moyen de lutte contre le prix calcul\u00e9 sur votre historique de navigation", 
            "date": "2015-10-05T00:32:00+0200", 
            "link": "http://www.republique-numerique.fr/projects/projet-de-loi-numerique/consultation/consultation/opinions/section-3-loyaute-des-plateformes/la-publicite-des-prix-moyen-de-lutte-contre-le-prix-calcule-sur-votre-historique-de-navigation", 
            "id": "30350", 
            "opinion": "1"
        }, 
        {
            "article_title": "Article 4 - Cr\u00e9ation d\u2019un service public de la donn\u00e9e (garantie de qualit\u00e9 des donn\u00e9es publiques de r\u00e9f\u00e9rence)", 
            "date": "2015-10-07T00:12:00+0200", 
            "link": "http://www.republique-numerique.fr/projects/projet-de-loi-numerique/consultation/consultation/opinions/section-2-service-public-de-la-donnee-1/article-4-creation-d-un-service-public-de-la-donnee", 
            "id": "34760", 
            "opinion": "1"
        }, 
        {
            "article_title": "Article 5 - Ouverture des donn\u00e9es des d\u00e9l\u00e9gations de service public", 
            "date": "2015-10-07T00:14:00+0200", 
            "link": "http://www.republique-numerique.fr/projects/projet-de-loi-numerique/consultation/consultation/opinions/section-3-donnees-d-interet-general/article-5-ouverture-des-donnees-par-defaut-dans-les-contrats-de-dsp", 
            "id": "34764", 
            "opinion": "1"
        }, 
        {
            "article_title": "Article 6 - Ouverture des donn\u00e9es des subventions publiques", 
            "date": "2015-10-07T07:41:00+0200", 
            "link": "http://www.republique-numerique.fr/projects/projet-de-loi-numerique/consultation/consultation/opinions/section-3-donnees-d-interet-general/article-6-ouverture-des-donnees-dans-les-conventions-de-subventions", 
            "id": "34880", 
            "opinion": "1"
        }, 
        {
            "article_title": "Article 7 - Acc\u00e8s de la statistique publique \u00e0 certaines bases de donn\u00e9es priv\u00e9es", 
            "date": "2015-10-07T07:44:00+0200", 
            "link": "http://www.republique-numerique.fr/projects/projet-de-loi-numerique/consultation/consultation/opinions/section-3-donnees-d-interet-general/article-7-acces-de-la-statistique-publique-aux-bases-de-donnees-privees", 
            "id": "34881", 
            "opinion": "0"
        }, 
        {
            "article_title": "Anonymisation pr\u00e9alable des bases de donn\u00e9es", 
            "date": "2015-10-07T07:45:00+0200", 
            "link": "http://www.republique-numerique.fr/projects/projet-de-loi-numerique/consultation/consultation/opinions/section-3-donnees-d-interet-general/article-7-acces-de-la-statistique-publique-aux-bases-de-donnees-privees/versions/anonymisation-prealable-des-bases-de-donnees", 
            "id": "34882", 
            "opinion": "1"
        }, 
        {
            "article_title": "Protection du statut de lanceurs d'alertes et precisions sur les moyens d'obtenir ce statut", 
            "date": "2015-10-07T07:47:00+0200", 
            "link": "http://www.republique-numerique.fr/projects/projet-de-loi-numerique/consultation/consultation/opinions/section-3-donnees-d-interet-general/protection-recompense-et-indemnisation-des-lanceurs-d-alertes/versions/protection-du-statut-de-lanceurs-d-alertes-et-precisions-sur-les-moyens-d-obtenir-ce-statut", 
            "id": "34884", 
            "opinion": "-1"
        }, 
        {
            "article_title": "D\u00e9voiler les interactions entre le Gouvernement et les lobbystes", 
            "date": "2015-10-07T07:48:00+0200", 
            "link": "http://www.republique-numerique.fr/projects/projet-de-loi-numerique/consultation/consultation/opinions/section-3-donnees-d-interet-general/devoiler-les-interactions-entre-le-gouvernement-et-les-lobbystes", 
            "id": "34885", 
            "opinion": "1"
        }, 
        {
            "article_title": "RECIPROCITE DE L'OUVERTURE DES DONNEES PUBLIQUES PAR L'OUVERTURE DES DONNEES PRIVEES D'INTERET GENERAL", 
            "date": "2015-10-07T07:49:00+0200", 
            "link": "http://www.republique-numerique.fr/projects/projet-de-loi-numerique/consultation/consultation/opinions/section-3-donnees-d-interet-general/reciprocite-de-l-ouverture-des-donnees-publiques-par-l-ouverture-des-donnees-privees-d-interet-general", 
            "id": "34886", 
            "opinion": "-1"
        }, 
        {
            "article_title": "Mise en place d'un service de traitement de donn\u00e9es d'urgence.", 
            "date": "2015-10-07T07:50:00+0200", 
            "link": "http://www.republique-numerique.fr/projects/projet-de-loi-numerique/consultation/consultation/opinions/section-3-donnees-d-interet-general/mise-en-place-d-un-service-de-traitement-de-donnees-d-urgence", 
            "id": "34887", 
            "opinion": "-1"
        }, 
        {
            "article_title": "Services sp\u00e9cialis\u00e9s et discrimination tarifaire", 
            "date": "2015-10-12T07:28:00+0200", 
            "link": "http://www.republique-numerique.fr/projects/projet-de-loi-numerique/consultation/consultation/opinions/section-1-neutralite-de-l-internet/article-11-neutralite-de-l-internet/versions/services-specialises-et-discrimination-tarifaire", 
            "id": "50875", 
            "opinion": "1"
        }, 
        {
            "article_title": "Article 12 - Portabilit\u00e9 des donn\u00e9es", 
            "date": "2015-10-13T16:55:00+0200", 
            "link": "http://www.republique-numerique.fr/projects/projet-de-loi-numerique/consultation/consultation/opinions/section-2-portabilite-des-donnees/article-12-portabilite-des-donnees", 
            "id": "72279", 
            "opinion": "1"
        }, 
        {
            "article_title": "Consacrer un droit d'information sur les modalit\u00e9s du stockage des fichiers et donn\u00e9es-utilisateur", 
            "date": "2015-10-13T16:58:00+0200", 
            "link": "http://www.republique-numerique.fr/projects/projet-de-loi-numerique/consultation/consultation/opinions/section-2-portabilite-des-donnees/article-12-portabilite-des-donnees/versions/consacrer-un-droit-d-information-sur-les-modalites-du-stockage-des-fichiers-et-donnees-utilisateur", 
            "id": "72344", 
            "opinion": "1"
        }, 
        {
            "article_title": "R\u00e9f\u00e9rentiel G\u00e9n\u00e9ral d'Interop\u00e9rabilit\u00e9 (RGI)", 
            "date": "2015-10-13T19:45:00+0200", 
            "link": "http://www.republique-numerique.fr/projects/projet-de-loi-numerique/consultation/consultation/opinions/section-2-portabilite-des-donnees/referentiel-general-d-interoperabilite-rgi", 
            "id": "75401", 
            "opinion": "1"
        }, 
        {
            "article_title": "Article 15 - Mieux informer sur les avis en ligne et sur les d\u00e9bits", 
            "date": "2015-10-13T22:50:00+0200", 
            "link": "http://www.republique-numerique.fr/projects/projet-de-loi-numerique/consultation/consultation/opinions/section-4-information-des-consommateurs/article-15-information-des-consommateurs-et-avis-en-ligne", 
            "id": "77730", 
            "opinion": "1"
        }, 
        {
            "article_title": "Article 17 - Evolution des missions de la CNIL", 
            "date": "2015-10-14T21:36:00+0200", 
            "link": "http://www.republique-numerique.fr/projects/projet-de-loi-numerique/consultation/consultation/opinions/section-1-protection-des-donnees-a-caractere-personnel/article-17-missions-de-la-cnil", 
            "id": "89488", 
            "opinion": "-1"
        }, 
        {
            "article_title": "redaction trop large qui pourrais concerner les journalistes il vaut mieux rester sur traitement automatis\u00e9 commecoeurde cible", 
            "date": "2015-10-14T22:01:00+0200", 
            "link": "http://www.republique-numerique.fr/projects/projet-de-loi-numerique/consultation/consultation/opinions/section-1-protection-des-donnees-a-caractere-personnel/article-17-missions-de-la-cnil/versions/redaction-trop-large-qui-pourrais-concerner-les-journalistes-il-vaut-mieux-rester-sur-traitement-automatise-commecoeurde-cible", 
            "id": "89727", 
            "opinion": "1"
        }, 
        {
            "article_title": "scandale Ashley Madison... obligation d information sur le chiffrement et la protection des donn\u00e9es personnel", 
            "date": "2015-10-14T22:12:00+0200", 
            "link": "http://www.republique-numerique.fr/projects/projet-de-loi-numerique/consultation/consultation/opinions/section-1-protection-des-donnees-a-caractere-personnel/article-17-missions-de-la-cnil/versions/scandale-ashley-madison-obligation-d-information-sur-le-chiffrement-et-la-protection-des-donnees-personnel", 
            "id": "89811", 
            "opinion": "1"
        }, 
        {
            "article_title": "Article 18 - Certificat de conformit\u00e9", 
            "date": "2015-10-15T08:10:00+0200", 
            "link": "http://www.republique-numerique.fr/projects/projet-de-loi-numerique/consultation/consultation/opinions/section-1-protection-des-donnees-a-caractere-personnel/article-18-certificat-de-conformite", 
            "id": "91648", 
            "opinion": "-1"
        }, 
        {
            "article_title": "Article 19 - Droit \u00e0 l\u2019oubli pour les mineurs", 
            "date": "2015-10-15T08:14:00+0200", 
            "link": "http://www.republique-numerique.fr/projects/projet-de-loi-numerique/consultation/consultation/opinions/section-1-protection-des-donnees-a-caractere-personnel/article-19-droit-a-l-oubli-pour-les-mineurs-procedure-acceleree", 
            "id": "91666", 
            "opinion": "0"
        }, 
        {
            "article_title": "Article 30 - Maintien de la connexion", 
            "date": "2015-10-18T09:59:00+0200", 
            "link": "http://www.republique-numerique.fr/projects/projet-de-loi-numerique/consultation/consultation/opinions/section-3-maintien-de-la-connexion-internet/article-30-maintien-temporaire-de-la-connexion", 
            "id": "148961", 
            "opinion": "-1"
        }
    ], 
    "sources": [], 
    "votes_count": 89, 
    "arguments": [
        {
            "article_title": "Signaler", 
            "votes": 4, 
            "article_link": "http://www.republique-numerique.fr/consultations/projet-de-loi-numerique/consultation/consultation/opinions/section-2-paiement-par-sms/article-27-paiement-par-sms/arguments/1955/report", 
            "link": "http://www.republique-numerique.fr/consultations/projet-de-loi-numerique/consultation/consultation/opinions/section-2-paiement-par-sms/article-27-paiement-par-sms/arguments/1955/report#arg-1955", 
            "date": "2015-10-01T23:46:00+0200", 
            "id": "1955"
        }, 
        {
            "article_title": "Signaler", 
            "votes": 0, 
            "article_link": "http://www.republique-numerique.fr/consultations/projet-de-loi-numerique/consultation/consultation/opinions/section-1-protection-des-donnees-a-caractere-personnel/article-17-missions-de-la-cnil/arguments/4057/report", 
            "link": "http://www.republique-numerique.fr/consultations/projet-de-loi-numerique/consultation/consultation/opinions/section-1-protection-des-donnees-a-caractere-personnel/article-17-missions-de-la-cnil/arguments/4057/report#arg-4057", 
            "date": "2015-10-14T21:45:00+0200", 
            "id": "4057"
        }, 
        {
            "article_title": "Signaler", 
            "votes": 0, 
            "article_link": "http://www.republique-numerique.fr/consultations/projet-de-loi-numerique/consultation/consultation/opinions/section-1-protection-des-donnees-a-caractere-personnel/article-18-certificat-de-conformite/arguments/4098/report", 
            "link": "http://www.republique-numerique.fr/consultations/projet-de-loi-numerique/consultation/consultation/opinions/section-1-protection-des-donnees-a-caractere-personnel/article-18-certificat-de-conformite/arguments/4098/report#arg-4098", 
            "date": "2015-10-15T08:12:00+0200", 
            "id": "4098"
        }
    ], 
    "arguments_count": 4, 
    "propositions_count": 2, 
    "contributions_count": 8
}