{
    "modifications": [], 
    "modifications_count": 0, 
    "sources_count": 0, 
    "propositions": [], 
    "votes": [
        {
            "article_title": "Article 1 - Open data par d\u00e9faut (obligation de diffuser en ligne les principaux documents et donn\u00e9es des organismes publics)", 
            "date": "2015-09-27T00:13:00+0200", 
            "link": "http://www.republique-numerique.fr/projects/projet-de-loi-numerique/consultation/consultation/opinions/section-1-ouverture-des-donnees-publiques-1/article-1-elargissement-du-champ-de-diffusion-par-l-administration", 
            "id": "3588", 
            "opinion": "0"
        }, 
        {
            "article_title": "Article 2 - Libre r\u00e9utilisation des donn\u00e9es des services publics industriels et commerciaux", 
            "date": "2015-09-27T00:17:00+0200", 
            "link": "http://www.republique-numerique.fr/projects/projet-de-loi-numerique/consultation/consultation/opinions/section-1-ouverture-des-donnees-publiques-1/article-2-principe-de-libre-reutilisation-des-donnees-pour-les-spic", 
            "id": "3592", 
            "opinion": "0"
        }, 
        {
            "article_title": "Clarification sur le statut des drones de combats et de reconnaissances", 
            "date": "2015-09-27T00:25:00+0200", 
            "link": "http://www.republique-numerique.fr/projects/projet-de-loi-numerique/consultation/consultation/opinions/section-1-ouverture-des-donnees-publiques-1/clarification-sur-le-statut-des-drones-de-combats-et-de-reconnaissances", 
            "id": "3600", 
            "opinion": "-1"
        }, 
        {
            "article_title": "Transparence / S\u00e9curit\u00e9", 
            "date": "2015-09-27T00:32:00+0200", 
            "link": "http://www.republique-numerique.fr/projects/projet-de-loi-numerique/consultation/consultation/opinions/section-1-ouverture-des-donnees-publiques-1/transparence-securite", 
            "id": "3611", 
            "opinion": "-1"
        }, 
        {
            "article_title": "Article 5 - Ouverture des donn\u00e9es des d\u00e9l\u00e9gations de service public", 
            "date": "2015-09-27T00:35:00+0200", 
            "link": "http://www.republique-numerique.fr/projects/projet-de-loi-numerique/consultation/consultation/opinions/section-3-donnees-d-interet-general/article-5-ouverture-des-donnees-par-defaut-dans-les-contrats-de-dsp", 
            "id": "3615", 
            "opinion": "0"
        }, 
        {
            "article_title": "Article 7 - Acc\u00e8s de la statistique publique \u00e0 certaines bases de donn\u00e9es priv\u00e9es", 
            "date": "2015-09-27T00:36:00+0200", 
            "link": "http://www.republique-numerique.fr/projects/projet-de-loi-numerique/consultation/consultation/opinions/section-3-donnees-d-interet-general/article-7-acces-de-la-statistique-publique-aux-bases-de-donnees-privees", 
            "id": "3618", 
            "opinion": "-1"
        }, 
        {
            "article_title": "Protection, r\u00e9compense et ind\u00e9mnisation des lanceurs d'alertes", 
            "date": "2015-09-27T00:41:00+0200", 
            "link": "http://www.republique-numerique.fr/projects/projet-de-loi-numerique/consultation/consultation/opinions/section-3-donnees-d-interet-general/protection-recompense-et-indemnisation-des-lanceurs-d-alertes", 
            "id": "3636", 
            "opinion": "-1"
        }, 
        {
            "article_title": "D\u00e9voiler les interactions entre le Gouvernement et les lobbystes", 
            "date": "2015-09-27T00:47:00+0200", 
            "link": "http://www.republique-numerique.fr/projects/projet-de-loi-numerique/consultation/consultation/opinions/section-3-donnees-d-interet-general/devoiler-les-interactions-entre-le-gouvernement-et-les-lobbystes", 
            "id": "3643", 
            "opinion": "-1"
        }, 
        {
            "article_title": "Article 8 - D\u00e9finition positive du domaine commun informationnel", 
            "date": "2015-09-27T00:52:00+0200", 
            "link": "http://www.republique-numerique.fr/projects/projet-de-loi-numerique/consultation/consultation/opinions/section-1-les-communs/article-8-definition-du-domaine-commun-informationnel", 
            "id": "3656", 
            "opinion": "-1"
        }, 
        {
            "article_title": "Mettre les m\u00e9dias produits par de l'argent public dans les communs", 
            "date": "2015-09-27T00:56:00+0200", 
            "link": "http://www.republique-numerique.fr/projects/projet-de-loi-numerique/consultation/consultation/opinions/section-1-les-communs/article-8-definition-du-domaine-commun-informationnel/versions/mettre-les-medias-produit-par-de-l-argent-public-dans-les-communs", 
            "id": "3677", 
            "opinion": "-1"
        }, 
        {
            "article_title": "Mise \u00e0 disposition syst\u00e9matique des r\u00e9sultats de la recherche financ\u00e9e par des fonds publics", 
            "date": "2015-09-27T00:59:00+0200", 
            "link": "http://www.republique-numerique.fr/projects/projet-de-loi-numerique/consultation/consultation/opinions/section-2-travaux-de-recherche-et-de-statistique/article-9-acces-aux-travaux-de-la-recherche-financee-par-des-fonds-publics/versions/mise-a-disposition-systematique-des-resultats-de-la-recherche-financee-par-des-fonds-publics", 
            "id": "3689", 
            "opinion": "-1"
        }, 
        {
            "article_title": "Article 9 - Libre acc\u00e8s aux publications scientifiques de la recherche publique", 
            "date": "2015-09-27T01:04:00+0200", 
            "link": "http://www.republique-numerique.fr/projects/projet-de-loi-numerique/consultation/consultation/opinions/section-2-travaux-de-recherche-et-de-statistique/article-9-acces-aux-travaux-de-la-recherche-financee-par-des-fonds-publics", 
            "id": "3703", 
            "opinion": "-1"
        }, 
        {
            "article_title": "L'Etat doit se conformer \u00e0 la neutralit\u00e9 d'Internet", 
            "date": "2015-09-27T01:11:00+0200", 
            "link": "http://www.republique-numerique.fr/projects/projet-de-loi-numerique/consultation/consultation/opinions/section-1-neutralite-de-l-internet/article-11-neutralite-de-l-internet/versions/l-etat-doit-se-conformer-a-la-neutralite-d-internet", 
            "id": "3710", 
            "opinion": "0"
        }, 
        {
            "article_title": "Article 16 - Libre disposition de ses donn\u00e9es", 
            "date": "2015-09-27T01:16:00+0200", 
            "link": "http://www.republique-numerique.fr/projects/projet-de-loi-numerique/consultation/consultation/opinions/section-1-protection-des-donnees-a-caractere-personnel/article-16-libre-disposition-de-ses-donnees-a-caractere-personnel", 
            "id": "3722", 
            "opinion": "0"
        }, 
        {
            "article_title": "Article 20 - Mort num\u00e9rique", 
            "date": "2015-09-27T01:17:00+0200", 
            "link": "http://www.republique-numerique.fr/projects/projet-de-loi-numerique/consultation/consultation/opinions/section-1-protection-des-donnees-a-caractere-personnel/article-20-personnes-decedees", 
            "id": "3725", 
            "opinion": "0"
        }, 
        {
            "article_title": "La reconnaissance du droit au chiffrement", 
            "date": "2015-09-27T01:19:00+0200", 
            "link": "http://www.republique-numerique.fr/projects/projet-de-loi-numerique/consultation/consultation/opinions/section-1-protection-des-donnees-a-caractere-personnel/la-reconnaissance-du-droit-au-chiffrement", 
            "id": "3732", 
            "opinion": "-1"
        }, 
        {
            "article_title": "Article 25 - Modification des principes d\u2019\u00e9tablissement des redevances d\u2019utilisation des fr\u00e9quences", 
            "date": "2015-09-27T01:26:00+0200", 
            "link": "http://www.republique-numerique.fr/projects/projet-de-loi-numerique/consultation/consultation/opinions/section-2-couverture-numerique/article-25-principe-de-calcul-des-redevances-d-usage-des-frequences", 
            "id": "3743", 
            "opinion": "1"
        }, 
        {
            "article_title": "D\u00e9clarer in\u00e9ligible pendant un an le maire qui n'aura pas d\u00e9ploy\u00e9 le THD dans sa commune", 
            "date": "2015-09-27T01:30:00+0200", 
            "link": "http://www.republique-numerique.fr/projects/projet-de-loi-numerique/consultation/consultation/opinions/section-2-couverture-numerique/declarer-ineligible-pendant-un-an-le-maire-qui-n-aura-pas-deploye-la-thd-dans-sa-commune", 
            "id": "3751", 
            "opinion": "-1"
        }, 
        {
            "article_title": "Obligation de rendre les appareils connect\u00e9s compatibles avec le protocole IPv6", 
            "date": "2015-09-27T01:31:00+0200", 
            "link": "http://www.republique-numerique.fr/projects/projet-de-loi-numerique/consultation/consultation/opinions/section-2-couverture-numerique/obligation-de-rendre-les-appareils-connectes-compatibles-avec-le-protocole-ipv6", 
            "id": "3752", 
            "opinion": "-1"
        }, 
        {
            "article_title": "Cr\u00e9ation d'un plate-forme de r\u00e9vision de la consitution", 
            "date": "2015-09-27T01:33:00+0200", 
            "link": "http://www.republique-numerique.fr/projects/projet-de-loi-numerique/consultation/consultation/opinions/section-1-recommande-electronique/creation-d-un-plate-forme-de-revision-de-la-consitution", 
            "id": "3756", 
            "opinion": "-1"
        }, 
        {
            "article_title": "DECLARER LE DROIT A L'INTERNET COMME UN DROIT FONDAMENTAL", 
            "date": "2015-09-27T01:39:00+0200", 
            "link": "http://www.republique-numerique.fr/projects/projet-de-loi-numerique/consultation/consultation/opinions/section-3-maintien-de-la-connexion-internet/article-30-maintien-temporaire-de-la-connexion/versions/declarer-le-droit-a-l-internet-comme-un-droit-fondamental", 
            "id": "3769", 
            "opinion": "0"
        }, 
        {
            "article_title": "Acc\u00e8s des personnes d\u00e9tenues au num\u00e9rique", 
            "date": "2015-09-27T01:46:00+0200", 
            "link": "http://www.republique-numerique.fr/projects/projet-de-loi-numerique/consultation/consultation/opinions/section-3-maintien-de-la-connexion-internet/acces-des-personnes-detenues-au-numerique", 
            "id": "3779", 
            "opinion": "-1"
        }
    ], 
    "sources": [], 
    "votes_count": 22, 
    "arguments": [
        {
            "article_title": "Signaler", 
            "votes": 0, 
            "article_link": "http://www.republique-numerique.fr/consultations/projet-de-loi-numerique/consultation/consultation/opinions/section-1-ouverture-des-donnees-publiques-1/article-1-elargissement-du-champ-de-diffusion-par-l-administration/arguments/319/report", 
            "link": "http://www.republique-numerique.fr/consultations/projet-de-loi-numerique/consultation/consultation/opinions/section-1-ouverture-des-donnees-publiques-1/article-1-elargissement-du-champ-de-diffusion-par-l-administration/arguments/319/report#arg-319", 
            "date": "2015-09-27T00:13:00+0200", 
            "id": "319"
        }, 
        {
            "article_title": "Signaler", 
            "votes": 5, 
            "article_link": "http://www.republique-numerique.fr/consultations/projet-de-loi-numerique/consultation/consultation/opinions/section-1-ouverture-des-donnees-publiques-1/article-1-elargissement-du-champ-de-diffusion-par-l-administration/arguments/320/report", 
            "link": "http://www.republique-numerique.fr/consultations/projet-de-loi-numerique/consultation/consultation/opinions/section-1-ouverture-des-donnees-publiques-1/article-1-elargissement-du-champ-de-diffusion-par-l-administration/arguments/320/report#arg-320", 
            "date": "2015-09-27T00:13:00+0200", 
            "id": "320"
        }, 
        {
            "article_title": "Signaler", 
            "votes": 2, 
            "article_link": "http://www.republique-numerique.fr/consultations/projet-de-loi-numerique/consultation/consultation/opinions/section-1-ouverture-des-donnees-publiques-1/article-2-principe-de-libre-reutilisation-des-donnees-pour-les-spic/arguments/322/report", 
            "link": "http://www.republique-numerique.fr/consultations/projet-de-loi-numerique/consultation/consultation/opinions/section-1-ouverture-des-donnees-publiques-1/article-2-principe-de-libre-reutilisation-des-donnees-pour-les-spic/arguments/322/report#arg-322", 
            "date": "2015-09-27T00:17:00+0200", 
            "id": "322"
        }, 
        {
            "article_title": "Signaler", 
            "votes": 1, 
            "article_link": "http://www.republique-numerique.fr/consultations/projet-de-loi-numerique/consultation/consultation/opinions/section-1-ouverture-des-donnees-publiques-1/article-3-dispositions-diverses/arguments/325/report", 
            "link": "http://www.republique-numerique.fr/consultations/projet-de-loi-numerique/consultation/consultation/opinions/section-1-ouverture-des-donnees-publiques-1/article-3-dispositions-diverses/arguments/325/report#arg-325", 
            "date": "2015-09-27T00:21:00+0200", 
            "id": "325"
        }, 
        {
            "article_title": "Signaler", 
            "votes": 0, 
            "article_link": "http://www.republique-numerique.fr/consultations/projet-de-loi-numerique/consultation/consultation/opinions/section-1-ouverture-des-donnees-publiques-1/article-3-dispositions-diverses/arguments/326/report", 
            "link": "http://www.republique-numerique.fr/consultations/projet-de-loi-numerique/consultation/consultation/opinions/section-1-ouverture-des-donnees-publiques-1/article-3-dispositions-diverses/arguments/326/report#arg-326", 
            "date": "2015-09-27T00:21:00+0200", 
            "id": "326"
        }, 
        {
            "article_title": "Signaler", 
            "votes": 2, 
            "article_link": "http://www.republique-numerique.fr/consultations/projet-de-loi-numerique/consultation/consultation/opinions/section-1-ouverture-des-donnees-publiques-1/article-3-dispositions-diverses/arguments/327/report", 
            "link": "http://www.republique-numerique.fr/consultations/projet-de-loi-numerique/consultation/consultation/opinions/section-1-ouverture-des-donnees-publiques-1/article-3-dispositions-diverses/arguments/327/report#arg-327", 
            "date": "2015-09-27T00:24:00+0200", 
            "id": "327"
        }, 
        {
            "article_title": "Signaler", 
            "votes": 0, 
            "article_link": "http://www.republique-numerique.fr/consultations/projet-de-loi-numerique/consultation/consultation/opinions/section-1-ouverture-des-donnees-publiques-1/clarification-sur-le-statut-des-drones-de-combats-et-de-reconnaissances/arguments/328/report", 
            "link": "http://www.republique-numerique.fr/consultations/projet-de-loi-numerique/consultation/consultation/opinions/section-1-ouverture-des-donnees-publiques-1/clarification-sur-le-statut-des-drones-de-combats-et-de-reconnaissances/arguments/328/report#arg-328", 
            "date": "2015-09-27T00:28:00+0200", 
            "id": "328"
        }, 
        {
            "article_title": "Signaler", 
            "votes": 0, 
            "article_link": "http://www.republique-numerique.fr/consultations/projet-de-loi-numerique/consultation/consultation/opinions/section-1-ouverture-des-donnees-publiques-1/transparence-securite/arguments/329/report", 
            "link": "http://www.republique-numerique.fr/consultations/projet-de-loi-numerique/consultation/consultation/opinions/section-1-ouverture-des-donnees-publiques-1/transparence-securite/arguments/329/report#arg-329", 
            "date": "2015-09-27T00:32:00+0200", 
            "id": "329"
        }, 
        {
            "article_title": "Signaler", 
            "votes": 1, 
            "article_link": "http://www.republique-numerique.fr/consultations/projet-de-loi-numerique/consultation/consultation/opinions/section-3-donnees-d-interet-general/article-5-ouverture-des-donnees-par-defaut-dans-les-contrats-de-dsp/arguments/330/report", 
            "link": "http://www.republique-numerique.fr/consultations/projet-de-loi-numerique/consultation/consultation/opinions/section-3-donnees-d-interet-general/article-5-ouverture-des-donnees-par-defaut-dans-les-contrats-de-dsp/arguments/330/report#arg-330", 
            "date": "2015-09-27T00:35:00+0200", 
            "id": "330"
        }, 
        {
            "article_title": "Signaler", 
            "votes": 3, 
            "article_link": "http://www.republique-numerique.fr/consultations/projet-de-loi-numerique/consultation/consultation/opinions/section-3-donnees-d-interet-general/article-7-acces-de-la-statistique-publique-aux-bases-de-donnees-privees/arguments/331/report", 
            "link": "http://www.republique-numerique.fr/consultations/projet-de-loi-numerique/consultation/consultation/opinions/section-3-donnees-d-interet-general/article-7-acces-de-la-statistique-publique-aux-bases-de-donnees-privees/arguments/331/report#arg-331", 
            "date": "2015-09-27T00:37:00+0200", 
            "id": "331"
        }, 
        {
            "article_title": "Signaler", 
            "votes": 1, 
            "article_link": "http://www.republique-numerique.fr/consultations/projet-de-loi-numerique/consultation/consultation/opinions/section-3-donnees-d-interet-general/reciprocite-de-l-ouverture-des-donnees-publiques-par-l-ouverture-des-donnees-privees-d-interet-general/arguments/333/report", 
            "link": "http://www.republique-numerique.fr/consultations/projet-de-loi-numerique/consultation/consultation/opinions/section-3-donnees-d-interet-general/reciprocite-de-l-ouverture-des-donnees-publiques-par-l-ouverture-des-donnees-privees-d-interet-general/arguments/333/report#arg-333", 
            "date": "2015-09-27T00:40:00+0200", 
            "id": "333"
        }, 
        {
            "article_title": "Signaler", 
            "votes": 4, 
            "article_link": "http://www.republique-numerique.fr/consultations/projet-de-loi-numerique/consultation/consultation/opinions/section-3-donnees-d-interet-general/protection-recompense-et-indemnisation-des-lanceurs-d-alertes/arguments/334/report", 
            "link": "http://www.republique-numerique.fr/consultations/projet-de-loi-numerique/consultation/consultation/opinions/section-3-donnees-d-interet-general/protection-recompense-et-indemnisation-des-lanceurs-d-alertes/arguments/334/report#arg-334", 
            "date": "2015-09-27T00:43:00+0200", 
            "id": "334"
        }, 
        {
            "article_title": "Signaler", 
            "votes": 3, 
            "article_link": "http://www.republique-numerique.fr/consultations/projet-de-loi-numerique/consultation/consultation/opinions/section-3-donnees-d-interet-general/creation-d-une-platforme-de-modification-des-textes-officiels/arguments/335/report", 
            "link": "http://www.republique-numerique.fr/consultations/projet-de-loi-numerique/consultation/consultation/opinions/section-3-donnees-d-interet-general/creation-d-une-platforme-de-modification-des-textes-officiels/arguments/335/report#arg-335", 
            "date": "2015-09-27T00:47:00+0200", 
            "id": "335"
        }, 
        {
            "article_title": "Signaler", 
            "votes": 1, 
            "article_link": "http://www.republique-numerique.fr/consultations/projet-de-loi-numerique/consultation/consultation/opinions/section-1-les-communs/article-8-definition-du-domaine-commun-informationnel/arguments/339/report", 
            "link": "http://www.republique-numerique.fr/consultations/projet-de-loi-numerique/consultation/consultation/opinions/section-1-les-communs/article-8-definition-du-domaine-commun-informationnel/arguments/339/report#arg-339", 
            "date": "2015-09-27T00:52:00+0200", 
            "id": "339"
        }, 
        {
            "article_title": "Signaler", 
            "votes": 1, 
            "article_link": "http://www.republique-numerique.fr/consultations/projet-de-loi-numerique/consultation/consultation/opinions/section-1-protection-des-donnees-a-caractere-personnel/article-16-libre-disposition-de-ses-donnees-a-caractere-personnel/arguments/347/report", 
            "link": "http://www.republique-numerique.fr/consultations/projet-de-loi-numerique/consultation/consultation/opinions/section-1-protection-des-donnees-a-caractere-personnel/article-16-libre-disposition-de-ses-donnees-a-caractere-personnel/arguments/347/report#arg-347", 
            "date": "2015-09-27T01:15:00+0200", 
            "id": "347"
        }, 
        {
            "article_title": "Signaler", 
            "votes": 1, 
            "article_link": "http://www.republique-numerique.fr/consultations/projet-de-loi-numerique/consultation/consultation/opinions/section-1-protection-des-donnees-a-caractere-personnel/la-reconnaissance-du-droit-au-chiffrement/arguments/348/report", 
            "link": "http://www.republique-numerique.fr/consultations/projet-de-loi-numerique/consultation/consultation/opinions/section-1-protection-des-donnees-a-caractere-personnel/la-reconnaissance-du-droit-au-chiffrement/arguments/348/report#arg-348", 
            "date": "2015-09-27T01:19:00+0200", 
            "id": "348"
        }, 
        {
            "article_title": "Signaler", 
            "votes": 6, 
            "article_link": "http://www.republique-numerique.fr/consultations/projet-de-loi-numerique/consultation/consultation/opinions/section-2-couverture-numerique/article-25-principe-de-calcul-des-redevances-d-usage-des-frequences/arguments/350/report", 
            "link": "http://www.republique-numerique.fr/consultations/projet-de-loi-numerique/consultation/consultation/opinions/section-2-couverture-numerique/article-25-principe-de-calcul-des-redevances-d-usage-des-frequences/arguments/350/report#arg-350", 
            "date": "2015-09-27T01:25:00+0200", 
            "id": "350"
        }, 
        {
            "article_title": "Signaler", 
            "votes": 7, 
            "article_link": "http://www.republique-numerique.fr/consultations/projet-de-loi-numerique/consultation/consultation/opinions/section-2-couverture-numerique/declarer-ineligible-pendant-un-an-le-maire-qui-n-aura-pas-deploye-la-thd-dans-sa-commune/arguments/352/report", 
            "link": "http://www.republique-numerique.fr/consultations/projet-de-loi-numerique/consultation/consultation/opinions/section-2-couverture-numerique/declarer-ineligible-pendant-un-an-le-maire-qui-n-aura-pas-deploye-la-thd-dans-sa-commune/arguments/352/report#arg-352", 
            "date": "2015-09-27T01:30:00+0200", 
            "id": "352"
        }, 
        {
            "article_title": "Obligation de rendre les appareils connect\u00e9s compatibles avec le protocole IPv6", 
            "votes": 4, 
            "article_link": "http://www.republique-numerique.fr/projects/projet-de-loi-numerique/consultation/consultation/opinions/section-2-couverture-numerique/obligation-de-rendre-les-appareils-connectes-compatibles-avec-le-protocole-ipv6", 
            "link": "http://www.republique-numerique.fr/projects/projet-de-loi-numerique/consultation/consultation/opinions/section-2-couverture-numerique/obligation-de-rendre-les-appareils-connectes-compatibles-avec-le-protocole-ipv6#arg-354", 
            "date": "2015-09-27T01:32:00+0200", 
            "id": "354"
        }, 
        {
            "article_title": "Signaler", 
            "votes": 1, 
            "article_link": "http://www.republique-numerique.fr/consultations/projet-de-loi-numerique/consultation/consultation/opinions/section-1-recommande-electronique/creation-d-un-plate-forme-de-revision-de-la-consitution/arguments/355/report", 
            "link": "http://www.republique-numerique.fr/consultations/projet-de-loi-numerique/consultation/consultation/opinions/section-1-recommande-electronique/creation-d-un-plate-forme-de-revision-de-la-consitution/arguments/355/report#arg-355", 
            "date": "2015-09-27T01:34:00+0200", 
            "id": "355"
        }, 
        {
            "article_title": "Signaler", 
            "votes": 7, 
            "article_link": "http://www.republique-numerique.fr/consultations/projet-de-loi-numerique/consultation/consultation/opinions/section-3-maintien-de-la-connexion-internet/acces-des-personnes-detenues-au-numerique/arguments/361/report", 
            "link": "http://www.republique-numerique.fr/consultations/projet-de-loi-numerique/consultation/consultation/opinions/section-3-maintien-de-la-connexion-internet/acces-des-personnes-detenues-au-numerique/arguments/361/report#arg-361", 
            "date": "2015-09-27T01:45:00+0200", 
            "id": "361"
        }
    ], 
    "arguments_count": 26, 
    "propositions_count": 0, 
    "contributions_count": 26
}