{
    "modifications": [], 
    "modifications_count": 0, 
    "sources_count": 0, 
    "propositions": [], 
    "votes": [
        {
            "article_title": "Open source", 
            "date": "2015-10-16T22:01:00+0200", 
            "link": "http://www.republique-numerique.fr/projects/projet-de-loi-numerique/consultation/consultation/opinions/section-1-ouverture-des-donnees-publiques-1/open-source", 
            "id": "126367", 
            "opinion": "1"
        }, 
        {
            "article_title": "reconsid\u00e9rer le principe de la licence globale", 
            "date": "2015-10-16T22:01:00+0200", 
            "link": "http://www.republique-numerique.fr/projects/projet-de-loi-numerique/consultation/consultation/opinions/section-1-ouverture-des-donnees-publiques-1/reconsiderer-le-principe-de-la-licence-globale", 
            "id": "126380", 
            "opinion": "1"
        }, 
        {
            "article_title": "Assurer la transparence des plateformes de consultation en ligne utilis\u00e9es par les pouvoirs publics", 
            "date": "2015-10-16T22:07:00+0200", 
            "link": "http://www.republique-numerique.fr/projects/projet-de-loi-numerique/consultation/consultation/opinions/section-1-ouverture-des-donnees-publiques-1/assurer-la-transparence-des-plateformes-de-consultation-en-ligne-utilisees-par-les-pouvoirs-publics", 
            "id": "126498", 
            "opinion": "1"
        }
    ], 
    "sources": [], 
    "votes_count": 3, 
    "arguments": [], 
    "arguments_count": 0, 
    "propositions_count": 0, 
    "contributions_count": 0
}