{
    "modifications": [], 
    "modifications_count": 0, 
    "sources_count": 0, 
    "propositions": [], 
    "votes": [
        {
            "article_title": "Obligation donn\u00e9e \u00e0 toutes les administrations sans exception", 
            "date": "2015-10-16T12:33:00+0200", 
            "link": "http://www.republique-numerique.fr/projects/projet-de-loi-numerique/consultation/consultation/opinions/section-1-ouverture-des-donnees-publiques-1/article-1-elargissement-du-champ-de-diffusion-par-l-administration/versions/obligation-donnee-a-toutes-les-administrations-sans-exception", 
            "id": "112359", 
            "opinion": "1"
        }, 
        {
            "article_title": "Extension de l'objet de la mission de service public de l'acc\u00e8s au droit aux d\u00e9cisions de premi\u00e8re instance", 
            "date": "2015-10-16T12:35:00+0200", 
            "link": "http://www.republique-numerique.fr/projects/projet-de-loi-numerique/consultation/consultation/opinions/section-1-ouverture-des-donnees-publiques-1/article-1-elargissement-du-champ-de-diffusion-par-l-administration/versions/extension-de-l-objet-de-la-mission-de-service-public-de-l-acces-au-droit-aux-decisions-de-premiere-instance", 
            "id": "112382", 
            "opinion": "1"
        }, 
        {
            "article_title": "Etendre sans restriction le champ des informations publiques r\u00e9utilisables", 
            "date": "2015-10-16T12:37:00+0200", 
            "link": "http://www.republique-numerique.fr/projects/projet-de-loi-numerique/consultation/consultation/opinions/section-1-ouverture-des-donnees-publiques-1/article-2-principe-de-libre-reutilisation-des-donnees-pour-les-spic/versions/etendre-sans-restriction-le-champ-des-informations-publiques-reutilisables", 
            "id": "112419", 
            "opinion": "1"
        }, 
        {
            "article_title": "L'absence d'articulation entre le droit sui generis du producteur de bases de donn\u00e9es et la r\u00e9utilisation des donn\u00e9es", 
            "date": "2015-10-16T12:38:00+0200", 
            "link": "http://www.republique-numerique.fr/projects/projet-de-loi-numerique/consultation/consultation/opinions/section-1-ouverture-des-donnees-publiques-1/article-2-principe-de-libre-reutilisation-des-donnees-pour-les-spic/versions/l-absence-d-articulation-entre-le-droit-sui-generis-du-producteur-de-bases-de-donnees-et-la-reutilisation-des-donnees", 
            "id": "112440", 
            "opinion": "1"
        }, 
        {
            "article_title": "La r\u00e9utilisation des donn\u00e9es \u00e0 caract\u00e8re personnel doit \u00eatre declar\u00e9e \u00e0 la CNIL qui peut s'y opposer.", 
            "date": "2015-10-16T12:39:00+0200", 
            "link": "http://www.republique-numerique.fr/projects/projet-de-loi-numerique/consultation/consultation/opinions/section-1-ouverture-des-donnees-publiques-1/article-3-dispositions-diverses/versions/la-reutilisation-des-donnees-a-caractere-personnel-doit-etre-declaree-a-la-cnil-qui-peut-s-y-opposer", 
            "id": "112470", 
            "opinion": "1"
        }, 
        {
            "article_title": "Donner un d\u00e9lai pour la mise en oeuvre du service public de la donn\u00e9e", 
            "date": "2015-10-16T12:42:00+0200", 
            "link": "http://www.republique-numerique.fr/projects/projet-de-loi-numerique/consultation/consultation/opinions/section-2-service-public-de-la-donnee-1/article-4-creation-d-un-service-public-de-la-donnee/versions/preciser-le-delai-de-mise-en-oeuvre", 
            "id": "112519", 
            "opinion": "1"
        }, 
        {
            "article_title": "La transmission des donn\u00e9es publiques doit se faire pour le bien commun, sans stipulation contraire et sans d\u00e9l\u00e9gation \u00e0 un tiers", 
            "date": "2015-10-16T12:44:00+0200", 
            "link": "http://www.republique-numerique.fr/projects/projet-de-loi-numerique/consultation/consultation/opinions/section-3-donnees-d-interet-general/article-5-ouverture-des-donnees-par-defaut-dans-les-contrats-de-dsp/versions/la-transmission-des-donnees-publiques-doit-se-faire-pour-le-bien-commun-sans-stipulation-contraire-et-sans-delegation-a-un-tiers", 
            "id": "112559", 
            "opinion": "1"
        }, 
        {
            "article_title": "Mise \u00e0 disposition des donn\u00e9es \u00e0 des fins de r\u00e9utilisation pour le bien commun", 
            "date": "2015-10-16T12:45:00+0200", 
            "link": "http://www.republique-numerique.fr/projects/projet-de-loi-numerique/consultation/consultation/opinions/section-3-donnees-d-interet-general/article-6-ouverture-des-donnees-dans-les-conventions-de-subventions/versions/mise-a-disposition-des-donnees-a-des-fins-de-reutilisation-pour-le-bien-commun", 
            "id": "112606", 
            "opinion": "1"
        }, 
        {
            "article_title": "Chaque administration comporte un service statistique, \u00e9tendre l'acc\u00e8s au del\u00e0 de l'INSEE", 
            "date": "2015-10-16T12:47:00+0200", 
            "link": "http://www.republique-numerique.fr/projects/projet-de-loi-numerique/consultation/consultation/opinions/section-3-donnees-d-interet-general/article-7-acces-de-la-statistique-publique-aux-bases-de-donnees-privees/versions/chaque-administration-comporte-un-service-statistique-etendre-l-acces-au-dela-de-l-insee", 
            "id": "112649", 
            "opinion": "1"
        }, 
        {
            "article_title": "L'agr\u00e9ment ne peut \u00eatre donn\u00e9 aux seules associations", 
            "date": "2015-10-16T12:48:00+0200", 
            "link": "http://www.republique-numerique.fr/projects/projet-de-loi-numerique/consultation/consultation/opinions/section-1-les-communs/article-8-definition-du-domaine-commun-informationnel/versions/l-agrement-ne-peut-etre-donne-aux-seules-associations", 
            "id": "112688", 
            "opinion": "1"
        }, 
        {
            "article_title": "Aucune cession \u00e0 l'\u00e9diteur lorsque les \u00e9crits sont non r\u00e9mun\u00e9r\u00e9s et possible \u00e0 6 mois,lorsque r\u00e9mun\u00e9r\u00e9s, sans distinction de champs disciplinaires", 
            "date": "2015-10-16T12:50:00+0200", 
            "link": "http://www.republique-numerique.fr/projects/projet-de-loi-numerique/consultation/consultation/opinions/section-2-travaux-de-recherche-et-de-statistique/article-9-acces-aux-travaux-de-la-recherche-financee-par-des-fonds-publics/versions/aucune-cession-a-l-editeur-lorsque-les-ecrits-sont-non-remuneres-et-possible-a-6-mois-lorsque-remuneres-sans-distinction-de-champs-disciplinaires", 
            "id": "112731", 
            "opinion": "1"
        }
    ], 
    "sources": [], 
    "votes_count": 11, 
    "arguments": [], 
    "arguments_count": 0, 
    "propositions_count": 0, 
    "contributions_count": 0
}