{
    "modifications": [], 
    "modifications_count": 0, 
    "sources_count": 0, 
    "propositions": [], 
    "votes": [
        {
            "article_title": "Le code source d'un logiciel est un document administratif communicable", 
            "date": "2015-10-12T16:03:00+0200", 
            "link": "http://www.republique-numerique.fr/projects/projet-de-loi-numerique/consultation/consultation/opinions/section-1-ouverture-des-donnees-publiques-1/le-code-source-d-un-logiciel-est-un-document-administratif-communicable", 
            "id": "53336", 
            "opinion": "1"
        }, 
        {
            "article_title": "Utiliser les logiciels libres & GNU/Linux dans les \u00e9coles et les universit\u00e9s", 
            "date": "2015-10-12T16:04:00+0200", 
            "link": "http://www.republique-numerique.fr/projects/projet-de-loi-numerique/consultation/consultation/opinions/section-2-service-public-de-la-donnee-1/utiliser-les-logiciels-libres-gnu-linux-dans-les-ecoles-et-les-universites", 
            "id": "53357", 
            "opinion": "1"
        }, 
        {
            "article_title": "Protection des correspondants", 
            "date": "2015-10-12T16:05:00+0200", 
            "link": "http://www.republique-numerique.fr/projects/projet-de-loi-numerique/consultation/consultation/opinions/section-2-confidentialite-des-correspondances-privees/protection-des-correspondants", 
            "id": "53364", 
            "opinion": "1"
        }, 
        {
            "article_title": "Interdiction de la vente li\u00e9e ordinateur/syst\u00e8me d'exploitation", 
            "date": "2015-10-12T16:06:00+0200", 
            "link": "http://www.republique-numerique.fr/projects/projet-de-loi-numerique/consultation/consultation/opinions/section-3-loyaute-des-plateformes/interdiction-de-la-vente-liee-ordinateur-systeme-d-exploitation", 
            "id": "53372", 
            "opinion": "1"
        }
    ], 
    "sources": [], 
    "votes_count": 4, 
    "arguments": [], 
    "arguments_count": 0, 
    "propositions_count": 0, 
    "contributions_count": 0
}