{
    "modifications": [], 
    "modifications_count": 0, 
    "sources_count": 0, 
    "propositions": [
        {
            "article_title": "D\u00c9MAT\u00c9RIALISATION DES DOCUMENTS ET ACTES POUR LES CONSEILS MUNICIPAUX D\u00c9PARTEMENTAUX ETC...", 
            "votes": {
                "data-ok": "23", 
                "data-mitige": "2", 
                "data-nok": "0"
            }, 
            "stats": {
                "modification": "0", 
                "source": "0", 
                "votes": "25", 
                "argument": "1"
            }, 
            "id": "309", 
            "article_link": "/projects/projet-de-loi-numerique/consultation/consultation/opinions/section-1-ouverture-des-donnees-publiques-1/dematerialisation-des-documents-et-actes-pour-les-conseils-municipaux-departementaux-etc"
        }, 
        {
            "article_title": "D\u00c9MAT\u00c9RIALISATION DE DOSSIERS ADMINISTRATIFS", 
            "votes": {
                "data-ok": "37", 
                "data-mitige": "2", 
                "data-nok": "3"
            }, 
            "stats": {
                "modification": "1", 
                "source": "0", 
                "votes": "42", 
                "argument": "1"
            }, 
            "id": "308", 
            "article_link": "/projects/projet-de-loi-numerique/consultation/consultation/opinions/section-1-ouverture-des-donnees-publiques-1/dematerialisation-de-dossiers-administratifs"
        }
    ], 
    "votes": [], 
    "sources": [], 
    "votes_count": 0, 
    "arguments": [], 
    "arguments_count": 0, 
    "propositions_count": 2, 
    "contributions_count": 2
}