{
    "modifications": [], 
    "modifications_count": 0, 
    "sources_count": 0, 
    "propositions": [], 
    "votes": [
        {
            "article_title": "Article 9 - Libre acc\u00e8s aux publications scientifiques de la recherche publique", 
            "date": "2015-10-17T10:14:00+0200", 
            "link": "http://www.republique-numerique.fr/projects/projet-de-loi-numerique/consultation/consultation/opinions/section-2-travaux-de-recherche-et-de-statistique/article-9-acces-aux-travaux-de-la-recherche-financee-par-des-fonds-publics", 
            "id": "131329", 
            "opinion": "1"
        }, 
        {
            "article_title": "Article additionnel : Les comp\u00e9titions de jeux vid\u00e9o \u00ab e-sport \u00bb", 
            "date": "2015-10-17T10:16:00+0200", 
            "link": "http://www.republique-numerique.fr/projects/projet-de-loi-numerique/consultation/consultation/opinions/section-2-travaux-de-recherche-et-de-statistique/les-competitions-de-jeux-video-e-sport", 
            "id": "131357", 
            "opinion": "1"
        }
    ], 
    "sources": [], 
    "votes_count": 2, 
    "arguments": [], 
    "arguments_count": 0, 
    "propositions_count": 0, 
    "contributions_count": 0
}