{
    "modifications": [], 
    "modifications_count": 0, 
    "sources_count": 0, 
    "propositions": [
        {
            "article_title": "Interdir la revente de nom de domaine", 
            "votes": {
                "data-ok": "10", 
                "data-mitige": "2", 
                "data-nok": "17"
            }, 
            "stats": {
                "modification": "0", 
                "source": "0", 
                "votes": "29", 
                "arguments": "3"
            }, 
            "id": "474", 
            "article_link": "/projects/projet-de-loi-numerique/consultation/consultation/opinions/section-3-loyaute-des-plateformes/interdir-la-revente-de-nom-de-domaine"
        }
    ], 
    "votes": [
        {
            "article_title": "Suppression de la taxe copie priv\u00e9e", 
            "date": "2015-10-06T19:33:00+0200", 
            "link": "http://www.republique-numerique.fr/projects/projet-de-loi-numerique/consultation/consultation/opinions/section-1-ouverture-des-donnees-publiques-1/suppression-de-la-taxe-copie-privee", 
            "id": "34161", 
            "opinion": "1"
        }, 
        {
            "article_title": "veritable acceleration du deploiement de la fibre optique", 
            "date": "2015-10-06T19:42:00+0200", 
            "link": "http://www.republique-numerique.fr/projects/projet-de-loi-numerique/consultation/consultation/opinions/section-1-ouverture-des-donnees-publiques-1/veritable-acceleration-du-deploiement-de-la-fibre-optique", 
            "id": "34177", 
            "opinion": "1"
        }, 
        {
            "article_title": "Digitalisation de l'appareil d'\u00e9tat", 
            "date": "2015-10-06T19:42:00+0200", 
            "link": "http://www.republique-numerique.fr/projects/projet-de-loi-numerique/consultation/consultation/opinions/section-1-ouverture-des-donnees-publiques-1/digitalisation-de-l-appareil-d-etat", 
            "id": "34182", 
            "opinion": "1"
        }, 
        {
            "article_title": "Non, il faudra toujours limiter sur les propos x\u00e9...", 
            "date": "2015-10-06T19:54:00+0200", 
            "link": "http://www.republique-numerique.fr/projects/projet-de-loi-numerique/consultation/consultation/opinions/section-1-ouverture-des-donnees-publiques-1/la-liberte-d-expression-totale-sur-internet-sans-aucune-restriction#arg-1078", 
            "id": "34200", 
            "opinion": "1"
        }, 
        {
            "article_title": "Si quelqu'un a une Clio \u00e0 vendre qu'il n'h\u00e9site ...", 
            "date": "2015-10-06T19:55:00+0200", 
            "link": "http://www.republique-numerique.fr/projects/projet-de-loi-numerique/consultation/consultation/opinions/section-1-ouverture-des-donnees-publiques-1/protection-de-la-vie-pour-tous-lors-de-la-survenue-d-un-seisme-majeur#arg-2390", 
            "id": "34201", 
            "opinion": "1"
        }, 
        {
            "article_title": "Le prix de l'acc\u00e8s \u00e0 Internet est parmi les plus...", 
            "date": "2015-10-06T19:57:00+0200", 
            "link": "http://www.republique-numerique.fr/projects/projet-de-loi-numerique/consultation/consultation/opinions/section-1-ouverture-des-donnees-publiques-1/service-public-d-acces-a-internet#arg-1468", 
            "id": "34203", 
            "opinion": "1"
        }, 
        {
            "article_title": "Service public d' acc\u00e8s \u00e0 internet", 
            "date": "2015-10-06T19:57:00+0200", 
            "link": "http://www.republique-numerique.fr/projects/projet-de-loi-numerique/consultation/consultation/opinions/section-1-ouverture-des-donnees-publiques-1/service-public-d-acces-a-internet", 
            "id": "34204", 
            "opinion": "-1"
        }, 
        {
            "article_title": "Utilisation de GNU/Linux dans l'administration", 
            "date": "2015-10-08T11:45:00+0200", 
            "link": "http://www.republique-numerique.fr/projects/projet-de-loi-numerique/consultation/consultation/opinions/section-3-donnees-d-interet-general/utilisation-de-gnu-linux-dans-l-administration", 
            "id": "38991", 
            "opinion": "1"
        }, 
        {
            "article_title": "Interdir la revente de nom de domaine", 
            "date": "2015-10-08T14:26:00+0200", 
            "link": "http://www.republique-numerique.fr/projects/projet-de-loi-numerique/consultation/consultation/opinions/section-3-loyaute-des-plateformes/interdir-la-revente-de-nom-de-domaine", 
            "id": "39805", 
            "opinion": "1"
        }
    ], 
    "sources": [], 
    "votes_count": 9, 
    "arguments": [], 
    "arguments_count": 0, 
    "propositions_count": 1, 
    "contributions_count": 1
}