{
    "modifications": [], 
    "modifications_count": 0, 
    "sources_count": 0, 
    "propositions": [], 
    "votes": [
        {
            "article_title": "Article 1 - Open data par d\u00e9faut (obligation de diffuser en ligne les principaux documents et donn\u00e9es des organismes publics)", 
            "date": "2015-10-17T15:28:00+0200", 
            "link": "http://www.republique-numerique.fr/projects/projet-de-loi-numerique/consultation/consultation/opinions/section-1-ouverture-des-donnees-publiques-1/article-1-elargissement-du-champ-de-diffusion-par-l-administration", 
            "id": "138162", 
            "opinion": "1"
        }, 
        {
            "article_title": "Article 2 - Libre r\u00e9utilisation des donn\u00e9es des services publics industriels et commerciaux", 
            "date": "2015-10-17T15:28:00+0200", 
            "link": "http://www.republique-numerique.fr/projects/projet-de-loi-numerique/consultation/consultation/opinions/section-1-ouverture-des-donnees-publiques-1/article-2-principe-de-libre-reutilisation-des-donnees-pour-les-spic", 
            "id": "138182", 
            "opinion": "1"
        }, 
        {
            "article_title": "Article 3 - Droit d\u2019acc\u00e8s des organismes publics aux donn\u00e9es publiques & de r\u00e9utilisation d\u2019informations comportant des donn\u00e9es personnelles d\u00e9j\u00e0 publi\u00e9es", 
            "date": "2015-10-17T15:29:00+0200", 
            "link": "http://www.republique-numerique.fr/projects/projet-de-loi-numerique/consultation/consultation/opinions/section-1-ouverture-des-donnees-publiques-1/article-3-dispositions-diverses", 
            "id": "138201", 
            "opinion": "1"
        }, 
        {
            "article_title": "Le code source d'un logiciel est un document administratif communicable", 
            "date": "2015-10-17T15:30:00+0200", 
            "link": "http://www.republique-numerique.fr/projects/projet-de-loi-numerique/consultation/consultation/opinions/section-1-ouverture-des-donnees-publiques-1/le-code-source-d-un-logiciel-est-un-document-administratif-communicable", 
            "id": "138222", 
            "opinion": "1"
        }, 
        {
            "article_title": "ouverture du code des algorithmes publics", 
            "date": "2015-10-17T15:32:00+0200", 
            "link": "http://www.republique-numerique.fr/projects/projet-de-loi-numerique/consultation/consultation/opinions/section-1-ouverture-des-donnees-publiques-1/ouverture-du-code-des-algorithmes-publics", 
            "id": "138270", 
            "opinion": "1"
        }, 
        {
            "article_title": "Suppression de la taxe copie priv\u00e9e", 
            "date": "2015-10-17T15:32:00+0200", 
            "link": "http://www.republique-numerique.fr/projects/projet-de-loi-numerique/consultation/consultation/opinions/section-1-ouverture-des-donnees-publiques-1/suppression-de-la-taxe-copie-privee", 
            "id": "138279", 
            "opinion": "1"
        }, 
        {
            "article_title": "Le Vote par internet", 
            "date": "2015-10-17T15:32:00+0200", 
            "link": "http://www.republique-numerique.fr/projects/projet-de-loi-numerique/consultation/consultation/opinions/section-1-ouverture-des-donnees-publiques-1/le-vote-par-internet", 
            "id": "138295", 
            "opinion": "0"
        }, 
        {
            "article_title": "Article (num\u00e9ro \u00e0 incr\u00e9menter) - De l'acc\u00e8s au code source", 
            "date": "2015-10-17T15:33:00+0200", 
            "link": "http://www.republique-numerique.fr/projects/projet-de-loi-numerique/consultation/consultation/opinions/section-1-ouverture-des-donnees-publiques-1/article-numero-a-incrementer-de-l-acces-au-code-source", 
            "id": "138308", 
            "opinion": "1"
        }, 
        {
            "article_title": "Promouvoir la mise \u00e0 disposition de livres num\u00e9riques dans les biblioth\u00e8ques publiques", 
            "date": "2015-10-17T15:33:00+0200", 
            "link": "http://www.republique-numerique.fr/projects/projet-de-loi-numerique/consultation/consultation/opinions/section-1-ouverture-des-donnees-publiques-1/promouvoir-la-mise-a-disposition-de-livres-numeriques-dans-les-bibliotheques-publiques", 
            "id": "138318", 
            "opinion": "1"
        }, 
        {
            "article_title": "Cr\u00e9er un droit de citation audiovisuelle", 
            "date": "2015-10-17T15:33:00+0200", 
            "link": "http://www.republique-numerique.fr/projects/projet-de-loi-numerique/consultation/consultation/opinions/section-1-ouverture-des-donnees-publiques-1/creer-un-droit-de-citation-audiovisuelle", 
            "id": "138325", 
            "opinion": "1"
        }, 
        {
            "article_title": "Rendre public la pr\u00e9sences des diff\u00e9rents ministres, d\u00e9put\u00e9s, etc... aux conseils.", 
            "date": "2015-10-17T15:33:00+0200", 
            "link": "http://www.republique-numerique.fr/projects/projet-de-loi-numerique/consultation/consultation/opinions/section-1-ouverture-des-donnees-publiques-1/rendre-public-la-presences-des-differents-ministres-deputes-etc-aux-conseils", 
            "id": "138329", 
            "opinion": "1"
        }, 
        {
            "article_title": "Am\u00e9lioration continue des lois", 
            "date": "2015-10-17T15:33:00+0200", 
            "link": "http://www.republique-numerique.fr/projects/projet-de-loi-numerique/consultation/consultation/opinions/section-1-ouverture-des-donnees-publiques-1/amelioration-continue-des-lois", 
            "id": "138337", 
            "opinion": "1"
        }, 
        {
            "article_title": "Article 4 - Cr\u00e9ation d\u2019un service public de la donn\u00e9e (garantie de qualit\u00e9 des donn\u00e9es publiques de r\u00e9f\u00e9rence)", 
            "date": "2015-10-17T15:34:00+0200", 
            "link": "http://www.republique-numerique.fr/projects/projet-de-loi-numerique/consultation/consultation/opinions/section-2-service-public-de-la-donnee-1/article-4-creation-d-un-service-public-de-la-donnee", 
            "id": "138367", 
            "opinion": "1"
        }, 
        {
            "article_title": "Publication/Annonce des divulgation accidentelle de donn\u00e9es personnelles", 
            "date": "2015-10-17T15:35:00+0200", 
            "link": "http://www.republique-numerique.fr/projects/projet-de-loi-numerique/consultation/consultation/opinions/section-2-service-public-de-la-donnee-1/publication-annonce-des-divulgation-accidentelle-de-donnees-personnelles", 
            "id": "138388", 
            "opinion": "0"
        }, 
        {
            "article_title": "Article 5 - Cr\u00e9ation d'un compte unique des services administratifs en ligne pour chaque citoyen", 
            "date": "2015-10-17T15:35:00+0200", 
            "link": "http://www.republique-numerique.fr/projects/projet-de-loi-numerique/consultation/consultation/opinions/section-2-service-public-de-la-donnee-1/article-5-creation-d-un-compte-unique-des-services-administratifs-en-ligne-pour-chaque-citoyen", 
            "id": "138396", 
            "opinion": "0"
        }, 
        {
            "article_title": "GNU/Linux n'est qu'un logiciel libre parmi d'autres", 
            "date": "2015-10-17T15:36:00+0200", 
            "link": "http://www.republique-numerique.fr/projects/projet-de-loi-numerique/consultation/consultation/opinions/section-2-service-public-de-la-donnee-1/utiliser-les-logiciels-libres-gnu-linux-dans-les-ecoles-et-les-universites/versions/gnu-linux-n-est-qu-un-logiciel-libre-parmi-d-autres", 
            "id": "138417", 
            "opinion": "1"
        }, 
        {
            "article_title": "Etendre cette proposition \u00e0 l'ensemble des organismes publics et aux logiciels Open Source", 
            "date": "2015-10-17T15:37:00+0200", 
            "link": "http://www.republique-numerique.fr/projects/projet-de-loi-numerique/consultation/consultation/opinions/section-2-service-public-de-la-donnee-1/utiliser-les-logiciels-libres-gnu-linux-dans-les-ecoles-et-les-universites/versions/etendre-cette-proposition-a-l-ensemble-des-organismes-publics", 
            "id": "138432", 
            "opinion": "1"
        }, 
        {
            "article_title": "Utilisation de GNU/Linux dans l'administration", 
            "date": "2015-10-17T15:38:00+0200", 
            "link": "http://www.republique-numerique.fr/projects/projet-de-loi-numerique/consultation/consultation/opinions/section-3-donnees-d-interet-general/utilisation-de-gnu-linux-dans-l-administration", 
            "id": "138466", 
            "opinion": "1"
        }, 
        {
            "article_title": "Proposition trop simpliste", 
            "date": "2015-10-17T15:39:00+0200", 
            "link": "http://www.republique-numerique.fr/projects/projet-de-loi-numerique/consultation/consultation/opinions/section-3-donnees-d-interet-general/utilisation-de-gnu-linux-dans-l-administration/versions/proposition-trop-simpliste", 
            "id": "138476", 
            "opinion": "1"
        }, 
        {
            "article_title": "Formats libres", 
            "date": "2015-10-17T15:39:00+0200", 
            "link": "http://www.republique-numerique.fr/projects/projet-de-loi-numerique/consultation/consultation/opinions/section-3-donnees-d-interet-general/utilisation-de-gnu-linux-dans-l-administration/versions/formats-libres", 
            "id": "138480", 
            "opinion": "1"
        }, 
        {
            "article_title": "Article 6 - Ouverture des donn\u00e9es des subventions publiques", 
            "date": "2015-10-17T15:40:00+0200", 
            "link": "http://www.republique-numerique.fr/projects/projet-de-loi-numerique/consultation/consultation/opinions/section-3-donnees-d-interet-general/article-6-ouverture-des-donnees-dans-les-conventions-de-subventions", 
            "id": "138496", 
            "opinion": "1"
        }, 
        {
            "article_title": "Protection, r\u00e9compense et ind\u00e9mnisation des lanceurs d'alertes", 
            "date": "2015-10-17T15:41:00+0200", 
            "link": "http://www.republique-numerique.fr/projects/projet-de-loi-numerique/consultation/consultation/opinions/section-3-donnees-d-interet-general/protection-recompense-et-indemnisation-des-lanceurs-d-alertes", 
            "id": "138510", 
            "opinion": "1"
        }, 
        {
            "article_title": "La protection des lanceurs d'alerte est n\u00e9cessair...", 
            "date": "2015-10-17T15:41:00+0200", 
            "link": "http://www.republique-numerique.fr/projects/projet-de-loi-numerique/consultation/consultation/opinions/section-3-donnees-d-interet-general/protection-recompense-et-indemnisation-des-lanceurs-d-alertes#arg-543", 
            "id": "138520", 
            "opinion": "1"
        }, 
        {
            "article_title": "Le principe est bon, mais la notion de r\u00e9compense...", 
            "date": "2015-10-17T15:41:00+0200", 
            "link": "http://www.republique-numerique.fr/projects/projet-de-loi-numerique/consultation/consultation/opinions/section-3-donnees-d-interet-general/protection-recompense-et-indemnisation-des-lanceurs-d-alertes#arg-571", 
            "id": "138521", 
            "opinion": "1"
        }, 
        {
            "article_title": "Article additionnel : Les comp\u00e9titions de jeux vid\u00e9o \u00ab e-sport \u00bb", 
            "date": "2015-10-17T15:44:00+0200", 
            "link": "http://www.republique-numerique.fr/projects/projet-de-loi-numerique/consultation/consultation/opinions/section-2-travaux-de-recherche-et-de-statistique/les-competitions-de-jeux-video-e-sport", 
            "id": "138605", 
            "opinion": "1"
        }, 
        {
            "article_title": "Dans l'etat actuel du droit, la captation forcee (...", 
            "date": "2015-10-17T15:45:00+0200", 
            "link": "http://www.republique-numerique.fr/projects/projet-de-loi-numerique/consultation/consultation/opinions/section-2-travaux-de-recherche-et-de-statistique/article-9-acces-aux-travaux-de-la-recherche-financee-par-des-fonds-publics#arg-2130", 
            "id": "138628", 
            "opinion": "1"
        }, 
        {
            "article_title": "Je renvoie a la lecture de l'article (redige en 2...", 
            "date": "2015-10-17T15:45:00+0200", 
            "link": "http://www.republique-numerique.fr/projects/projet-de-loi-numerique/consultation/consultation/opinions/section-2-travaux-de-recherche-et-de-statistique/article-9-acces-aux-travaux-de-la-recherche-financee-par-des-fonds-publics#arg-2131", 
            "id": "138629", 
            "opinion": "1"
        }, 
        {
            "article_title": "Article 9 - Libre acc\u00e8s aux publications scientifiques de la recherche publique", 
            "date": "2015-10-17T15:46:00+0200", 
            "link": "http://www.republique-numerique.fr/projects/projet-de-loi-numerique/consultation/consultation/opinions/section-2-travaux-de-recherche-et-de-statistique/article-9-acces-aux-travaux-de-la-recherche-financee-par-des-fonds-publics", 
            "id": "138635", 
            "opinion": "0"
        }, 
        {
            "article_title": "article 8 bis \u00ab\u00a0D\u00e9finition des communs volontaires\u00a0\u00bb", 
            "date": "2015-10-17T15:47:00+0200", 
            "link": "http://www.republique-numerique.fr/projects/projet-de-loi-numerique/consultation/consultation/opinions/section-1-les-communs/article-8-bis-definition-des-communs-volontaires", 
            "id": "138661", 
            "opinion": "1"
        }, 
        {
            "article_title": "23 : Autoriser les actions de groupe notamment en mati\u00e8re d'atteinte au droit sur les donn\u00e9es personnelles et la neutralit\u00e9 du Net", 
            "date": "2015-10-17T15:47:00+0200", 
            "link": "http://www.republique-numerique.fr/projects/projet-de-loi-numerique/consultation/consultation/opinions/section-2-confidentialite-des-correspondances-privees/23-autoriser-les-actions-de-groupe-notamment-en-matiere-d-atteinte-au-droit-sur-les-donnees-personnelles-et-la-neutralite-du-net", 
            "id": "138671", 
            "opinion": "1"
        }, 
        {
            "article_title": "22 bis : affirmer et encourager le droit au chiffrement des communications", 
            "date": "2015-10-17T15:48:00+0200", 
            "link": "http://www.republique-numerique.fr/projects/projet-de-loi-numerique/consultation/consultation/opinions/section-2-confidentialite-des-correspondances-privees/22-bis-affirmer-et-encourager-le-droit-au-chiffrement-des-communications", 
            "id": "138679", 
            "opinion": "1"
        }, 
        {
            "article_title": "Interdir la discrimination pour usage du chiffrement", 
            "date": "2015-10-17T15:48:00+0200", 
            "link": "http://www.republique-numerique.fr/projects/projet-de-loi-numerique/consultation/consultation/opinions/section-2-confidentialite-des-correspondances-privees/22-bis-affirmer-et-encourager-le-droit-au-chiffrement-des-communications/versions/interdir-la-discrimination-pour-usage-du-chiffrement", 
            "id": "138682", 
            "opinion": "1"
        }, 
        {
            "article_title": "Mettre sur pied une \u00e9cole pour initier au num\u00e9rique nos 618.00 \u00e9lus", 
            "date": "2015-10-17T15:49:00+0200", 
            "link": "http://www.republique-numerique.fr/projects/projet-de-loi-numerique/consultation/consultation/opinions/section-1-les-communs/mettre-sur-pied-une-ecole-pour-initier-au-numerique-nos-618-00-elus", 
            "id": "138700", 
            "opinion": "1"
        }, 
        {
            "article_title": "Proposer des ordinateurs grand-public \"propres\" avec Syst\u00e8mes GNU/Linux ou sans OS et ouvert \u00e0 la r\u00e9installation", 
            "date": "2015-10-17T15:49:00+0200", 
            "link": "http://www.republique-numerique.fr/projects/projet-de-loi-numerique/consultation/consultation/opinions/section-1-les-communs/proposer-des-ordinateurs-grand-public-propres-avec-systemes-gnu-linux-ou-sans-os-et-ouvert-a-la-reinstallation", 
            "id": "138719", 
            "opinion": "1"
        }, 
        {
            "article_title": "Article 11 - Neutralit\u00e9 de l\u2019internet", 
            "date": "2015-10-17T15:52:00+0200", 
            "link": "http://www.republique-numerique.fr/projects/projet-de-loi-numerique/consultation/consultation/opinions/section-1-neutralite-de-l-internet/article-11-neutralite-de-l-internet", 
            "id": "138787", 
            "opinion": "1"
        }, 
        {
            "article_title": "Pr\u00e9ciser le p\u00e9rim\u00e8tre d'application de la Neutralit\u00e9 du Net", 
            "date": "2015-10-17T15:53:00+0200", 
            "link": "http://www.republique-numerique.fr/projects/projet-de-loi-numerique/consultation/consultation/opinions/section-1-neutralite-de-l-internet/article-11-neutralite-de-l-internet/versions/preciser-le-perimetre-d-application-de-la-neutralite-du-net", 
            "id": "138805", 
            "opinion": "1"
        }, 
        {
            "article_title": "Services sp\u00e9cialis\u00e9s et discrimination tarifaire", 
            "date": "2015-10-17T15:53:00+0200", 
            "link": "http://www.republique-numerique.fr/projects/projet-de-loi-numerique/consultation/consultation/opinions/section-1-neutralite-de-l-internet/article-11-neutralite-de-l-internet/versions/services-specialises-et-discrimination-tarifaire", 
            "id": "138817", 
            "opinion": "1"
        }, 
        {
            "article_title": "Inscrire dans la loi le d\u00e9lit de non respect de la neutralit\u00e9 du net", 
            "date": "2015-10-17T15:54:00+0200", 
            "link": "http://www.republique-numerique.fr/projects/projet-de-loi-numerique/consultation/consultation/opinions/section-1-neutralite-de-l-internet/inscrire-dans-la-loi-le-delit-de-non-respect-de-la-neutralite-du-net", 
            "id": "138830", 
            "opinion": "1"
        }, 
        {
            "article_title": "Article 12 - Portabilit\u00e9 des donn\u00e9es", 
            "date": "2015-10-17T15:56:00+0200", 
            "link": "http://www.republique-numerique.fr/projects/projet-de-loi-numerique/consultation/consultation/opinions/section-2-portabilite-des-donnees/article-12-portabilite-des-donnees", 
            "id": "138880", 
            "opinion": "1"
        }, 
        {
            "article_title": "Consacrer un droit effectif \u00e0 la portabilit\u00e9", 
            "date": "2015-10-17T15:57:00+0200", 
            "link": "http://www.republique-numerique.fr/projects/projet-de-loi-numerique/consultation/consultation/opinions/section-2-portabilite-des-donnees/article-12-portabilite-des-donnees/versions/consacrer-un-droit-effectif-a-la-portabilite", 
            "id": "138894", 
            "opinion": "1"
        }, 
        {
            "article_title": "Consacrer un droit d'information sur les modalit\u00e9s du stockage des fichiers et donn\u00e9es-utilisateur", 
            "date": "2015-10-17T15:57:00+0200", 
            "link": "http://www.republique-numerique.fr/projects/projet-de-loi-numerique/consultation/consultation/opinions/section-2-portabilite-des-donnees/article-12-portabilite-des-donnees/versions/consacrer-un-droit-d-information-sur-les-modalites-du-stockage-des-fichiers-et-donnees-utilisateur", 
            "id": "138903", 
            "opinion": "1"
        }, 
        {
            "article_title": "E-Testament", 
            "date": "2015-10-17T15:58:00+0200", 
            "link": "http://www.republique-numerique.fr/projects/projet-de-loi-numerique/consultation/consultation/opinions/section-2-portabilite-des-donnees/e-testament", 
            "id": "138918", 
            "opinion": "0"
        }, 
        {
            "article_title": "Donner la priorit\u00e9 aux logiciels libres et aux formats ouverts dans le service public national et local", 
            "date": "2015-10-17T16:00:00+0200", 
            "link": "http://www.republique-numerique.fr/projects/projet-de-loi-numerique/consultation/consultation/opinions/section-3-loyaute-des-plateformes/donner-la-priorite-aux-logiciels-libres-et-aux-formats-ouverts-dans-le-service-public-national-et-local", 
            "id": "138941", 
            "opinion": "1"
        }, 
        {
            "article_title": "Interdiction de la vente li\u00e9e ordinateur/syst\u00e8me d'exploitation", 
            "date": "2015-10-17T16:00:00+0200", 
            "link": "http://www.republique-numerique.fr/projects/projet-de-loi-numerique/consultation/consultation/opinions/section-3-loyaute-des-plateformes/interdiction-de-la-vente-liee-ordinateur-systeme-d-exploitation", 
            "id": "138952", 
            "opinion": "1"
        }, 
        {
            "article_title": "Article 13 - Principe de loyaut\u00e9 des plateformes en lignes", 
            "date": "2015-10-17T16:01:00+0200", 
            "link": "http://www.republique-numerique.fr/projects/projet-de-loi-numerique/consultation/consultation/opinions/section-3-loyaute-des-plateformes/article-13-principe-de-loyaute-vis-a-vis-des-consommateurs", 
            "id": "138966", 
            "opinion": "1"
        }, 
        {
            "article_title": "Article 14 - Informer sur les pratiques des plateformes en ligne", 
            "date": "2015-10-17T16:02:00+0200", 
            "link": "http://www.republique-numerique.fr/projects/projet-de-loi-numerique/consultation/consultation/opinions/section-3-loyaute-des-plateformes/article-14-regulation", 
            "id": "138981", 
            "opinion": "1"
        }, 
        {
            "article_title": "Cr\u00e9ation d\u2019un parquet num\u00e9rique sp\u00e9cialis\u00e9 sur les questions de contenus illicites en ligne", 
            "date": "2015-10-17T16:03:00+0200", 
            "link": "http://www.republique-numerique.fr/projects/projet-de-loi-numerique/consultation/consultation/opinions/section-4-information-des-consommateurs/creation-d-un-parquet-numerique-specialise-sur-les-questions-de-contenus-illicites-en-ligne", 
            "id": "139004", 
            "opinion": "1"
        }, 
        {
            "article_title": "Article 15 - Mieux informer sur les avis en ligne et sur les d\u00e9bits", 
            "date": "2015-10-17T16:04:00+0200", 
            "link": "http://www.republique-numerique.fr/projects/projet-de-loi-numerique/consultation/consultation/opinions/section-4-information-des-consommateurs/article-15-information-des-consommateurs-et-avis-en-ligne", 
            "id": "139021", 
            "opinion": "1"
        }, 
        {
            "article_title": "Expression des d\u00e9bits en bits et en octets par seconde", 
            "date": "2015-10-17T16:05:00+0200", 
            "link": "http://www.republique-numerique.fr/projects/projet-de-loi-numerique/consultation/consultation/opinions/section-4-information-des-consommateurs/article-15-information-des-consommateurs-et-avis-en-ligne/versions/expression-des-debits-en-bits-et-en-octets-par-seconde", 
            "id": "139042", 
            "opinion": "1"
        }, 
        {
            "article_title": "Ouvrir une action collective sur la protection des donn\u00e9es personnelles", 
            "date": "2015-10-17T16:06:00+0200", 
            "link": "http://www.republique-numerique.fr/projects/projet-de-loi-numerique/consultation/consultation/opinions/section-1-protection-des-donnees-a-caractere-personnel/ouvrir-une-action-collective-sur-la-protection-des-donnees-personnelles", 
            "id": "139055", 
            "opinion": "1"
        }, 
        {
            "article_title": "Acc\u00e8s Internet dans les prisons", 
            "date": "2015-10-17T16:06:00+0200", 
            "link": "http://www.republique-numerique.fr/projects/projet-de-loi-numerique/consultation/consultation/opinions/section-3-maintien-de-la-connexion-internet/acces-internet-dans-les-prisons", 
            "id": "139062", 
            "opinion": "1"
        }, 
        {
            "article_title": "Cr\u00e9ation d\u2019un statut de m\u00e9diateur num\u00e9rique", 
            "date": "2015-10-17T16:07:00+0200", 
            "link": "http://www.republique-numerique.fr/projects/projet-de-loi-numerique/consultation/consultation/opinions/section-3-maintien-de-la-connexion-internet/creation-d-un-statut-de-mediateur-numerique", 
            "id": "139073", 
            "opinion": "1"
        }, 
        {
            "article_title": "Article 16 - Libre disposition de ses donn\u00e9es", 
            "date": "2015-10-18T23:35:00+0200", 
            "link": "http://www.republique-numerique.fr/projects/projet-de-loi-numerique/consultation/consultation/opinions/section-1-protection-des-donnees-a-caractere-personnel/article-16-libre-disposition-de-ses-donnees-a-caractere-personnel", 
            "id": "165966", 
            "opinion": "1"
        }, 
        {
            "article_title": "Article 20 - Mort num\u00e9rique", 
            "date": "2015-10-18T23:36:00+0200", 
            "link": "http://www.republique-numerique.fr/projects/projet-de-loi-numerique/consultation/consultation/opinions/section-1-protection-des-donnees-a-caractere-personnel/article-20-personnes-decedees", 
            "id": "165980", 
            "opinion": "1"
        }, 
        {
            "article_title": "Article 19 - Droit \u00e0 l\u2019oubli pour les mineurs", 
            "date": "2015-10-18T23:37:00+0200", 
            "link": "http://www.republique-numerique.fr/projects/projet-de-loi-numerique/consultation/consultation/opinions/section-1-protection-des-donnees-a-caractere-personnel/article-19-droit-a-l-oubli-pour-les-mineurs-procedure-acceleree", 
            "id": "166015", 
            "opinion": "1"
        }, 
        {
            "article_title": "Article 17 - Evolution des missions de la CNIL", 
            "date": "2015-10-18T23:37:00+0200", 
            "link": "http://www.republique-numerique.fr/projects/projet-de-loi-numerique/consultation/consultation/opinions/section-1-protection-des-donnees-a-caractere-personnel/article-17-missions-de-la-cnil", 
            "id": "166020", 
            "opinion": "1"
        }, 
        {
            "article_title": "Article 18 - Certificat de conformit\u00e9", 
            "date": "2015-10-18T23:38:00+0200", 
            "link": "http://www.republique-numerique.fr/projects/projet-de-loi-numerique/consultation/consultation/opinions/section-1-protection-des-donnees-a-caractere-personnel/article-18-certificat-de-conformite", 
            "id": "166035", 
            "opinion": "1"
        }, 
        {
            "article_title": "La reconnaissance du droit au chiffrement", 
            "date": "2015-10-18T23:38:00+0200", 
            "link": "http://www.republique-numerique.fr/projects/projet-de-loi-numerique/consultation/consultation/opinions/section-1-protection-des-donnees-a-caractere-personnel/la-reconnaissance-du-droit-au-chiffrement", 
            "id": "166040", 
            "opinion": "1"
        }, 
        {
            "article_title": "Article 22 - Secret des correspondances num\u00e9riques", 
            "date": "2015-10-18T23:41:00+0200", 
            "link": "http://www.republique-numerique.fr/projects/projet-de-loi-numerique/consultation/consultation/opinions/section-2-confidentialite-des-correspondances-privees/article-22-respect-des-correspondances-privees-numeriques", 
            "id": "166110", 
            "opinion": "1"
        }, 
        {
            "article_title": "Article 30 - Maintien de la connexion", 
            "date": "2015-10-18T23:43:00+0200", 
            "link": "http://www.republique-numerique.fr/projects/projet-de-loi-numerique/consultation/consultation/opinions/section-3-maintien-de-la-connexion-internet/article-30-maintien-temporaire-de-la-connexion", 
            "id": "166175", 
            "opinion": "1"
        }, 
        {
            "article_title": "risque important de fraude si le mobile est vol\u00e9e...", 
            "date": "2015-10-18T23:45:00+0200", 
            "link": "http://www.republique-numerique.fr/projects/projet-de-loi-numerique/consultation/consultation/opinions/section-2-paiement-par-sms/article-27-paiement-par-sms#arg-16", 
            "id": "166217", 
            "opinion": "1"
        }, 
        {
            "article_title": "Pas s\u00e9curis\u00e9, obsol\u00e8te, falsifiable, inutile....", 
            "date": "2015-10-18T23:45:00+0200", 
            "link": "http://www.republique-numerique.fr/projects/projet-de-loi-numerique/consultation/consultation/opinions/section-2-paiement-par-sms/article-27-paiement-par-sms#arg-976", 
            "id": "166218", 
            "opinion": "1"
        }, 
        {
            "article_title": "Article 27 - Paiement par SMS", 
            "date": "2015-10-18T23:45:00+0200", 
            "link": "http://www.republique-numerique.fr/projects/projet-de-loi-numerique/consultation/consultation/opinions/section-2-paiement-par-sms/article-27-paiement-par-sms", 
            "id": "166221", 
            "opinion": "0"
        }, 
        {
            "article_title": "Article 26bis - Portage de la plateforme contribuez.republique-numerique.fr \u00e0 d'autre projet de loi", 
            "date": "2015-10-18T23:45:00+0200", 
            "link": "http://www.republique-numerique.fr/projects/projet-de-loi-numerique/consultation/consultation/opinions/section-1-recommande-electronique/article-26bis-portage-de-la-plateforme-contribuez-republique-numerique-fr-a-d-autre-projet-de-loi", 
            "id": "166227", 
            "opinion": "1"
        }, 
        {
            "article_title": "Article 26 - D\u00e9finition d\u2019un cadre de confiance pour le recommand\u00e9 \u00e9lectronique", 
            "date": "2015-10-18T23:45:00+0200", 
            "link": "http://www.republique-numerique.fr/projects/projet-de-loi-numerique/consultation/consultation/opinions/section-1-recommande-electronique/article-26-recommande-electronique", 
            "id": "166241", 
            "opinion": "1"
        }, 
        {
            "article_title": "L'obligation des FAI de permettre l'auto-h\u00e9bergement", 
            "date": "2015-10-18T23:46:00+0200", 
            "link": "http://www.republique-numerique.fr/projects/projet-de-loi-numerique/consultation/consultation/opinions/section-2-couverture-numerique/l-obligation-des-fai-de-permettre-l-auto-hebergement", 
            "id": "166254", 
            "opinion": "1"
        }, 
        {
            "article_title": "Article 24 - Ouverture des donn\u00e9es de la couverture num\u00e9rique des territoires", 
            "date": "2015-10-18T23:47:00+0200", 
            "link": "http://www.republique-numerique.fr/projects/projet-de-loi-numerique/consultation/consultation/opinions/section-2-couverture-numerique/article-24-publicite-de-la-qualite-des-services-numeriques", 
            "id": "166273", 
            "opinion": "1"
        }, 
        {
            "article_title": "Implication des citoyens dans la r\u00e9daction et l'\u00e9laboration des lois via le net", 
            "date": "2015-10-18T23:48:00+0200", 
            "link": "http://www.republique-numerique.fr/projects/projet-de-loi-numerique/consultation/consultation/opinions/section-1-competences-et-organisation/implication-des-citoyens-dans-la-redaction-et-l-elaboration-des-lois-via-le-net", 
            "id": "166289", 
            "opinion": "0"
        }, 
        {
            "article_title": "Soumettre le responsable de traitement \u00e0 une obligation de r\u00e9sultat quant \u00e0 la s\u00e9curit\u00e9 des donn\u00e9es", 
            "date": "2015-10-18T23:49:00+0200", 
            "link": "http://www.republique-numerique.fr/projects/projet-de-loi-numerique/consultation/consultation/opinions/section-1-protection-des-donnees-a-caractere-personnel/article-16-libre-disposition-de-ses-donnees-a-caractere-personnel/versions/soumettre-le-responsable-de-traitement-a-une-obligation-de-resultat-quant-a-la-securite-des-donnees", 
            "id": "166306", 
            "opinion": "1"
        }, 
        {
            "article_title": "Introduire le principe du contradictoire dans le retrait/d\u00e9r\u00e9f\u00e9rencement de contenus par les plateformes", 
            "date": "2015-10-18T23:49:00+0200", 
            "link": "http://www.republique-numerique.fr/projects/projet-de-loi-numerique/consultation/consultation/opinions/section-3-loyaute-des-plateformes/article-13-principe-de-loyaute-vis-a-vis-des-consommateurs/versions/introduire-le-principe-du-contradictoire-dans-le-retrait-dereferencement-de-contenus-par-les-plateformes", 
            "id": "166325", 
            "opinion": "1"
        }
    ], 
    "sources": [], 
    "votes_count": 70, 
    "arguments": [], 
    "arguments_count": 0, 
    "propositions_count": 0, 
    "contributions_count": 0
}