{
    "modifications": [], 
    "modifications_count": 0, 
    "sources_count": 0, 
    "propositions": [], 
    "votes": [
        {
            "article_title": "Le Jeu vid\u00e9o est un sport intellectuel au m\u00eame t...", 
            "date": "2015-10-16T22:44:00+0200", 
            "link": "http://www.republique-numerique.fr/projects/projet-de-loi-numerique/consultation/consultation/opinions/section-2-travaux-de-recherche-et-de-statistique/les-competitions-de-jeux-video-e-sport#arg-4982", 
            "id": "127238", 
            "opinion": "1"
        }, 
        {
            "article_title": "L'e-sport rel\u00e8ve bien plus du sport que du jeu de...", 
            "date": "2015-10-16T22:44:00+0200", 
            "link": "http://www.republique-numerique.fr/projects/projet-de-loi-numerique/consultation/consultation/opinions/section-2-travaux-de-recherche-et-de-statistique/les-competitions-de-jeux-video-e-sport#arg-4978", 
            "id": "127242", 
            "opinion": "1"
        }, 
        {
            "article_title": "Avis favorable. Si on d\u00e9crit les d\u00e9crit claireme...", 
            "date": "2015-10-16T22:44:00+0200", 
            "link": "http://www.republique-numerique.fr/projects/projet-de-loi-numerique/consultation/consultation/opinions/section-2-travaux-de-recherche-et-de-statistique/les-competitions-de-jeux-video-e-sport#arg-4985", 
            "id": "127248", 
            "opinion": "1"
        }, 
        {
            "article_title": "Les comp\u00e9titions de sport \u00e9lectronique (e-sport)...", 
            "date": "2015-10-16T22:44:00+0200", 
            "link": "http://www.republique-numerique.fr/projects/projet-de-loi-numerique/consultation/consultation/opinions/section-2-travaux-de-recherche-et-de-statistique/les-competitions-de-jeux-video-e-sport#arg-4991", 
            "id": "127253", 
            "opinion": "1"
        }, 
        {
            "article_title": "Tout \u00e0 fait d'accord, on a besoin aujourd\u2019hui e...", 
            "date": "2015-10-16T22:44:00+0200", 
            "link": "http://www.republique-numerique.fr/projects/projet-de-loi-numerique/consultation/consultation/opinions/section-2-travaux-de-recherche-et-de-statistique/les-competitions-de-jeux-video-e-sport#arg-4791", 
            "id": "127267", 
            "opinion": "1"
        }, 
        {
            "article_title": "Pour une F\u00e9d\u00e9ration Fran\u00e7aise du Sport Electron...", 
            "date": "2015-10-16T22:45:00+0200", 
            "link": "http://www.republique-numerique.fr/projects/projet-de-loi-numerique/consultation/consultation/opinions/section-2-travaux-de-recherche-et-de-statistique/les-competitions-de-jeux-video-e-sport#arg-4925", 
            "id": "127274", 
            "opinion": "1"
        }, 
        {
            "article_title": "Utiliser les logiciels libres & GNU/Linux dans les \u00e9coles et les universit\u00e9s", 
            "date": "2015-10-16T22:45:00+0200", 
            "link": "http://www.republique-numerique.fr/projects/projet-de-loi-numerique/consultation/consultation/opinions/section-2-service-public-de-la-donnee-1/utiliser-les-logiciels-libres-gnu-linux-dans-les-ecoles-et-les-universites", 
            "id": "127282", 
            "opinion": "1"
        }
    ], 
    "sources": [], 
    "votes_count": 7, 
    "arguments": [], 
    "arguments_count": 0, 
    "propositions_count": 0, 
    "contributions_count": 0
}