{
    "modifications": [], 
    "modifications_count": 0, 
    "sources_count": 0, 
    "propositions": [], 
    "votes": [
        {
            "article_title": "Utilisation de GNU/Linux dans l'administration", 
            "date": "2015-09-28T09:59:00+0200", 
            "link": "http://www.republique-numerique.fr/projects/projet-de-loi-numerique/consultation/consultation/opinions/section-3-donnees-d-interet-general/utilisation-de-gnu-linux-dans-l-administration", 
            "id": "8359", 
            "opinion": "1"
        }, 
        {
            "article_title": "Article 8.0 - Libert\u00e9 de partage du savoir num\u00e9rique", 
            "date": "2015-09-28T10:02:00+0200", 
            "link": "http://www.republique-numerique.fr/projects/projet-de-loi-numerique/consultation/consultation/opinions/section-1-les-communs/article-8-0-liberte-de-partage-du-savoir-numerique", 
            "id": "8378", 
            "opinion": "1"
        }, 
        {
            "article_title": "Article 15.0 - Permettre une meilleure distinction des \"publicit\u00e9s d\u00e9guis\u00e9es\" sur les supports m\u00e9diatiques.", 
            "date": "2015-09-28T10:03:00+0200", 
            "link": "http://www.republique-numerique.fr/projects/projet-de-loi-numerique/consultation/consultation/opinions/section-4-information-des-consommateurs/article-15-0-permettre-une-meilleure-distinction-des-publicites-deguisees-sur-les-supports-mediatiques", 
            "id": "8381", 
            "opinion": "1"
        }
    ], 
    "sources": [], 
    "votes_count": 3, 
    "arguments": [], 
    "arguments_count": 0, 
    "propositions_count": 0, 
    "contributions_count": 0
}