{
    "modifications": [], 
    "modifications_count": 0, 
    "sources_count": 0, 
    "propositions": [
        {
            "article_title": "Pr\u00e9ambule", 
            "votes": {
                "data-ok": "4", 
                "data-mitige": "2", 
                "data-nok": "0"
            }, 
            "stats": {
                "modification": "0", 
                "source": "0", 
                "votes": "6", 
                "argument": "0"
            }, 
            "id": "592", 
            "article_link": "/projects/projet-de-loi-numerique/consultation/consultation/opinions/section-1-ouverture-des-donnees-publiques-1/preambule-1"
        }
    ], 
    "votes": [
        {
            "article_title": "Article 8.0 - Libert\u00e9 de partage du savoir num\u00e9rique", 
            "date": "2015-10-04T14:44:00+0200", 
            "link": "http://www.republique-numerique.fr/projects/projet-de-loi-numerique/consultation/consultation/opinions/section-1-les-communs/article-8-0-liberte-de-partage-du-savoir-numerique", 
            "id": "29514", 
            "opinion": "-1"
        }, 
        {
            "article_title": "Utiliser Wikip\u00e9dia comme outil p\u00e9dagogique et \u00e9ducatif pour apprendre des comp\u00e9tences et des valeurs", 
            "date": "2015-10-04T16:14:00+0200", 
            "link": "http://www.republique-numerique.fr/projects/projet-de-loi-numerique/consultation/consultation/opinions/section-1-les-communs/utiliser-wikipedia-comme-outil-pedagogique-et-educatif-pour-apprendre-des-competences-et-des-valeurs", 
            "id": "29674", 
            "opinion": "-1"
        }, 
        {
            "article_title": "Article 9 - Libre acc\u00e8s aux publications scientifiques de la recherche publique", 
            "date": "2015-10-04T16:18:00+0200", 
            "link": "http://www.republique-numerique.fr/projects/projet-de-loi-numerique/consultation/consultation/opinions/section-2-travaux-de-recherche-et-de-statistique/article-9-acces-aux-travaux-de-la-recherche-financee-par-des-fonds-publics", 
            "id": "29684", 
            "opinion": "1"
        }, 
        {
            "article_title": "Article 19 - Droit \u00e0 l\u2019oubli pour les mineurs", 
            "date": "2015-10-04T16:30:00+0200", 
            "link": "http://www.republique-numerique.fr/projects/projet-de-loi-numerique/consultation/consultation/opinions/section-1-protection-des-donnees-a-caractere-personnel/article-19-droit-a-l-oubli-pour-les-mineurs-procedure-acceleree", 
            "id": "29691", 
            "opinion": "1"
        }, 
        {
            "article_title": "Article 5 - Cr\u00e9ation d'un compte unique des services administratifs en ligne pour chaque citoyen", 
            "date": "2015-10-04T16:33:00+0200", 
            "link": "http://www.republique-numerique.fr/projects/projet-de-loi-numerique/consultation/consultation/opinions/section-2-service-public-de-la-donnee-1/article-5-creation-d-un-compte-unique-des-services-administratifs-en-ligne-pour-chaque-citoyen", 
            "id": "29692", 
            "opinion": "1"
        }, 
        {
            "article_title": "RECONNAISSANCE DU COPYLEFT / DROIT AU REMIX", 
            "date": "2015-10-04T16:36:00+0200", 
            "link": "http://www.republique-numerique.fr/projects/projet-de-loi-numerique/consultation/consultation/opinions/section-1-les-communs/reconnaissance-du-copyleft-droit-au-remix", 
            "id": "29693", 
            "opinion": "-1"
        }, 
        {
            "article_title": "Financer la wikimedia fondation et la mozilla fondation.", 
            "date": "2015-10-04T16:48:00+0200", 
            "link": "http://www.republique-numerique.fr/projects/projet-de-loi-numerique/consultation/consultation/opinions/section-1-les-communs/financer-la-wikimedia-fondation-et-la-mozilla-fondation", 
            "id": "29695", 
            "opinion": "-1"
        }, 
        {
            "article_title": "Consacrer un droit effectif \u00e0 la portabilit\u00e9", 
            "date": "2015-10-13T23:35:00+0200", 
            "link": "http://www.republique-numerique.fr/projects/projet-de-loi-numerique/consultation/consultation/opinions/section-2-portabilite-des-donnees/article-12-portabilite-des-donnees/versions/consacrer-un-droit-effectif-a-la-portabilite", 
            "id": "78119", 
            "opinion": "1"
        }, 
        {
            "article_title": "Instaurer la libert\u00e9 de panorama en France", 
            "date": "2015-10-13T23:36:00+0200", 
            "link": "http://www.republique-numerique.fr/projects/projet-de-loi-numerique/consultation/consultation/opinions/section-1-les-communs/instaurer-la-liberte-de-panorama-en-france", 
            "id": "78120", 
            "opinion": "1"
        }, 
        {
            "article_title": "Cr\u00e9ation d\u2019un parquet num\u00e9rique sp\u00e9cialis\u00e9 sur les questions de contenus illicites en ligne", 
            "date": "2015-10-13T23:37:00+0200", 
            "link": "http://www.republique-numerique.fr/projects/projet-de-loi-numerique/consultation/consultation/opinions/section-4-information-des-consommateurs/creation-d-un-parquet-numerique-specialise-sur-les-questions-de-contenus-illicites-en-ligne", 
            "id": "78131", 
            "opinion": "1"
        }
    ], 
    "sources": [], 
    "votes_count": 10, 
    "arguments": [
        {
            "article_title": "Signaler", 
            "votes": 7, 
            "article_link": "http://www.republique-numerique.fr/consultations/projet-de-loi-numerique/consultation/consultation/opinions/section-1-les-communs/article-8-0-liberte-de-partage-du-savoir-numerique/arguments/2175/report", 
            "link": "http://www.republique-numerique.fr/consultations/projet-de-loi-numerique/consultation/consultation/opinions/section-1-les-communs/article-8-0-liberte-de-partage-du-savoir-numerique/arguments/2175/report#arg-2175", 
            "date": "2015-10-04T14:53:00+0200", 
            "id": "2175"
        }, 
        {
            "article_title": "Signaler", 
            "votes": 1, 
            "article_link": "http://www.republique-numerique.fr/consultations/projet-de-loi-numerique/consultation/consultation/opinions/section-1-les-communs/utiliser-wikipedia-comme-outil-pedagogique-et-educatif-pour-apprendre-des-competences-et-des-valeurs/arguments/2180/report", 
            "link": "http://www.republique-numerique.fr/consultations/projet-de-loi-numerique/consultation/consultation/opinions/section-1-les-communs/utiliser-wikipedia-comme-outil-pedagogique-et-educatif-pour-apprendre-des-competences-et-des-valeurs/arguments/2180/report#arg-2180", 
            "date": "2015-10-04T16:17:00+0200", 
            "id": "2180"
        }, 
        {
            "article_title": "Signaler", 
            "votes": 2, 
            "article_link": "http://www.republique-numerique.fr/consultations/projet-de-loi-numerique/consultation/consultation/opinions/section-2-travaux-de-recherche-et-de-statistique/article-9-acces-aux-travaux-de-la-recherche-financee-par-des-fonds-publics/arguments/2183/report", 
            "link": "http://www.republique-numerique.fr/consultations/projet-de-loi-numerique/consultation/consultation/opinions/section-2-travaux-de-recherche-et-de-statistique/article-9-acces-aux-travaux-de-la-recherche-financee-par-des-fonds-publics/arguments/2183/report#arg-2183", 
            "date": "2015-10-04T16:23:00+0200", 
            "id": "2183"
        }, 
        {
            "article_title": "Signaler", 
            "votes": 2, 
            "article_link": "http://www.republique-numerique.fr/consultations/projet-de-loi-numerique/consultation/consultation/opinions/section-2-travaux-de-recherche-et-de-statistique/article-9-acces-aux-travaux-de-la-recherche-financee-par-des-fonds-publics/arguments/2184/report", 
            "link": "http://www.republique-numerique.fr/consultations/projet-de-loi-numerique/consultation/consultation/opinions/section-2-travaux-de-recherche-et-de-statistique/article-9-acces-aux-travaux-de-la-recherche-financee-par-des-fonds-publics/arguments/2184/report#arg-2184", 
            "date": "2015-10-04T16:26:00+0200", 
            "id": "2184"
        }, 
        {
            "article_title": "Signaler", 
            "votes": 1, 
            "article_link": "http://www.republique-numerique.fr/consultations/projet-de-loi-numerique/consultation/consultation/opinions/section-1-les-communs/reconnaissance-du-copyleft-droit-au-remix/arguments/2186/report", 
            "link": "http://www.republique-numerique.fr/consultations/projet-de-loi-numerique/consultation/consultation/opinions/section-1-les-communs/reconnaissance-du-copyleft-droit-au-remix/arguments/2186/report#arg-2186", 
            "date": "2015-10-04T16:40:00+0200", 
            "id": "2186"
        }, 
        {
            "article_title": "Signaler", 
            "votes": 1, 
            "article_link": "http://www.republique-numerique.fr/consultations/projet-de-loi-numerique/consultation/consultation/opinions/section-1-les-communs/creer-et-developper-la-publication-des-cours-et-des-devoirs-scolaire-en-ligne/arguments/2187/report", 
            "link": "http://www.republique-numerique.fr/consultations/projet-de-loi-numerique/consultation/consultation/opinions/section-1-les-communs/creer-et-developper-la-publication-des-cours-et-des-devoirs-scolaire-en-ligne/arguments/2187/report#arg-2187", 
            "date": "2015-10-04T16:47:00+0200", 
            "id": "2187"
        }
    ], 
    "arguments_count": 6, 
    "propositions_count": 1, 
    "contributions_count": 7
}