{
    "modifications": [
        {
            "stats": {
                "source": "0", 
                "votes": "20", 
                "argument": "0"
            }, 
            "votes": {
                "data-ok": "12", 
                "data-mitige": "2", 
                "data-nok": "6"
            }, 
            "link": "/projects/projet-de-loi-numerique/consultation/consultation/opinions/section-1-les-communs/instaurer-la-liberte-de-panorama-en-france/versions/liberte-de-panorama-a-usage-non-commercial-a-titre-prive-ou-culturel-et-a-titre-d-information-journalistique", 
            "id": "1175", 
            "title": "Libert\u00e9 de panorama \u00e0 usage non commercial, \u00e0 titre priv\u00e9 ou culturel et \u00e0 titre d'information journalistique"
        }
    ], 
    "modifications_count": 1, 
    "sources_count": 0, 
    "propositions": [], 
    "votes": [
        {
            "article_title": "Instaurer la libert\u00e9 de panorama en France", 
            "date": "2015-10-16T12:23:00+0200", 
            "link": "http://www.republique-numerique.fr/projects/projet-de-loi-numerique/consultation/consultation/opinions/section-1-les-communs/instaurer-la-liberte-de-panorama-en-france", 
            "id": "112214", 
            "opinion": "-1"
        }
    ], 
    "sources": [], 
    "votes_count": 1, 
    "arguments": [], 
    "arguments_count": 0, 
    "propositions_count": 0, 
    "contributions_count": 1
}