{
    "modifications": [], 
    "modifications_count": 0, 
    "sources_count": 0, 
    "propositions": [], 
    "votes": [
        {
            "article_title": "Accessibilit\u00e9 des sites internet des services de communication audiovisuelle", 
            "date": "2015-10-13T17:24:00+0200", 
            "link": "http://www.republique-numerique.fr/projects/projet-de-loi-numerique/consultation/consultation/opinions/section-2-accessibilite-des-personnes-handicapees-aux-sites-internet-publics/accessibilite-des-sites-internet-des-services-de-communication-audiovisuelle", 
            "id": "73024", 
            "opinion": "1"
        }, 
        {
            "article_title": "Elargissement du service", 
            "date": "2015-10-13T18:10:00+0200", 
            "link": "http://www.republique-numerique.fr/projects/projet-de-loi-numerique/consultation/consultation/opinions/section-1-accessibilite-des-personnes-handicapees-aux-services-telephoniques/elargissement-du-service", 
            "id": "73921", 
            "opinion": "1"
        }, 
        {
            "article_title": "Prix du service d'accessibilit\u00e9", 
            "date": "2015-10-13T18:10:00+0200", 
            "link": "http://www.republique-numerique.fr/projects/projet-de-loi-numerique/consultation/consultation/opinions/section-1-accessibilite-des-personnes-handicapees-aux-services-telephoniques/prix-du-service-d-accessibilite", 
            "id": "73931", 
            "opinion": "1"
        }, 
        {
            "article_title": "Elargir \u00e0 des op\u00e9rateurs comp\u00e9tents en LSF", 
            "date": "2015-10-13T18:11:00+0200", 
            "link": "http://www.republique-numerique.fr/projects/projet-de-loi-numerique/consultation/consultation/opinions/section-1-accessibilite-des-personnes-handicapees-aux-services-telephoniques/elargir-a-des-operateurs-competents-en-lsf", 
            "id": "73943", 
            "opinion": "1"
        }, 
        {
            "article_title": "Dignit\u00e9 des personnes sourdes et malentendantes", 
            "date": "2015-10-13T18:11:00+0200", 
            "link": "http://www.republique-numerique.fr/projects/projet-de-loi-numerique/consultation/consultation/opinions/section-1-accessibilite-des-personnes-handicapees-aux-services-telephoniques/dignite-des-personnes-sourdes-et-malentendantes", 
            "id": "73957", 
            "opinion": "1"
        }, 
        {
            "article_title": "Journal t\u00e9l\u00e9vis\u00e9 en Langue des Signes", 
            "date": "2015-10-13T18:13:00+0200", 
            "link": "http://www.republique-numerique.fr/projects/projet-de-loi-numerique/consultation/consultation/opinions/section-2-accessibilite-des-personnes-handicapees-aux-sites-internet-publics/journal-televise-en-langue-des-signes", 
            "id": "73983", 
            "opinion": "1"
        }, 
        {
            "article_title": "Traduction en LSF des sites internet du service public", 
            "date": "2015-10-13T18:14:00+0200", 
            "link": "http://www.republique-numerique.fr/projects/projet-de-loi-numerique/consultation/consultation/opinions/section-2-accessibilite-des-personnes-handicapees-aux-sites-internet-publics/traduction-en-lsf-des-sites-internet-de-service-public", 
            "id": "74003", 
            "opinion": "1"
        }, 
        {
            "article_title": "Clarification du service d'accessibilit\u00e9", 
            "date": "2015-10-13T18:15:00+0200", 
            "link": "http://www.republique-numerique.fr/projects/projet-de-loi-numerique/consultation/consultation/opinions/section-1-accessibilite-des-personnes-handicapees-aux-services-telephoniques/article-28-accueil-telephonique-des-personnes-publiques-et-des-entreprises-offre-pour-les-deficients-auditifs/versions/clarification-du-service-d-accessibilite", 
            "id": "74013", 
            "opinion": "1"
        }, 
        {
            "article_title": "Stigmatisation par \"d\u00e9ficience\"", 
            "date": "2015-10-13T18:16:00+0200", 
            "link": "http://www.republique-numerique.fr/projects/projet-de-loi-numerique/consultation/consultation/opinions/section-1-accessibilite-des-personnes-handicapees-aux-services-telephoniques/article-28-accueil-telephonique-des-personnes-publiques-et-des-entreprises-offre-pour-les-deficients-auditifs/versions/stigmatisation-par-deficience", 
            "id": "74026", 
            "opinion": "1"
        }
    ], 
    "sources": [], 
    "votes_count": 9, 
    "arguments": [], 
    "arguments_count": 0, 
    "propositions_count": 0, 
    "contributions_count": 0
}