{
    "modifications": [], 
    "modifications_count": 0, 
    "sources_count": 0, 
    "propositions": [], 
    "votes": [
        {
            "article_title": "Donner la priorit\u00e9 aux logiciels libres et aux formats ouverts dans le service public national et local", 
            "date": "2015-10-17T14:00:00+0200", 
            "link": "http://www.republique-numerique.fr/projects/projet-de-loi-numerique/consultation/consultation/opinions/section-3-loyaute-des-plateformes/donner-la-priorite-aux-logiciels-libres-et-aux-formats-ouverts-dans-le-service-public-national-et-local", 
            "id": "136493", 
            "opinion": "1"
        }, 
        {
            "article_title": "Le code source d'un logiciel est un document administratif communicable", 
            "date": "2015-10-17T14:03:00+0200", 
            "link": "http://www.republique-numerique.fr/projects/projet-de-loi-numerique/consultation/consultation/opinions/section-1-ouverture-des-donnees-publiques-1/le-code-source-d-un-logiciel-est-un-document-administratif-communicable", 
            "id": "136533", 
            "opinion": "1"
        }, 
        {
            "article_title": "Interdiction de la vente li\u00e9e ordinateur/syst\u00e8me d'exploitation", 
            "date": "2015-10-17T14:13:00+0200", 
            "link": "http://www.republique-numerique.fr/projects/projet-de-loi-numerique/consultation/consultation/opinions/section-3-loyaute-des-plateformes/interdiction-de-la-vente-liee-ordinateur-systeme-d-exploitation", 
            "id": "136740", 
            "opinion": "1"
        }, 
        {
            "article_title": "La vie priv\u00e9e ne doit pas \u00eatre seulement respect\u00e9e, elle doit \u00eatre prot\u00e9g\u00e9e", 
            "date": "2015-10-17T14:15:00+0200", 
            "link": "http://www.republique-numerique.fr/projects/projet-de-loi-numerique/consultation/consultation/opinions/section-1-protection-des-donnees-a-caractere-personnel/article-17-missions-de-la-cnil/versions/la-vie-privee-ne-doit-pas-etre-seulement-respectee-elle-doit-etre-protegee", 
            "id": "136769", 
            "opinion": "1"
        }
    ], 
    "sources": [], 
    "votes_count": 4, 
    "arguments": [], 
    "arguments_count": 0, 
    "propositions_count": 0, 
    "contributions_count": 0
}