{
    "modifications": [], 
    "modifications_count": 0, 
    "sources_count": 0, 
    "propositions": [], 
    "votes": [
        {
            "article_title": "Article 10 - Proc\u00e9dure assouplie pour les travaux statistiques ou de recherche utilisant le num\u00e9ro de s\u00e9curit\u00e9 sociale (recours \u00e0 un \u00ab NIR statistique \u00bb)", 
            "date": "2015-09-30T11:21:00+0200", 
            "link": "http://www.republique-numerique.fr/projects/projet-de-loi-numerique/consultation/consultation/opinions/section-2-travaux-de-recherche-et-de-statistique/article-10-nir-statistique", 
            "id": "19374", 
            "opinion": "1"
        }, 
        {
            "article_title": "N\u00e9c\u00e9ssit\u00e9 de clarification sur les points d'anonymisation et de champ d'\u00e9tude des donn\u00e9es d'un NIR anonymis\u00e9", 
            "date": "2015-09-30T11:22:00+0200", 
            "link": "http://www.republique-numerique.fr/projects/projet-de-loi-numerique/consultation/consultation/opinions/section-2-travaux-de-recherche-et-de-statistique/article-10-nir-statistique/versions/necessite-de-clarification-sur-les-points-d-anonymisation-et-de-champ-d-etude-des-donnees-d-un-nir-anonymise", 
            "id": "19380", 
            "opinion": "1"
        }, 
        {
            "article_title": "Article 12 - Portabilit\u00e9 des donn\u00e9es", 
            "date": "2015-09-30T11:25:00+0200", 
            "link": "http://www.republique-numerique.fr/projects/projet-de-loi-numerique/consultation/consultation/opinions/section-2-portabilite-des-donnees/article-12-portabilite-des-donnees", 
            "id": "19398", 
            "opinion": "1"
        }, 
        {
            "article_title": "Gratuit\u00e9 de transfert des messages \u00e9lectroniques et portabilit\u00e9 des adresses", 
            "date": "2015-09-30T11:26:00+0200", 
            "link": "http://www.republique-numerique.fr/projects/projet-de-loi-numerique/consultation/consultation/opinions/section-2-portabilite-des-donnees/article-12-portabilite-des-donnees/versions/gratuite-de-transfert-des-messages-electroniques-et-portabilite-des-adresses", 
            "id": "19399", 
            "opinion": "1"
        }, 
        {
            "article_title": "Les donn\u00e9es devraient \u00eatre transmises selon les ...", 
            "date": "2015-09-30T11:28:00+0200", 
            "link": "http://www.republique-numerique.fr/projects/projet-de-loi-numerique/consultation/consultation/opinions/section-2-portabilite-des-donnees/recuperation-des-donnees-lors-du-deces-d-1-conjoint-ou-proche#arg-267", 
            "id": "19405", 
            "opinion": "1"
        }, 
        {
            "article_title": "Permettre aux personnes avant leur d\u00e9c\u00e8s de d\u00e9finir quels sites peuvent \u00eatre h\u00e9rit\u00e9s", 
            "date": "2015-09-30T11:29:00+0200", 
            "link": "http://www.republique-numerique.fr/projects/projet-de-loi-numerique/consultation/consultation/opinions/section-2-portabilite-des-donnees/recuperation-des-donnees-lors-du-deces-d-1-conjoint-ou-proche/versions/permettre-aux-personnes-avant-leur-deces-de-definir-quels-sites-peuvent-etre-herites", 
            "id": "19407", 
            "opinion": "1"
        }, 
        {
            "article_title": "Article 16 - Libre disposition de ses donn\u00e9es", 
            "date": "2015-09-30T11:30:00+0200", 
            "link": "http://www.republique-numerique.fr/projects/projet-de-loi-numerique/consultation/consultation/opinions/section-1-protection-des-donnees-a-caractere-personnel/article-16-libre-disposition-de-ses-donnees-a-caractere-personnel", 
            "id": "19410", 
            "opinion": "1"
        }, 
        {
            "article_title": "C'est un droit absolument fondamental de pouvoir d...", 
            "date": "2015-09-30T11:31:00+0200", 
            "link": "http://www.republique-numerique.fr/projects/projet-de-loi-numerique/consultation/consultation/opinions/section-1-protection-des-donnees-a-caractere-personnel/article-16-libre-disposition-de-ses-donnees-a-caractere-personnel#arg-434", 
            "id": "19418", 
            "opinion": "1"
        }, 
        {
            "article_title": "Contre : un principe g\u00e9n\u00e9ral et abstrait portant...", 
            "date": "2015-09-30T11:32:00+0200", 
            "link": "http://www.republique-numerique.fr/projects/projet-de-loi-numerique/consultation/consultation/opinions/section-1-protection-des-donnees-a-caractere-personnel/article-16-libre-disposition-de-ses-donnees-a-caractere-personnel#arg-779", 
            "id": "19420", 
            "opinion": "1"
        }, 
        {
            "article_title": "Cela sera-t-il possible et applicable vers des sit...", 
            "date": "2015-09-30T11:32:00+0200", 
            "link": "http://www.republique-numerique.fr/projects/projet-de-loi-numerique/consultation/consultation/opinions/section-1-protection-des-donnees-a-caractere-personnel/article-16-libre-disposition-de-ses-donnees-a-caractere-personnel#arg-225", 
            "id": "19424", 
            "opinion": "1"
        }, 
        {
            "article_title": "Article 17 - Evolution des missions de la CNIL", 
            "date": "2015-09-30T11:33:00+0200", 
            "link": "http://www.republique-numerique.fr/projects/projet-de-loi-numerique/consultation/consultation/opinions/section-1-protection-des-donnees-a-caractere-personnel/article-17-missions-de-la-cnil", 
            "id": "19430", 
            "opinion": "1"
        }, 
        {
            "article_title": "Article 18 - Certificat de conformit\u00e9", 
            "date": "2015-09-30T11:35:00+0200", 
            "link": "http://www.republique-numerique.fr/projects/projet-de-loi-numerique/consultation/consultation/opinions/section-1-protection-des-donnees-a-caractere-personnel/article-18-certificat-de-conformite", 
            "id": "19438", 
            "opinion": "1"
        }, 
        {
            "article_title": "C'est tr\u00e8s bien mais la CNIL risque d'\u00eatre rapid...", 
            "date": "2015-09-30T11:35:00+0200", 
            "link": "http://www.republique-numerique.fr/projects/projet-de-loi-numerique/consultation/consultation/opinions/section-1-protection-des-donnees-a-caractere-personnel/article-18-certificat-de-conformite#arg-435", 
            "id": "19445", 
            "opinion": "1"
        }, 
        {
            "article_title": "La d\u00e9livrance d'un tel certificat de conformit\u00e9 ...", 
            "date": "2015-09-30T11:36:00+0200", 
            "link": "http://www.republique-numerique.fr/projects/projet-de-loi-numerique/consultation/consultation/opinions/section-1-protection-des-donnees-a-caractere-personnel/article-18-certificat-de-conformite#arg-68", 
            "id": "19447", 
            "opinion": "1"
        }, 
        {
            "article_title": "1) Le droit \u00e0 l'oubli du mineur doit pouvoir \u00eatr...", 
            "date": "2015-09-30T11:37:00+0200", 
            "link": "http://www.republique-numerique.fr/projects/projet-de-loi-numerique/consultation/consultation/opinions/section-1-protection-des-donnees-a-caractere-personnel/article-19-droit-a-l-oubli-pour-les-mineurs-procedure-acceleree#arg-9", 
            "id": "19453", 
            "opinion": "1"
        }, 
        {
            "article_title": "Pourquoi ne pas \u00e9largir \u00e0 l'ensemble des citoyen...", 
            "date": "2015-09-30T11:37:00+0200", 
            "link": "http://www.republique-numerique.fr/projects/projet-de-loi-numerique/consultation/consultation/opinions/section-1-protection-des-donnees-a-caractere-personnel/article-19-droit-a-l-oubli-pour-les-mineurs-procedure-acceleree#arg-7", 
            "id": "19455", 
            "opinion": "1"
        }, 
        {
            "article_title": "Quid du droit \u00e0 l'oubli des majeurs ?...", 
            "date": "2015-09-30T11:37:00+0200", 
            "link": "http://www.republique-numerique.fr/projects/projet-de-loi-numerique/consultation/consultation/opinions/section-1-protection-des-donnees-a-caractere-personnel/article-19-droit-a-l-oubli-pour-les-mineurs-procedure-acceleree#arg-3", 
            "id": "19456", 
            "opinion": "1"
        }, 
        {
            "article_title": "Article 20 - Mort num\u00e9rique", 
            "date": "2015-09-30T11:38:00+0200", 
            "link": "http://www.republique-numerique.fr/projects/projet-de-loi-numerique/consultation/consultation/opinions/section-1-protection-des-donnees-a-caractere-personnel/article-20-personnes-decedees", 
            "id": "19458", 
            "opinion": "1"
        }, 
        {
            "article_title": "Article 22 - Secret des correspondances num\u00e9riques", 
            "date": "2015-09-30T11:40:00+0200", 
            "link": "http://www.republique-numerique.fr/projects/projet-de-loi-numerique/consultation/consultation/opinions/section-2-confidentialite-des-correspondances-privees/article-22-respect-des-correspondances-privees-numeriques", 
            "id": "19468", 
            "opinion": "1"
        }, 
        {
            "article_title": "Article 26 - D\u00e9finition d\u2019un cadre de confiance pour le recommand\u00e9 \u00e9lectronique", 
            "date": "2015-09-30T11:42:00+0200", 
            "link": "http://www.republique-numerique.fr/projects/projet-de-loi-numerique/consultation/consultation/opinions/section-1-recommande-electronique/article-26-recommande-electronique", 
            "id": "19482", 
            "opinion": "1"
        }, 
        {
            "article_title": "Je ne comprends rien \u00e0 ce texte trop long, trop d...", 
            "date": "2015-09-30T11:42:00+0200", 
            "link": "http://www.republique-numerique.fr/projects/projet-de-loi-numerique/consultation/consultation/opinions/section-1-recommande-electronique/article-26-recommande-electronique#arg-1494", 
            "id": "19487", 
            "opinion": "1"
        }, 
        {
            "article_title": "Nos t\u00e9l\u00e9phones sont trop vuln\u00e9rables \u00e0 des vir...", 
            "date": "2015-09-30T11:44:00+0200", 
            "link": "http://www.republique-numerique.fr/projects/projet-de-loi-numerique/consultation/consultation/opinions/section-2-paiement-par-sms/article-27-paiement-par-sms#arg-1292", 
            "id": "19495", 
            "opinion": "1"
        }, 
        {
            "article_title": "Les r\u00e9seaux mobiles sont aujourd'hui tr\u00e8s vuln\u00e9...", 
            "date": "2015-09-30T11:44:00+0200", 
            "link": "http://www.republique-numerique.fr/projects/projet-de-loi-numerique/consultation/consultation/opinions/section-2-paiement-par-sms/article-27-paiement-par-sms#arg-1418", 
            "id": "19496", 
            "opinion": "1"
        }, 
        {
            "article_title": "Pas s\u00e9curis\u00e9, obsol\u00e8te, falsifiable, inutile....", 
            "date": "2015-09-30T11:45:00+0200", 
            "link": "http://www.republique-numerique.fr/projects/projet-de-loi-numerique/consultation/consultation/opinions/section-2-paiement-par-sms/article-27-paiement-par-sms#arg-976", 
            "id": "19502", 
            "opinion": "1"
        }, 
        {
            "article_title": "Encadrement et simplification des CGU et CGV.", 
            "date": "2015-09-30T12:02:00+0200", 
            "link": "http://www.republique-numerique.fr/projects/projet-de-loi-numerique/consultation/consultation/opinions/section-1-recommande-electronique/encadrement-et-simplification-des-cgu-et-cgv", 
            "id": "19583", 
            "opinion": "1"
        }, 
        {
            "article_title": "Il serais bien que l'\u00e9tat fournisse un CGU et une...", 
            "date": "2015-09-30T12:03:00+0200", 
            "link": "http://www.republique-numerique.fr/projects/projet-de-loi-numerique/consultation/consultation/opinions/section-1-recommande-electronique/encadrement-et-simplification-des-cgu-et-cgv#arg-1305", 
            "id": "19589", 
            "opinion": "1"
        }, 
        {
            "article_title": "Il devrait y avoir un r\u00e9sum\u00e9 de 10 lignes maximu...", 
            "date": "2015-09-30T12:03:00+0200", 
            "link": "http://www.republique-numerique.fr/projects/projet-de-loi-numerique/consultation/consultation/opinions/section-1-recommande-electronique/encadrement-et-simplification-des-cgu-et-cgv#arg-288", 
            "id": "19593", 
            "opinion": "1"
        }, 
        {
            "article_title": "Ok a condition que ce certificat soit gratuit (aus...", 
            "date": "2015-09-30T12:09:00+0200", 
            "link": "http://www.republique-numerique.fr/projects/projet-de-loi-numerique/consultation/consultation/opinions/section-2-confidentialite-des-correspondances-privees/service-public-d-identite-electronique#arg-1313", 
            "id": "19626", 
            "opinion": "1"
        }, 
        {
            "article_title": "Service Public d'Identit\u00e9 \u00e9lectronique", 
            "date": "2015-09-30T12:10:00+0200", 
            "link": "http://www.republique-numerique.fr/projects/projet-de-loi-numerique/consultation/consultation/opinions/section-2-confidentialite-des-correspondances-privees/service-public-d-identite-electronique", 
            "id": "19628", 
            "opinion": "1"
        }
    ], 
    "sources": [], 
    "votes_count": 29, 
    "arguments": [], 
    "arguments_count": 0, 
    "propositions_count": 0, 
    "contributions_count": 0
}