{
    "modifications": [], 
    "modifications_count": 0, 
    "sources_count": 0, 
    "propositions": [], 
    "votes": [
        {
            "article_title": "Article 10 - Proc\u00e9dure assouplie pour les travaux statistiques ou de recherche utilisant le num\u00e9ro de s\u00e9curit\u00e9 sociale (recours \u00e0 un \u00ab NIR statistique \u00bb)", 
            "date": "2015-10-14T14:47:00+0200", 
            "link": "http://www.republique-numerique.fr/projects/projet-de-loi-numerique/consultation/consultation/opinions/section-2-travaux-de-recherche-et-de-statistique/article-10-nir-statistique", 
            "id": "84510", 
            "opinion": "0"
        }, 
        {
            "article_title": "Une disposition l\u00e9gale doit avoir une valeur norm...", 
            "date": "2015-10-14T15:17:00+0200", 
            "link": "http://www.republique-numerique.fr/projects/projet-de-loi-numerique/consultation/consultation/opinions/section-1-protection-des-donnees-a-caractere-personnel/article-16-libre-disposition-de-ses-donnees-a-caractere-personnel#arg-1771", 
            "id": "84880", 
            "opinion": "1"
        }, 
        {
            "article_title": "Article 16 - Libre disposition de ses donn\u00e9es", 
            "date": "2015-10-14T15:18:00+0200", 
            "link": "http://www.republique-numerique.fr/projects/projet-de-loi-numerique/consultation/consultation/opinions/section-1-protection-des-donnees-a-caractere-personnel/article-16-libre-disposition-de-ses-donnees-a-caractere-personnel", 
            "id": "84882", 
            "opinion": "-1"
        }
    ], 
    "sources": [], 
    "votes_count": 3, 
    "arguments": [
        {
            "article_title": "Signaler", 
            "votes": 0, 
            "article_link": "http://www.republique-numerique.fr/consultations/projet-de-loi-numerique/consultation/consultation/opinions/section-2-travaux-de-recherche-et-de-statistique/article-10-nir-statistique/arguments/3909/report", 
            "link": "http://www.republique-numerique.fr/consultations/projet-de-loi-numerique/consultation/consultation/opinions/section-2-travaux-de-recherche-et-de-statistique/article-10-nir-statistique/arguments/3909/report#arg-3909", 
            "date": "2015-10-14T14:58:00+0200", 
            "id": "3909"
        }
    ], 
    "arguments_count": 1, 
    "propositions_count": 0, 
    "contributions_count": 1
}