{
    "modifications": [], 
    "modifications_count": 0, 
    "sources_count": 0, 
    "propositions": [], 
    "votes": [
        {
            "article_title": "Quel est l'objectif de l'open data ? S'il s'agit d...", 
            "date": "2015-10-15T17:18:00+0200", 
            "link": "http://www.republique-numerique.fr/projects/projet-de-loi-numerique/consultation/consultation/opinions/section-1-ouverture-des-donnees-publiques-1/creation-d-un-cadre-de-confiance-propice-a-la-valorisation-des-donnees#arg-4090", 
            "id": "100230", 
            "opinion": "1"
        }, 
        {
            "article_title": "Cr\u00e9ation d'un cadre de confiance propice \u00e0 la valorisation des donn\u00e9es", 
            "date": "2015-10-15T17:19:00+0200", 
            "link": "http://www.republique-numerique.fr/projects/projet-de-loi-numerique/consultation/consultation/opinions/section-1-ouverture-des-donnees-publiques-1/creation-d-un-cadre-de-confiance-propice-a-la-valorisation-des-donnees", 
            "id": "100249", 
            "opinion": "1"
        }
    ], 
    "sources": [], 
    "votes_count": 2, 
    "arguments": [], 
    "arguments_count": 0, 
    "propositions_count": 0, 
    "contributions_count": 0
}