{
    "modifications": [], 
    "modifications_count": 0, 
    "sources_count": 0, 
    "propositions": [], 
    "votes": [
        {
            "article_title": "surtout SOS Suicide...", 
            "date": "2015-10-15T23:18:00+0200", 
            "link": "http://www.republique-numerique.fr/projects/projet-de-loi-numerique/consultation/consultation/opinions/section-1-accessibilite-des-personnes-handicapees-aux-services-telephoniques/elargissement-du-service#arg-4008", 
            "id": "105494", 
            "opinion": "1"
        }, 
        {
            "article_title": "Prix du service d'accessibilit\u00e9", 
            "date": "2015-10-15T23:18:00+0200", 
            "link": "http://www.republique-numerique.fr/projects/projet-de-loi-numerique/consultation/consultation/opinions/section-1-accessibilite-des-personnes-handicapees-aux-services-telephoniques/prix-du-service-d-accessibilite", 
            "id": "105505", 
            "opinion": "1"
        }, 
        {
            "article_title": "Elargir \u00e0 des op\u00e9rateurs comp\u00e9tents en LSF", 
            "date": "2015-10-15T23:19:00+0200", 
            "link": "http://www.republique-numerique.fr/projects/projet-de-loi-numerique/consultation/consultation/opinions/section-1-accessibilite-des-personnes-handicapees-aux-services-telephoniques/elargir-a-des-operateurs-competents-en-lsf", 
            "id": "105514", 
            "opinion": "1"
        }, 
        {
            "article_title": "Traduction en LSF des sites internet du service public", 
            "date": "2015-10-15T23:21:00+0200", 
            "link": "http://www.republique-numerique.fr/projects/projet-de-loi-numerique/consultation/consultation/opinions/section-2-accessibilite-des-personnes-handicapees-aux-sites-internet-publics/traduction-en-lsf-des-sites-internet-de-service-public", 
            "id": "105549", 
            "opinion": "1"
        }, 
        {
            "article_title": "Clarification du service d'accessibilit\u00e9", 
            "date": "2015-10-15T23:22:00+0200", 
            "link": "http://www.republique-numerique.fr/projects/projet-de-loi-numerique/consultation/consultation/opinions/section-1-accessibilite-des-personnes-handicapees-aux-services-telephoniques/article-28-accueil-telephonique-des-personnes-publiques-et-des-entreprises-offre-pour-les-deficients-auditifs/versions/clarification-du-service-d-accessibilite", 
            "id": "105558", 
            "opinion": "1"
        }, 
        {
            "article_title": "Stigmatisation par \"d\u00e9ficience\"", 
            "date": "2015-10-15T23:23:00+0200", 
            "link": "http://www.republique-numerique.fr/projects/projet-de-loi-numerique/consultation/consultation/opinions/section-1-accessibilite-des-personnes-handicapees-aux-services-telephoniques/article-28-accueil-telephonique-des-personnes-publiques-et-des-entreprises-offre-pour-les-deficients-auditifs/versions/stigmatisation-par-deficience", 
            "id": "105572", 
            "opinion": "1"
        }, 
        {
            "article_title": "Accessibilit\u00e9 aux consommateurs Sourds et Malentendants", 
            "date": "2015-10-15T23:29:00+0200", 
            "link": "http://www.republique-numerique.fr/projects/projet-de-loi-numerique/consultation/consultation/opinions/section-3-loyaute-des-plateformes/article-14-regulation/versions/accessibilite-aux-consommateurs-sourds-et-malentendants", 
            "id": "105642", 
            "opinion": "1"
        }, 
        {
            "article_title": "P\u00e9r\u00e9quation nationale pour le Tr\u00e8s Haut D\u00e9bit", 
            "date": "2015-10-15T23:34:00+0200", 
            "link": "http://www.republique-numerique.fr/projects/projet-de-loi-numerique/consultation/consultation/opinions/section-2-couverture-numerique/perequation-nationale-pour-le-tres-haut-debit", 
            "id": "105690", 
            "opinion": "1"
        }, 
        {
            "article_title": "Utilisation de GNU/Linux dans l'administration", 
            "date": "2015-10-15T23:34:00+0200", 
            "link": "http://www.republique-numerique.fr/projects/projet-de-loi-numerique/consultation/consultation/opinions/section-3-donnees-d-interet-general/utilisation-de-gnu-linux-dans-l-administration", 
            "id": "105696", 
            "opinion": "1"
        }, 
        {
            "article_title": "coh\u00e9rence requise dans cet article", 
            "date": "2015-10-15T23:39:00+0200", 
            "link": "http://www.republique-numerique.fr/projects/projet-de-loi-numerique/consultation/consultation/opinions/section-1-accessibilite-des-personnes-handicapees-aux-services-telephoniques/article-28-accueil-telephonique-des-personnes-publiques-et-des-entreprises-offre-pour-les-deficients-auditifs/versions/coherence-requise-dans-cet-article", 
            "id": "105764", 
            "opinion": "-1"
        }, 
        {
            "article_title": "Services publics num\u00e9riques et accessibilit\u00e9", 
            "date": "2015-10-15T23:40:00+0200", 
            "link": "http://www.republique-numerique.fr/projects/projet-de-loi-numerique/consultation/consultation/opinions/section-1-competences-et-organisation/article-23-schema-directeur-numerique-des-collectivites/versions/services-publics-numeriques-et-accessibilite", 
            "id": "105773", 
            "opinion": "1"
        }, 
        {
            "article_title": "\u00c9tendre l'obligation d'accessibilit\u00e9 aux services de vid\u00e9o \u00e0 la demande", 
            "date": "2015-10-15T23:45:00+0200", 
            "link": "http://www.republique-numerique.fr/projects/projet-de-loi-numerique/consultation/consultation/opinions/section-2-accessibilite-des-personnes-handicapees-aux-sites-internet-publics/accessibilite-des-sites-internet-des-services-de-communication-audiovisuelle/versions/etendre-l-obligation-d-accessibilite-aux-services-de-video-a-la-demande", 
            "id": "105823", 
            "opinion": "1"
        }, 
        {
            "article_title": "Harmonisation de la d\u00e9finition du service d'accessibilit\u00e9 pour l'ensemble des op\u00e9rateurs vis\u00e9s par l'obligation nouvelle", 
            "date": "2015-10-15T23:46:00+0200", 
            "link": "http://www.republique-numerique.fr/projects/projet-de-loi-numerique/consultation/consultation/opinions/section-1-accessibilite-des-personnes-handicapees-aux-services-telephoniques/article-28-accueil-telephonique-des-personnes-publiques-et-des-entreprises-offre-pour-les-deficients-auditifs/versions/harmonisation-de-la-definition-du-service-d-accessibilite-pour-l-ensemble-des-operateurs-vises-par-l-obligation-nouvelle", 
            "id": "105840", 
            "opinion": "1"
        }, 
        {
            "article_title": "Gratuit\u00e9 du service d'accessibilit\u00e9 pour les consommateurs", 
            "date": "2015-10-15T23:48:00+0200", 
            "link": "http://www.republique-numerique.fr/projects/projet-de-loi-numerique/consultation/consultation/opinions/section-1-accessibilite-des-personnes-handicapees-aux-services-telephoniques/article-28-accueil-telephonique-des-personnes-publiques-et-des-entreprises-offre-pour-les-deficients-auditifs/versions/gratuite-du-service-d-accessibilite-pour-les-consommateurs", 
            "id": "105856", 
            "opinion": "1"
        }
    ], 
    "sources": [], 
    "votes_count": 14, 
    "arguments": [], 
    "arguments_count": 0, 
    "propositions_count": 0, 
    "contributions_count": 0
}