{
    "modifications": [], 
    "modifications_count": 0, 
    "sources_count": 0, 
    "propositions": [], 
    "votes": [
        {
            "article_title": "Article additionnel : Les comp\u00e9titions de jeux vid\u00e9o \u00ab e-sport \u00bb", 
            "date": "2015-10-16T15:44:00+0200", 
            "link": "http://www.republique-numerique.fr/projects/projet-de-loi-numerique/consultation/consultation/opinions/section-2-travaux-de-recherche-et-de-statistique/les-competitions-de-jeux-video-e-sport", 
            "id": "116149", 
            "opinion": "1"
        }, 
        {
            "article_title": "Former les \u00e9tudiants \u00e0 Wikip\u00e9dia deviendra rapidement une obligation car tous l'utilisent d\u00e9j\u00e0.", 
            "date": "2015-10-16T15:45:00+0200", 
            "link": "http://www.republique-numerique.fr/projects/projet-de-loi-numerique/consultation/consultation/opinions/section-1-les-communs/utiliser-wikipedia-comme-outil-pedagogique-et-educatif-pour-apprendre-des-competences-et-des-valeurs/versions/former-les-etudiants-a-wikipedia-deviendra-rapidement-une-obligation-car-tous-l-utilisent-deja", 
            "id": "116188", 
            "opinion": "-1"
        }, 
        {
            "article_title": "Paquets IP-CERFA", 
            "date": "2015-10-16T15:47:00+0200", 
            "link": "http://www.republique-numerique.fr/projects/projet-de-loi-numerique/consultation/consultation/opinions/section-2-confidentialite-des-correspondances-privees/paquets-ip-cerfa", 
            "id": "116241", 
            "opinion": "-1"
        }
    ], 
    "sources": [], 
    "votes_count": 3, 
    "arguments": [], 
    "arguments_count": 0, 
    "propositions_count": 0, 
    "contributions_count": 0
}