{
    "modifications": [], 
    "modifications_count": 0, 
    "sources_count": 0, 
    "propositions": [], 
    "votes": [
        {
            "article_title": "Vie priv\u00e9e en plus", 
            "date": "2015-10-08T16:43:00+0200", 
            "link": "http://www.republique-numerique.fr/projects/projet-de-loi-numerique/consultation/consultation/opinions/section-2-service-public-de-la-donnee-1/article-4-creation-d-un-service-public-de-la-donnee/versions/vie-privee-en-plus", 
            "id": "40280", 
            "opinion": "1"
        }, 
        {
            "article_title": "Article 14 - Informer sur les pratiques des plateformes en ligne", 
            "date": "2015-10-08T16:57:00+0200", 
            "link": "http://www.republique-numerique.fr/projects/projet-de-loi-numerique/consultation/consultation/opinions/section-3-loyaute-des-plateformes/article-14-regulation", 
            "id": "40338", 
            "opinion": "1"
        }, 
        {
            "article_title": "Consacrer un droit effectif \u00e0 la portabilit\u00e9", 
            "date": "2015-10-08T16:58:00+0200", 
            "link": "http://www.republique-numerique.fr/projects/projet-de-loi-numerique/consultation/consultation/opinions/section-2-portabilite-des-donnees/article-12-portabilite-des-donnees/versions/consacrer-un-droit-effectif-a-la-portabilite", 
            "id": "40340", 
            "opinion": "1"
        }, 
        {
            "article_title": "Instaurer la libert\u00e9 de panorama en France", 
            "date": "2015-10-08T16:59:00+0200", 
            "link": "http://www.republique-numerique.fr/projects/projet-de-loi-numerique/consultation/consultation/opinions/section-1-les-communs/instaurer-la-liberte-de-panorama-en-france", 
            "id": "40343", 
            "opinion": "1"
        }, 
        {
            "article_title": "\u00c9viter la l\u00e9galisation du copyfraud", 
            "date": "2015-10-08T17:01:00+0200", 
            "link": "http://www.republique-numerique.fr/projects/projet-de-loi-numerique/consultation/consultation/opinions/section-1-les-communs/article-8-definition-du-domaine-commun-informationnel/versions/eviter-la-legalisation-du-copyfraud", 
            "id": "40348", 
            "opinion": "1"
        }, 
        {
            "article_title": "Une dur\u00e9e d'embargo plus courte, ne pas entraver le TDM (fouille de texte et de donn\u00e9es) et ne pas interdire une exploitation commerciale", 
            "date": "2015-10-08T17:05:00+0200", 
            "link": "http://www.republique-numerique.fr/projects/projet-de-loi-numerique/consultation/consultation/opinions/section-2-travaux-de-recherche-et-de-statistique/article-9-acces-aux-travaux-de-la-recherche-financee-par-des-fonds-publics/versions/une-duree-d-embargo-plus-courte-ne-pas-entraver-le-tdm-fouille-de-texte-et-de-donnees-et-ne-pas-interdire-une-exploitation-commerciale", 
            "id": "40360", 
            "opinion": "0"
        }, 
        {
            "article_title": "Introduire le principe du contradictoire dans le retrait/d\u00e9r\u00e9f\u00e9rencement de contenus par les plateformes", 
            "date": "2015-10-08T17:05:00+0200", 
            "link": "http://www.republique-numerique.fr/projects/projet-de-loi-numerique/consultation/consultation/opinions/section-3-loyaute-des-plateformes/article-13-principe-de-loyaute-vis-a-vis-des-consommateurs/versions/introduire-le-principe-du-contradictoire-dans-le-retrait-dereferencement-de-contenus-par-les-plateformes", 
            "id": "40367", 
            "opinion": "1"
        }, 
        {
            "article_title": "Ajouter la promotion du chiffrement des communications dans les missions de la CNIL", 
            "date": "2015-10-08T17:07:00+0200", 
            "link": "http://www.republique-numerique.fr/projects/projet-de-loi-numerique/consultation/consultation/opinions/section-1-protection-des-donnees-a-caractere-personnel/article-17-missions-de-la-cnil/versions/ajouter-la-promotion-du-chiffrement-des-communications-dans-les-missions-de-la-cnil", 
            "id": "40375", 
            "opinion": "1"
        }, 
        {
            "article_title": "23 : Autoriser les actions de groupe notamment en mati\u00e8re d'atteinte au droit sur les donn\u00e9es personnelles et la neutralit\u00e9 du Net", 
            "date": "2015-10-08T17:07:00+0200", 
            "link": "http://www.republique-numerique.fr/projects/projet-de-loi-numerique/consultation/consultation/opinions/section-2-confidentialite-des-correspondances-privees/23-autoriser-les-actions-de-groupe-notamment-en-matiere-d-atteinte-au-droit-sur-les-donnees-personnelles-et-la-neutralite-du-net", 
            "id": "40381", 
            "opinion": "1"
        }, 
        {
            "article_title": "Cr\u00e9ation d\u2019un parquet num\u00e9rique sp\u00e9cialis\u00e9 sur les questions de contenus illicites en ligne", 
            "date": "2015-10-08T17:09:00+0200", 
            "link": "http://www.republique-numerique.fr/projects/projet-de-loi-numerique/consultation/consultation/opinions/section-4-information-des-consommateurs/creation-d-un-parquet-numerique-specialise-sur-les-questions-de-contenus-illicites-en-ligne", 
            "id": "40392", 
            "opinion": "0"
        }, 
        {
            "article_title": "Cr\u00e9ation d\u2019un statut de m\u00e9diateur num\u00e9rique", 
            "date": "2015-10-08T17:09:00+0200", 
            "link": "http://www.republique-numerique.fr/projects/projet-de-loi-numerique/consultation/consultation/opinions/section-3-maintien-de-la-connexion-internet/creation-d-un-statut-de-mediateur-numerique", 
            "id": "40396", 
            "opinion": "0"
        }, 
        {
            "article_title": "22 bis : affirmer et encourager le droit au chiffrement des communications", 
            "date": "2015-10-08T17:12:00+0200", 
            "link": "http://www.republique-numerique.fr/projects/projet-de-loi-numerique/consultation/consultation/opinions/section-2-confidentialite-des-correspondances-privees/22-bis-affirmer-et-encourager-le-droit-au-chiffrement-des-communications", 
            "id": "40408", 
            "opinion": "1"
        }, 
        {
            "article_title": "Anonymisation des donn\u00e9es", 
            "date": "2015-10-15T16:07:00+0200", 
            "link": "http://www.republique-numerique.fr/projects/projet-de-loi-numerique/consultation/consultation/opinions/section-1-ouverture-des-donnees-publiques-1/article-2-principe-de-libre-reutilisation-des-donnees-pour-les-spic/versions/anonymisation-des-donnees", 
            "id": "98686", 
            "opinion": "0"
        }, 
        {
            "article_title": "La r\u00e9utilisation des donn\u00e9es \u00e0 caract\u00e8re personnel doit \u00eatre declar\u00e9e \u00e0 la CNIL qui peut s'y opposer.", 
            "date": "2015-10-15T16:09:00+0200", 
            "link": "http://www.republique-numerique.fr/projects/projet-de-loi-numerique/consultation/consultation/opinions/section-1-ouverture-des-donnees-publiques-1/article-3-dispositions-diverses/versions/la-reutilisation-des-donnees-a-caractere-personnel-doit-etre-declaree-a-la-cnil-qui-peut-s-y-opposer", 
            "id": "98737", 
            "opinion": "1"
        }, 
        {
            "article_title": "Article 3 - Droit d\u2019acc\u00e8s des organismes publics aux donn\u00e9es publiques & de r\u00e9utilisation d\u2019informations comportant des donn\u00e9es personnelles d\u00e9j\u00e0 publi\u00e9es", 
            "date": "2015-10-15T16:10:00+0200", 
            "link": "http://www.republique-numerique.fr/projects/projet-de-loi-numerique/consultation/consultation/opinions/section-1-ouverture-des-donnees-publiques-1/article-3-dispositions-diverses", 
            "id": "98745", 
            "opinion": "1"
        }, 
        {
            "article_title": "Article 4 - Cr\u00e9ation d\u2019un service public de la donn\u00e9e (garantie de qualit\u00e9 des donn\u00e9es publiques de r\u00e9f\u00e9rence)", 
            "date": "2015-10-15T16:10:00+0200", 
            "link": "http://www.republique-numerique.fr/projects/projet-de-loi-numerique/consultation/consultation/opinions/section-2-service-public-de-la-donnee-1/article-4-creation-d-un-service-public-de-la-donnee", 
            "id": "98755", 
            "opinion": "1"
        }, 
        {
            "article_title": "Article 5 - Ouverture des donn\u00e9es des d\u00e9l\u00e9gations de service public", 
            "date": "2015-10-15T16:11:00+0200", 
            "link": "http://www.republique-numerique.fr/projects/projet-de-loi-numerique/consultation/consultation/opinions/section-3-donnees-d-interet-general/article-5-ouverture-des-donnees-par-defaut-dans-les-contrats-de-dsp", 
            "id": "98762", 
            "opinion": "1"
        }, 
        {
            "article_title": "Article 7 - Acc\u00e8s de la statistique publique \u00e0 certaines bases de donn\u00e9es priv\u00e9es", 
            "date": "2015-10-15T16:11:00+0200", 
            "link": "http://www.republique-numerique.fr/projects/projet-de-loi-numerique/consultation/consultation/opinions/section-3-donnees-d-interet-general/article-7-acces-de-la-statistique-publique-aux-bases-de-donnees-privees", 
            "id": "98776", 
            "opinion": "1"
        }, 
        {
            "article_title": "Article 8 - D\u00e9finition positive du domaine commun informationnel", 
            "date": "2015-10-15T16:12:00+0200", 
            "link": "http://www.republique-numerique.fr/projects/projet-de-loi-numerique/consultation/consultation/opinions/section-1-les-communs/article-8-definition-du-domaine-commun-informationnel", 
            "id": "98793", 
            "opinion": "1"
        }, 
        {
            "article_title": "Article 9 - Libre acc\u00e8s aux publications scientifiques de la recherche publique", 
            "date": "2015-10-15T16:13:00+0200", 
            "link": "http://www.republique-numerique.fr/projects/projet-de-loi-numerique/consultation/consultation/opinions/section-2-travaux-de-recherche-et-de-statistique/article-9-acces-aux-travaux-de-la-recherche-financee-par-des-fonds-publics", 
            "id": "98812", 
            "opinion": "0"
        }, 
        {
            "article_title": "Article 10 - Proc\u00e9dure assouplie pour les travaux statistiques ou de recherche utilisant le num\u00e9ro de s\u00e9curit\u00e9 sociale (recours \u00e0 un \u00ab NIR statistique \u00bb)", 
            "date": "2015-10-15T16:15:00+0200", 
            "link": "http://www.republique-numerique.fr/projects/projet-de-loi-numerique/consultation/consultation/opinions/section-2-travaux-de-recherche-et-de-statistique/article-10-nir-statistique", 
            "id": "98875", 
            "opinion": "-1"
        }, 
        {
            "article_title": "Suppression de l'article - Non utilisation d'un identifiant personnel", 
            "date": "2015-10-15T16:15:00+0200", 
            "link": "http://www.republique-numerique.fr/projects/projet-de-loi-numerique/consultation/consultation/opinions/section-2-travaux-de-recherche-et-de-statistique/article-10-nir-statistique/versions/suppression-de-l-article-non-utilisation-d-un-identifiant-personnel", 
            "id": "98882", 
            "opinion": "-1"
        }, 
        {
            "article_title": "Article 11 - Neutralit\u00e9 de l\u2019internet", 
            "date": "2015-10-15T16:15:00+0200", 
            "link": "http://www.republique-numerique.fr/projects/projet-de-loi-numerique/consultation/consultation/opinions/section-1-neutralite-de-l-internet/article-11-neutralite-de-l-internet", 
            "id": "98900", 
            "opinion": "1"
        }, 
        {
            "article_title": "Article 12 - Portabilit\u00e9 des donn\u00e9es", 
            "date": "2015-10-15T16:16:00+0200", 
            "link": "http://www.republique-numerique.fr/projects/projet-de-loi-numerique/consultation/consultation/opinions/section-2-portabilite-des-donnees/article-12-portabilite-des-donnees", 
            "id": "98909", 
            "opinion": "1"
        }, 
        {
            "article_title": "Article 13 - Principe de loyaut\u00e9 des plateformes en lignes", 
            "date": "2015-10-15T16:16:00+0200", 
            "link": "http://www.republique-numerique.fr/projects/projet-de-loi-numerique/consultation/consultation/opinions/section-3-loyaute-des-plateformes/article-13-principe-de-loyaute-vis-a-vis-des-consommateurs", 
            "id": "98918", 
            "opinion": "1"
        }, 
        {
            "article_title": "Article 15 - Mieux informer sur les avis en ligne et sur les d\u00e9bits", 
            "date": "2015-10-15T16:17:00+0200", 
            "link": "http://www.republique-numerique.fr/projects/projet-de-loi-numerique/consultation/consultation/opinions/section-4-information-des-consommateurs/article-15-information-des-consommateurs-et-avis-en-ligne", 
            "id": "98933", 
            "opinion": "1"
        }, 
        {
            "article_title": "Article 16 - Libre disposition de ses donn\u00e9es", 
            "date": "2015-10-15T16:18:00+0200", 
            "link": "http://www.republique-numerique.fr/projects/projet-de-loi-numerique/consultation/consultation/opinions/section-1-protection-des-donnees-a-caractere-personnel/article-16-libre-disposition-de-ses-donnees-a-caractere-personnel", 
            "id": "98945", 
            "opinion": "1"
        }, 
        {
            "article_title": "Article 17 - Evolution des missions de la CNIL", 
            "date": "2015-10-15T16:18:00+0200", 
            "link": "http://www.republique-numerique.fr/projects/projet-de-loi-numerique/consultation/consultation/opinions/section-1-protection-des-donnees-a-caractere-personnel/article-17-missions-de-la-cnil", 
            "id": "98957", 
            "opinion": "1"
        }, 
        {
            "article_title": "Article 18 - Certificat de conformit\u00e9", 
            "date": "2015-10-15T16:19:00+0200", 
            "link": "http://www.republique-numerique.fr/projects/projet-de-loi-numerique/consultation/consultation/opinions/section-1-protection-des-donnees-a-caractere-personnel/article-18-certificat-de-conformite", 
            "id": "98972", 
            "opinion": "0"
        }, 
        {
            "article_title": "Article 19 - Droit \u00e0 l\u2019oubli pour les mineurs", 
            "date": "2015-10-15T16:20:00+0200", 
            "link": "http://www.republique-numerique.fr/projects/projet-de-loi-numerique/consultation/consultation/opinions/section-1-protection-des-donnees-a-caractere-personnel/article-19-droit-a-l-oubli-pour-les-mineurs-procedure-acceleree", 
            "id": "98988", 
            "opinion": "0"
        }, 
        {
            "article_title": "Article 20 - Mort num\u00e9rique", 
            "date": "2015-10-15T16:20:00+0200", 
            "link": "http://www.republique-numerique.fr/projects/projet-de-loi-numerique/consultation/consultation/opinions/section-1-protection-des-donnees-a-caractere-personnel/article-20-personnes-decedees", 
            "id": "99001", 
            "opinion": "1"
        }, 
        {
            "article_title": "Article 22 - Secret des correspondances num\u00e9riques", 
            "date": "2015-10-15T16:20:00+0200", 
            "link": "http://www.republique-numerique.fr/projects/projet-de-loi-numerique/consultation/consultation/opinions/section-2-confidentialite-des-correspondances-privees/article-22-respect-des-correspondances-privees-numeriques", 
            "id": "99013", 
            "opinion": "1"
        }, 
        {
            "article_title": "Article 23 - D\u00e9veloppement des usages num\u00e9riques dans les territoires", 
            "date": "2015-10-15T16:21:00+0200", 
            "link": "http://www.republique-numerique.fr/projects/projet-de-loi-numerique/consultation/consultation/opinions/section-1-competences-et-organisation/article-23-schema-directeur-numerique-des-collectivites", 
            "id": "99041", 
            "opinion": "1"
        }, 
        {
            "article_title": "Article 24 - Ouverture des donn\u00e9es de la couverture num\u00e9rique des territoires", 
            "date": "2015-10-15T16:22:00+0200", 
            "link": "http://www.republique-numerique.fr/projects/projet-de-loi-numerique/consultation/consultation/opinions/section-2-couverture-numerique/article-24-publicite-de-la-qualite-des-services-numeriques", 
            "id": "99067", 
            "opinion": "1"
        }, 
        {
            "article_title": "Article 26 - D\u00e9finition d\u2019un cadre de confiance pour le recommand\u00e9 \u00e9lectronique", 
            "date": "2015-10-15T16:23:00+0200", 
            "link": "http://www.republique-numerique.fr/projects/projet-de-loi-numerique/consultation/consultation/opinions/section-1-recommande-electronique/article-26-recommande-electronique", 
            "id": "99090", 
            "opinion": "1"
        }, 
        {
            "article_title": "Article 27 - Paiement par SMS", 
            "date": "2015-10-15T16:23:00+0200", 
            "link": "http://www.republique-numerique.fr/projects/projet-de-loi-numerique/consultation/consultation/opinions/section-2-paiement-par-sms/article-27-paiement-par-sms", 
            "id": "99101", 
            "opinion": "0"
        }, 
        {
            "article_title": "Article 28 - Accessibilit\u00e9 des services publics, des services client et des offres de communications \u00e9lectroniques aux personnes sourdes et malentendantes", 
            "date": "2015-10-15T16:24:00+0200", 
            "link": "http://www.republique-numerique.fr/projects/projet-de-loi-numerique/consultation/consultation/opinions/section-1-accessibilite-des-personnes-handicapees-aux-services-telephoniques/article-28-accueil-telephonique-des-personnes-publiques-et-des-entreprises-offre-pour-les-deficients-auditifs", 
            "id": "99132", 
            "opinion": "0"
        }, 
        {
            "article_title": "Article 30 - Maintien de la connexion", 
            "date": "2015-10-15T16:25:00+0200", 
            "link": "http://www.republique-numerique.fr/projects/projet-de-loi-numerique/consultation/consultation/opinions/section-3-maintien-de-la-connexion-internet/article-30-maintien-temporaire-de-la-connexion", 
            "id": "99152", 
            "opinion": "1"
        }
    ], 
    "sources": [], 
    "votes_count": 38, 
    "arguments": [], 
    "arguments_count": 0, 
    "propositions_count": 0, 
    "contributions_count": 0
}