{
    "modifications": [], 
    "modifications_count": 0, 
    "sources_count": 0, 
    "propositions": [], 
    "votes": [
        {
            "article_title": "Libert\u00e9 de panorama sous licence CC BY-NC-SA 3.0 FR", 
            "date": "2015-10-16T02:01:00+0200", 
            "link": "http://www.republique-numerique.fr/projects/projet-de-loi-numerique/consultation/consultation/opinions/section-1-les-communs/instaurer-la-liberte-de-panorama-en-france/versions/liberte-de-panorama-sous-licence-cc-by-nc-sa-3-0-fr", 
            "id": "106861", 
            "opinion": "-1"
        }, 
        {
            "article_title": "SANCTUAIRE PUBLIQUE DE LA DONNEE", 
            "date": "2015-10-16T02:06:00+0200", 
            "link": "http://www.republique-numerique.fr/projects/projet-de-loi-numerique/consultation/consultation/opinions/section-2-service-public-de-la-donnee-1/sanctuaire-publique-de-la-donnee", 
            "id": "106881", 
            "opinion": "-1"
        }, 
        {
            "article_title": "RECONNAISSANCE DU COPYLEFT / DROIT AU REMIX", 
            "date": "2015-10-16T02:07:00+0200", 
            "link": "http://www.republique-numerique.fr/projects/projet-de-loi-numerique/consultation/consultation/opinions/section-1-les-communs/reconnaissance-du-copyleft-droit-au-remix", 
            "id": "106885", 
            "opinion": "1"
        }
    ], 
    "sources": [], 
    "votes_count": 3, 
    "arguments": [], 
    "arguments_count": 0, 
    "propositions_count": 0, 
    "contributions_count": 0
}