{
    "modifications": [], 
    "modifications_count": 0, 
    "sources_count": 0, 
    "propositions": [], 
    "votes": [
        {
            "article_title": "Favoriser le libre acc\u00e8s sans mettre en p\u00e9ril les revues SHS - Imaginer de nouveaux mod\u00e8les de diffusion de la science", 
            "date": "2015-10-15T18:39:00+0200", 
            "link": "http://www.republique-numerique.fr/projects/projet-de-loi-numerique/consultation/consultation/opinions/section-2-travaux-de-recherche-et-de-statistique/article-9-acces-aux-travaux-de-la-recherche-financee-par-des-fonds-publics/versions/favoriser-le-libre-acces-sans-mettre-en-peril-les-revues-shs-imaginer-de-nouveaux-modeles-de-diffusion-de-la-science", 
            "id": "101877", 
            "opinion": "1"
        }
    ], 
    "sources": [], 
    "votes_count": 1, 
    "arguments": [], 
    "arguments_count": 0, 
    "propositions_count": 0, 
    "contributions_count": 0
}