{
    "modifications": [], 
    "modifications_count": 0, 
    "sources_count": 0, 
    "propositions": [], 
    "votes": [
        {
            "article_title": "Si cet article n'est pas adopt\u00e9, alors de nombreu...", 
            "date": "2015-10-16T11:05:00+0200", 
            "link": "http://www.republique-numerique.fr/projects/projet-de-loi-numerique/consultation/consultation/opinions/section-2-travaux-de-recherche-et-de-statistique/article-10-nir-statistique#arg-3680", 
            "id": "110456", 
            "opinion": "1"
        }, 
        {
            "article_title": "Le cadre l\u00e9gislatif actuel, qui rend quasi imposs...", 
            "date": "2015-10-16T11:05:00+0200", 
            "link": "http://www.republique-numerique.fr/projects/projet-de-loi-numerique/consultation/consultation/opinions/section-2-travaux-de-recherche-et-de-statistique/article-10-nir-statistique#arg-2787", 
            "id": "110460", 
            "opinion": "1"
        }, 
        {
            "article_title": "L'\u00e9valuation des politiques publiques est devenue...", 
            "date": "2015-10-16T11:05:00+0200", 
            "link": "http://www.republique-numerique.fr/projects/projet-de-loi-numerique/consultation/consultation/opinions/section-2-travaux-de-recherche-et-de-statistique/article-10-nir-statistique#arg-2658", 
            "id": "110465", 
            "opinion": "1"
        }, 
        {
            "article_title": "Je suis chercheur en economie. Avoir la possibilit...", 
            "date": "2015-10-16T11:06:00+0200", 
            "link": "http://www.republique-numerique.fr/projects/projet-de-loi-numerique/consultation/consultation/opinions/section-2-travaux-de-recherche-et-de-statistique/article-10-nir-statistique#arg-1517", 
            "id": "110479", 
            "opinion": "1"
        }, 
        {
            "article_title": "Article 10 - Proc\u00e9dure assouplie pour les travaux statistiques ou de recherche utilisant le num\u00e9ro de s\u00e9curit\u00e9 sociale (recours \u00e0 un \u00ab NIR statistique \u00bb)", 
            "date": "2015-10-16T11:07:00+0200", 
            "link": "http://www.republique-numerique.fr/projects/projet-de-loi-numerique/consultation/consultation/opinions/section-2-travaux-de-recherche-et-de-statistique/article-10-nir-statistique", 
            "id": "110512", 
            "opinion": "1"
        }, 
        {
            "article_title": "L'op\u00e9ration cryptographique et, au besoin, la mis...", 
            "date": "2015-10-16T12:08:00+0200", 
            "link": "http://www.republique-numerique.fr/projects/projet-de-loi-numerique/consultation/consultation/opinions/section-2-travaux-de-recherche-et-de-statistique/article-10-nir-statistique#arg-2247", 
            "id": "111957", 
            "opinion": "1"
        }
    ], 
    "sources": [], 
    "votes_count": 6, 
    "arguments": [], 
    "arguments_count": 0, 
    "propositions_count": 0, 
    "contributions_count": 0
}