{
    "modifications": [], 
    "modifications_count": 0, 
    "sources_count": 0, 
    "propositions": [], 
    "votes": [
        {
            "article_title": "Article 1 - Open data par d\u00e9faut (obligation de diffuser en ligne les principaux documents et donn\u00e9es des organismes publics)", 
            "date": "2015-09-28T17:10:00+0200", 
            "link": "http://www.republique-numerique.fr/projects/projet-de-loi-numerique/consultation/consultation/opinions/section-1-ouverture-des-donnees-publiques-1/article-1-elargissement-du-champ-de-diffusion-par-l-administration", 
            "id": "11060", 
            "opinion": "0"
        }, 
        {
            "article_title": "Publication en temps r\u00e9el des donn\u00e9es sur l'environnement", 
            "date": "2015-09-28T17:13:00+0200", 
            "link": "http://www.republique-numerique.fr/projects/projet-de-loi-numerique/consultation/consultation/opinions/section-1-ouverture-des-donnees-publiques-1/article-1-elargissement-du-champ-de-diffusion-par-l-administration/versions/publication-en-temps-reel-des-donnees-sur-l-environnement", 
            "id": "11079", 
            "opinion": "1"
        }, 
        {
            "article_title": "Clarification sur le statut des drones de combats et de reconnaissances", 
            "date": "2015-09-28T17:14:00+0200", 
            "link": "http://www.republique-numerique.fr/projects/projet-de-loi-numerique/consultation/consultation/opinions/section-1-ouverture-des-donnees-publiques-1/clarification-sur-le-statut-des-drones-de-combats-et-de-reconnaissances", 
            "id": "11086", 
            "opinion": "1"
        }, 
        {
            "article_title": "Article 4 - Cr\u00e9ation d\u2019un service public de la donn\u00e9e (garantie de qualit\u00e9 des donn\u00e9es publiques de r\u00e9f\u00e9rence)", 
            "date": "2015-09-28T17:15:00+0200", 
            "link": "http://www.republique-numerique.fr/projects/projet-de-loi-numerique/consultation/consultation/opinions/section-2-service-public-de-la-donnee-1/article-4-creation-d-un-service-public-de-la-donnee", 
            "id": "11089", 
            "opinion": "1"
        }, 
        {
            "article_title": "Article 5 - Ouverture des donn\u00e9es des d\u00e9l\u00e9gations de service public", 
            "date": "2015-09-28T17:16:00+0200", 
            "link": "http://www.republique-numerique.fr/projects/projet-de-loi-numerique/consultation/consultation/opinions/section-3-donnees-d-interet-general/article-5-ouverture-des-donnees-par-defaut-dans-les-contrats-de-dsp", 
            "id": "11092", 
            "opinion": "1"
        }, 
        {
            "article_title": "Ne pas autoriser de d\u00e9rogation contractuelle : si on g\u00e8re un service public, on accepte de diffuser les donn\u00e9es correspondantes.", 
            "date": "2015-09-28T17:16:00+0200", 
            "link": "http://www.republique-numerique.fr/projects/projet-de-loi-numerique/consultation/consultation/opinions/section-3-donnees-d-interet-general/article-5-ouverture-des-donnees-par-defaut-dans-les-contrats-de-dsp/versions/ne-pas-autoriser-de-derogation-contractuelle-si-on-gere-un-service-public-on-accepte-de-diffuser-les-donnees-correspondantes", 
            "id": "11099", 
            "opinion": "1"
        }, 
        {
            "article_title": "Article 6 - Ouverture des donn\u00e9es des subventions publiques", 
            "date": "2015-09-28T17:17:00+0200", 
            "link": "http://www.republique-numerique.fr/projects/projet-de-loi-numerique/consultation/consultation/opinions/section-3-donnees-d-interet-general/article-6-ouverture-des-donnees-dans-les-conventions-de-subventions", 
            "id": "11107", 
            "opinion": "1"
        }, 
        {
            "article_title": "Article 11 - Neutralit\u00e9 de l\u2019internet", 
            "date": "2015-09-28T17:18:00+0200", 
            "link": "http://www.republique-numerique.fr/projects/projet-de-loi-numerique/consultation/consultation/opinions/section-1-neutralite-de-l-internet/article-11-neutralite-de-l-internet", 
            "id": "11111", 
            "opinion": "1"
        }, 
        {
            "article_title": "Article 12 - Portabilit\u00e9 des donn\u00e9es", 
            "date": "2015-09-28T17:18:00+0200", 
            "link": "http://www.republique-numerique.fr/projects/projet-de-loi-numerique/consultation/consultation/opinions/section-2-portabilite-des-donnees/article-12-portabilite-des-donnees", 
            "id": "11112", 
            "opinion": "1"
        }, 
        {
            "article_title": "Utilisation de formats libres et ouverts pour l'\u00e9change des donn\u00e9es", 
            "date": "2015-09-28T17:18:00+0200", 
            "link": "http://www.republique-numerique.fr/projects/projet-de-loi-numerique/consultation/consultation/opinions/section-2-portabilite-des-donnees/article-12-portabilite-des-donnees/versions/utilisation-de-formats-libres-et-ouverts-pour-l-echange-des-donnees", 
            "id": "11114", 
            "opinion": "1"
        }, 
        {
            "article_title": "Article 22 - Secret des correspondances num\u00e9riques", 
            "date": "2015-09-28T17:19:00+0200", 
            "link": "http://www.republique-numerique.fr/projects/projet-de-loi-numerique/consultation/consultation/opinions/section-2-confidentialite-des-correspondances-privees/article-22-respect-des-correspondances-privees-numeriques", 
            "id": "11118", 
            "opinion": "1"
        }, 
        {
            "article_title": "Int\u00e9grer les donn\u00e9es de connexion dans le champ du secret des correspondances", 
            "date": "2015-09-28T17:19:00+0200", 
            "link": "http://www.republique-numerique.fr/projects/projet-de-loi-numerique/consultation/consultation/opinions/section-2-confidentialite-des-correspondances-privees/article-22-respect-des-correspondances-privees-numeriques/versions/integrer-les-donnees-de-connexion-dans-le-champ-du-secret-des-correspondances", 
            "id": "11123", 
            "opinion": "1"
        }, 
        {
            "article_title": "Article 27 - Paiement par SMS", 
            "date": "2015-09-28T17:20:00+0200", 
            "link": "http://www.republique-numerique.fr/projects/projet-de-loi-numerique/consultation/consultation/opinions/section-2-paiement-par-sms/article-27-paiement-par-sms", 
            "id": "11127", 
            "opinion": "-1"
        }, 
        {
            "article_title": "Utiliser les logiciels libres & GNU/Linux dans les \u00e9coles et les universit\u00e9s", 
            "date": "2015-09-28T17:21:00+0200", 
            "link": "http://www.republique-numerique.fr/projects/projet-de-loi-numerique/consultation/consultation/opinions/section-2-service-public-de-la-donnee-1/utiliser-les-logiciels-libres-gnu-linux-dans-les-ecoles-et-les-universites", 
            "id": "11132", 
            "opinion": "1"
        }, 
        {
            "article_title": "Obligation du recours aux logiciels libres dans les organismes qui fonctionnement essentiellement par financemeent public ou social", 
            "date": "2015-09-28T17:22:00+0200", 
            "link": "http://www.republique-numerique.fr/projects/projet-de-loi-numerique/consultation/consultation/opinions/section-2-service-public-de-la-donnee-1/utiliser-les-logiciels-libres-gnu-linux-dans-les-ecoles-et-les-universites/versions/obligation-du-recours-aux-logiciels-libres-dans-les-organismes-qui-fonctionnement-essentiellement-par-financemeent-public-ou-social", 
            "id": "11135", 
            "opinion": "1"
        }, 
        {
            "article_title": "GNU/Linux n'est qu'un logiciel libre parmi d'autres", 
            "date": "2015-09-28T17:22:00+0200", 
            "link": "http://www.republique-numerique.fr/projects/projet-de-loi-numerique/consultation/consultation/opinions/section-2-service-public-de-la-donnee-1/utiliser-les-logiciels-libres-gnu-linux-dans-les-ecoles-et-les-universites/versions/gnu-linux-n-est-qu-un-logiciel-libre-parmi-d-autres", 
            "id": "11138", 
            "opinion": "1"
        }, 
        {
            "article_title": "Utilisation de GNU/Linux dans l'administration", 
            "date": "2015-09-28T17:24:00+0200", 
            "link": "http://www.republique-numerique.fr/projects/projet-de-loi-numerique/consultation/consultation/opinions/section-3-donnees-d-interet-general/utilisation-de-gnu-linux-dans-l-administration", 
            "id": "11143", 
            "opinion": "1"
        }, 
        {
            "article_title": "Formats libres", 
            "date": "2015-09-28T17:24:00+0200", 
            "link": "http://www.republique-numerique.fr/projects/projet-de-loi-numerique/consultation/consultation/opinions/section-3-donnees-d-interet-general/utilisation-de-gnu-linux-dans-l-administration/versions/formats-libres", 
            "id": "11144", 
            "opinion": "1"
        }
    ], 
    "sources": [], 
    "votes_count": 18, 
    "arguments": [], 
    "arguments_count": 0, 
    "propositions_count": 0, 
    "contributions_count": 0
}