{
    "modifications": [
        {
            "stats": {
                "vote": "1", 
                "source": "0", 
                "argument": "0"
            }, 
            "votes": {
                "data-ok": "0", 
                "data-mitige": "1", 
                "data-nok": "0"
            }, 
            "link": "/projects/projet-de-loi-numerique/consultation/consultation/opinions/section-3-loyaute-des-plateformes/article-14-regulation/versions/preciser-et-justifier-le-choix-de-l-autorite-administrative-en-charge", 
            "id": "684", 
            "title": "Pr\u00e9ciser et justifier le choix de l'autorit\u00e9 administrative en charge"
        }
    ], 
    "modifications_count": 1, 
    "sources_count": 0, 
    "propositions": [], 
    "votes": [], 
    "sources": [], 
    "votes_count": 0, 
    "arguments": [], 
    "arguments_count": 0, 
    "propositions_count": 0, 
    "contributions_count": 1
}