{
    "modifications": [], 
    "modifications_count": 0, 
    "sources_count": 0, 
    "propositions": [], 
    "votes": [
        {
            "article_title": "Instaurer la libert\u00e9 de panorama en France", 
            "date": "2015-10-18T19:16:00+0200", 
            "link": "http://www.republique-numerique.fr/projects/projet-de-loi-numerique/consultation/consultation/opinions/section-1-les-communs/instaurer-la-liberte-de-panorama-en-france", 
            "id": "159672", 
            "opinion": "-1"
        }
    ], 
    "sources": [], 
    "votes_count": 1, 
    "arguments": [
        {
            "article_title": "Signaler", 
            "votes": 1, 
            "article_link": "http://www.republique-numerique.fr/consultations/projet-de-loi-numerique/consultation/consultation/opinions/section-1-les-communs/instaurer-la-liberte-de-panorama-en-france/arguments/6039/report", 
            "link": "http://www.republique-numerique.fr/consultations/projet-de-loi-numerique/consultation/consultation/opinions/section-1-les-communs/instaurer-la-liberte-de-panorama-en-france/arguments/6039/report#arg-6039", 
            "date": "2015-10-18T19:52:00+0200", 
            "id": "6039"
        }
    ], 
    "arguments_count": 1, 
    "propositions_count": 0, 
    "contributions_count": 1
}