{
    "modifications": [], 
    "modifications_count": 0, 
    "sources_count": 0, 
    "propositions": [], 
    "votes": [
        {
            "article_title": "Amendement de la Loi Renseignement pour ajout du juge judiciaire", 
            "date": "2015-09-28T15:33:00+0200", 
            "link": "http://www.republique-numerique.fr/projects/projet-de-loi-numerique/consultation/consultation/opinions/section-2-confidentialite-des-correspondances-privees/amendement-de-la-loi-renseignement-pour-ajout-du-juge-judiciaire", 
            "id": "10543", 
            "opinion": "1"
        }, 
        {
            "article_title": "Interdiction de la vente li\u00e9e ordinateur/syst\u00e8me d'exploitation", 
            "date": "2015-09-28T15:36:00+0200", 
            "link": "http://www.republique-numerique.fr/projects/projet-de-loi-numerique/consultation/consultation/opinions/section-3-loyaute-des-plateformes/interdiction-de-la-vente-liee-ordinateur-systeme-d-exploitation", 
            "id": "10559", 
            "opinion": "1"
        }, 
        {
            "article_title": "Ind\u00e9pendance des DPO (Data Protection Officer) (ex-CIL)", 
            "date": "2015-09-28T15:39:00+0200", 
            "link": "http://www.republique-numerique.fr/projects/projet-de-loi-numerique/consultation/consultation/opinions/section-1-protection-des-donnees-a-caractere-personnel/independance-des-dpo-data-protection-officer-ex-cil", 
            "id": "10580", 
            "opinion": "1"
        }, 
        {
            "article_title": "Droits des consommateurs \u00e0 disposer de leurs contenus physiques et d\u00e9mat\u00e9rialis\u00e9s.", 
            "date": "2015-09-28T15:47:00+0200", 
            "link": "http://www.republique-numerique.fr/projects/projet-de-loi-numerique/consultation/consultation/opinions/section-3-loyaute-des-plateformes/droits-des-consommateurs-a-disposer-de-leurs-contenus-physiques-et-dematerialises", 
            "id": "10625", 
            "opinion": "1"
        }, 
        {
            "article_title": "R\u00e9seau internet public", 
            "date": "2015-09-28T15:48:00+0200", 
            "link": "http://www.republique-numerique.fr/projects/projet-de-loi-numerique/consultation/consultation/opinions/section-2-couverture-numerique/reseau-internet-public", 
            "id": "10628", 
            "opinion": "1"
        }, 
        {
            "article_title": "Interdiction du d\u00e9marchage t\u00e9l\u00e9phonique en France", 
            "date": "2015-09-28T15:50:00+0200", 
            "link": "http://www.republique-numerique.fr/projects/projet-de-loi-numerique/consultation/consultation/opinions/section-1-protection-des-donnees-a-caractere-personnel/interdiction-du-demarchage-telephonique-en-france", 
            "id": "10644", 
            "opinion": "1"
        }, 
        {
            "article_title": "Renforcement du pouvoir de sanction de la CNIL", 
            "date": "2015-09-28T15:50:00+0200", 
            "link": "http://www.republique-numerique.fr/projects/projet-de-loi-numerique/consultation/consultation/opinions/section-1-protection-des-donnees-a-caractere-personnel/renforcement-du-pouvoir-de-sanction-de-la-cnil", 
            "id": "10648", 
            "opinion": "1"
        }
    ], 
    "sources": [], 
    "votes_count": 7, 
    "arguments": [], 
    "arguments_count": 0, 
    "propositions_count": 0, 
    "contributions_count": 0
}