{
    "modifications": [], 
    "modifications_count": 0, 
    "sources_count": 0, 
    "propositions": [], 
    "votes": [
        {
            "article_title": "Instaurer la libert\u00e9 de panorama en France", 
            "date": "2015-10-15T17:12:00+0200", 
            "link": "http://www.republique-numerique.fr/projects/projet-de-loi-numerique/consultation/consultation/opinions/section-1-les-communs/instaurer-la-liberte-de-panorama-en-france", 
            "id": "100113", 
            "opinion": "-1"
        }, 
        {
            "article_title": "Pas d'utilisation sans droit \u00e0 des fins commerciales.", 
            "date": "2015-10-15T17:13:00+0200", 
            "link": "http://www.republique-numerique.fr/projects/projet-de-loi-numerique/consultation/consultation/opinions/section-1-les-communs/instaurer-la-liberte-de-panorama-en-france/versions/pas-d-utilisation-sans-droit-a-des-fins-commerciales", 
            "id": "100127", 
            "opinion": "1"
        }, 
        {
            "article_title": "Exclure les utilisations \u00e0 fins commerciales, lucratives, politiques, promotionnelles, ...", 
            "date": "2015-10-15T17:13:00+0200", 
            "link": "http://www.republique-numerique.fr/projects/projet-de-loi-numerique/consultation/consultation/opinions/section-1-les-communs/instaurer-la-liberte-de-panorama-en-france/versions/exclure-les-utilisations-a-fins-commerciales-lucratives-politiques-promotionnelles", 
            "id": "100137", 
            "opinion": "1"
        }, 
        {
            "article_title": "Libert\u00e9 de panorama \u00e0 usage non commercial", 
            "date": "2015-10-15T17:14:00+0200", 
            "link": "http://www.republique-numerique.fr/projects/projet-de-loi-numerique/consultation/consultation/opinions/section-1-les-communs/instaurer-la-liberte-de-panorama-en-france/versions/liberte-de-panorama-a-usage-non-commercial", 
            "id": "100144", 
            "opinion": "1"
        }
    ], 
    "sources": [], 
    "votes_count": 4, 
    "arguments": [], 
    "arguments_count": 0, 
    "propositions_count": 0, 
    "contributions_count": 0
}