{
    "modifications": [
        {
            "stats": {
                "vote": "1", 
                "source": "0", 
                "argument": "1"
            }, 
            "votes": {
                "data-ok": "0", 
                "data-mitige": "1", 
                "data-nok": "0"
            }, 
            "link": "/projects/projet-de-loi-numerique/consultation/consultation/opinions/section-1-protection-des-donnees-a-caractere-personnel/article-20-personnes-decedees/versions/clarification-de-l-article-pas-de-directive-generale-possible-instauration-d-un-regime-post-mortem-par-defaut", 
            "id": "1056", 
            "title": "Clarification de l'article - Pas de directive g\u00e9n\u00e9rale possible - Instauration d'un r\u00e9gime post mortem par d\u00e9faut?"
        }
    ], 
    "modifications_count": 1, 
    "sources_count": 0, 
    "propositions": [], 
    "votes": [
        {
            "article_title": "Article 20 - Mort num\u00e9rique", 
            "date": "2015-10-15T15:13:00+0200", 
            "link": "http://www.republique-numerique.fr/projects/projet-de-loi-numerique/consultation/consultation/opinions/section-1-protection-des-donnees-a-caractere-personnel/article-20-personnes-decedees", 
            "id": "97753", 
            "opinion": "0"
        }
    ], 
    "sources": [], 
    "votes_count": 1, 
    "arguments": [], 
    "arguments_count": 0, 
    "propositions_count": 0, 
    "contributions_count": 1
}