{
    "modifications": [], 
    "modifications_count": 0, 
    "sources_count": 0, 
    "propositions": [], 
    "votes": [
        {
            "article_title": "Cr\u00e9ation de la Soci\u00e9t\u00e9 France des Droits du Net aux cr\u00e9ateurs,", 
            "date": "2015-10-14T17:56:00+0200", 
            "link": "http://www.republique-numerique.fr/projects/projet-de-loi-numerique/consultation/consultation/opinions/section-1-neutralite-de-l-internet/creation-de-la-societe-france-des-droits-du-net-aux-createurs", 
            "id": "86845", 
            "opinion": "-1"
        }
    ], 
    "sources": [], 
    "votes_count": 1, 
    "arguments": [], 
    "arguments_count": 0, 
    "propositions_count": 0, 
    "contributions_count": 0
}