{
    "modifications": [], 
    "modifications_count": 0, 
    "sources_count": 0, 
    "propositions": [], 
    "votes": [
        {
            "article_title": "Elargissement du service", 
            "date": "2015-10-13T12:23:00+0200", 
            "link": "http://www.republique-numerique.fr/projects/projet-de-loi-numerique/consultation/consultation/opinions/section-1-accessibilite-des-personnes-handicapees-aux-services-telephoniques/elargissement-du-service", 
            "id": "66376", 
            "opinion": "1"
        }, 
        {
            "article_title": "Prix du service d'accessibilit\u00e9", 
            "date": "2015-10-13T12:23:00+0200", 
            "link": "http://www.republique-numerique.fr/projects/projet-de-loi-numerique/consultation/consultation/opinions/section-1-accessibilite-des-personnes-handicapees-aux-services-telephoniques/prix-du-service-d-accessibilite", 
            "id": "66388", 
            "opinion": "1"
        }, 
        {
            "article_title": "Elargir \u00e0 des op\u00e9rateurs comp\u00e9tents en LSF", 
            "date": "2015-10-13T12:25:00+0200", 
            "link": "http://www.republique-numerique.fr/projects/projet-de-loi-numerique/consultation/consultation/opinions/section-1-accessibilite-des-personnes-handicapees-aux-services-telephoniques/elargir-a-des-operateurs-competents-en-lsf", 
            "id": "66412", 
            "opinion": "1"
        }, 
        {
            "article_title": "Dignit\u00e9 des personnes sourdes et malentendantes", 
            "date": "2015-10-13T12:25:00+0200", 
            "link": "http://www.republique-numerique.fr/projects/projet-de-loi-numerique/consultation/consultation/opinions/section-1-accessibilite-des-personnes-handicapees-aux-services-telephoniques/dignite-des-personnes-sourdes-et-malentendantes", 
            "id": "66422", 
            "opinion": "1"
        }, 
        {
            "article_title": "Journal t\u00e9l\u00e9vis\u00e9 en Langue des Signes", 
            "date": "2015-10-13T12:25:00+0200", 
            "link": "http://www.republique-numerique.fr/projects/projet-de-loi-numerique/consultation/consultation/opinions/section-2-accessibilite-des-personnes-handicapees-aux-sites-internet-publics/journal-televise-en-langue-des-signes", 
            "id": "66432", 
            "opinion": "1"
        }, 
        {
            "article_title": "Traduction en LSF des sites internet du service public", 
            "date": "2015-10-13T12:26:00+0200", 
            "link": "http://www.republique-numerique.fr/projects/projet-de-loi-numerique/consultation/consultation/opinions/section-2-accessibilite-des-personnes-handicapees-aux-sites-internet-publics/traduction-en-lsf-des-sites-internet-de-service-public", 
            "id": "66442", 
            "opinion": "1"
        }, 
        {
            "article_title": "Clarification du service d'accessibilit\u00e9", 
            "date": "2015-10-13T12:27:00+0200", 
            "link": "http://www.republique-numerique.fr/projects/projet-de-loi-numerique/consultation/consultation/opinions/section-1-accessibilite-des-personnes-handicapees-aux-services-telephoniques/article-28-accueil-telephonique-des-personnes-publiques-et-des-entreprises-offre-pour-les-deficients-auditifs/versions/clarification-du-service-d-accessibilite", 
            "id": "66463", 
            "opinion": "1"
        }
    ], 
    "sources": [], 
    "votes_count": 7, 
    "arguments": [], 
    "arguments_count": 0, 
    "propositions_count": 0, 
    "contributions_count": 0
}