{
    "modifications": [], 
    "modifications_count": 0, 
    "sources_count": 0, 
    "propositions": [], 
    "votes": [
        {
            "article_title": "Article additionnel : Les comp\u00e9titions de jeux vid\u00e9o \u00ab e-sport \u00bb", 
            "date": "2015-10-16T22:03:00+0200", 
            "link": "http://www.republique-numerique.fr/projects/projet-de-loi-numerique/consultation/consultation/opinions/section-2-travaux-de-recherche-et-de-statistique/les-competitions-de-jeux-video-e-sport", 
            "id": "126436", 
            "opinion": "1"
        }, 
        {
            "article_title": "Le fait de changer ce statut sur L'Esport permettr...", 
            "date": "2015-10-16T22:05:00+0200", 
            "link": "http://www.republique-numerique.fr/projects/projet-de-loi-numerique/consultation/consultation/opinions/section-2-travaux-de-recherche-et-de-statistique/les-competitions-de-jeux-video-e-sport#arg-5023", 
            "id": "126462", 
            "opinion": "1"
        }, 
        {
            "article_title": "les disciplines constituant le eSport sont assez l...", 
            "date": "2015-10-16T22:05:00+0200", 
            "link": "http://www.republique-numerique.fr/projects/projet-de-loi-numerique/consultation/consultation/opinions/section-2-travaux-de-recherche-et-de-statistique/les-competitions-de-jeux-video-e-sport#arg-5017", 
            "id": "126466", 
            "opinion": "1"
        }, 
        {
            "article_title": "L'esport dans sa globalit\u00e9 se rapproche beaucoup ...", 
            "date": "2015-10-16T22:05:00+0200", 
            "link": "http://www.republique-numerique.fr/projects/projet-de-loi-numerique/consultation/consultation/opinions/section-2-travaux-de-recherche-et-de-statistique/les-competitions-de-jeux-video-e-sport#arg-5009", 
            "id": "126471", 
            "opinion": "1"
        }, 
        {
            "article_title": "Les comp\u00e9titions de sport \u00e9lectronique (e-sport)...", 
            "date": "2015-10-16T22:06:00+0200", 
            "link": "http://www.republique-numerique.fr/projects/projet-de-loi-numerique/consultation/consultation/opinions/section-2-travaux-de-recherche-et-de-statistique/les-competitions-de-jeux-video-e-sport#arg-4991", 
            "id": "126473", 
            "opinion": "1"
        }
    ], 
    "sources": [], 
    "votes_count": 5, 
    "arguments": [], 
    "arguments_count": 0, 
    "propositions_count": 0, 
    "contributions_count": 0
}