{
    "modifications": [], 
    "modifications_count": 0, 
    "sources_count": 0, 
    "propositions": [], 
    "votes": [
        {
            "article_title": "Article 1 - Open data par d\u00e9faut (obligation de diffuser en ligne les principaux documents et donn\u00e9es des organismes publics)", 
            "date": "2015-10-05T09:51:00+0200", 
            "link": "http://www.republique-numerique.fr/projects/projet-de-loi-numerique/consultation/consultation/opinions/section-1-ouverture-des-donnees-publiques-1/article-1-elargissement-du-champ-de-diffusion-par-l-administration", 
            "id": "30650", 
            "opinion": "1"
        }, 
        {
            "article_title": "RECUPERATION DES DONNEES LORS du DECES d'1 CONJOINT o\u00f9 PROCHE", 
            "date": "2015-10-05T09:55:00+0200", 
            "link": "http://www.republique-numerique.fr/projects/projet-de-loi-numerique/consultation/consultation/opinions/section-2-portabilite-des-donnees/recuperation-des-donnees-lors-du-deces-d-1-conjoint-ou-proche", 
            "id": "30659", 
            "opinion": "1"
        }, 
        {
            "article_title": "Article 19 - Droit \u00e0 l\u2019oubli pour les mineurs", 
            "date": "2015-10-05T09:57:00+0200", 
            "link": "http://www.republique-numerique.fr/projects/projet-de-loi-numerique/consultation/consultation/opinions/section-1-protection-des-donnees-a-caractere-personnel/article-19-droit-a-l-oubli-pour-les-mineurs-procedure-acceleree", 
            "id": "30667", 
            "opinion": "1"
        }, 
        {
            "article_title": "Article 26 - D\u00e9finition d\u2019un cadre de confiance pour le recommand\u00e9 \u00e9lectronique", 
            "date": "2015-10-05T09:58:00+0200", 
            "link": "http://www.republique-numerique.fr/projects/projet-de-loi-numerique/consultation/consultation/opinions/section-1-recommande-electronique/article-26-recommande-electronique", 
            "id": "30672", 
            "opinion": "1"
        }, 
        {
            "article_title": "Article 27 - Paiement par SMS", 
            "date": "2015-10-05T10:00:00+0200", 
            "link": "http://www.republique-numerique.fr/projects/projet-de-loi-numerique/consultation/consultation/opinions/section-2-paiement-par-sms/article-27-paiement-par-sms", 
            "id": "30678", 
            "opinion": "-1"
        }
    ], 
    "sources": [], 
    "votes_count": 5, 
    "arguments": [], 
    "arguments_count": 0, 
    "propositions_count": 0, 
    "contributions_count": 0
}