{
    "modifications": [], 
    "modifications_count": 0, 
    "sources_count": 0, 
    "propositions": [], 
    "votes": [
        {
            "article_title": "L'ouverture des donn\u00e9es brutes doit concerner tous les rapports publi\u00e9s par la puissance publique (rapports r\u00e9alis\u00e9s par ou remis au Gouvernement, rapports Inspections g\u00e9n\u00e9rales, rapports Cour des comptes, \u00e9tudes d'impact, rapports parlementaires, etc.)", 
            "date": "2015-10-15T11:44:00+0200", 
            "link": "http://www.republique-numerique.fr/projects/projet-de-loi-numerique/consultation/consultation/opinions/section-1-ouverture-des-donnees-publiques-1/ouvrir-les-donnees-ayant-servi-a-la-redaction-d-un-rapport-publique/versions/l-ouverture-des-donnees-brutes-doit-concerner-tous-les-rapports-publies-par-la-puissance-publique-rapports-realises-par-ou-remis-au-gouvernement-rapports-des-inspections-generales-rapports-de-la-cour-des-comptes-etudes-d-impact-sur-les-projets-de-loi-rapp", 
            "id": "94300", 
            "opinion": "1"
        }, 
        {
            "article_title": "Donner un d\u00e9lai pour la mise en oeuvre du service public de la donn\u00e9e", 
            "date": "2015-10-15T11:45:00+0200", 
            "link": "http://www.republique-numerique.fr/projects/projet-de-loi-numerique/consultation/consultation/opinions/section-2-service-public-de-la-donnee-1/article-4-creation-d-un-service-public-de-la-donnee/versions/preciser-le-delai-de-mise-en-oeuvre", 
            "id": "94312", 
            "opinion": "1"
        }, 
        {
            "article_title": "Acc\u00e8s facilit\u00e9 aux donn\u00e9es de subventions par secteur aid\u00e9, type d'aide, objectif poursuivi et organisme b\u00e9n\u00e9ficiaire (exemple des aides \u00e0 la presse)", 
            "date": "2015-10-15T11:45:00+0200", 
            "link": "http://www.republique-numerique.fr/projects/projet-de-loi-numerique/consultation/consultation/opinions/section-3-donnees-d-interet-general/article-6-ouverture-des-donnees-dans-les-conventions-de-subventions/versions/acces-facilite-aux-donnees-de-subventions-par-secteur-aide-type-d-aide-objectif-poursuivi-et-organisme-beneficiaire", 
            "id": "94320", 
            "opinion": "1"
        }, 
        {
            "article_title": "Article 11 - Neutralit\u00e9 de l\u2019internet", 
            "date": "2015-10-15T11:45:00+0200", 
            "link": "http://www.republique-numerique.fr/projects/projet-de-loi-numerique/consultation/consultation/opinions/section-1-neutralite-de-l-internet/article-11-neutralite-de-l-internet", 
            "id": "94323", 
            "opinion": "1"
        }, 
        {
            "article_title": "22 bis : affirmer et encourager le droit au chiffrement des communications", 
            "date": "2015-10-15T11:45:00+0200", 
            "link": "http://www.republique-numerique.fr/projects/projet-de-loi-numerique/consultation/consultation/opinions/section-2-confidentialite-des-correspondances-privees/22-bis-affirmer-et-encourager-le-droit-au-chiffrement-des-communications", 
            "id": "94327", 
            "opinion": "1"
        }
    ], 
    "sources": [], 
    "votes_count": 5, 
    "arguments": [], 
    "arguments_count": 0, 
    "propositions_count": 0, 
    "contributions_count": 0
}