{
    "modifications": [], 
    "modifications_count": 0, 
    "sources_count": 0, 
    "propositions": [], 
    "votes": [
        {
            "article_title": "Inclure des concessionaires disposant d'une d\u00e9l\u00e9gation de service publique", 
            "date": "2015-10-09T15:57:00+0200", 
            "link": "http://www.republique-numerique.fr/projects/projet-de-loi-numerique/consultation/consultation/opinions/section-1-ouverture-des-donnees-publiques-1/article-1-elargissement-du-champ-de-diffusion-par-l-administration/versions/inclure-des-concessionaires-disposant-d-une-delegation-de-service-publique", 
            "id": "43488", 
            "opinion": "1"
        }, 
        {
            "article_title": "Faire mention explicite d'un format non propri\u00e9taire, pour \u00e9viter les formats de fichiers Microsoft par d\u00e9faut", 
            "date": "2015-10-09T16:17:00+0200", 
            "link": "http://www.republique-numerique.fr/projects/projet-de-loi-numerique/consultation/consultation/opinions/section-1-ouverture-des-donnees-publiques-1/article-1-elargissement-du-champ-de-diffusion-par-l-administration/versions/faire-mention-explicite-d-un-format-non-proprietaire-pour-eviter-les-formats-de-fichiers-microsoft-par-defaut", 
            "id": "43568", 
            "opinion": "1"
        }, 
        {
            "article_title": "Portail global d'acc\u00e8s aux donn\u00e9es publi\u00e9es", 
            "date": "2015-10-09T16:20:00+0200", 
            "link": "http://www.republique-numerique.fr/projects/projet-de-loi-numerique/consultation/consultation/opinions/section-1-ouverture-des-donnees-publiques-1/article-1-elargissement-du-champ-de-diffusion-par-l-administration/versions/portail-global-d-acces-aux-donnees-publiees", 
            "id": "43582", 
            "opinion": "1"
        }
    ], 
    "sources": [], 
    "votes_count": 3, 
    "arguments": [], 
    "arguments_count": 0, 
    "propositions_count": 0, 
    "contributions_count": 0
}