{
    "modifications": [], 
    "modifications_count": 0, 
    "sources_count": 0, 
    "propositions": [], 
    "votes": [
        {
            "article_title": "Limiter la publicit\u00e9 aux organisations, entreprises et associations", 
            "date": "2015-10-14T09:43:00+0200", 
            "link": "http://www.republique-numerique.fr/projects/projet-de-loi-numerique/consultation/consultation/opinions/section-4-information-des-consommateurs/limiter-la-publicite-aux-organisations-entreprises-et-associations", 
            "id": "79958", 
            "opinion": "-1"
        }, 
        {
            "article_title": "Article 11 - Neutralit\u00e9 de l\u2019internet", 
            "date": "2015-10-14T09:45:00+0200", 
            "link": "http://www.republique-numerique.fr/projects/projet-de-loi-numerique/consultation/consultation/opinions/section-1-neutralite-de-l-internet/article-11-neutralite-de-l-internet", 
            "id": "79981", 
            "opinion": "1"
        }, 
        {
            "article_title": "L'Etat doit se conformer \u00e0 la neutralit\u00e9 d'Internet", 
            "date": "2015-10-14T09:47:00+0200", 
            "link": "http://www.republique-numerique.fr/projects/projet-de-loi-numerique/consultation/consultation/opinions/section-1-neutralite-de-l-internet/article-11-neutralite-de-l-internet/versions/l-etat-doit-se-conformer-a-la-neutralite-d-internet", 
            "id": "80014", 
            "opinion": "1"
        }, 
        {
            "article_title": "Les fournisseurs ne doivent pas \u00eatre les seuls \u00e0...", 
            "date": "2015-10-14T09:50:00+0200", 
            "link": "http://www.republique-numerique.fr/projects/projet-de-loi-numerique/consultation/consultation/opinions/section-1-neutralite-de-l-internet/article-11-neutralite-de-l-internet/versions/l-etat-doit-se-conformer-a-la-neutralite-d-internet#arg-3784", 
            "id": "80067", 
            "opinion": "1"
        }, 
        {
            "article_title": "D'accord pour que les fournisseurs soient astreint...", 
            "date": "2015-10-14T09:50:00+0200", 
            "link": "http://www.republique-numerique.fr/projects/projet-de-loi-numerique/consultation/consultation/opinions/section-1-neutralite-de-l-internet/article-11-neutralite-de-l-internet/versions/l-etat-doit-se-conformer-a-la-neutralite-d-internet#arg-343", 
            "id": "80068", 
            "opinion": "1"
        }, 
        {
            "article_title": "Proposition inutile (bien intentionn\u00e9e, mais n\u00e9a...", 
            "date": "2015-10-14T09:53:00+0200", 
            "link": "http://www.republique-numerique.fr/projects/projet-de-loi-numerique/consultation/consultation/opinions/section-4-information-des-consommateurs/article-15-information-des-consommateurs-et-avis-en-ligne#arg-3631", 
            "id": "80110", 
            "opinion": "1"
        }, 
        {
            "article_title": "Une v\u00e9rification s\u00e9rieuse et g\u00e9n\u00e9ralis\u00e9e para...", 
            "date": "2015-10-14T09:53:00+0200", 
            "link": "http://www.republique-numerique.fr/projects/projet-de-loi-numerique/consultation/consultation/opinions/section-4-information-des-consommateurs/article-15-information-des-consommateurs-et-avis-en-ligne#arg-3037", 
            "id": "80112", 
            "opinion": "1"
        }, 
        {
            "article_title": "C'est louable mais je vois pas comment le contr\u00f4l...", 
            "date": "2015-10-14T09:53:00+0200", 
            "link": "http://www.republique-numerique.fr/projects/projet-de-loi-numerique/consultation/consultation/opinions/section-4-information-des-consommateurs/article-15-information-des-consommateurs-et-avis-en-ligne#arg-2978", 
            "id": "80116", 
            "opinion": "1"
        }, 
        {
            "article_title": "\"Exemple : Les sites de critiques de restaurant de...", 
            "date": "2015-10-14T09:53:00+0200", 
            "link": "http://www.republique-numerique.fr/projects/projet-de-loi-numerique/consultation/consultation/opinions/section-4-information-des-consommateurs/article-15-information-des-consommateurs-et-avis-en-ligne#arg-2727", 
            "id": "80120", 
            "opinion": "1"
        }, 
        {
            "article_title": "Article 15 - Mieux informer sur les avis en ligne et sur les d\u00e9bits", 
            "date": "2015-10-14T09:53:00+0200", 
            "link": "http://www.republique-numerique.fr/projects/projet-de-loi-numerique/consultation/consultation/opinions/section-4-information-des-consommateurs/article-15-information-des-consommateurs-et-avis-en-ligne", 
            "id": "80123", 
            "opinion": "-1"
        }, 
        {
            "article_title": "Il para\u00eet difficile d\u2019introduire l\u2019obligation...", 
            "date": "2015-10-14T09:59:00+0200", 
            "link": "http://www.republique-numerique.fr/projects/projet-de-loi-numerique/consultation/consultation/opinions/section-4-information-des-consommateurs/article-15-information-des-consommateurs-et-avis-en-ligne#arg-2678", 
            "id": "80227", 
            "opinion": "1"
        }, 
        {
            "article_title": "ce projet de loi m'interpelle. on parle de neutral...", 
            "date": "2015-10-14T09:59:00+0200", 
            "link": "http://www.republique-numerique.fr/projects/projet-de-loi-numerique/consultation/consultation/opinions/section-4-information-des-consommateurs/article-15-information-des-consommateurs-et-avis-en-ligne#arg-2223", 
            "id": "80231", 
            "opinion": "1"
        }, 
        {
            "article_title": "Quels sont les moyens pour un site internet de con...", 
            "date": "2015-10-14T10:00:00+0200", 
            "link": "http://www.republique-numerique.fr/projects/projet-de-loi-numerique/consultation/consultation/opinions/section-4-information-des-consommateurs/article-15-information-des-consommateurs-et-avis-en-ligne#arg-1023", 
            "id": "80235", 
            "opinion": "1"
        }, 
        {
            "article_title": "M\u00eame si le webmaster r\u00e9ussissait \u00e0 v\u00e9rifier to...", 
            "date": "2015-10-14T10:02:00+0200", 
            "link": "http://www.republique-numerique.fr/projects/projet-de-loi-numerique/consultation/consultation/opinions/section-4-information-des-consommateurs/article-15-information-des-consommateurs-et-avis-en-ligne#arg-3791", 
            "id": "80287", 
            "opinion": "1"
        }
    ], 
    "sources": [], 
    "votes_count": 14, 
    "arguments": [
        {
            "article_title": "Signaler", 
            "votes": 0, 
            "article_link": "http://www.republique-numerique.fr/consultations/projet-de-loi-numerique/consultation/consultation/opinions/section-4-information-des-consommateurs/limiter-la-publicite-aux-organisations-entreprises-et-associations/arguments/3779/report", 
            "link": "http://www.republique-numerique.fr/consultations/projet-de-loi-numerique/consultation/consultation/opinions/section-4-information-des-consommateurs/limiter-la-publicite-aux-organisations-entreprises-et-associations/arguments/3779/report#arg-3779", 
            "date": "2015-10-14T09:43:00+0200", 
            "id": "3779"
        }, 
        {
            "article_title": "Signaler", 
            "votes": 5, 
            "article_link": "http://www.republique-numerique.fr/consultations/projet-de-loi-numerique/consultation/consultation/opinions/section-4-information-des-consommateurs/article-15-information-des-consommateurs-et-avis-en-ligne/arguments/3791/report", 
            "link": "http://www.republique-numerique.fr/consultations/projet-de-loi-numerique/consultation/consultation/opinions/section-4-information-des-consommateurs/article-15-information-des-consommateurs-et-avis-en-ligne/arguments/3791/report#arg-3791", 
            "date": "2015-10-14T10:02:00+0200", 
            "id": "3791"
        }
    ], 
    "arguments_count": 3, 
    "propositions_count": 0, 
    "contributions_count": 3
}