{
    "modifications": [], 
    "modifications_count": 0, 
    "sources_count": 0, 
    "propositions": [], 
    "votes": [
        {
            "article_title": "Article 9 - Libre acc\u00e8s aux publications scientifiques de la recherche publique", 
            "date": "2015-10-15T15:35:00+0200", 
            "link": "http://www.republique-numerique.fr/projects/projet-de-loi-numerique/consultation/consultation/opinions/section-2-travaux-de-recherche-et-de-statistique/article-9-acces-aux-travaux-de-la-recherche-financee-par-des-fonds-publics", 
            "id": "98139", 
            "opinion": "-1"
        }, 
        {
            "article_title": "Aligner les d\u00e9lais d'embargo sur ceux de la Communaut\u00e9 Europ\u00e9enne (6 et 12 mois)", 
            "date": "2015-10-15T15:37:00+0200", 
            "link": "http://www.republique-numerique.fr/projects/projet-de-loi-numerique/consultation/consultation/opinions/section-2-travaux-de-recherche-et-de-statistique/article-9-acces-aux-travaux-de-la-recherche-financee-par-des-fonds-publics/versions/aligner-les-delais-d-embargo-sur-ceux-de-la-communaute-europeenne-6-et-12-mois", 
            "id": "98167", 
            "opinion": "1"
        }, 
        {
            "article_title": "Garantir le d\u00e9p\u00f4t en archive ouverte, seul dispositif assurant un libre-acc\u00e8s p\u00e9renne. Conformit\u00e9 aux recommandations europ\u00e9ennes. (embargo).e", 
            "date": "2015-10-15T15:40:00+0200", 
            "link": "http://www.republique-numerique.fr/projects/projet-de-loi-numerique/consultation/consultation/opinions/section-2-travaux-de-recherche-et-de-statistique/article-9-acces-aux-travaux-de-la-recherche-financee-par-des-fonds-publics/versions/garantir-le-depot-en-archive-ouverte-seul-dispositif-assurant-un-libre-acces-perenne-conformite-aux-recommandations-europeennes-embargo-e", 
            "id": "98200", 
            "opinion": "1"
        }
    ], 
    "sources": [], 
    "votes_count": 3, 
    "arguments": [], 
    "arguments_count": 0, 
    "propositions_count": 0, 
    "contributions_count": 0
}