{
    "modifications": [], 
    "modifications_count": 0, 
    "sources_count": 0, 
    "propositions": [], 
    "votes": [
        {
            "article_title": "Sensibilisation aux dangers du num\u00e9rique", 
            "date": "2015-09-30T10:11:00+0200", 
            "link": "http://www.republique-numerique.fr/projects/projet-de-loi-numerique/consultation/consultation/opinions/section-4-information-des-consommateurs/sensibilisation-aux-dangers-du-numerique", 
            "id": "19079", 
            "opinion": "1"
        }, 
        {
            "article_title": "Tenir les consommateurs inform\u00e9s de la localisation g\u00e9ographique de leurs donn\u00e9es \u00e0 caract\u00e8re personnel", 
            "date": "2015-09-30T10:12:00+0200", 
            "link": "http://www.republique-numerique.fr/projects/projet-de-loi-numerique/consultation/consultation/opinions/section-4-information-des-consommateurs/etre-informes-de-la-localisation-des-donnees-a-caractere-personnel", 
            "id": "19081", 
            "opinion": "1"
        }, 
        {
            "article_title": "Ne pas d\u00e9finir l'adresse IP d'un internaute comme source suffisante \u00e0 son identification", 
            "date": "2015-09-30T10:12:00+0200", 
            "link": "http://www.republique-numerique.fr/projects/projet-de-loi-numerique/consultation/consultation/opinions/section-1-protection-des-donnees-a-caractere-personnel/ne-pas-definir-l-adresse-ip-d-un-internaute-comme-source-suffisante-a-son-identification", 
            "id": "19086", 
            "opinion": "1"
        }, 
        {
            "article_title": "Renforcement du pouvoir de sanction de la CNIL", 
            "date": "2015-09-30T10:13:00+0200", 
            "link": "http://www.republique-numerique.fr/projects/projet-de-loi-numerique/consultation/consultation/opinions/section-1-protection-des-donnees-a-caractere-personnel/renforcement-du-pouvoir-de-sanction-de-la-cnil", 
            "id": "19090", 
            "opinion": "1"
        }, 
        {
            "article_title": "Apprentissage de la programmation", 
            "date": "2015-09-30T10:15:00+0200", 
            "link": "http://www.republique-numerique.fr/projects/projet-de-loi-numerique/consultation/consultation/opinions/section-1-competences-et-organisation/apprentissage-de-la-programmation", 
            "id": "19101", 
            "opinion": "-1"
        }, 
        {
            "article_title": "Qu'ils ma\u00eetrisent d'abord les fondamentaux : \u00e9cr...", 
            "date": "2015-09-30T10:15:00+0200", 
            "link": "http://www.republique-numerique.fr/projects/projet-de-loi-numerique/consultation/consultation/opinions/section-1-competences-et-organisation/apprentissage-de-la-programmation#arg-1062", 
            "id": "19103", 
            "opinion": "1"
        }, 
        {
            "article_title": "Il faut arr\u00eater de penser que l'utilisation de l'...", 
            "date": "2015-09-30T10:16:00+0200", 
            "link": "http://www.republique-numerique.fr/projects/projet-de-loi-numerique/consultation/consultation/opinions/section-1-competences-et-organisation/apprentissage-de-la-programmation#arg-349", 
            "id": "19106", 
            "opinion": "1"
        }, 
        {
            "article_title": "On devrait surtout informer les jeunes sur l'utili...", 
            "date": "2015-09-30T10:16:00+0200", 
            "link": "http://www.republique-numerique.fr/projects/projet-de-loi-numerique/consultation/consultation/opinions/section-1-competences-et-organisation/apprentissage-de-la-programmation#arg-209", 
            "id": "19109", 
            "opinion": "1"
        }, 
        {
            "article_title": "Enseignement de l'informatique", 
            "date": "2015-09-30T10:18:00+0200", 
            "link": "http://www.republique-numerique.fr/projects/projet-de-loi-numerique/consultation/consultation/opinions/section-1-competences-et-organisation/enseignement-de-l-informatique", 
            "id": "19116", 
            "opinion": "1"
        }, 
        {
            "article_title": "Instaurer une formation obligatoire au num\u00e9rique de tous les \u00e9lus", 
            "date": "2015-09-30T10:18:00+0200", 
            "link": "http://www.republique-numerique.fr/projects/projet-de-loi-numerique/consultation/consultation/opinions/section-1-competences-et-organisation/instaurer-une-formation-obligatoire-au-numerique-de-tous-les-elus", 
            "id": "19118", 
            "opinion": "1"
        }, 
        {
            "article_title": "La loi doit avoir une port\u00e9e g\u00e9n\u00e9rale et n'a pa...", 
            "date": "2015-09-30T10:19:00+0200", 
            "link": "http://www.republique-numerique.fr/projects/projet-de-loi-numerique/consultation/consultation/opinions/section-2-couverture-numerique/obligation-de-rendre-les-appareils-connectes-compatibles-avec-le-protocole-ipv6#arg-1093", 
            "id": "19125", 
            "opinion": "1"
        }, 
        {
            "article_title": "Si une loi inscrit IPv6, le jour o\u00f9 nous aurons b...", 
            "date": "2015-09-30T10:20:00+0200", 
            "link": "http://www.republique-numerique.fr/projects/projet-de-loi-numerique/consultation/consultation/opinions/section-2-couverture-numerique/obligation-de-rendre-les-appareils-connectes-compatibles-avec-le-protocole-ipv6#arg-420", 
            "id": "19126", 
            "opinion": "1"
        }, 
        {
            "article_title": "Les r\u00e9seaux mobiles sont aujourd'hui tr\u00e8s vuln\u00e9...", 
            "date": "2015-09-30T10:21:00+0200", 
            "link": "http://www.republique-numerique.fr/projects/projet-de-loi-numerique/consultation/consultation/opinions/section-2-paiement-par-sms/article-27-paiement-par-sms#arg-1418", 
            "id": "19136", 
            "opinion": "1"
        }, 
        {
            "article_title": "Article 27 - Paiement par SMS", 
            "date": "2015-09-30T10:21:00+0200", 
            "link": "http://www.republique-numerique.fr/projects/projet-de-loi-numerique/consultation/consultation/opinions/section-2-paiement-par-sms/article-27-paiement-par-sms", 
            "id": "19137", 
            "opinion": "-1"
        }, 
        {
            "article_title": "Protection de la vie pour tous, lors de la survenue d'un s\u00e9isme majeur", 
            "date": "2015-09-30T10:24:00+0200", 
            "link": "http://www.republique-numerique.fr/projects/projet-de-loi-numerique/consultation/consultation/opinions/section-1-ouverture-des-donnees-publiques-1/protection-de-la-vie-pour-tous-lors-de-la-survenue-d-un-seisme-majeur", 
            "id": "19151", 
            "opinion": "-1"
        }, 
        {
            "article_title": "J'h\u00e9sites entre \"aucun int\u00e9r\u00eat\" et \"n'a rien \u00e0...", 
            "date": "2015-09-30T10:24:00+0200", 
            "link": "http://www.republique-numerique.fr/projects/projet-de-loi-numerique/consultation/consultation/opinions/section-1-ouverture-des-donnees-publiques-1/protection-de-la-vie-pour-tous-lors-de-la-survenue-d-un-seisme-majeur#arg-1343", 
            "id": "19153", 
            "opinion": "1"
        }, 
        {
            "article_title": "Rendre public la pr\u00e9sences des diff\u00e9rents ministres, d\u00e9put\u00e9s, etc... aux conseils.", 
            "date": "2015-09-30T10:25:00+0200", 
            "link": "http://www.republique-numerique.fr/projects/projet-de-loi-numerique/consultation/consultation/opinions/section-1-ouverture-des-donnees-publiques-1/rendre-public-la-presences-des-differents-ministres-deputes-etc-aux-conseils", 
            "id": "19159", 
            "opinion": "1"
        }, 
        {
            "article_title": "Accessibilit\u00e9 des sites internet des services de communication audiovisuelle", 
            "date": "2015-09-30T10:27:00+0200", 
            "link": "http://www.republique-numerique.fr/projects/projet-de-loi-numerique/consultation/consultation/opinions/section-2-accessibilite-des-personnes-handicapees-aux-sites-internet-publics/accessibilite-des-sites-internet-des-services-de-communication-audiovisuelle", 
            "id": "19173", 
            "opinion": "1"
        }, 
        {
            "article_title": "Article 6 - Ouverture des donn\u00e9es des subventions publiques", 
            "date": "2015-09-30T10:31:00+0200", 
            "link": "http://www.republique-numerique.fr/projects/projet-de-loi-numerique/consultation/consultation/opinions/section-3-donnees-d-interet-general/article-6-ouverture-des-donnees-dans-les-conventions-de-subventions", 
            "id": "19192", 
            "opinion": "1"
        }, 
        {
            "article_title": "D\u00e9voiler les interactions entre le Gouvernement et les lobbystes", 
            "date": "2015-09-30T10:31:00+0200", 
            "link": "http://www.republique-numerique.fr/projects/projet-de-loi-numerique/consultation/consultation/opinions/section-3-donnees-d-interet-general/devoiler-les-interactions-entre-le-gouvernement-et-les-lobbystes", 
            "id": "19194", 
            "opinion": "1"
        }, 
        {
            "article_title": "Ouverture des d\u00e9penses et recettes d\u00e9taill\u00e9es", 
            "date": "2015-09-30T10:31:00+0200", 
            "link": "http://www.republique-numerique.fr/projects/projet-de-loi-numerique/consultation/consultation/opinions/section-3-donnees-d-interet-general/ouverture-des-depenses-et-recettes-detaillees-de-l-etat", 
            "id": "19195", 
            "opinion": "1"
        }, 
        {
            "article_title": "Mise \u00e0 disposition exhaustive en ligne de TOUTES les d\u00e9penses li\u00e9es aux indemnit\u00e9s repr\u00e9sentatives de frais de mandat", 
            "date": "2015-09-30T10:31:00+0200", 
            "link": "http://www.republique-numerique.fr/projects/projet-de-loi-numerique/consultation/consultation/opinions/section-3-donnees-d-interet-general/mise-a-disposition-exhaustive-en-ligne-de-toutes-les-depenses-liees-aux-indemnites-representatives-de-frais-de-mandat", 
            "id": "19197", 
            "opinion": "1"
        }, 
        {
            "article_title": "La d\u00e9marche de Wikipedia est g\u00e9n\u00e9reuse et posit...", 
            "date": "2015-09-30T10:33:00+0200", 
            "link": "http://www.republique-numerique.fr/projects/projet-de-loi-numerique/consultation/consultation/opinions/section-1-les-communs/utiliser-wikipedia-comme-outil-pedagogique-et-educatif-pour-apprendre-des-competences-et-des-valeurs#arg-1019", 
            "id": "19205", 
            "opinion": "1"
        }, 
        {
            "article_title": "Utiliser Wikip\u00e9dia comme outil p\u00e9dagogique et \u00e9ducatif pour apprendre des comp\u00e9tences et des valeurs", 
            "date": "2015-09-30T10:33:00+0200", 
            "link": "http://www.republique-numerique.fr/projects/projet-de-loi-numerique/consultation/consultation/opinions/section-1-les-communs/utiliser-wikipedia-comme-outil-pedagogique-et-educatif-pour-apprendre-des-competences-et-des-valeurs", 
            "id": "19206", 
            "opinion": "-1"
        }, 
        {
            "article_title": "Obligation de signalement d'un vol de donn\u00e9es", 
            "date": "2015-09-30T10:37:00+0200", 
            "link": "http://www.republique-numerique.fr/projects/projet-de-loi-numerique/consultation/consultation/opinions/section-1-protection-des-donnees-a-caractere-personnel/obligation-de-signalement-d-un-vol-de-donnees", 
            "id": "19227", 
            "opinion": "1"
        }, 
        {
            "article_title": "Renforcer les comp\u00e9tences des magistrats en mati\u00e8re de num\u00e9rique", 
            "date": "2015-09-30T10:37:00+0200", 
            "link": "http://www.republique-numerique.fr/projects/projet-de-loi-numerique/consultation/consultation/opinions/section-1-protection-des-donnees-a-caractere-personnel/renforcer-les-competences-des-magistrats-en-matiere-de-numerique", 
            "id": "19228", 
            "opinion": "1"
        }, 
        {
            "article_title": "Hebergement des services de l'\u00e9tat", 
            "date": "2015-09-30T10:40:00+0200", 
            "link": "http://www.republique-numerique.fr/projects/projet-de-loi-numerique/consultation/consultation/opinions/section-1-ouverture-des-donnees-publiques-1/hebergement-des-services-de-l-etat", 
            "id": "19238", 
            "opinion": "1"
        }
    ], 
    "sources": [], 
    "votes_count": 27, 
    "arguments": [], 
    "arguments_count": 0, 
    "propositions_count": 0, 
    "contributions_count": 0
}