{
    "modifications": [], 
    "modifications_count": 0, 
    "sources_count": 0, 
    "propositions": [], 
    "votes": [
        {
            "article_title": "Article 9 - Libre acc\u00e8s aux publications scientifiques de la recherche publique", 
            "date": "2015-10-11T18:29:00+0200", 
            "link": "http://www.republique-numerique.fr/projects/projet-de-loi-numerique/consultation/consultation/opinions/section-2-travaux-de-recherche-et-de-statistique/article-9-acces-aux-travaux-de-la-recherche-financee-par-des-fonds-publics", 
            "id": "49632", 
            "opinion": "-1"
        }, 
        {
            "article_title": "Une dur\u00e9e d'embargo plus courte, ne pas entraver le TDM (fouille de texte et de donn\u00e9es) et ne pas interdire une exploitation commerciale", 
            "date": "2015-10-11T18:32:00+0200", 
            "link": "http://www.republique-numerique.fr/projects/projet-de-loi-numerique/consultation/consultation/opinions/section-2-travaux-de-recherche-et-de-statistique/article-9-acces-aux-travaux-de-la-recherche-financee-par-des-fonds-publics/versions/une-duree-d-embargo-plus-courte-ne-pas-entraver-le-tdm-fouille-de-texte-et-de-donnees-et-ne-pas-interdire-une-exploitation-commerciale", 
            "id": "49640", 
            "opinion": "1"
        }, 
        {
            "article_title": "\u00c9largir les possibilit\u00e9s d'action contre les atteintes au domaine commun informationnel", 
            "date": "2015-10-11T18:34:00+0200", 
            "link": "http://www.republique-numerique.fr/projects/projet-de-loi-numerique/consultation/consultation/opinions/section-1-les-communs/article-8-definition-du-domaine-commun-informationnel/versions/elargir-les-possibilites-d-action-contre-les-atteintes-au-domaine-commun-informationnel", 
            "id": "49643", 
            "opinion": "1"
        }, 
        {
            "article_title": "\u00c9viter la l\u00e9galisation du copyfraud", 
            "date": "2015-10-11T18:35:00+0200", 
            "link": "http://www.republique-numerique.fr/projects/projet-de-loi-numerique/consultation/consultation/opinions/section-1-les-communs/article-8-definition-du-domaine-commun-informationnel/versions/eviter-la-legalisation-du-copyfraud", 
            "id": "49647", 
            "opinion": "1"
        }
    ], 
    "sources": [], 
    "votes_count": 4, 
    "arguments": [], 
    "arguments_count": 0, 
    "propositions_count": 0, 
    "contributions_count": 0
}