{
    "modifications": [], 
    "modifications_count": 0, 
    "sources_count": 0, 
    "propositions": [], 
    "votes": [
        {
            "article_title": "Bloquer les publicit\u00e9s par d\u00e9faut dans les lieux destin\u00e9s \u00e0 l'Education.", 
            "date": "2015-10-18T17:40:00+0200", 
            "link": "http://www.republique-numerique.fr/projects/projet-de-loi-numerique/consultation/consultation/opinions/section-2-service-public-de-la-donnee-1/bloquer-les-publicites-par-defaut-dans-les-lieux-destines-a-l-education", 
            "id": "157246", 
            "opinion": "1"
        }, 
        {
            "article_title": "Utiliser les logiciels libres & GNU/Linux dans les \u00e9coles et les universit\u00e9s", 
            "date": "2015-10-18T17:45:00+0200", 
            "link": "http://www.republique-numerique.fr/projects/projet-de-loi-numerique/consultation/consultation/opinions/section-2-service-public-de-la-donnee-1/utiliser-les-logiciels-libres-gnu-linux-dans-les-ecoles-et-les-universites", 
            "id": "157386", 
            "opinion": "1"
        }, 
        {
            "article_title": "Cr\u00e9er un Comit\u00e9 National d'Ethique du Num\u00e9rique", 
            "date": "2015-10-18T17:54:00+0200", 
            "link": "http://www.republique-numerique.fr/projects/projet-de-loi-numerique/consultation/consultation/opinions/section-1-protection-des-donnees-a-caractere-personnel/creer-un-comite-national-d-ethique-du-numerique-1", 
            "id": "157697", 
            "opinion": "1"
        }
    ], 
    "sources": [], 
    "votes_count": 3, 
    "arguments": [], 
    "arguments_count": 0, 
    "propositions_count": 0, 
    "contributions_count": 0
}