{
    "modifications": [], 
    "modifications_count": 0, 
    "sources_count": 0, 
    "propositions": [], 
    "votes": [
        {
            "article_title": "Ouvrir les donn\u00e9es ayant servi \u00e0 la r\u00e9daction d'un rapport publique", 
            "date": "2015-09-26T21:40:00+0200", 
            "link": "http://www.republique-numerique.fr/projects/projet-de-loi-numerique/consultation/consultation/opinions/section-1-ouverture-des-donnees-publiques-1/ouvrir-les-donnees-ayant-servi-a-la-redaction-d-un-rapport-publique", 
            "id": "2979", 
            "opinion": "1"
        }, 
        {
            "article_title": "Protection, r\u00e9compense et ind\u00e9mnisation des lanceurs d'alertes", 
            "date": "2015-09-26T21:41:00+0200", 
            "link": "http://www.republique-numerique.fr/projects/projet-de-loi-numerique/consultation/consultation/opinions/section-3-donnees-d-interet-general/protection-recompense-et-indemnisation-des-lanceurs-d-alertes", 
            "id": "2983", 
            "opinion": "1"
        }, 
        {
            "article_title": "Utilisation de GNU/Linux dans l'administration", 
            "date": "2015-09-26T21:41:00+0200", 
            "link": "http://www.republique-numerique.fr/projects/projet-de-loi-numerique/consultation/consultation/opinions/section-3-donnees-d-interet-general/utilisation-de-gnu-linux-dans-l-administration", 
            "id": "2985", 
            "opinion": "1"
        }, 
        {
            "article_title": "Article 8 - D\u00e9finition positive du domaine commun informationnel", 
            "date": "2015-09-26T21:42:00+0200", 
            "link": "http://www.republique-numerique.fr/projects/projet-de-loi-numerique/consultation/consultation/opinions/section-1-les-communs/article-8-definition-du-domaine-commun-informationnel", 
            "id": "2988", 
            "opinion": "1"
        }, 
        {
            "article_title": "Article 9 - Libre acc\u00e8s aux publications scientifiques de la recherche publique", 
            "date": "2015-09-26T21:44:00+0200", 
            "link": "http://www.republique-numerique.fr/projects/projet-de-loi-numerique/consultation/consultation/opinions/section-2-travaux-de-recherche-et-de-statistique/article-9-acces-aux-travaux-de-la-recherche-financee-par-des-fonds-publics", 
            "id": "2998", 
            "opinion": "1"
        }, 
        {
            "article_title": "DRM", 
            "date": "2015-09-26T21:44:00+0200", 
            "link": "http://www.republique-numerique.fr/projects/projet-de-loi-numerique/consultation/consultation/opinions/section-1-les-communs/article-8-0-liberte-de-partage-du-savoir-numerique/versions/drm", 
            "id": "3000", 
            "opinion": "1"
        }, 
        {
            "article_title": "Article 11.0 - Financement public du logiciel libre", 
            "date": "2015-09-26T21:44:00+0200", 
            "link": "http://www.republique-numerique.fr/projects/projet-de-loi-numerique/consultation/consultation/opinions/section-2-travaux-de-recherche-et-de-statistique/article-11-0-financement-public-du-logiciel-libre", 
            "id": "3002", 
            "opinion": "1"
        }, 
        {
            "article_title": "Article 11bis - Transparence des algorithmes utilis\u00e9s par les services publiques et renforcement de la s\u00e9curit\u00e9 en ligne", 
            "date": "2015-09-26T21:45:00+0200", 
            "link": "http://www.republique-numerique.fr/projects/projet-de-loi-numerique/consultation/consultation/opinions/section-1-neutralite-de-l-internet/article-11bis-transparence-des-algorithmes-utilises-par-les-services-publiques", 
            "id": "3004", 
            "opinion": "1"
        }, 
        {
            "article_title": "Imposer le chiffrement par d\u00e9faut des courriers \u00e9lectroniques par les divers prestataires", 
            "date": "2015-09-26T21:45:00+0200", 
            "link": "http://www.republique-numerique.fr/projects/projet-de-loi-numerique/consultation/consultation/opinions/section-2-confidentialite-des-correspondances-privees/imposer-le-chiffrement-par-defaut-des-courriers-electroniques-par-les-divers-prestataires", 
            "id": "3006", 
            "opinion": "1"
        }, 
        {
            "article_title": "Acc\u00e8s des personnes d\u00e9tenues au num\u00e9rique", 
            "date": "2015-09-26T21:46:00+0200", 
            "link": "http://www.republique-numerique.fr/projects/projet-de-loi-numerique/consultation/consultation/opinions/section-3-maintien-de-la-connexion-internet/acces-des-personnes-detenues-au-numerique", 
            "id": "3009", 
            "opinion": "1"
        }, 
        {
            "article_title": "Utiliser les logiciels libres & GNU/Linux dans les \u00e9coles et les universit\u00e9s", 
            "date": "2015-09-27T19:24:00+0200", 
            "link": "http://www.republique-numerique.fr/projects/projet-de-loi-numerique/consultation/consultation/opinions/section-2-service-public-de-la-donnee-1/utiliser-les-logiciels-libres-gnu-linux-dans-les-ecoles-et-les-universites", 
            "id": "6642", 
            "opinion": "1"
        }, 
        {
            "article_title": "Interdiction de la vente li\u00e9e ordinateur/syst\u00e8me d'exploitation", 
            "date": "2015-09-27T19:24:00+0200", 
            "link": "http://www.republique-numerique.fr/projects/projet-de-loi-numerique/consultation/consultation/opinions/section-3-loyaute-des-plateformes/interdiction-de-la-vente-liee-ordinateur-systeme-d-exploitation", 
            "id": "6646", 
            "opinion": "1"
        }, 
        {
            "article_title": "Amendement de la Loi Renseignement pour ajout du juge judiciaire", 
            "date": "2015-09-28T21:17:00+0200", 
            "link": "http://www.republique-numerique.fr/projects/projet-de-loi-numerique/consultation/consultation/opinions/section-2-confidentialite-des-correspondances-privees/amendement-de-la-loi-renseignement-pour-ajout-du-juge-judiciaire", 
            "id": "12602", 
            "opinion": "1"
        }, 
        {
            "article_title": "La recherche financ\u00e9e par l'Etat appartient \u00e0 tous !", 
            "date": "2015-09-28T21:18:00+0200", 
            "link": "http://www.republique-numerique.fr/projects/projet-de-loi-numerique/consultation/consultation/opinions/section-2-travaux-de-recherche-et-de-statistique/article-9-acces-aux-travaux-de-la-recherche-financee-par-des-fonds-publics/versions/la-recherche-financee-par-l-etat-appartient-a-tous", 
            "id": "12615", 
            "opinion": "1"
        }, 
        {
            "article_title": "Mise \u00e0 disposition syst\u00e9matique des r\u00e9sultats de la recherche financ\u00e9e par des fonds publics", 
            "date": "2015-09-28T21:19:00+0200", 
            "link": "http://www.republique-numerique.fr/projects/projet-de-loi-numerique/consultation/consultation/opinions/section-2-travaux-de-recherche-et-de-statistique/article-9-acces-aux-travaux-de-la-recherche-financee-par-des-fonds-publics/versions/mise-a-disposition-systematique-des-resultats-de-la-recherche-financee-par-des-fonds-publics", 
            "id": "12618", 
            "opinion": "1"
        }, 
        {
            "article_title": "Pas de restriction de temps pour les financements europ\u00e9ens et fran\u00e7ais.", 
            "date": "2015-09-28T21:19:00+0200", 
            "link": "http://www.republique-numerique.fr/projects/projet-de-loi-numerique/consultation/consultation/opinions/section-2-travaux-de-recherche-et-de-statistique/article-9-acces-aux-travaux-de-la-recherche-financee-par-des-fonds-publics/versions/pas-de-restriction-de-temps-pour-les-financements-europeens-et-francais", 
            "id": "12619", 
            "opinion": "1"
        }, 
        {
            "article_title": "Toute restriction \u00e0 l'acc\u00e8s aux publications scientifiques est n\u00e9faste et co\u00fbteuse.", 
            "date": "2015-09-28T21:19:00+0200", 
            "link": "http://www.republique-numerique.fr/projects/projet-de-loi-numerique/consultation/consultation/opinions/section-2-travaux-de-recherche-et-de-statistique/article-9-acces-aux-travaux-de-la-recherche-financee-par-des-fonds-publics/versions/toute-restriction-a-l-acces-aux-publications-scientifiques-est-nefaste-et-couteuse", 
            "id": "12621", 
            "opinion": "1"
        }, 
        {
            "article_title": "Article 8.0 - Libert\u00e9 de partage du savoir num\u00e9rique", 
            "date": "2015-09-28T21:19:00+0200", 
            "link": "http://www.republique-numerique.fr/projects/projet-de-loi-numerique/consultation/consultation/opinions/section-1-les-communs/article-8-0-liberte-de-partage-du-savoir-numerique", 
            "id": "12623", 
            "opinion": "1"
        }, 
        {
            "article_title": "R\u00e9duire la dur\u00e9e de conservation des donn\u00e9es de connexion", 
            "date": "2015-09-28T21:19:00+0200", 
            "link": "http://www.republique-numerique.fr/projects/projet-de-loi-numerique/consultation/consultation/opinions/section-1-protection-des-donnees-a-caractere-personnel/reduire-la-duree-de-conservation-des-donnees-de-connexion", 
            "id": "12626", 
            "opinion": "1"
        }, 
        {
            "article_title": "Article 22 - Secret des correspondances num\u00e9riques", 
            "date": "2015-09-28T21:20:00+0200", 
            "link": "http://www.republique-numerique.fr/projects/projet-de-loi-numerique/consultation/consultation/opinions/section-2-confidentialite-des-correspondances-privees/article-22-respect-des-correspondances-privees-numeriques", 
            "id": "12633", 
            "opinion": "1"
        }, 
        {
            "article_title": "Coh\u00e9rence", 
            "date": "2015-09-28T21:21:00+0200", 
            "link": "http://www.republique-numerique.fr/projects/projet-de-loi-numerique/consultation/consultation/opinions/section-2-confidentialite-des-correspondances-privees/article-22-respect-des-correspondances-privees-numeriques/versions/coherence", 
            "id": "12646", 
            "opinion": "1"
        }, 
        {
            "article_title": "Obligation de d\u00e9p\u00f4t des publications scientifiques dans une archive ouverte", 
            "date": "2015-10-06T09:09:00+0200", 
            "link": "http://www.republique-numerique.fr/projects/projet-de-loi-numerique/consultation/consultation/opinions/section-2-travaux-de-recherche-et-de-statistique/pour-une-obligation-de-depot-des-publications-scientifiques-dans-une-archive-ouverte", 
            "id": "32856", 
            "opinion": "1"
        }, 
        {
            "article_title": "Donner la priorit\u00e9 aux logiciels libres et aux formats ouverts dans le service public national et local", 
            "date": "2015-10-13T22:45:00+0200", 
            "link": "http://www.republique-numerique.fr/projects/projet-de-loi-numerique/consultation/consultation/opinions/section-3-loyaute-des-plateformes/donner-la-priorite-aux-logiciels-libres-et-aux-formats-ouverts-dans-le-service-public-national-et-local", 
            "id": "77672", 
            "opinion": "1"
        }, 
        {
            "article_title": "Le code source d'un logiciel est un document administratif communicable", 
            "date": "2015-10-13T22:46:00+0200", 
            "link": "http://www.republique-numerique.fr/projects/projet-de-loi-numerique/consultation/consultation/opinions/section-1-ouverture-des-donnees-publiques-1/le-code-source-d-un-logiciel-est-un-document-administratif-communicable", 
            "id": "77673", 
            "opinion": "1"
        }, 
        {
            "article_title": "Protection des correspondants", 
            "date": "2015-10-13T22:46:00+0200", 
            "link": "http://www.republique-numerique.fr/projects/projet-de-loi-numerique/consultation/consultation/opinions/section-2-confidentialite-des-correspondances-privees/protection-des-correspondants", 
            "id": "77674", 
            "opinion": "1"
        }, 
        {
            "article_title": "\u00c9viter la l\u00e9galisation du copyfraud", 
            "date": "2015-10-13T22:46:00+0200", 
            "link": "http://www.republique-numerique.fr/projects/projet-de-loi-numerique/consultation/consultation/opinions/section-1-les-communs/article-8-definition-du-domaine-commun-informationnel/versions/eviter-la-legalisation-du-copyfraud", 
            "id": "77682", 
            "opinion": "1"
        }, 
        {
            "article_title": "\u00c9largir les possibilit\u00e9s d'action contre les atteintes au domaine commun informationnel", 
            "date": "2015-10-13T22:46:00+0200", 
            "link": "http://www.republique-numerique.fr/projects/projet-de-loi-numerique/consultation/consultation/opinions/section-1-les-communs/article-8-definition-du-domaine-commun-informationnel/versions/elargir-les-possibilites-d-action-contre-les-atteintes-au-domaine-commun-informationnel", 
            "id": "77683", 
            "opinion": "1"
        }, 
        {
            "article_title": "article 8 bis \u00ab\u00a0D\u00e9finition des communs volontaires\u00a0\u00bb", 
            "date": "2015-10-13T22:46:00+0200", 
            "link": "http://www.republique-numerique.fr/projects/projet-de-loi-numerique/consultation/consultation/opinions/section-1-les-communs/article-8-bis-definition-des-communs-volontaires", 
            "id": "77686", 
            "opinion": "1"
        }, 
        {
            "article_title": "Pr\u00e9ciser le p\u00e9rim\u00e8tre d'application de la Neutralit\u00e9 du Net", 
            "date": "2015-10-13T22:46:00+0200", 
            "link": "http://www.republique-numerique.fr/projects/projet-de-loi-numerique/consultation/consultation/opinions/section-1-neutralite-de-l-internet/article-11-neutralite-de-l-internet/versions/preciser-le-perimetre-d-application-de-la-neutralite-du-net", 
            "id": "77687", 
            "opinion": "1"
        }, 
        {
            "article_title": "Services sp\u00e9cialis\u00e9s et discrimination tarifaire", 
            "date": "2015-10-13T22:46:00+0200", 
            "link": "http://www.republique-numerique.fr/projects/projet-de-loi-numerique/consultation/consultation/opinions/section-1-neutralite-de-l-internet/article-11-neutralite-de-l-internet/versions/services-specialises-et-discrimination-tarifaire", 
            "id": "77688", 
            "opinion": "1"
        }, 
        {
            "article_title": "Ajouter la promotion du chiffrement des communications dans les missions de la CNIL", 
            "date": "2015-10-13T22:47:00+0200", 
            "link": "http://www.republique-numerique.fr/projects/projet-de-loi-numerique/consultation/consultation/opinions/section-1-protection-des-donnees-a-caractere-personnel/article-17-missions-de-la-cnil/versions/ajouter-la-promotion-du-chiffrement-des-communications-dans-les-missions-de-la-cnil", 
            "id": "77689", 
            "opinion": "1"
        }, 
        {
            "article_title": "22 bis : affirmer et encourager le droit au chiffrement des communications", 
            "date": "2015-10-13T22:47:00+0200", 
            "link": "http://www.republique-numerique.fr/projects/projet-de-loi-numerique/consultation/consultation/opinions/section-2-confidentialite-des-correspondances-privees/22-bis-affirmer-et-encourager-le-droit-au-chiffrement-des-communications", 
            "id": "77690", 
            "opinion": "1"
        }, 
        {
            "article_title": "23 : Autoriser les actions de groupe notamment en mati\u00e8re d'atteinte au droit sur les donn\u00e9es personnelles et la neutralit\u00e9 du Net", 
            "date": "2015-10-13T22:47:00+0200", 
            "link": "http://www.republique-numerique.fr/projects/projet-de-loi-numerique/consultation/consultation/opinions/section-2-confidentialite-des-correspondances-privees/23-autoriser-les-actions-de-groupe-notamment-en-matiere-d-atteinte-au-droit-sur-les-donnees-personnelles-et-la-neutralite-du-net", 
            "id": "77691", 
            "opinion": "1"
        }, 
        {
            "article_title": "Consacrer un droit d'information sur les modalit\u00e9s du stockage des fichiers et donn\u00e9es-utilisateur", 
            "date": "2015-10-13T22:47:00+0200", 
            "link": "http://www.republique-numerique.fr/projects/projet-de-loi-numerique/consultation/consultation/opinions/section-2-portabilite-des-donnees/article-12-portabilite-des-donnees/versions/consacrer-un-droit-d-information-sur-les-modalites-du-stockage-des-fichiers-et-donnees-utilisateur", 
            "id": "77693", 
            "opinion": "1"
        }, 
        {
            "article_title": "Promouvoir la mise \u00e0 disposition de livres num\u00e9riques dans les biblioth\u00e8ques publiques", 
            "date": "2015-10-13T22:48:00+0200", 
            "link": "http://www.republique-numerique.fr/projects/projet-de-loi-numerique/consultation/consultation/opinions/section-1-ouverture-des-donnees-publiques-1/promouvoir-la-mise-a-disposition-de-livres-numeriques-dans-les-bibliotheques-publiques", 
            "id": "77706", 
            "opinion": "1"
        }, 
        {
            "article_title": "Article 8 quater - Faciliter la r\u00e9utilisation des donn\u00e9es de la recherche", 
            "date": "2015-10-13T22:48:00+0200", 
            "link": "http://www.republique-numerique.fr/projects/projet-de-loi-numerique/consultation/consultation/opinions/section-1-les-communs/article-8-quater-faciliter-la-reutilisation-des-donnees-de-la-recherche", 
            "id": "77708", 
            "opinion": "1"
        }, 
        {
            "article_title": "Article 8ter - Sp\u00e9cifier les crit\u00e8res de qualit\u00e9 des donn\u00e9es lib\u00e9r\u00e9es", 
            "date": "2015-10-13T22:48:00+0200", 
            "link": "http://www.republique-numerique.fr/projects/projet-de-loi-numerique/consultation/consultation/opinions/section-1-les-communs/article-8ter-specifier-les-criteres-de-qualite-des-donnees-liberees", 
            "id": "77709", 
            "opinion": "1"
        }, 
        {
            "article_title": "Article 8 bis - Cr\u00e9er un Registre National du Domaine public", 
            "date": "2015-10-13T22:48:00+0200", 
            "link": "http://www.republique-numerique.fr/projects/projet-de-loi-numerique/consultation/consultation/opinions/section-1-les-communs/article-8-bis-creer-un-registre-national-du-domaine-public", 
            "id": "77711", 
            "opinion": "1"
        }, 
        {
            "article_title": "Instaurer la libert\u00e9 de panorama en France", 
            "date": "2015-10-13T22:48:00+0200", 
            "link": "http://www.republique-numerique.fr/projects/projet-de-loi-numerique/consultation/consultation/opinions/section-1-les-communs/instaurer-la-liberte-de-panorama-en-france", 
            "id": "77715", 
            "opinion": "1"
        }, 
        {
            "article_title": "Cr\u00e9er un droit de citation audiovisuelle", 
            "date": "2015-10-17T20:20:00+0200", 
            "link": "http://www.republique-numerique.fr/projects/projet-de-loi-numerique/consultation/consultation/opinions/section-1-ouverture-des-donnees-publiques-1/creer-un-droit-de-citation-audiovisuelle", 
            "id": "77707", 
            "opinion": "1"
        }
    ], 
    "sources": [], 
    "votes_count": 40, 
    "arguments": [], 
    "arguments_count": 0, 
    "propositions_count": 0, 
    "contributions_count": 0
}