{
    "modifications": [], 
    "modifications_count": 0, 
    "sources_count": 0, 
    "propositions": [], 
    "votes": [
        {
            "article_title": "Harmonisation de la d\u00e9finition du service d'accessibilit\u00e9 pour l'ensemble des op\u00e9rateurs vis\u00e9s par l'obligation nouvelle", 
            "date": "2015-10-15T02:33:00+0200", 
            "link": "http://www.republique-numerique.fr/projects/projet-de-loi-numerique/consultation/consultation/opinions/section-1-accessibilite-des-personnes-handicapees-aux-services-telephoniques/article-28-accueil-telephonique-des-personnes-publiques-et-des-entreprises-offre-pour-les-deficients-auditifs/versions/harmonisation-de-la-definition-du-service-d-accessibilite-pour-l-ensemble-des-operateurs-vises-par-l-obligation-nouvelle-1", 
            "id": "91186", 
            "opinion": "1"
        }, 
        {
            "article_title": "Pr\u00e9cisions sur le service de traduction", 
            "date": "2015-10-15T02:34:00+0200", 
            "link": "http://www.republique-numerique.fr/projects/projet-de-loi-numerique/consultation/consultation/opinions/section-1-accessibilite-des-personnes-handicapees-aux-services-telephoniques/article-28-accueil-telephonique-des-personnes-publiques-et-des-entreprises-offre-pour-les-deficients-auditifs/versions/precisions-sur-le-service-de-traduction-1", 
            "id": "91187", 
            "opinion": "1"
        }
    ], 
    "sources": [], 
    "votes_count": 2, 
    "arguments": [], 
    "arguments_count": 0, 
    "propositions_count": 0, 
    "contributions_count": 0
}