{
    "modifications": [], 
    "modifications_count": 0, 
    "sources_count": 0, 
    "propositions": [], 
    "votes": [
        {
            "article_title": "Obligation de d\u00e9p\u00f4t des publications scientifiques dans une archive ouverte", 
            "date": "2015-10-16T15:47:00+0200", 
            "link": "http://www.republique-numerique.fr/projects/projet-de-loi-numerique/consultation/consultation/opinions/section-2-travaux-de-recherche-et-de-statistique/pour-une-obligation-de-depot-des-publications-scientifiques-dans-une-archive-ouverte", 
            "id": "116219", 
            "opinion": "1"
        }, 
        {
            "article_title": "Aligner les d\u00e9lais d'embargo sur ceux de la Communaut\u00e9 Europ\u00e9enne (6 et 12 mois)", 
            "date": "2015-10-16T15:49:00+0200", 
            "link": "http://www.republique-numerique.fr/projects/projet-de-loi-numerique/consultation/consultation/opinions/section-2-travaux-de-recherche-et-de-statistique/article-9-acces-aux-travaux-de-la-recherche-financee-par-des-fonds-publics/versions/aligner-les-delais-d-embargo-sur-ceux-de-la-communaute-europeenne-6-et-12-mois", 
            "id": "116290", 
            "opinion": "1"
        }, 
        {
            "article_title": "Garantir l'autorisation du d\u00e9p\u00f4t imm\u00e9diat de la version \"auteur\" dans une archive ouverte", 
            "date": "2015-10-16T16:30:00+0200", 
            "link": "http://www.republique-numerique.fr/projects/projet-de-loi-numerique/consultation/consultation/opinions/section-2-travaux-de-recherche-et-de-statistique/article-9-acces-aux-travaux-de-la-recherche-financee-par-des-fonds-publics/versions/garantir-l-autorisation-du-depot-immediat-de-la-version-auteur-dans-une-archive-ouverte", 
            "id": "117241", 
            "opinion": "1"
        }
    ], 
    "sources": [], 
    "votes_count": 3, 
    "arguments": [], 
    "arguments_count": 0, 
    "propositions_count": 0, 
    "contributions_count": 0
}