{
    "modifications": [], 
    "modifications_count": 0, 
    "sources_count": 0, 
    "propositions": [], 
    "votes": [
        {
            "article_title": "Protection des correspondants", 
            "date": "2015-10-14T22:36:00+0200", 
            "link": "http://www.republique-numerique.fr/projects/projet-de-loi-numerique/consultation/consultation/opinions/section-2-confidentialite-des-correspondances-privees/protection-des-correspondants", 
            "id": "90008", 
            "opinion": "1"
        }, 
        {
            "article_title": "Interdiction de la vente li\u00e9e ordinateur/syst\u00e8me d'exploitation", 
            "date": "2015-10-14T22:36:00+0200", 
            "link": "http://www.republique-numerique.fr/projects/projet-de-loi-numerique/consultation/consultation/opinions/section-3-loyaute-des-plateformes/interdiction-de-la-vente-liee-ordinateur-systeme-d-exploitation", 
            "id": "90009", 
            "opinion": "1"
        }, 
        {
            "article_title": "Le code source d'un logiciel est un document administratif communicable", 
            "date": "2015-10-14T22:36:00+0200", 
            "link": "http://www.republique-numerique.fr/projects/projet-de-loi-numerique/consultation/consultation/opinions/section-1-ouverture-des-donnees-publiques-1/le-code-source-d-un-logiciel-est-un-document-administratif-communicable", 
            "id": "90010", 
            "opinion": "1"
        }, 
        {
            "article_title": "Utilisation de GNU/Linux dans l'administration", 
            "date": "2015-10-14T22:36:00+0200", 
            "link": "http://www.republique-numerique.fr/projects/projet-de-loi-numerique/consultation/consultation/opinions/section-3-donnees-d-interet-general/utilisation-de-gnu-linux-dans-l-administration", 
            "id": "90011", 
            "opinion": "1"
        }, 
        {
            "article_title": "Utiliser les logiciels libres & GNU/Linux dans les \u00e9coles et les universit\u00e9s", 
            "date": "2015-10-14T22:36:00+0200", 
            "link": "http://www.republique-numerique.fr/projects/projet-de-loi-numerique/consultation/consultation/opinions/section-2-service-public-de-la-donnee-1/utiliser-les-logiciels-libres-gnu-linux-dans-les-ecoles-et-les-universites", 
            "id": "90012", 
            "opinion": "1"
        }, 
        {
            "article_title": "Donner la priorit\u00e9 aux logiciels libres et aux formats ouverts dans le service public national et local", 
            "date": "2015-10-14T22:36:00+0200", 
            "link": "http://www.republique-numerique.fr/projects/projet-de-loi-numerique/consultation/consultation/opinions/section-3-loyaute-des-plateformes/donner-la-priorite-aux-logiciels-libres-et-aux-formats-ouverts-dans-le-service-public-national-et-local", 
            "id": "90013", 
            "opinion": "1"
        }, 
        {
            "article_title": "Instaurer la libert\u00e9 de panorama en France", 
            "date": "2015-10-14T22:36:00+0200", 
            "link": "http://www.republique-numerique.fr/projects/projet-de-loi-numerique/consultation/consultation/opinions/section-1-les-communs/instaurer-la-liberte-de-panorama-en-france", 
            "id": "90014", 
            "opinion": "1"
        }, 
        {
            "article_title": "Pour un droit de fouiller les textes : autoriser le text et datamining", 
            "date": "2015-10-14T22:36:00+0200", 
            "link": "http://www.republique-numerique.fr/projects/projet-de-loi-numerique/consultation/consultation/opinions/section-2-travaux-de-recherche-et-de-statistique/article-9-acces-aux-travaux-de-la-recherche-financee-par-des-fonds-publics/versions/poir-un-droit-de-fouiller-les-textes-autoriser-le-text-et-datamining", 
            "id": "90015", 
            "opinion": "1"
        }, 
        {
            "article_title": "Pour une obligation de d\u00e9p\u00f4t des publications scientifiques dans une archive ouverte", 
            "date": "2015-10-14T22:36:00+0200", 
            "link": "http://www.republique-numerique.fr/projects/projet-de-loi-numerique/consultation/consultation/opinions/section-2-travaux-de-recherche-et-de-statistique/article-9-acces-aux-travaux-de-la-recherche-financee-par-des-fonds-publics/versions/pour-une-obligation-de-depot-des-publications-scientifiques-dans-une-archive-ouverte", 
            "id": "90016", 
            "opinion": "1"
        }, 
        {
            "article_title": "Garantir le libre acc\u00e8s aux r\u00e9sultats de la recherche financ\u00e9e par des fonds publics", 
            "date": "2015-10-14T22:36:00+0200", 
            "link": "http://www.republique-numerique.fr/projects/projet-de-loi-numerique/consultation/consultation/opinions/section-2-travaux-de-recherche-et-de-statistique/article-9-acces-aux-travaux-de-la-recherche-financee-par-des-fonds-publics/versions/garantir-le-libre-acces-aux-resultats-de-la-recherche-financee-par-des-fonds-publics", 
            "id": "90017", 
            "opinion": "1"
        }, 
        {
            "article_title": "Obligation de d\u00e9p\u00f4t des publications scientifiques dans une archive ouverte", 
            "date": "2015-10-14T22:36:00+0200", 
            "link": "http://www.republique-numerique.fr/projects/projet-de-loi-numerique/consultation/consultation/opinions/section-2-travaux-de-recherche-et-de-statistique/pour-une-obligation-de-depot-des-publications-scientifiques-dans-une-archive-ouverte", 
            "id": "90018", 
            "opinion": "1"
        }, 
        {
            "article_title": "Trente-six mois pour les sciences humaines et sociales", 
            "date": "2015-10-14T22:36:00+0200", 
            "link": "http://www.republique-numerique.fr/projects/projet-de-loi-numerique/consultation/consultation/opinions/section-2-travaux-de-recherche-et-de-statistique/article-9-acces-aux-travaux-de-la-recherche-financee-par-des-fonds-publics/versions/trente-six-mois-pour-les-sciences-humaines-et-sociales", 
            "id": "90019", 
            "opinion": "-1"
        }, 
        {
            "article_title": "Prot\u00e9ger l'\u00e9dition scientifique fran\u00e7aise", 
            "date": "2015-10-14T22:36:00+0200", 
            "link": "http://www.republique-numerique.fr/projects/projet-de-loi-numerique/consultation/consultation/opinions/section-2-travaux-de-recherche-et-de-statistique/article-9-acces-aux-travaux-de-la-recherche-financee-par-des-fonds-publics/versions/proteger-l-edition-scientifique-francaise", 
            "id": "90020", 
            "opinion": "-1"
        }, 
        {
            "article_title": "Prot\u00e9ger le droit des auteurs d'articles scientifiques, pour permettre le libre acc\u00e8s \u00e0 la recherche scientifique", 
            "date": "2015-10-14T22:36:00+0200", 
            "link": "http://www.republique-numerique.fr/projects/projet-de-loi-numerique/consultation/consultation/opinions/section-2-travaux-de-recherche-et-de-statistique/article-9-acces-aux-travaux-de-la-recherche-financee-par-des-fonds-publics/versions/proteger-le-droit-des-auteurs-d-articles-scientifiques-pour-permettre-le-libre-acces-a-la-recherche-scientifique", 
            "id": "90023", 
            "opinion": "1"
        }, 
        {
            "article_title": "article 8 bis \u00ab\u00a0D\u00e9finition des communs volontaires\u00a0\u00bb", 
            "date": "2015-10-14T22:36:00+0200", 
            "link": "http://www.republique-numerique.fr/projects/projet-de-loi-numerique/consultation/consultation/opinions/section-1-les-communs/article-8-bis-definition-des-communs-volontaires", 
            "id": "90024", 
            "opinion": "1"
        }, 
        {
            "article_title": "\u00c9viter la l\u00e9galisation du copyfraud", 
            "date": "2015-10-14T22:36:00+0200", 
            "link": "http://www.republique-numerique.fr/projects/projet-de-loi-numerique/consultation/consultation/opinions/section-1-les-communs/article-8-definition-du-domaine-commun-informationnel/versions/eviter-la-legalisation-du-copyfraud", 
            "id": "90025", 
            "opinion": "1"
        }, 
        {
            "article_title": "Exception de fouille de textes et de donn\u00e9es", 
            "date": "2015-10-14T22:36:00+0200", 
            "link": "http://www.republique-numerique.fr/projects/projet-de-loi-numerique/consultation/consultation/opinions/section-2-travaux-de-recherche-et-de-statistique/exception-de-fouille-de-texte-et-de-donnees", 
            "id": "90026", 
            "opinion": "1"
        }, 
        {
            "article_title": "Ne pas oublier les sets de donn\u00e9es li\u00e9s \u00e0 un article", 
            "date": "2015-10-14T22:36:00+0200", 
            "link": "http://www.republique-numerique.fr/projects/projet-de-loi-numerique/consultation/consultation/opinions/section-2-travaux-de-recherche-et-de-statistique/article-9-acces-aux-travaux-de-la-recherche-financee-par-des-fonds-publics/versions/ne-pas-oublier-les-sets-de-donnees-lies-a-un-article", 
            "id": "90027", 
            "opinion": "1"
        }, 
        {
            "article_title": "Pr\u00e9ciser le p\u00e9rim\u00e8tre d'application de la Neutralit\u00e9 du Net", 
            "date": "2015-10-14T22:36:00+0200", 
            "link": "http://www.republique-numerique.fr/projects/projet-de-loi-numerique/consultation/consultation/opinions/section-1-neutralite-de-l-internet/article-11-neutralite-de-l-internet/versions/preciser-le-perimetre-d-application-de-la-neutralite-du-net", 
            "id": "90028", 
            "opinion": "1"
        }, 
        {
            "article_title": "Limiter le nombre de licences possibles et promouvoir les licences OBDL", 
            "date": "2015-10-14T22:38:00+0200", 
            "link": "http://www.republique-numerique.fr/projects/projet-de-loi-numerique/consultation/consultation/opinions/section-1-ouverture-des-donnees-publiques-1/article-1-elargissement-du-champ-de-diffusion-par-l-administration/versions/limiter-le-nombre-de-licences-possibles-et-promouvoir-les-licences-obdl", 
            "id": "90042", 
            "opinion": "1"
        }, 
        {
            "article_title": "Faire mention explicite d'un format non propri\u00e9taire, pour \u00e9viter les formats de fichiers Microsoft par d\u00e9faut", 
            "date": "2015-10-14T22:38:00+0200", 
            "link": "http://www.republique-numerique.fr/projects/projet-de-loi-numerique/consultation/consultation/opinions/section-1-ouverture-des-donnees-publiques-1/article-1-elargissement-du-champ-de-diffusion-par-l-administration/versions/faire-mention-explicite-d-un-format-non-proprietaire-pour-eviter-les-formats-de-fichiers-microsoft-par-defaut", 
            "id": "90043", 
            "opinion": "1"
        }, 
        {
            "article_title": "Article 1 - Open data par d\u00e9faut (obligation de diffuser en ligne les principaux documents et donn\u00e9es des organismes publics)", 
            "date": "2015-10-14T22:38:00+0200", 
            "link": "http://www.republique-numerique.fr/projects/projet-de-loi-numerique/consultation/consultation/opinions/section-1-ouverture-des-donnees-publiques-1/article-1-elargissement-du-champ-de-diffusion-par-l-administration", 
            "id": "90044", 
            "opinion": "1"
        }, 
        {
            "article_title": "interdire la commercialisation des donnees publiques gratuites", 
            "date": "2015-10-14T22:38:00+0200", 
            "link": "http://www.republique-numerique.fr/projects/projet-de-loi-numerique/consultation/consultation/opinions/section-1-ouverture-des-donnees-publiques-1/article-2-principe-de-libre-reutilisation-des-donnees-pour-les-spic/versions/interdire-la-commercialisation-des-donnees-publiques-gratuites", 
            "id": "90045", 
            "opinion": "-1"
        }, 
        {
            "article_title": "Tracabilit\u00e9 de l'origine des donn\u00e9es utilis\u00e9es", 
            "date": "2015-10-14T22:38:00+0200", 
            "link": "http://www.republique-numerique.fr/projects/projet-de-loi-numerique/consultation/consultation/opinions/section-1-ouverture-des-donnees-publiques-1/article-2-principe-de-libre-reutilisation-des-donnees-pour-les-spic/versions/tracabilite-de-l-origine-des-donnees-utilisees", 
            "id": "90046", 
            "opinion": "1"
        }, 
        {
            "article_title": "Quid du droit des donn\u00e9es \u00e0 caract\u00e8re personnel ?", 
            "date": "2015-10-14T22:38:00+0200", 
            "link": "http://www.republique-numerique.fr/projects/projet-de-loi-numerique/consultation/consultation/opinions/section-1-ouverture-des-donnees-publiques-1/article-3-dispositions-diverses/versions/quid-du-droit-des-donnees-a-caractere-personnel", 
            "id": "90047", 
            "opinion": "1"
        }, 
        {
            "article_title": "Article 2 - Libre r\u00e9utilisation des donn\u00e9es des services publics industriels et commerciaux", 
            "date": "2015-10-14T22:38:00+0200", 
            "link": "http://www.republique-numerique.fr/projects/projet-de-loi-numerique/consultation/consultation/opinions/section-1-ouverture-des-donnees-publiques-1/article-2-principe-de-libre-reutilisation-des-donnees-pour-les-spic", 
            "id": "90049", 
            "opinion": "1"
        }, 
        {
            "article_title": "Ouvrir les donn\u00e9es ayant servi \u00e0 la r\u00e9daction d'un rapport publique", 
            "date": "2015-10-14T22:38:00+0200", 
            "link": "http://www.republique-numerique.fr/projects/projet-de-loi-numerique/consultation/consultation/opinions/section-1-ouverture-des-donnees-publiques-1/ouvrir-les-donnees-ayant-servi-a-la-redaction-d-un-rapport-publique", 
            "id": "90050", 
            "opinion": "1"
        }, 
        {
            "article_title": "Tout rapport financ\u00e9 en tout ou partie par un organisme public doit faire l\u2019objet d\u2019une diffusion publique num\u00e9rique", 
            "date": "2015-10-14T22:38:00+0200", 
            "link": "http://www.republique-numerique.fr/projects/projet-de-loi-numerique/consultation/consultation/opinions/section-1-ouverture-des-donnees-publiques-1/ouvrir-les-donnees-ayant-servi-a-la-redaction-d-un-rapport-publique/versions/tout-rapport-finance-en-tout-ou-partie-un-organisme-public-doit-faire-l-objet-d-une-diffusion-publique-numerique", 
            "id": "90051", 
            "opinion": "1"
        }, 
        {
            "article_title": "ouverture du code des algorithmes publics", 
            "date": "2015-10-14T22:38:00+0200", 
            "link": "http://www.republique-numerique.fr/projects/projet-de-loi-numerique/consultation/consultation/opinions/section-1-ouverture-des-donnees-publiques-1/ouverture-du-code-des-algorithmes-publics", 
            "id": "90052", 
            "opinion": "1"
        }, 
        {
            "article_title": "Diffusion du code avec une license libre", 
            "date": "2015-10-14T22:38:00+0200", 
            "link": "http://www.republique-numerique.fr/projects/projet-de-loi-numerique/consultation/consultation/opinions/section-1-ouverture-des-donnees-publiques-1/ouverture-du-code-des-algorithmes-publics/versions/diffusion-du-code-avec-une-license-libre", 
            "id": "90053", 
            "opinion": "1"
        }, 
        {
            "article_title": "Article (num\u00e9ro \u00e0 incr\u00e9menter) - De l'acc\u00e8s au code source", 
            "date": "2015-10-14T22:38:00+0200", 
            "link": "http://www.republique-numerique.fr/projects/projet-de-loi-numerique/consultation/consultation/opinions/section-1-ouverture-des-donnees-publiques-1/article-numero-a-incrementer-de-l-acces-au-code-source", 
            "id": "90054", 
            "opinion": "1"
        }, 
        {
            "article_title": "Mise en ligne gratuitement les normes et DTU", 
            "date": "2015-10-14T22:38:00+0200", 
            "link": "http://www.republique-numerique.fr/projects/projet-de-loi-numerique/consultation/consultation/opinions/section-2-service-public-de-la-donnee-1/mise-en-ligne-gratuitement-les-normes-et-dtu", 
            "id": "90055", 
            "opinion": "1"
        }, 
        {
            "article_title": "Vie priv\u00e9e en plus", 
            "date": "2015-10-14T22:38:00+0200", 
            "link": "http://www.republique-numerique.fr/projects/projet-de-loi-numerique/consultation/consultation/opinions/section-2-service-public-de-la-donnee-1/article-4-creation-d-un-service-public-de-la-donnee/versions/vie-privee-en-plus", 
            "id": "90056", 
            "opinion": "1"
        }, 
        {
            "article_title": "GNU/Linux n'est qu'un logiciel libre parmi d'autres", 
            "date": "2015-10-14T22:38:00+0200", 
            "link": "http://www.republique-numerique.fr/projects/projet-de-loi-numerique/consultation/consultation/opinions/section-2-service-public-de-la-donnee-1/utiliser-les-logiciels-libres-gnu-linux-dans-les-ecoles-et-les-universites/versions/gnu-linux-n-est-qu-un-logiciel-libre-parmi-d-autres", 
            "id": "90057", 
            "opinion": "1"
        }, 
        {
            "article_title": "Article 5 - Ouverture des donn\u00e9es des d\u00e9l\u00e9gations de service public", 
            "date": "2015-10-14T22:38:00+0200", 
            "link": "http://www.republique-numerique.fr/projects/projet-de-loi-numerique/consultation/consultation/opinions/section-3-donnees-d-interet-general/article-5-ouverture-des-donnees-par-defaut-dans-les-contrats-de-dsp", 
            "id": "90058", 
            "opinion": "1"
        }, 
        {
            "article_title": "Ne pas autoriser de d\u00e9rogation contractuelle : si on g\u00e8re un service public, on accepte de diffuser les donn\u00e9es correspondantes.", 
            "date": "2015-10-14T22:38:00+0200", 
            "link": "http://www.republique-numerique.fr/projects/projet-de-loi-numerique/consultation/consultation/opinions/section-3-donnees-d-interet-general/article-5-ouverture-des-donnees-par-defaut-dans-les-contrats-de-dsp/versions/ne-pas-autoriser-de-derogation-contractuelle-si-on-gere-un-service-public-on-accepte-de-diffuser-les-donnees-correspondantes", 
            "id": "90059", 
            "opinion": "1"
        }, 
        {
            "article_title": "Article 8 - D\u00e9finition positive du domaine commun informationnel", 
            "date": "2015-10-14T22:38:00+0200", 
            "link": "http://www.republique-numerique.fr/projects/projet-de-loi-numerique/consultation/consultation/opinions/section-1-les-communs/article-8-definition-du-domaine-commun-informationnel", 
            "id": "90061", 
            "opinion": "1"
        }, 
        {
            "article_title": "\u00c9largir les possibilit\u00e9s d'action contre les atteintes au domaine commun informationnel", 
            "date": "2015-10-14T22:38:00+0200", 
            "link": "http://www.republique-numerique.fr/projects/projet-de-loi-numerique/consultation/consultation/opinions/section-1-les-communs/article-8-definition-du-domaine-commun-informationnel/versions/elargir-les-possibilites-d-action-contre-les-atteintes-au-domaine-commun-informationnel", 
            "id": "90063", 
            "opinion": "1"
        }, 
        {
            "article_title": "Supprimer le d\u00e9lai", 
            "date": "2015-10-14T22:39:00+0200", 
            "link": "http://www.republique-numerique.fr/projects/projet-de-loi-numerique/consultation/consultation/opinions/section-2-travaux-de-recherche-et-de-statistique/article-9-acces-aux-travaux-de-la-recherche-financee-par-des-fonds-publics/versions/supprimer-le-delai", 
            "id": "90064", 
            "opinion": "1"
        }, 
        {
            "article_title": "Une dur\u00e9e d'embargo plus courte, ne pas entraver le TDM (fouille de texte et de donn\u00e9es) et ne pas interdire une exploitation commerciale", 
            "date": "2015-10-14T22:39:00+0200", 
            "link": "http://www.republique-numerique.fr/projects/projet-de-loi-numerique/consultation/consultation/opinions/section-2-travaux-de-recherche-et-de-statistique/article-9-acces-aux-travaux-de-la-recherche-financee-par-des-fonds-publics/versions/une-duree-d-embargo-plus-courte-ne-pas-entraver-le-tdm-fouille-de-texte-et-de-donnees-et-ne-pas-interdire-une-exploitation-commerciale", 
            "id": "90065", 
            "opinion": "1"
        }, 
        {
            "article_title": "Aligner les d\u00e9lais d'embargo sur ceux de la Communaut\u00e9 Europ\u00e9enne (6 et 12 mois)", 
            "date": "2015-10-14T22:39:00+0200", 
            "link": "http://www.republique-numerique.fr/projects/projet-de-loi-numerique/consultation/consultation/opinions/section-2-travaux-de-recherche-et-de-statistique/article-9-acces-aux-travaux-de-la-recherche-financee-par-des-fonds-publics/versions/aligner-les-delais-d-embargo-sur-ceux-de-la-communaute-europeenne-6-et-12-mois", 
            "id": "90066", 
            "opinion": "1"
        }, 
        {
            "article_title": "Article 11 - Neutralit\u00e9 de l\u2019internet", 
            "date": "2015-10-14T22:39:00+0200", 
            "link": "http://www.republique-numerique.fr/projects/projet-de-loi-numerique/consultation/consultation/opinions/section-1-neutralite-de-l-internet/article-11-neutralite-de-l-internet", 
            "id": "90067", 
            "opinion": "1"
        }, 
        {
            "article_title": "Services sp\u00e9cialis\u00e9s et discrimination tarifaire", 
            "date": "2015-10-14T22:39:00+0200", 
            "link": "http://www.republique-numerique.fr/projects/projet-de-loi-numerique/consultation/consultation/opinions/section-1-neutralite-de-l-internet/article-11-neutralite-de-l-internet/versions/services-specialises-et-discrimination-tarifaire", 
            "id": "90068", 
            "opinion": "1"
        }, 
        {
            "article_title": "Article 12 - Portabilit\u00e9 des donn\u00e9es", 
            "date": "2015-10-14T22:39:00+0200", 
            "link": "http://www.republique-numerique.fr/projects/projet-de-loi-numerique/consultation/consultation/opinions/section-2-portabilite-des-donnees/article-12-portabilite-des-donnees", 
            "id": "90069", 
            "opinion": "1"
        }, 
        {
            "article_title": "Modification de la sanction : amende non fixe mais proportionnelle au CA", 
            "date": "2015-10-14T22:39:00+0200", 
            "link": "http://www.republique-numerique.fr/projects/projet-de-loi-numerique/consultation/consultation/opinions/section-2-portabilite-des-donnees/article-12-portabilite-des-donnees/versions/modification-de-la-sanction-ne-plus-differencier-personne-physique-de-la-personne-morale", 
            "id": "90070", 
            "opinion": "1"
        }, 
        {
            "article_title": "Consacrer un droit effectif \u00e0 la portabilit\u00e9", 
            "date": "2015-10-14T22:39:00+0200", 
            "link": "http://www.republique-numerique.fr/projects/projet-de-loi-numerique/consultation/consultation/opinions/section-2-portabilite-des-donnees/article-12-portabilite-des-donnees/versions/consacrer-un-droit-effectif-a-la-portabilite", 
            "id": "90071", 
            "opinion": "1"
        }, 
        {
            "article_title": "Utilisation de formats libres et ouverts pour l'\u00e9change des donn\u00e9es", 
            "date": "2015-10-14T22:39:00+0200", 
            "link": "http://www.republique-numerique.fr/projects/projet-de-loi-numerique/consultation/consultation/opinions/section-2-portabilite-des-donnees/article-12-portabilite-des-donnees/versions/utilisation-de-formats-libres-et-ouverts-pour-l-echange-des-donnees", 
            "id": "90073", 
            "opinion": "1"
        }, 
        {
            "article_title": "Interdir la revente de nom de domaine", 
            "date": "2015-10-14T22:39:00+0200", 
            "link": "http://www.republique-numerique.fr/projects/projet-de-loi-numerique/consultation/consultation/opinions/section-3-loyaute-des-plateformes/interdir-la-revente-de-nom-de-domaine", 
            "id": "90075", 
            "opinion": "-1"
        }, 
        {
            "article_title": "Article 13 - Principe de loyaut\u00e9 des plateformes en lignes", 
            "date": "2015-10-14T22:39:00+0200", 
            "link": "http://www.republique-numerique.fr/projects/projet-de-loi-numerique/consultation/consultation/opinions/section-3-loyaute-des-plateformes/article-13-principe-de-loyaute-vis-a-vis-des-consommateurs", 
            "id": "90077", 
            "opinion": "1"
        }, 
        {
            "article_title": "Introduire le principe du contradictoire dans le retrait/d\u00e9r\u00e9f\u00e9rencement de contenus par les plateformes", 
            "date": "2015-10-14T22:39:00+0200", 
            "link": "http://www.republique-numerique.fr/projects/projet-de-loi-numerique/consultation/consultation/opinions/section-3-loyaute-des-plateformes/article-13-principe-de-loyaute-vis-a-vis-des-consommateurs/versions/introduire-le-principe-du-contradictoire-dans-le-retrait-dereferencement-de-contenus-par-les-plateformes", 
            "id": "90078", 
            "opinion": "1"
        }, 
        {
            "article_title": "Droits des consommateurs \u00e0 disposer de leurs contenus physiques et d\u00e9mat\u00e9rialis\u00e9s.", 
            "date": "2015-10-14T22:39:00+0200", 
            "link": "http://www.republique-numerique.fr/projects/projet-de-loi-numerique/consultation/consultation/opinions/section-3-loyaute-des-plateformes/droits-des-consommateurs-a-disposer-de-leurs-contenus-physiques-et-dematerialises", 
            "id": "90079", 
            "opinion": "1"
        }, 
        {
            "article_title": "Article 15 - Mieux informer sur les avis en ligne et sur les d\u00e9bits", 
            "date": "2015-10-14T22:39:00+0200", 
            "link": "http://www.republique-numerique.fr/projects/projet-de-loi-numerique/consultation/consultation/opinions/section-4-information-des-consommateurs/article-15-information-des-consommateurs-et-avis-en-ligne", 
            "id": "90080", 
            "opinion": "1"
        }, 
        {
            "article_title": "Article 16 - Libre disposition de ses donn\u00e9es", 
            "date": "2015-10-14T22:39:00+0200", 
            "link": "http://www.republique-numerique.fr/projects/projet-de-loi-numerique/consultation/consultation/opinions/section-1-protection-des-donnees-a-caractere-personnel/article-16-libre-disposition-de-ses-donnees-a-caractere-personnel", 
            "id": "90082", 
            "opinion": "1"
        }, 
        {
            "article_title": "Soumettre le responsable de traitement \u00e0 une obligation de r\u00e9sultat quant \u00e0 la s\u00e9curit\u00e9 des donn\u00e9es", 
            "date": "2015-10-14T22:39:00+0200", 
            "link": "http://www.republique-numerique.fr/projects/projet-de-loi-numerique/consultation/consultation/opinions/section-1-protection-des-donnees-a-caractere-personnel/article-16-libre-disposition-de-ses-donnees-a-caractere-personnel/versions/soumettre-le-responsable-de-traitement-a-une-obligation-de-resultat-quant-a-la-securite-des-donnees", 
            "id": "90083", 
            "opinion": "1"
        }, 
        {
            "article_title": "Ajouter la promotion du chiffrement des communications dans les missions de la CNIL", 
            "date": "2015-10-14T22:39:00+0200", 
            "link": "http://www.republique-numerique.fr/projects/projet-de-loi-numerique/consultation/consultation/opinions/section-1-protection-des-donnees-a-caractere-personnel/article-17-missions-de-la-cnil/versions/ajouter-la-promotion-du-chiffrement-des-communications-dans-les-missions-de-la-cnil", 
            "id": "90084", 
            "opinion": "1"
        }, 
        {
            "article_title": "Article 19 - Droit \u00e0 l\u2019oubli pour les mineurs", 
            "date": "2015-10-14T22:39:00+0200", 
            "link": "http://www.republique-numerique.fr/projects/projet-de-loi-numerique/consultation/consultation/opinions/section-1-protection-des-donnees-a-caractere-personnel/article-19-droit-a-l-oubli-pour-les-mineurs-procedure-acceleree", 
            "id": "90086", 
            "opinion": "-1"
        }, 
        {
            "article_title": "Article 21 - Proc\u00e9dure de sanction de la CNIL", 
            "date": "2015-10-14T22:39:00+0200", 
            "link": "http://www.republique-numerique.fr/projects/projet-de-loi-numerique/consultation/consultation/opinions/section-1-protection-des-donnees-a-caractere-personnel/article-21-procedure-de-sanction-de-la-cnil", 
            "id": "90087", 
            "opinion": "1"
        }, 
        {
            "article_title": "Amendement de la Loi Renseignement pour ajout du juge judiciaire", 
            "date": "2015-10-14T22:39:00+0200", 
            "link": "http://www.republique-numerique.fr/projects/projet-de-loi-numerique/consultation/consultation/opinions/section-2-confidentialite-des-correspondances-privees/amendement-de-la-loi-renseignement-pour-ajout-du-juge-judiciaire", 
            "id": "90088", 
            "opinion": "1"
        }, 
        {
            "article_title": "22 bis : affirmer et encourager le droit au chiffrement des communications", 
            "date": "2015-10-14T22:39:00+0200", 
            "link": "http://www.republique-numerique.fr/projects/projet-de-loi-numerique/consultation/consultation/opinions/section-2-confidentialite-des-correspondances-privees/22-bis-affirmer-et-encourager-le-droit-au-chiffrement-des-communications", 
            "id": "90089", 
            "opinion": "1"
        }, 
        {
            "article_title": "Article 22 - Secret des correspondances num\u00e9riques", 
            "date": "2015-10-14T22:39:00+0200", 
            "link": "http://www.republique-numerique.fr/projects/projet-de-loi-numerique/consultation/consultation/opinions/section-2-confidentialite-des-correspondances-privees/article-22-respect-des-correspondances-privees-numeriques", 
            "id": "90091", 
            "opinion": "1"
        }, 
        {
            "article_title": "Int\u00e9grer les donn\u00e9es de connexion dans le champ du secret des correspondances", 
            "date": "2015-10-14T22:39:00+0200", 
            "link": "http://www.republique-numerique.fr/projects/projet-de-loi-numerique/consultation/consultation/opinions/section-2-confidentialite-des-correspondances-privees/article-22-respect-des-correspondances-privees-numeriques/versions/integrer-les-donnees-de-connexion-dans-le-champ-du-secret-des-correspondances", 
            "id": "90093", 
            "opinion": "1"
        }, 
        {
            "article_title": "Coh\u00e9rence", 
            "date": "2015-10-14T22:39:00+0200", 
            "link": "http://www.republique-numerique.fr/projects/projet-de-loi-numerique/consultation/consultation/opinions/section-2-confidentialite-des-correspondances-privees/article-22-respect-des-correspondances-privees-numeriques/versions/coherence", 
            "id": "90094", 
            "opinion": "1"
        }, 
        {
            "article_title": "23 : Autoriser les actions de groupe notamment en mati\u00e8re d'atteinte au droit sur les donn\u00e9es personnelles et la neutralit\u00e9 du Net", 
            "date": "2015-10-14T22:39:00+0200", 
            "link": "http://www.republique-numerique.fr/projects/projet-de-loi-numerique/consultation/consultation/opinions/section-2-confidentialite-des-correspondances-privees/23-autoriser-les-actions-de-groupe-notamment-en-matiere-d-atteinte-au-droit-sur-les-donnees-personnelles-et-la-neutralite-du-net", 
            "id": "90096", 
            "opinion": "1"
        }, 
        {
            "article_title": "Enseignement de l'informatique", 
            "date": "2015-10-14T22:39:00+0200", 
            "link": "http://www.republique-numerique.fr/projects/projet-de-loi-numerique/consultation/consultation/opinions/section-1-competences-et-organisation/enseignement-de-l-informatique", 
            "id": "90097", 
            "opinion": "1"
        }, 
        {
            "article_title": "L'enseignement de l'informatique pour tous", 
            "date": "2015-10-14T22:39:00+0200", 
            "link": "http://www.republique-numerique.fr/projects/projet-de-loi-numerique/consultation/consultation/opinions/section-1-competences-et-organisation/l-enseignement-de-l-informatique-pour-tous", 
            "id": "90098", 
            "opinion": "1"
        }, 
        {
            "article_title": "Implication des citoyens dans la r\u00e9daction et l'\u00e9laboration des lois via le net", 
            "date": "2015-10-14T22:39:00+0200", 
            "link": "http://www.republique-numerique.fr/projects/projet-de-loi-numerique/consultation/consultation/opinions/section-1-competences-et-organisation/implication-des-citoyens-dans-la-redaction-et-l-elaboration-des-lois-via-le-net", 
            "id": "90099", 
            "opinion": "1"
        }, 
        {
            "article_title": "Article 24 - Ouverture des donn\u00e9es de la couverture num\u00e9rique des territoires", 
            "date": "2015-10-14T22:39:00+0200", 
            "link": "http://www.republique-numerique.fr/projects/projet-de-loi-numerique/consultation/consultation/opinions/section-2-couverture-numerique/article-24-publicite-de-la-qualite-des-services-numeriques", 
            "id": "90100", 
            "opinion": "1"
        }, 
        {
            "article_title": "Format non propri\u00e9taire", 
            "date": "2015-10-14T22:39:00+0200", 
            "link": "http://www.republique-numerique.fr/projects/projet-de-loi-numerique/consultation/consultation/opinions/section-2-couverture-numerique/article-24-publicite-de-la-qualite-des-services-numeriques/versions/format-non-proprietaire", 
            "id": "90101", 
            "opinion": "1"
        }, 
        {
            "article_title": "L'obligation des FAI de permettre l'auto-h\u00e9bergement", 
            "date": "2015-10-14T22:39:00+0200", 
            "link": "http://www.republique-numerique.fr/projects/projet-de-loi-numerique/consultation/consultation/opinions/section-2-couverture-numerique/l-obligation-des-fai-de-permettre-l-auto-hebergement", 
            "id": "90102", 
            "opinion": "1"
        }, 
        {
            "article_title": "Article 26bis - Portage de la plateforme contribuez.republique-numerique.fr \u00e0 d'autre projet de loi", 
            "date": "2015-10-14T22:39:00+0200", 
            "link": "http://www.republique-numerique.fr/projects/projet-de-loi-numerique/consultation/consultation/opinions/section-1-recommande-electronique/article-26bis-portage-de-la-plateforme-contribuez-republique-numerique-fr-a-d-autre-projet-de-loi", 
            "id": "90103", 
            "opinion": "1"
        }, 
        {
            "article_title": "Article 27 - Paiement par SMS", 
            "date": "2015-10-14T22:39:00+0200", 
            "link": "http://www.republique-numerique.fr/projects/projet-de-loi-numerique/consultation/consultation/opinions/section-2-paiement-par-sms/article-27-paiement-par-sms", 
            "id": "90106", 
            "opinion": "-1"
        }, 
        {
            "article_title": "Article 30 - Maintien de la connexion", 
            "date": "2015-10-14T22:39:00+0200", 
            "link": "http://www.republique-numerique.fr/projects/projet-de-loi-numerique/consultation/consultation/opinions/section-3-maintien-de-la-connexion-internet/article-30-maintien-temporaire-de-la-connexion", 
            "id": "90107", 
            "opinion": "1"
        }, 
        {
            "article_title": "Acc\u00e8s des personnes d\u00e9tenues au num\u00e9rique", 
            "date": "2015-10-14T22:39:00+0200", 
            "link": "http://www.republique-numerique.fr/projects/projet-de-loi-numerique/consultation/consultation/opinions/section-3-maintien-de-la-connexion-internet/acces-des-personnes-detenues-au-numerique", 
            "id": "90108", 
            "opinion": "1"
        }, 
        {
            "article_title": "Acc\u00e8s Internet dans les prisons", 
            "date": "2015-10-14T22:39:00+0200", 
            "link": "http://www.republique-numerique.fr/projects/projet-de-loi-numerique/consultation/consultation/opinions/section-3-maintien-de-la-connexion-internet/acces-internet-dans-les-prisons", 
            "id": "90109", 
            "opinion": "1"
        }, 
        {
            "article_title": "Ouvrir une action collective sur la protection des donn\u00e9es personnelles", 
            "date": "2015-10-14T22:39:00+0200", 
            "link": "http://www.republique-numerique.fr/projects/projet-de-loi-numerique/consultation/consultation/opinions/section-1-protection-des-donnees-a-caractere-personnel/ouvrir-une-action-collective-sur-la-protection-des-donnees-personnelles", 
            "id": "90110", 
            "opinion": "1"
        }, 
        {
            "article_title": "Renforcer les modes d\u2019intervention et les moyens de la Commission d\u2019acc\u00e8s aux documents administratifs (CADA)", 
            "date": "2015-10-14T22:39:00+0200", 
            "link": "http://www.republique-numerique.fr/projects/projet-de-loi-numerique/consultation/consultation/opinions/section-1-ouverture-des-donnees-publiques-1/renforcer-les-modes-d-intervention-et-les-moyens-de-la-commission-d-acces-aux-documents-administratifs-cada", 
            "id": "90111", 
            "opinion": "1"
        }, 
        {
            "article_title": "Suppression de la taxe copie priv\u00e9e", 
            "date": "2015-10-14T22:39:00+0200", 
            "link": "http://www.republique-numerique.fr/projects/projet-de-loi-numerique/consultation/consultation/opinions/section-1-ouverture-des-donnees-publiques-1/suppression-de-la-taxe-copie-privee", 
            "id": "90112", 
            "opinion": "1"
        }, 
        {
            "article_title": "Garantir le d\u00e9p\u00f4t en archive ouverte, seul dispositif assurant un libre-acc\u00e8s p\u00e9renne. Conformit\u00e9 aux recommandations europ\u00e9ennes. (embargo).e", 
            "date": "2015-10-14T22:39:00+0200", 
            "link": "http://www.republique-numerique.fr/projects/projet-de-loi-numerique/consultation/consultation/opinions/section-2-travaux-de-recherche-et-de-statistique/article-9-acces-aux-travaux-de-la-recherche-financee-par-des-fonds-publics/versions/garantir-le-depot-en-archive-ouverte-seul-dispositif-assurant-un-libre-acces-perenne-conformite-aux-recommandations-europeennes-embargo-e", 
            "id": "90113", 
            "opinion": "1"
        }, 
        {
            "article_title": "Pour une obligation de d\u00e9p\u00f4t et le libre acc\u00e8s assorti de la libre r\u00e9utilisation des r\u00e9sultats de la recherche", 
            "date": "2015-10-14T22:40:00+0200", 
            "link": "http://www.republique-numerique.fr/projects/projet-de-loi-numerique/consultation/consultation/opinions/section-2-travaux-de-recherche-et-de-statistique/article-9-acces-aux-travaux-de-la-recherche-financee-par-des-fonds-publics/versions/pour-une-obligation-de-depot-et-le-libre-acces-assorti-de-la-libre-reutilisation-des-resultats-de-la-recherche", 
            "id": "90114", 
            "opinion": "1"
        }, 
        {
            "article_title": "Expression des d\u00e9bits en bits et en octets par seconde", 
            "date": "2015-10-14T22:40:00+0200", 
            "link": "http://www.republique-numerique.fr/projects/projet-de-loi-numerique/consultation/consultation/opinions/section-4-information-des-consommateurs/article-15-information-des-consommateurs-et-avis-en-ligne/versions/expression-des-debits-en-bits-et-en-octets-par-seconde", 
            "id": "90115", 
            "opinion": "1"
        }, 
        {
            "article_title": "Anonymisation pr\u00e9alable des bases de donn\u00e9es", 
            "date": "2015-10-14T22:40:00+0200", 
            "link": "http://www.republique-numerique.fr/projects/projet-de-loi-numerique/consultation/consultation/opinions/section-3-donnees-d-interet-general/article-7-acces-de-la-statistique-publique-aux-bases-de-donnees-privees/versions/anonymisation-prealable-des-bases-de-donnees", 
            "id": "90116", 
            "opinion": "1"
        }, 
        {
            "article_title": "G\u00e9n\u00e9ralisation des certifications des usages des outils informatiques et internet (C2i)", 
            "date": "2015-10-14T22:40:00+0200", 
            "link": "http://www.republique-numerique.fr/projects/projet-de-loi-numerique/consultation/consultation/opinions/section-1-ouverture-des-donnees-publiques-1/generalisation-des-certifications-des-usages-des-outils-informatiques-et-internet-c2i", 
            "id": "90118", 
            "opinion": "0"
        }, 
        {
            "article_title": "Les articles sont d\u00e9pos\u00e9s sous une licence libre.", 
            "date": "2015-10-14T22:40:00+0200", 
            "link": "http://www.republique-numerique.fr/projects/projet-de-loi-numerique/consultation/consultation/opinions/section-2-travaux-de-recherche-et-de-statistique/pour-une-obligation-de-depot-des-publications-scientifiques-dans-une-archive-ouverte/versions/les-articles-sont-deposes-sous-une-licence-libre", 
            "id": "90119", 
            "opinion": "1"
        }, 
        {
            "article_title": "La reconnaissance du droit au chiffrement", 
            "date": "2015-10-14T22:40:00+0200", 
            "link": "http://www.republique-numerique.fr/projects/projet-de-loi-numerique/consultation/consultation/opinions/section-1-protection-des-donnees-a-caractere-personnel/la-reconnaissance-du-droit-au-chiffrement", 
            "id": "90120", 
            "opinion": "1"
        }, 
        {
            "article_title": "Consacrer un droit d'information sur les modalit\u00e9s du stockage des fichiers et donn\u00e9es-utilisateur", 
            "date": "2015-10-14T23:09:00+0200", 
            "link": "http://www.republique-numerique.fr/projects/projet-de-loi-numerique/consultation/consultation/opinions/section-2-portabilite-des-donnees/article-12-portabilite-des-donnees/versions/consacrer-un-droit-d-information-sur-les-modalites-du-stockage-des-fichiers-et-donnees-utilisateur", 
            "id": "90342", 
            "opinion": "1"
        }, 
        {
            "article_title": "Promouvoir la mise \u00e0 disposition de livres num\u00e9riques dans les biblioth\u00e8ques publiques", 
            "date": "2015-10-14T23:09:00+0200", 
            "link": "http://www.republique-numerique.fr/projects/projet-de-loi-numerique/consultation/consultation/opinions/section-1-ouverture-des-donnees-publiques-1/promouvoir-la-mise-a-disposition-de-livres-numeriques-dans-les-bibliotheques-publiques", 
            "id": "90345", 
            "opinion": "1"
        }, 
        {
            "article_title": "Cr\u00e9er un droit de citation audiovisuelle", 
            "date": "2015-10-14T23:09:00+0200", 
            "link": "http://www.republique-numerique.fr/projects/projet-de-loi-numerique/consultation/consultation/opinions/section-1-ouverture-des-donnees-publiques-1/creer-un-droit-de-citation-audiovisuelle", 
            "id": "90346", 
            "opinion": "1"
        }, 
        {
            "article_title": "Article 8 quater - Faciliter la r\u00e9utilisation des donn\u00e9es de la recherche", 
            "date": "2015-10-14T23:09:00+0200", 
            "link": "http://www.republique-numerique.fr/projects/projet-de-loi-numerique/consultation/consultation/opinions/section-1-les-communs/article-8-quater-faciliter-la-reutilisation-des-donnees-de-la-recherche", 
            "id": "90347", 
            "opinion": "1"
        }, 
        {
            "article_title": "Article 8ter - Sp\u00e9cifier les crit\u00e8res de qualit\u00e9 des donn\u00e9es lib\u00e9r\u00e9es", 
            "date": "2015-10-14T23:09:00+0200", 
            "link": "http://www.republique-numerique.fr/projects/projet-de-loi-numerique/consultation/consultation/opinions/section-1-les-communs/article-8ter-specifier-les-criteres-de-qualite-des-donnees-liberees", 
            "id": "90348", 
            "opinion": "1"
        }, 
        {
            "article_title": "Article 8 bis - Cr\u00e9er un Registre National du Domaine public", 
            "date": "2015-10-14T23:09:00+0200", 
            "link": "http://www.republique-numerique.fr/projects/projet-de-loi-numerique/consultation/consultation/opinions/section-1-les-communs/article-8-bis-creer-un-registre-national-du-domaine-public", 
            "id": "90349", 
            "opinion": "1"
        }, 
        {
            "article_title": "Ne pas exclure les collectivit\u00e9s territoriales de l'obligation de mise en ligne des documents", 
            "date": "2015-10-14T23:09:00+0200", 
            "link": "http://www.republique-numerique.fr/projects/projet-de-loi-numerique/consultation/consultation/opinions/section-1-ouverture-des-donnees-publiques-1/article-1-elargissement-du-champ-de-diffusion-par-l-administration/versions/ne-pas-exclure-les-collectivites-territoriales-de-l-obligation-de-mise-en-ligne-des-documents", 
            "id": "90350", 
            "opinion": "1"
        }, 
        {
            "article_title": "Clarifier l'articulation entre le principe de libre r\u00e9utilisation des informations publiques, le droit d'auteur des agents publics et le droit des bases de donn\u00e9es", 
            "date": "2015-10-14T23:09:00+0200", 
            "link": "http://www.republique-numerique.fr/projects/projet-de-loi-numerique/consultation/consultation/opinions/section-1-ouverture-des-donnees-publiques-1/article-2-principe-de-libre-reutilisation-des-donnees-pour-les-spic/versions/clarifier-l-articulation-entre-le-principe-de-libre-reutilisation-des-informations-publiques-le-droit-d-auteur-des-agents-publics-et-le-droit-des-bases-de-donnees", 
            "id": "90351", 
            "opinion": "1"
        }, 
        {
            "article_title": "Int\u00e9grer les reproductions fid\u00e8les d'oeuvres en deux dimensions \u00e0 la d\u00e9finition du domaine commun informationnel", 
            "date": "2015-10-14T23:09:00+0200", 
            "link": "http://www.republique-numerique.fr/projects/projet-de-loi-numerique/consultation/consultation/opinions/section-1-les-communs/article-8-definition-du-domaine-commun-informationnel/versions/integrer-les-reproductions-fideles-d-oeuvres-en-deux-dimensions-a-la-definition-du-domaine-commun-informationnel", 
            "id": "90352", 
            "opinion": "1"
        }, 
        {
            "article_title": "Instaurer des sanctions p\u00e9nales pour les atteintes au domaine commun informationnel", 
            "date": "2015-10-14T23:09:00+0200", 
            "link": "http://www.republique-numerique.fr/projects/projet-de-loi-numerique/consultation/consultation/opinions/section-1-les-communs/article-8-definition-du-domaine-commun-informationnel/versions/instaurer-des-sanctions-penales-pour-les-atteintes-au-domaine-commun-informationnel", 
            "id": "90353", 
            "opinion": "1"
        }, 
        {
            "article_title": "Doter la France d'une repr\u00e9sentation structur\u00e9e et officielle dans la gouvernance de l'Internet", 
            "date": "2015-10-14T23:09:00+0200", 
            "link": "http://www.republique-numerique.fr/projects/projet-de-loi-numerique/consultation/consultation/opinions/section-1-neutralite-de-l-internet/doter-la-france-d-une-representation-structuree-et-officielle-dans-la-gouvernance-de-l-internet", 
            "id": "90354", 
            "opinion": "1"
        }, 
        {
            "article_title": "Confier la r\u00e9flexion \u00e9thique sur les impacts du num\u00e9rique \u00e0 une instance sp\u00e9cifique", 
            "date": "2015-10-14T23:09:00+0200", 
            "link": "http://www.republique-numerique.fr/projects/projet-de-loi-numerique/consultation/consultation/opinions/section-1-protection-des-donnees-a-caractere-personnel/confier-la-reflexion-ethique-sur-les-impacts-du-numerique-a-une-instance-specifique", 
            "id": "90356", 
            "opinion": "1"
        }, 
        {
            "article_title": "Garantir l'autorisation du d\u00e9p\u00f4t imm\u00e9diat de la version \"auteur\" dans une archive ouverte", 
            "date": "2015-10-14T23:09:00+0200", 
            "link": "http://www.republique-numerique.fr/projects/projet-de-loi-numerique/consultation/consultation/opinions/section-2-travaux-de-recherche-et-de-statistique/article-9-acces-aux-travaux-de-la-recherche-financee-par-des-fonds-publics/versions/garantir-l-autorisation-du-depot-immediat-de-la-version-auteur-dans-une-archive-ouverte", 
            "id": "90357", 
            "opinion": "1"
        }, 
        {
            "article_title": "Article 9 - Libre acc\u00e8s aux publications scientifiques de la recherche publique", 
            "date": "2015-10-14T23:14:00+0200", 
            "link": "http://www.republique-numerique.fr/projects/projet-de-loi-numerique/consultation/consultation/opinions/section-2-travaux-de-recherche-et-de-statistique/article-9-acces-aux-travaux-de-la-recherche-financee-par-des-fonds-publics", 
            "id": "90022", 
            "opinion": "-1"
        }, 
        {
            "article_title": "Les articles scientifiques sont des biens communs de la connaissance", 
            "date": "2015-10-14T23:16:00+0200", 
            "link": "http://www.republique-numerique.fr/projects/projet-de-loi-numerique/consultation/consultation/opinions/section-2-travaux-de-recherche-et-de-statistique/article-9-acces-aux-travaux-de-la-recherche-financee-par-des-fonds-publics/versions/les-articles-scientifiques-sont-des-biens-communs-de-la-connaissance", 
            "id": "90447", 
            "opinion": "1"
        }, 
        {
            "article_title": "possibilit\u00e9 de passer par un tiers de confiance pour s'assurer la portabilit\u00e9 de ses donn\u00e9es", 
            "date": "2015-10-14T23:46:00+0200", 
            "link": "http://www.republique-numerique.fr/projects/projet-de-loi-numerique/consultation/consultation/opinions/section-2-portabilite-des-donnees/article-12-portabilite-des-donnees/versions/possibilite-de-passer-par-un-tiers-de-confiance-pour-s-assurer-la-portabilite-de-ses-donnees", 
            "id": "90703", 
            "opinion": "1"
        }, 
        {
            "article_title": "\u00e9tendre la mission de conseil de la CNIL au b\u00e9n\u00e9fice des organismes qui mettent en ligne des donn\u00e9es ouvertes", 
            "date": "2015-10-14T23:46:00+0200", 
            "link": "http://www.republique-numerique.fr/projects/projet-de-loi-numerique/consultation/consultation/opinions/section-1-protection-des-donnees-a-caractere-personnel/article-17-missions-de-la-cnil/versions/etendre-la-mission-de-conseil-de-la-cnil-au-benefice-des-organismes-qui-mettent-en-ligne-des-donnees-ouvertes", 
            "id": "90706", 
            "opinion": "1"
        }, 
        {
            "article_title": "Habilitation des agents de l'ARCEP \u00e0 communiquer \u00e0 la CNIL toute violation de la loi informatique et libert\u00e9s", 
            "date": "2015-10-14T23:49:00+0200", 
            "link": "http://www.republique-numerique.fr/projects/projet-de-loi-numerique/consultation/consultation/opinions/section-1-neutralite-de-l-internet/habilitation-des-agents-de-l-arcep-a-communiquer-a-la-cnil-toute-violation-de-la-loi-informatique-et-libertes", 
            "id": "90726", 
            "opinion": "1"
        }, 
        {
            "article_title": "Supprimer les exceptions \u00e0 l\u2019ouverture des donn\u00e9es par d\u00e9faut", 
            "date": "2015-10-14T23:50:00+0200", 
            "link": "http://www.republique-numerique.fr/projects/projet-de-loi-numerique/consultation/consultation/opinions/section-3-donnees-d-interet-general/article-5-ouverture-des-donnees-par-defaut-dans-les-contrats-de-dsp/versions/supprimer-les-exceptions-a-l-ouverture-des-donnees-par-defaut", 
            "id": "90743", 
            "opinion": "1"
        }, 
        {
            "article_title": "Pr\u00e9ciser quels tiers peuvent opposer leur(s) droit(s) de propri\u00e9t\u00e9 intellectuelle sur une donn\u00e9e", 
            "date": "2015-10-14T23:50:00+0200", 
            "link": "http://www.republique-numerique.fr/projects/projet-de-loi-numerique/consultation/consultation/opinions/section-1-ouverture-des-donnees-publiques-1/article-2-principe-de-libre-reutilisation-des-donnees-pour-les-spic/versions/preciser-quels-tiers-peuvent-opposer-leur-s-droit-s-de-propriete-intellectuelle-sur-une-donnee", 
            "id": "90746", 
            "opinion": "1"
        }, 
        {
            "article_title": "Modifier et \u00e9largir la d\u00e9finition de donn\u00e9es de r\u00e9f\u00e9rence", 
            "date": "2015-10-14T23:52:00+0200", 
            "link": "http://www.republique-numerique.fr/projects/projet-de-loi-numerique/consultation/consultation/opinions/section-2-service-public-de-la-donnee-1/article-4-creation-d-un-service-public-de-la-donnee/versions/modifier-et-elargir-la-definition-de-donnees-de-reference", 
            "id": "90753", 
            "opinion": "1"
        }, 
        {
            "article_title": "Reformulation de l\u2019article L. 121-120. afin d'instaurer une r\u00e9elle obligation (contresens entre le premier et le troisi\u00e8me alin\u00e9a)", 
            "date": "2015-10-14T23:53:00+0200", 
            "link": "http://www.republique-numerique.fr/projects/projet-de-loi-numerique/consultation/consultation/opinions/section-2-portabilite-des-donnees/article-12-portabilite-des-donnees/versions/reformulation-de-l-article-contresens-entre-le-premier-et-le-troisieme-alinea", 
            "id": "90765", 
            "opinion": "1"
        }, 
        {
            "article_title": "Augmenter le montant des amendes en cas de manquement aux dispositions relatives \u00e0 la portabilit\u00e9 des donn\u00e9es", 
            "date": "2015-10-14T23:53:00+0200", 
            "link": "http://www.republique-numerique.fr/projects/projet-de-loi-numerique/consultation/consultation/opinions/section-2-portabilite-des-donnees/article-12-portabilite-des-donnees/versions/augmenter-le-montant-des-amendes-en-cas-de-manquement-aux-dispositions-relatives-a-la-portabilite-des-donnees", 
            "id": "90768", 
            "opinion": "1"
        }, 
        {
            "article_title": "Encourager l\u2019introduction de crit\u00e8res objectifs et univoques sur la distinction professionnel/consommateur", 
            "date": "2015-10-14T23:54:00+0200", 
            "link": "http://www.republique-numerique.fr/projects/projet-de-loi-numerique/consultation/consultation/opinions/section-3-loyaute-des-plateformes/article-13-principe-de-loyaute-vis-a-vis-des-consommateurs/versions/encourager-l-introduction-de-criteres-objectifs-et-univoques-sur-la-distinction-professionnel-consommateur", 
            "id": "90775", 
            "opinion": "0"
        }, 
        {
            "article_title": "Permettre aux internautes de signaler la qualit\u00e9 de professionnel d\u2019un utilisateur de la plateforme", 
            "date": "2015-10-14T23:55:00+0200", 
            "link": "http://www.republique-numerique.fr/projects/projet-de-loi-numerique/consultation/consultation/opinions/section-3-loyaute-des-plateformes/article-13-principe-de-loyaute-vis-a-vis-des-consommateurs/versions/permettre-aux-internautes-de-signaler-la-qualite-de-professionnel-d-un-utilisateur-de-la-plateforme", 
            "id": "90780", 
            "opinion": "0"
        }, 
        {
            "article_title": "Consacrer la DGCCRF comme l\u2019autorit\u00e9 administrative de r\u00e9f\u00e9rence en mati\u00e8re de loyaut\u00e9 des plateformes", 
            "date": "2015-10-14T23:55:00+0200", 
            "link": "http://www.republique-numerique.fr/projects/projet-de-loi-numerique/consultation/consultation/opinions/section-3-loyaute-des-plateformes/article-14-regulation/versions/consacrer-la-dgccrf-comme-l-autorite-administrative-de-reference-en-matiere-de-loyaute-des-plateformes", 
            "id": "90785", 
            "opinion": "1"
        }, 
        {
            "article_title": "Promotion de la norme AFNOR par les pouvoirs publics", 
            "date": "2015-10-14T23:55:00+0200", 
            "link": "http://www.republique-numerique.fr/projects/projet-de-loi-numerique/consultation/consultation/opinions/section-4-information-des-consommateurs/article-15-information-des-consommateurs-et-avis-en-ligne/versions/promotion-de-la-norme-afnor-par-les-pouvoirs-publics", 
            "id": "90790", 
            "opinion": "1"
        }, 
        {
            "article_title": "Ne pas limiter le droit \u00e0 r\u00e9paration du consommateur", 
            "date": "2015-10-14T23:56:00+0200", 
            "link": "http://www.republique-numerique.fr/projects/projet-de-loi-numerique/consultation/consultation/opinions/section-4-information-des-consommateurs/article-15-information-des-consommateurs-et-avis-en-ligne/versions/ne-pas-limiter-le-droit-a-reparation-du-consommateur", 
            "id": "90793", 
            "opinion": "1"
        }, 
        {
            "article_title": "Pr\u00e9ciser les garanties et l\u2019information de l\u2019utilisateur du recommand\u00e9 \u00e9lectronique", 
            "date": "2015-10-14T23:58:00+0200", 
            "link": "http://www.republique-numerique.fr/projects/projet-de-loi-numerique/consultation/consultation/opinions/section-1-recommande-electronique/article-26-recommande-electronique/versions/preciser-les-garanties-et-l-information-de-l-utilisateur-du-recommande-electronique", 
            "id": "90816", 
            "opinion": "1"
        }, 
        {
            "article_title": "Article 17 - Evolution des missions de la CNIL", 
            "date": "2015-10-15T00:08:00+0200", 
            "link": "http://www.republique-numerique.fr/projects/projet-de-loi-numerique/consultation/consultation/opinions/section-1-protection-des-donnees-a-caractere-personnel/article-17-missions-de-la-cnil", 
            "id": "90878", 
            "opinion": "1"
        }, 
        {
            "article_title": "L'ouverture des donn\u00e9es brutes doit concerner tous les rapports publi\u00e9s par la puissance publique (rapports r\u00e9alis\u00e9s par ou remis au Gouvernement, rapports Inspections g\u00e9n\u00e9rales, rapports Cour des comptes, \u00e9tudes d'impact, rapports parlementaires, etc.)", 
            "date": "2015-10-15T00:11:00+0200", 
            "link": "http://www.republique-numerique.fr/projects/projet-de-loi-numerique/consultation/consultation/opinions/section-1-ouverture-des-donnees-publiques-1/ouvrir-les-donnees-ayant-servi-a-la-redaction-d-un-rapport-publique/versions/l-ouverture-des-donnees-brutes-doit-concerner-tous-les-rapports-publies-par-la-puissance-publique-rapports-realises-par-ou-remis-au-gouvernement-rapports-des-inspections-generales-rapports-de-la-cour-des-comptes-etudes-d-impact-sur-les-projets-de-loi-rapp", 
            "id": "90885", 
            "opinion": "1"
        }, 
        {
            "article_title": "Cr\u00e9er un domaine public volontaire", 
            "date": "2015-10-15T00:14:00+0200", 
            "link": "http://www.republique-numerique.fr/projects/projet-de-loi-numerique/consultation/consultation/opinions/section-1-les-communs/article-8-definition-du-domaine-commun-informationnel/versions/creer-un-domaine-public-volontaire", 
            "id": "90889", 
            "opinion": "1"
        }, 
        {
            "article_title": "Pas de reproduction ou d'utilisation sans consultation de l'auteur", 
            "date": "2015-10-17T16:13:00+0200", 
            "link": "http://www.republique-numerique.fr/projects/projet-de-loi-numerique/consultation/consultation/opinions/section-1-les-communs/instaurer-la-liberte-de-panorama-en-france/versions/pas-de-reproduction-ou-d-utilisation-sans-consultation-de-l-auteur", 
            "id": "139176", 
            "opinion": "-1"
        }, 
        {
            "article_title": "LA FRAAP DIT NON", 
            "date": "2015-10-17T16:13:00+0200", 
            "link": "http://www.republique-numerique.fr/projects/projet-de-loi-numerique/consultation/consultation/opinions/section-1-les-communs/instaurer-la-liberte-de-panorama-en-france/versions/la-fraap-dit-non", 
            "id": "139183", 
            "opinion": "-1"
        }
    ], 
    "sources": [], 
    "votes_count": 118, 
    "arguments": [], 
    "arguments_count": 0, 
    "propositions_count": 0, 
    "contributions_count": 0
}