{
    "modifications": [], 
    "modifications_count": 0, 
    "sources_count": 0, 
    "propositions": [], 
    "votes": [
        {
            "article_title": "Am\u00e9lioration continue des lois", 
            "date": "2015-10-16T21:09:00+0200", 
            "link": "http://www.republique-numerique.fr/projects/projet-de-loi-numerique/consultation/consultation/opinions/section-1-ouverture-des-donnees-publiques-1/amelioration-continue-des-lois", 
            "id": "125266", 
            "opinion": "1"
        }, 
        {
            "article_title": "D\u00c9MAT\u00c9RIALISATION DE DOSSIERS ADMINISTRATIFS", 
            "date": "2015-10-16T21:13:00+0200", 
            "link": "http://www.republique-numerique.fr/projects/projet-de-loi-numerique/consultation/consultation/opinions/section-1-ouverture-des-donnees-publiques-1/dematerialisation-de-dossiers-administratifs", 
            "id": "125320", 
            "opinion": "1"
        }
    ], 
    "sources": [], 
    "votes_count": 2, 
    "arguments": [], 
    "arguments_count": 0, 
    "propositions_count": 0, 
    "contributions_count": 0
}