{
    "modifications": [], 
    "modifications_count": 0, 
    "sources_count": 0, 
    "propositions": [], 
    "votes": [
        {
            "article_title": "R\u00e9f\u00e9rents num\u00e9riques", 
            "date": "2015-10-17T17:08:00+0200", 
            "link": "http://www.republique-numerique.fr/projects/projet-de-loi-numerique/consultation/consultation/opinions/section-1-ouverture-des-donnees-publiques-1/ecole-entreprise-reunion/versions/referents-numeriques", 
            "id": "140332", 
            "opinion": "-1"
        }, 
        {
            "article_title": "Utilisation de GNU/Linux dans l'administration", 
            "date": "2015-10-17T17:09:00+0200", 
            "link": "http://www.republique-numerique.fr/projects/projet-de-loi-numerique/consultation/consultation/opinions/section-3-donnees-d-interet-general/utilisation-de-gnu-linux-dans-l-administration", 
            "id": "140349", 
            "opinion": "1"
        }, 
        {
            "article_title": "La migration vers Linux a \u00e9t\u00e9 faite au niveau de...", 
            "date": "2015-10-17T17:11:00+0200", 
            "link": "http://www.republique-numerique.fr/projects/projet-de-loi-numerique/consultation/consultation/opinions/section-3-donnees-d-interet-general/utilisation-de-gnu-linux-dans-l-administration/versions/libre-mais-couteux#arg-5356", 
            "id": "140379", 
            "opinion": "1"
        }, 
        {
            "article_title": "Le monde du Libre, comme le monde du Logiciel Prop...", 
            "date": "2015-10-17T17:11:00+0200", 
            "link": "http://www.republique-numerique.fr/projects/projet-de-loi-numerique/consultation/consultation/opinions/section-3-donnees-d-interet-general/utilisation-de-gnu-linux-dans-l-administration/versions/libre-mais-couteux#arg-5175", 
            "id": "140380", 
            "opinion": "1"
        }, 
        {
            "article_title": "Les arguments sont faux, par exemple, le parc mond...", 
            "date": "2015-10-17T17:11:00+0200", 
            "link": "http://www.republique-numerique.fr/projects/projet-de-loi-numerique/consultation/consultation/opinions/section-3-donnees-d-interet-general/utilisation-de-gnu-linux-dans-l-administration/versions/libre-mais-couteux#arg-4746", 
            "id": "140381", 
            "opinion": "1"
        }
    ], 
    "sources": [], 
    "votes_count": 5, 
    "arguments": [], 
    "arguments_count": 0, 
    "propositions_count": 0, 
    "contributions_count": 0
}