{
    "modifications": [], 
    "modifications_count": 0, 
    "sources_count": 0, 
    "propositions": [], 
    "votes": [
        {
            "article_title": "Utiliser les logiciels libres & GNU/Linux dans les \u00e9coles et les universit\u00e9s", 
            "date": "2015-09-30T15:24:00+0200", 
            "link": "http://www.republique-numerique.fr/projects/projet-de-loi-numerique/consultation/consultation/opinions/section-2-service-public-de-la-donnee-1/utiliser-les-logiciels-libres-gnu-linux-dans-les-ecoles-et-les-universites", 
            "id": "20529", 
            "opinion": "1"
        }, 
        {
            "article_title": "Article 11 - Neutralit\u00e9 de l\u2019internet", 
            "date": "2015-09-30T15:28:00+0200", 
            "link": "http://www.republique-numerique.fr/projects/projet-de-loi-numerique/consultation/consultation/opinions/section-1-neutralite-de-l-internet/article-11-neutralite-de-l-internet", 
            "id": "20556", 
            "opinion": "1"
        }, 
        {
            "article_title": "Article 13 - Principe de loyaut\u00e9 des plateformes en lignes", 
            "date": "2015-09-30T15:28:00+0200", 
            "link": "http://www.republique-numerique.fr/projects/projet-de-loi-numerique/consultation/consultation/opinions/section-3-loyaute-des-plateformes/article-13-principe-de-loyaute-vis-a-vis-des-consommateurs", 
            "id": "20561", 
            "opinion": "1"
        }, 
        {
            "article_title": "Article 29 - Accessibilit\u00e9 aux personnes handicap\u00e9es des sites internet des administrations", 
            "date": "2015-09-30T15:29:00+0200", 
            "link": "http://www.republique-numerique.fr/projects/projet-de-loi-numerique/consultation/consultation/opinions/section-2-accessibilite-des-personnes-handicapees-aux-sites-internet-publics/article-29-accessibilite-numerique-des-services-publics", 
            "id": "20563", 
            "opinion": "1"
        }, 
        {
            "article_title": "Article 30 - Maintien de la connexion", 
            "date": "2015-09-30T15:30:00+0200", 
            "link": "http://www.republique-numerique.fr/projects/projet-de-loi-numerique/consultation/consultation/opinions/section-3-maintien-de-la-connexion-internet/article-30-maintien-temporaire-de-la-connexion", 
            "id": "20577", 
            "opinion": "1"
        }, 
        {
            "article_title": "Cr\u00e9er un droit de citation audiovisuelle", 
            "date": "2015-10-17T21:38:00+0200", 
            "link": "http://www.republique-numerique.fr/projects/projet-de-loi-numerique/consultation/consultation/opinions/section-1-ouverture-des-donnees-publiques-1/creer-un-droit-de-citation-audiovisuelle", 
            "id": "144602", 
            "opinion": "1"
        }
    ], 
    "sources": [], 
    "votes_count": 6, 
    "arguments": [], 
    "arguments_count": 0, 
    "propositions_count": 0, 
    "contributions_count": 0
}