{
    "modifications": [], 
    "modifications_count": 0, 
    "sources_count": 0, 
    "propositions": [], 
    "votes": [
        {
            "article_title": "Rendre obligatoire la pr\u00e9sence de cabines t\u00e9l\u00e9phoniques", 
            "date": "2015-10-14T17:47:00+0200", 
            "link": "http://www.republique-numerique.fr/projects/projet-de-loi-numerique/consultation/consultation/opinions/section-3-maintien-de-la-connexion-internet/maintien-des-cabines-telephoniques-garantie-acheminement-appels-et-appels-d-urgence-en-cas-de-coupure-electrique/versions/rendre-obligatoire-la-presence-de-cabines-telephoniques", 
            "id": "86753", 
            "opinion": "1"
        }, 
        {
            "article_title": "Maintien des cabines t\u00e9l\u00e9phoniques : Garantie acheminement Appels et Appels d'Urgence en cas de coupure \u00e9lectrique", 
            "date": "2015-10-14T17:49:00+0200", 
            "link": "http://www.republique-numerique.fr/projects/projet-de-loi-numerique/consultation/consultation/opinions/section-3-maintien-de-la-connexion-internet/maintien-des-cabines-telephoniques-garantie-acheminement-appels-et-appels-d-urgence-en-cas-de-coupure-electrique", 
            "id": "86783", 
            "opinion": "1"
        }
    ], 
    "sources": [], 
    "votes_count": 2, 
    "arguments": [], 
    "arguments_count": 0, 
    "propositions_count": 0, 
    "contributions_count": 0
}