{
    "modifications": [], 
    "modifications_count": 0, 
    "sources_count": 0, 
    "propositions": [], 
    "votes": [
        {
            "article_title": "Utiliser les logiciels libres & GNU/Linux dans les \u00e9coles et les universit\u00e9s", 
            "date": "2015-09-28T19:23:00+0200", 
            "link": "http://www.republique-numerique.fr/projects/projet-de-loi-numerique/consultation/consultation/opinions/section-2-service-public-de-la-donnee-1/utiliser-les-logiciels-libres-gnu-linux-dans-les-ecoles-et-les-universites", 
            "id": "11791", 
            "opinion": "1"
        }, 
        {
            "article_title": "On pourrait m\u00eame l'\u00e9tendre \u00e0 l'ensemble des adm...", 
            "date": "2015-09-28T19:24:00+0200", 
            "link": "http://www.republique-numerique.fr/projects/projet-de-loi-numerique/consultation/consultation/opinions/section-2-service-public-de-la-donnee-1/utiliser-les-logiciels-libres-gnu-linux-dans-les-ecoles-et-les-universites#arg-917", 
            "id": "11795", 
            "opinion": "1"
        }, 
        {
            "article_title": "@Eric Heliot :Faire s'affronter les deux mod\u00e8les...", 
            "date": "2015-09-28T19:24:00+0200", 
            "link": "http://www.republique-numerique.fr/projects/projet-de-loi-numerique/consultation/consultation/opinions/section-2-service-public-de-la-donnee-1/utiliser-les-logiciels-libres-gnu-linux-dans-les-ecoles-et-les-universites#arg-891", 
            "id": "11798", 
            "opinion": "1"
        }, 
        {
            "article_title": "@Alex Hoyau: les politiques d'\u00e9ducation et d'ense...", 
            "date": "2015-09-28T19:25:00+0200", 
            "link": "http://www.republique-numerique.fr/projects/projet-de-loi-numerique/consultation/consultation/opinions/section-2-service-public-de-la-donnee-1/utiliser-les-logiciels-libres-gnu-linux-dans-les-ecoles-et-les-universites#arg-715", 
            "id": "11801", 
            "opinion": "1"
        }, 
        {
            "article_title": "10 arguments pour le logiciel libre- Licences gr...", 
            "date": "2015-09-28T19:26:00+0200", 
            "link": "http://www.republique-numerique.fr/projects/projet-de-loi-numerique/consultation/consultation/opinions/section-2-service-public-de-la-donnee-1/utiliser-les-logiciels-libres-gnu-linux-dans-les-ecoles-et-les-universites#arg-524", 
            "id": "11803", 
            "opinion": "1"
        }, 
        {
            "article_title": "Limiter les frais dans les \u00e9coles et universit\u00e9s...", 
            "date": "2015-09-28T19:26:00+0200", 
            "link": "http://www.republique-numerique.fr/projects/projet-de-loi-numerique/consultation/consultation/opinions/section-2-service-public-de-la-donnee-1/utiliser-les-logiciels-libres-gnu-linux-dans-les-ecoles-et-les-universites#arg-415", 
            "id": "11805", 
            "opinion": "1"
        }, 
        {
            "article_title": "Moindre d\u00e9pendre de Microsoft.Ne pas faire appre...", 
            "date": "2015-09-28T19:26:00+0200", 
            "link": "http://www.republique-numerique.fr/projects/projet-de-loi-numerique/consultation/consultation/opinions/section-2-service-public-de-la-donnee-1/utiliser-les-logiciels-libres-gnu-linux-dans-les-ecoles-et-les-universites#arg-404", 
            "id": "11809", 
            "opinion": "1"
        }
    ], 
    "sources": [], 
    "votes_count": 7, 
    "arguments": [], 
    "arguments_count": 0, 
    "propositions_count": 0, 
    "contributions_count": 0
}