{
    "modifications": [], 
    "modifications_count": 0, 
    "sources_count": 0, 
    "propositions": [], 
    "votes": [
        {
            "article_title": "Syst\u00e9matiser l'utilisation d'outils de communication transparents et bidirectionnels dans les collectivit\u00e9s (collectivit\u00e9s vers les citoyens, citoyens vers les collectivit\u00e9s)", 
            "date": "2015-10-17T11:51:00+0200", 
            "link": "http://www.republique-numerique.fr/projects/projet-de-loi-numerique/consultation/consultation/opinions/section-1-ouverture-des-donnees-publiques-1/systematiser-l-utilisation-d-outils-de-communication-transparents-et-bidirectionnels-dans-les-collectivites-collectivites-vers-les-citoyens-citoyens-vers-les-collectivites", 
            "id": "133371", 
            "opinion": "1"
        }
    ], 
    "sources": [], 
    "votes_count": 1, 
    "arguments": [], 
    "arguments_count": 0, 
    "propositions_count": 0, 
    "contributions_count": 0
}