{
    "modifications": [], 
    "modifications_count": 0, 
    "sources_count": 0, 
    "propositions": [], 
    "votes": [
        {
            "article_title": "Article 1 - Open data par d\u00e9faut (obligation de diffuser en ligne les principaux documents et donn\u00e9es des organismes publics)", 
            "date": "2015-10-17T10:35:00+0200", 
            "link": "http://www.republique-numerique.fr/projects/projet-de-loi-numerique/consultation/consultation/opinions/section-1-ouverture-des-donnees-publiques-1/article-1-elargissement-du-champ-de-diffusion-par-l-administration", 
            "id": "131675", 
            "opinion": "1"
        }, 
        {
            "article_title": "La r\u00e9utilisation des donn\u00e9es \u00e0 caract\u00e8re personnel doit \u00eatre declar\u00e9e \u00e0 la CNIL qui peut s'y opposer.", 
            "date": "2015-10-17T10:38:00+0200", 
            "link": "http://www.republique-numerique.fr/projects/projet-de-loi-numerique/consultation/consultation/opinions/section-1-ouverture-des-donnees-publiques-1/article-3-dispositions-diverses/versions/la-reutilisation-des-donnees-a-caractere-personnel-doit-etre-declaree-a-la-cnil-qui-peut-s-y-opposer", 
            "id": "131744", 
            "opinion": "1"
        }, 
        {
            "article_title": "ouverture du code des algorithmes publics", 
            "date": "2015-10-17T10:40:00+0200", 
            "link": "http://www.republique-numerique.fr/projects/projet-de-loi-numerique/consultation/consultation/opinions/section-1-ouverture-des-donnees-publiques-1/ouverture-du-code-des-algorithmes-publics", 
            "id": "131801", 
            "opinion": "1"
        }, 
        {
            "article_title": "Id\u00e9alement il faudrait pouvoir contr\u00f4ler 3 point...", 
            "date": "2015-10-17T10:42:00+0200", 
            "link": "http://www.republique-numerique.fr/projects/projet-de-loi-numerique/consultation/consultation/opinions/section-1-ouverture-des-donnees-publiques-1/ouverture-du-code-des-algorithmes-publics#arg-2614", 
            "id": "131844", 
            "opinion": "1"
        }, 
        {
            "article_title": "Bonjour,R\u00e9ponse \u00e0 quelques contre-arguments :...", 
            "date": "2015-10-17T10:43:00+0200", 
            "link": "http://www.republique-numerique.fr/projects/projet-de-loi-numerique/consultation/consultation/opinions/section-1-ouverture-des-donnees-publiques-1/ouverture-du-code-des-algorithmes-publics#arg-1388", 
            "id": "131860", 
            "opinion": "1"
        }, 
        {
            "article_title": "Cela doit \u00e9galement inclure les algorithmes \"poli...", 
            "date": "2015-10-17T10:44:00+0200", 
            "link": "http://www.republique-numerique.fr/projects/projet-de-loi-numerique/consultation/consultation/opinions/section-1-ouverture-des-donnees-publiques-1/ouverture-du-code-des-algorithmes-publics#arg-1089", 
            "id": "131878", 
            "opinion": "1"
        }, 
        {
            "article_title": "\"Code is Law\"La proposition de Lawrence Lessig es...", 
            "date": "2015-10-17T10:44:00+0200", 
            "link": "http://www.republique-numerique.fr/projects/projet-de-loi-numerique/consultation/consultation/opinions/section-1-ouverture-des-donnees-publiques-1/ouverture-du-code-des-algorithmes-publics#arg-766", 
            "id": "131886", 
            "opinion": "1"
        }, 
        {
            "article_title": "Nul n'est cens\u00e9 ignorer la loi.Le code c'est la ...", 
            "date": "2015-10-17T10:45:00+0200", 
            "link": "http://www.republique-numerique.fr/projects/projet-de-loi-numerique/consultation/consultation/opinions/section-1-ouverture-des-donnees-publiques-1/ouverture-du-code-des-algorithmes-publics#arg-559", 
            "id": "131895", 
            "opinion": "1"
        }, 
        {
            "article_title": "Vote par internet et ouverture du code", 
            "date": "2015-10-17T10:47:00+0200", 
            "link": "http://www.republique-numerique.fr/projects/projet-de-loi-numerique/consultation/consultation/opinions/section-1-ouverture-des-donnees-publiques-1/le-vote-par-internet/versions/vote-par-internet-et-ouverture-du-code", 
            "id": "131946", 
            "opinion": "1"
        }, 
        {
            "article_title": "Le vote secret garanti \u00e0 toute personne ne pas \u00ea...", 
            "date": "2015-10-17T10:47:00+0200", 
            "link": "http://www.republique-numerique.fr/projects/projet-de-loi-numerique/consultation/consultation/opinions/section-1-ouverture-des-donnees-publiques-1/le-vote-par-internet/versions/vote-par-internet-et-ouverture-du-code#arg-4753", 
            "id": "131951", 
            "opinion": "1"
        }, 
        {
            "article_title": "Mauvais terme", 
            "date": "2015-10-17T10:48:00+0200", 
            "link": "http://www.republique-numerique.fr/projects/projet-de-loi-numerique/consultation/consultation/opinions/section-1-ouverture-des-donnees-publiques-1/digitalisation-de-l-appareil-d-etat/versions/mauvais-terme", 
            "id": "131971", 
            "opinion": "1"
        }, 
        {
            "article_title": "Digitalisation de l'appareil d'\u00e9tat", 
            "date": "2015-10-17T10:49:00+0200", 
            "link": "http://www.republique-numerique.fr/projects/projet-de-loi-numerique/consultation/consultation/opinions/section-1-ouverture-des-donnees-publiques-1/digitalisation-de-l-appareil-d-etat", 
            "id": "131984", 
            "opinion": "1"
        }, 
        {
            "article_title": "niveau minimal de la paricipation de l'\u00e9tat dans le financement de l'oeuvre", 
            "date": "2015-10-17T10:50:00+0200", 
            "link": "http://www.republique-numerique.fr/projects/projet-de-loi-numerique/consultation/consultation/opinions/section-1-ouverture-des-donnees-publiques-1/diffusion-sous-licence-libre-des-oeuvres-numeriques-creees-avec-un-financement-public/versions/niveau-minimal-de-la-paricipation-de-l-etat-dans-le-financement-de-l-oeuvre", 
            "id": "132005", 
            "opinion": "1"
        }, 
        {
            "article_title": "Diffusion sous licence libre des \u0153uvres num\u00e9riques cr\u00e9\u00e9es avec un financement public", 
            "date": "2015-10-17T10:50:00+0200", 
            "link": "http://www.republique-numerique.fr/projects/projet-de-loi-numerique/consultation/consultation/opinions/section-1-ouverture-des-donnees-publiques-1/diffusion-sous-licence-libre-des-oeuvres-numeriques-creees-avec-un-financement-public", 
            "id": "132008", 
            "opinion": "1"
        }, 
        {
            "article_title": "Du capitalisme num\u00e9rique en d\u00e9mocratie participative", 
            "date": "2015-10-17T10:51:00+0200", 
            "link": "http://www.republique-numerique.fr/projects/projet-de-loi-numerique/consultation/consultation/opinions/section-1-ouverture-des-donnees-publiques-1/du-capitalisme-numerique-en-democratie-participative", 
            "id": "132020", 
            "opinion": "-1"
        }, 
        {
            "article_title": "Pas tr\u00e8s clair comme article....", 
            "date": "2015-10-17T10:51:00+0200", 
            "link": "http://www.republique-numerique.fr/projects/projet-de-loi-numerique/consultation/consultation/opinions/section-1-ouverture-des-donnees-publiques-1/du-capitalisme-numerique-en-democratie-participative#arg-1342", 
            "id": "132022", 
            "opinion": "1"
        }, 
        {
            "article_title": "Hors sujet ?...", 
            "date": "2015-10-17T10:51:00+0200", 
            "link": "http://www.republique-numerique.fr/projects/projet-de-loi-numerique/consultation/consultation/opinions/section-1-ouverture-des-donnees-publiques-1/du-capitalisme-numerique-en-democratie-participative#arg-1590", 
            "id": "132023", 
            "opinion": "1"
        }, 
        {
            "article_title": "L'hyper ruralit\u00e9 dans la loi num\u00e9rique", 
            "date": "2015-10-17T10:53:00+0200", 
            "link": "http://www.republique-numerique.fr/projects/projet-de-loi-numerique/consultation/consultation/opinions/section-1-ouverture-des-donnees-publiques-1/l-hyper-ruralite-dans-la-loi-numerique", 
            "id": "132059", 
            "opinion": "1"
        }, 
        {
            "article_title": "En gros, il s'agit de cr\u00e9er une vraie tra\u00e7abilit...", 
            "date": "2015-10-17T10:54:00+0200", 
            "link": "http://www.republique-numerique.fr/projects/projet-de-loi-numerique/consultation/consultation/opinions/section-1-ouverture-des-donnees-publiques-1/rendre-open-source-les-secteurs-alimentaire-et-pharmaceutique#arg-2059", 
            "id": "132087", 
            "opinion": "1"
        }, 
        {
            "article_title": "Ouvrir les donn\u00e9es ayant servi \u00e0 la r\u00e9daction d'un rapport publique", 
            "date": "2015-10-17T10:58:00+0200", 
            "link": "http://www.republique-numerique.fr/projects/projet-de-loi-numerique/consultation/consultation/opinions/section-1-ouverture-des-donnees-publiques-1/ouvrir-les-donnees-ayant-servi-a-la-redaction-d-un-rapport-publique", 
            "id": "132161", 
            "opinion": "1"
        }, 
        {
            "article_title": "22 bis : affirmer et encourager le droit au chiffrement des communications", 
            "date": "2015-10-17T11:01:00+0200", 
            "link": "http://www.republique-numerique.fr/projects/projet-de-loi-numerique/consultation/consultation/opinions/section-2-confidentialite-des-correspondances-privees/22-bis-affirmer-et-encourager-le-droit-au-chiffrement-des-communications", 
            "id": "132217", 
            "opinion": "1"
        }, 
        {
            "article_title": "Consacrer un droit d'information sur les modalit\u00e9s du stockage des fichiers et donn\u00e9es-utilisateur", 
            "date": "2015-10-17T11:02:00+0200", 
            "link": "http://www.republique-numerique.fr/projects/projet-de-loi-numerique/consultation/consultation/opinions/section-2-portabilite-des-donnees/article-12-portabilite-des-donnees/versions/consacrer-un-droit-d-information-sur-les-modalites-du-stockage-des-fichiers-et-donnees-utilisateur", 
            "id": "132244", 
            "opinion": "1"
        }
    ], 
    "sources": [], 
    "votes_count": 22, 
    "arguments": [], 
    "arguments_count": 0, 
    "propositions_count": 0, 
    "contributions_count": 0
}