{
    "modifications": [
        {
            "stats": {
                "source": "0", 
                "votes": "44", 
                "argument": "1"
            }, 
            "votes": {
                "data-ok": "22", 
                "data-mitige": "2", 
                "data-nok": "20"
            }, 
            "link": "/projects/projet-de-loi-numerique/consultation/consultation/opinions/section-2-travaux-de-recherche-et-de-statistique/article-9-acces-aux-travaux-de-la-recherche-financee-par-des-fonds-publics/versions/pas-d-embargo-ou-tres-reduit", 
            "id": "421", 
            "title": "Pas d'embargo ou tr\u00e8s reduit"
        }
    ], 
    "modifications_count": 1, 
    "sources_count": 0, 
    "propositions": [], 
    "votes": [
        {
            "article_title": "Article 9 - Libre acc\u00e8s aux publications scientifiques de la recherche publique", 
            "date": "2015-09-30T17:56:00+0200", 
            "link": "http://www.republique-numerique.fr/projects/projet-de-loi-numerique/consultation/consultation/opinions/section-2-travaux-de-recherche-et-de-statistique/article-9-acces-aux-travaux-de-la-recherche-financee-par-des-fonds-publics", 
            "id": "21277", 
            "opinion": "-1"
        }, 
        {
            "article_title": "Trente-six mois pour les sciences humaines et sociales", 
            "date": "2015-09-30T17:56:00+0200", 
            "link": "http://www.republique-numerique.fr/projects/projet-de-loi-numerique/consultation/consultation/opinions/section-2-travaux-de-recherche-et-de-statistique/article-9-acces-aux-travaux-de-la-recherche-financee-par-des-fonds-publics/versions/trente-six-mois-pour-les-sciences-humaines-et-sociales", 
            "id": "21281", 
            "opinion": "-1"
        }, 
        {
            "article_title": "Pas d'embargo ou tr\u00e8s reduit", 
            "date": "2015-09-30T17:57:00+0200", 
            "link": "http://www.republique-numerique.fr/projects/projet-de-loi-numerique/consultation/consultation/opinions/section-2-travaux-de-recherche-et-de-statistique/article-9-acces-aux-travaux-de-la-recherche-financee-par-des-fonds-publics/versions/pas-d-embargo-ou-tres-reduit", 
            "id": "21287", 
            "opinion": "1"
        }, 
        {
            "article_title": "Une dur\u00e9e d'embargo plus courte, ne pas entraver le TDM (fouille de texte et de donn\u00e9es) et ne pas interdire une exploitation commerciale", 
            "date": "2015-09-30T17:58:00+0200", 
            "link": "http://www.republique-numerique.fr/projects/projet-de-loi-numerique/consultation/consultation/opinions/section-2-travaux-de-recherche-et-de-statistique/article-9-acces-aux-travaux-de-la-recherche-financee-par-des-fonds-publics/versions/une-duree-d-embargo-plus-courte-ne-pas-entraver-le-tdm-fouille-de-texte-et-de-donnees-et-ne-pas-interdire-une-exploitation-commerciale", 
            "id": "21291", 
            "opinion": "0"
        }, 
        {
            "article_title": "Aligner les d\u00e9lais d'embargo sur ceux de la Communaut\u00e9 Europ\u00e9enne (6 et 12 mois maximum)", 
            "date": "2015-09-30T17:59:00+0200", 
            "link": "http://www.republique-numerique.fr/projects/projet-de-loi-numerique/consultation/consultation/opinions/section-2-travaux-de-recherche-et-de-statistique/article-9-acces-aux-travaux-de-la-recherche-financee-par-des-fonds-publics/versions/aligner-les-delais-d-embargo-sur-ceux-de-la-communaute-europeenne-6-et-12-mois-maximum", 
            "id": "21297", 
            "opinion": "-1"
        }, 
        {
            "article_title": "Pas de diff\u00e9rences entre les domaines scientifiques", 
            "date": "2015-09-30T18:00:00+0200", 
            "link": "http://www.republique-numerique.fr/projects/projet-de-loi-numerique/consultation/consultation/opinions/section-2-travaux-de-recherche-et-de-statistique/article-9-acces-aux-travaux-de-la-recherche-financee-par-des-fonds-publics/versions/pas-de-differences-entre-les-domaines-scientifiques", 
            "id": "21300", 
            "opinion": "1"
        }, 
        {
            "article_title": "Aligner les d\u00e9lais d'embargo sur ceux de la Communaut\u00e9 Europ\u00e9enne (6 et 12 mois)", 
            "date": "2015-09-30T18:00:00+0200", 
            "link": "http://www.republique-numerique.fr/projects/projet-de-loi-numerique/consultation/consultation/opinions/section-2-travaux-de-recherche-et-de-statistique/article-9-acces-aux-travaux-de-la-recherche-financee-par-des-fonds-publics/versions/aligner-les-delais-d-embargo-sur-ceux-de-la-communaute-europeenne-6-et-12-mois", 
            "id": "21305", 
            "opinion": "-1"
        }, 
        {
            "article_title": "Supprimer le d\u00e9lai", 
            "date": "2015-09-30T18:01:00+0200", 
            "link": "http://www.republique-numerique.fr/projects/projet-de-loi-numerique/consultation/consultation/opinions/section-2-travaux-de-recherche-et-de-statistique/article-9-acces-aux-travaux-de-la-recherche-financee-par-des-fonds-publics/versions/supprimer-le-delai", 
            "id": "21308", 
            "opinion": "1"
        }, 
        {
            "article_title": "Ne pas oublier les sets de donn\u00e9es li\u00e9s \u00e0 un article", 
            "date": "2015-09-30T18:01:00+0200", 
            "link": "http://www.republique-numerique.fr/projects/projet-de-loi-numerique/consultation/consultation/opinions/section-2-travaux-de-recherche-et-de-statistique/article-9-acces-aux-travaux-de-la-recherche-financee-par-des-fonds-publics/versions/ne-pas-oublier-les-sets-de-donnees-lies-a-un-article", 
            "id": "21311", 
            "opinion": "1"
        }, 
        {
            "article_title": "Mise \u00e0 disposition syst\u00e9matique des r\u00e9sultats de la recherche financ\u00e9e par des fonds publics", 
            "date": "2015-09-30T18:02:00+0200", 
            "link": "http://www.republique-numerique.fr/projects/projet-de-loi-numerique/consultation/consultation/opinions/section-2-travaux-de-recherche-et-de-statistique/article-9-acces-aux-travaux-de-la-recherche-financee-par-des-fonds-publics/versions/mise-a-disposition-systematique-des-resultats-de-la-recherche-financee-par-des-fonds-publics", 
            "id": "21315", 
            "opinion": "-1"
        }, 
        {
            "article_title": "Toute restriction \u00e0 l'acc\u00e8s aux publications scientifiques est n\u00e9faste et co\u00fbteuse.", 
            "date": "2015-09-30T18:02:00+0200", 
            "link": "http://www.republique-numerique.fr/projects/projet-de-loi-numerique/consultation/consultation/opinions/section-2-travaux-de-recherche-et-de-statistique/article-9-acces-aux-travaux-de-la-recherche-financee-par-des-fonds-publics/versions/toute-restriction-a-l-acces-aux-publications-scientifiques-est-nefaste-et-couteuse", 
            "id": "21317", 
            "opinion": "1"
        }, 
        {
            "article_title": "Cr\u00e9ation d\u2019un statut de m\u00e9diateur num\u00e9rique", 
            "date": "2015-10-08T17:01:00+0200", 
            "link": "http://www.republique-numerique.fr/projects/projet-de-loi-numerique/consultation/consultation/opinions/section-3-maintien-de-la-connexion-internet/creation-d-un-statut-de-mediateur-numerique", 
            "id": "40347", 
            "opinion": "1"
        }, 
        {
            "article_title": "Enseignement de l'informatique", 
            "date": "2015-10-08T17:01:00+0200", 
            "link": "http://www.republique-numerique.fr/projects/projet-de-loi-numerique/consultation/consultation/opinions/section-1-competences-et-organisation/enseignement-de-l-informatique", 
            "id": "40350", 
            "opinion": "0"
        }, 
        {
            "article_title": "Int\u00e9grer l'usage num\u00e9rique \u00e0 l'apprentissage d\u00e8s le coll\u00e8ge dans les cours d'\u00e9ducation civique", 
            "date": "2015-10-08T17:02:00+0200", 
            "link": "http://www.republique-numerique.fr/projects/projet-de-loi-numerique/consultation/consultation/opinions/section-1-competences-et-organisation/integrer-l-usage-numerique-a-l-apprentissage-des-le-college-dans-les-cours-d-education-civique", 
            "id": "40351", 
            "opinion": "1"
        }, 
        {
            "article_title": "Apprentissage de la programmation", 
            "date": "2015-10-08T17:02:00+0200", 
            "link": "http://www.republique-numerique.fr/projects/projet-de-loi-numerique/consultation/consultation/opinions/section-1-competences-et-organisation/apprentissage-de-la-programmation", 
            "id": "40352", 
            "opinion": "0"
        }, 
        {
            "article_title": "Utilisation de GNU/Linux dans l'administration", 
            "date": "2015-10-08T17:07:00+0200", 
            "link": "http://www.republique-numerique.fr/projects/projet-de-loi-numerique/consultation/consultation/opinions/section-3-donnees-d-interet-general/utilisation-de-gnu-linux-dans-l-administration", 
            "id": "40378", 
            "opinion": "1"
        }, 
        {
            "article_title": "Protection, r\u00e9compense et ind\u00e9mnisation des lanceurs d'alertes", 
            "date": "2015-10-08T17:07:00+0200", 
            "link": "http://www.republique-numerique.fr/projects/projet-de-loi-numerique/consultation/consultation/opinions/section-3-donnees-d-interet-general/protection-recompense-et-indemnisation-des-lanceurs-d-alertes", 
            "id": "40380", 
            "opinion": "1"
        }, 
        {
            "article_title": "Article 7 - Acc\u00e8s de la statistique publique \u00e0 certaines bases de donn\u00e9es priv\u00e9es", 
            "date": "2015-10-08T17:08:00+0200", 
            "link": "http://www.republique-numerique.fr/projects/projet-de-loi-numerique/consultation/consultation/opinions/section-3-donnees-d-interet-general/article-7-acces-de-la-statistique-publique-aux-bases-de-donnees-privees", 
            "id": "40384", 
            "opinion": "1"
        }, 
        {
            "article_title": "Utiliser Wikip\u00e9dia comme outil p\u00e9dagogique et \u00e9ducatif pour apprendre des comp\u00e9tences et des valeurs", 
            "date": "2015-10-08T17:08:00+0200", 
            "link": "http://www.republique-numerique.fr/projects/projet-de-loi-numerique/consultation/consultation/opinions/section-1-les-communs/utiliser-wikipedia-comme-outil-pedagogique-et-educatif-pour-apprendre-des-competences-et-des-valeurs", 
            "id": "40389", 
            "opinion": "-1"
        }, 
        {
            "article_title": "Article 15.0 - Permettre une meilleure distinction des \"publicit\u00e9s d\u00e9guis\u00e9es\" sur les supports m\u00e9diatiques.", 
            "date": "2015-10-08T17:11:00+0200", 
            "link": "http://www.republique-numerique.fr/projects/projet-de-loi-numerique/consultation/consultation/opinions/section-4-information-des-consommateurs/article-15-0-permettre-une-meilleure-distinction-des-publicites-deguisees-sur-les-supports-mediatiques", 
            "id": "40403", 
            "opinion": "1"
        }, 
        {
            "article_title": "Article 27 - Paiement par SMS", 
            "date": "2015-10-08T17:13:00+0200", 
            "link": "http://www.republique-numerique.fr/projects/projet-de-loi-numerique/consultation/consultation/opinions/section-2-paiement-par-sms/article-27-paiement-par-sms", 
            "id": "40417", 
            "opinion": "-1"
        }, 
        {
            "article_title": "Acc\u00e8s aux personnes isol\u00e9es et \u00e2g\u00e9es", 
            "date": "2015-10-08T17:14:00+0200", 
            "link": "http://www.republique-numerique.fr/projects/projet-de-loi-numerique/consultation/consultation/opinions/section-1-accessibilite-des-personnes-handicapees-aux-services-telephoniques/acces-aux-personnes-isolees-et-agees", 
            "id": "40425", 
            "opinion": "1"
        }, 
        {
            "article_title": "Article 29 - Accessibilit\u00e9 aux personnes handicap\u00e9es des sites internet des administrations", 
            "date": "2015-10-08T17:14:00+0200", 
            "link": "http://www.republique-numerique.fr/projects/projet-de-loi-numerique/consultation/consultation/opinions/section-2-accessibilite-des-personnes-handicapees-aux-sites-internet-publics/article-29-accessibilite-numerique-des-services-publics", 
            "id": "40428", 
            "opinion": "0"
        }, 
        {
            "article_title": "Garantir l'autorisation du d\u00e9p\u00f4t imm\u00e9diat de la version \"auteur\" dans une archive ouverte", 
            "date": "2015-10-13T11:14:00+0200", 
            "link": "http://www.republique-numerique.fr/projects/projet-de-loi-numerique/consultation/consultation/opinions/section-2-travaux-de-recherche-et-de-statistique/article-9-acces-aux-travaux-de-la-recherche-financee-par-des-fonds-publics/versions/garantir-l-autorisation-du-depot-immediat-de-la-version-auteur-dans-une-archive-ouverte", 
            "id": "63864", 
            "opinion": "1"
        }, 
        {
            "article_title": "Confier la r\u00e9flexion \u00e9thique sur les impacts du num\u00e9rique \u00e0 une instance sp\u00e9cifique", 
            "date": "2015-10-13T11:15:00+0200", 
            "link": "http://www.republique-numerique.fr/projects/projet-de-loi-numerique/consultation/consultation/opinions/section-1-protection-des-donnees-a-caractere-personnel/confier-la-reflexion-ethique-sur-les-impacts-du-numerique-a-une-instance-specifique", 
            "id": "63908", 
            "opinion": "0"
        }, 
        {
            "article_title": "Doter la France d'une repr\u00e9sentation structur\u00e9e et officielle dans la gouvernance de l'Internet", 
            "date": "2015-10-13T11:15:00+0200", 
            "link": "http://www.republique-numerique.fr/projects/projet-de-loi-numerique/consultation/consultation/opinions/section-1-neutralite-de-l-internet/doter-la-france-d-une-representation-structuree-et-officielle-dans-la-gouvernance-de-l-internet", 
            "id": "63937", 
            "opinion": "1"
        }, 
        {
            "article_title": "Prot\u00e9ger le droit des auteurs d'articles scientifiques, pour permettre le libre acc\u00e8s \u00e0 la recherche scientifique", 
            "date": "2015-10-14T12:01:00+0200", 
            "link": "http://www.republique-numerique.fr/projects/projet-de-loi-numerique/consultation/consultation/opinions/section-2-travaux-de-recherche-et-de-statistique/article-9-acces-aux-travaux-de-la-recherche-financee-par-des-fonds-publics/versions/proteger-le-droit-des-auteurs-d-articles-scientifiques-pour-permettre-le-libre-acces-a-la-recherche-scientifique", 
            "id": "82541", 
            "opinion": "1"
        }, 
        {
            "article_title": "Dur\u00e9e d'embargo et TDM", 
            "date": "2015-10-16T11:52:00+0200", 
            "link": "http://www.republique-numerique.fr/projects/projet-de-loi-numerique/consultation/consultation/opinions/section-2-travaux-de-recherche-et-de-statistique/article-9-acces-aux-travaux-de-la-recherche-financee-par-des-fonds-publics/versions/duree-d-embargo-et-tdm-1", 
            "id": "111610", 
            "opinion": "-1"
        }
    ], 
    "sources": [], 
    "votes_count": 28, 
    "arguments": [], 
    "arguments_count": 2, 
    "propositions_count": 0, 
    "contributions_count": 3
}