{
    "modifications": [], 
    "modifications_count": 0, 
    "sources_count": 0, 
    "propositions": [], 
    "votes": [
        {
            "article_title": "Mise \u00e0 disposition obligatoire de documents en formats ouverts pour les concours et documents administratifs", 
            "date": "2015-10-15T09:01:00+0200", 
            "link": "http://www.republique-numerique.fr/projects/projet-de-loi-numerique/consultation/consultation/opinions/section-1-competences-et-organisation/mise-a-disposition-obligatoire-de-documents-en-formats-ouverts-pour-les-concours-et-documents-administratifs", 
            "id": "92030", 
            "opinion": "1"
        }
    ], 
    "sources": [], 
    "votes_count": 1, 
    "arguments": [], 
    "arguments_count": 0, 
    "propositions_count": 0, 
    "contributions_count": 0
}