{
    "modifications": [], 
    "modifications_count": 0, 
    "sources_count": 0, 
    "propositions": [], 
    "votes": [
        {
            "article_title": "E-Testament", 
            "date": "2015-10-18T20:39:00+0200", 
            "link": "http://www.republique-numerique.fr/projects/projet-de-loi-numerique/consultation/consultation/opinions/section-2-portabilite-des-donnees/e-testament", 
            "id": "161490", 
            "opinion": "1"
        }, 
        {
            "article_title": "interdire la commercialisation des donnees publiques gratuites", 
            "date": "2015-10-18T20:47:00+0200", 
            "link": "http://www.republique-numerique.fr/projects/projet-de-loi-numerique/consultation/consultation/opinions/section-1-ouverture-des-donnees-publiques-1/article-2-principe-de-libre-reutilisation-des-donnees-pour-les-spic/versions/interdire-la-commercialisation-des-donnees-publiques-gratuites", 
            "id": "161697", 
            "opinion": "1"
        }, 
        {
            "article_title": "Sensibilisation aux dangers du num\u00e9rique", 
            "date": "2015-10-18T20:55:00+0200", 
            "link": "http://www.republique-numerique.fr/projects/projet-de-loi-numerique/consultation/consultation/opinions/section-4-information-des-consommateurs/sensibilisation-aux-dangers-du-numerique", 
            "id": "161883", 
            "opinion": "1"
        }, 
        {
            "article_title": "Site sous le r\u00e9gime Francais", 
            "date": "2015-10-18T21:01:00+0200", 
            "link": "http://www.republique-numerique.fr/projects/projet-de-loi-numerique/consultation/consultation/opinions/section-4-information-des-consommateurs/site-sous-le-regime-francais", 
            "id": "162052", 
            "opinion": "1"
        }, 
        {
            "article_title": "Acc\u00e8s des personnes d\u00e9tenues au num\u00e9rique", 
            "date": "2015-10-18T21:14:00+0200", 
            "link": "http://www.republique-numerique.fr/projects/projet-de-loi-numerique/consultation/consultation/opinions/section-3-maintien-de-la-connexion-internet/acces-des-personnes-detenues-au-numerique", 
            "id": "162348", 
            "opinion": "1"
        }, 
        {
            "article_title": "Acc\u00e8s Internet dans les prisons", 
            "date": "2015-10-18T21:22:00+0200", 
            "link": "http://www.republique-numerique.fr/projects/projet-de-loi-numerique/consultation/consultation/opinions/section-3-maintien-de-la-connexion-internet/acces-internet-dans-les-prisons", 
            "id": "162511", 
            "opinion": "1"
        }, 
        {
            "article_title": "Encadrer les moyens de paiement par le biais de la facture Internet de mani\u00e8re \u00e0 garantir les droits du consommateur", 
            "date": "2015-10-18T21:33:00+0200", 
            "link": "http://www.republique-numerique.fr/projects/projet-de-loi-numerique/consultation/consultation/opinions/section-2-paiement-par-sms/encadrer-les-moyens-de-paiement-par-le-biais-de-la-facture-internet-de-maniere-a-garantir-les-droits-du-consommateur", 
            "id": "162806", 
            "opinion": "1"
        }, 
        {
            "article_title": "D\u00e9mat\u00e9rialiser les titres restaurant", 
            "date": "2015-10-18T21:37:00+0200", 
            "link": "http://www.republique-numerique.fr/projects/projet-de-loi-numerique/consultation/consultation/opinions/section-2-paiement-par-sms/dematerialiser-les-titres-restaurant", 
            "id": "162910", 
            "opinion": "-1"
        }, 
        {
            "article_title": "Je suis actuellement b\u00e9n\u00e9ficiaire de tickets res...", 
            "date": "2015-10-18T21:38:00+0200", 
            "link": "http://www.republique-numerique.fr/projects/projet-de-loi-numerique/consultation/consultation/opinions/section-2-paiement-par-sms/dematerialiser-les-titres-restaurant#arg-5964", 
            "id": "162936", 
            "opinion": "1"
        }
    ], 
    "sources": [], 
    "votes_count": 9, 
    "arguments": [], 
    "arguments_count": 0, 
    "propositions_count": 0, 
    "contributions_count": 0
}