{
    "modifications": [], 
    "modifications_count": 0, 
    "sources_count": 0, 
    "propositions": [
        {
            "article_title": "veritable acceleration du deploiement de la fibre optique", 
            "votes": {
                "data-ok": "159", 
                "data-mitige": "12", 
                "data-nok": "13"
            }, 
            "stats": {
                "modification": "1", 
                "source": "0", 
                "votes": "184", 
                "arguments": "16"
            }, 
            "id": "148", 
            "article_link": "/projects/projet-de-loi-numerique/consultation/consultation/opinions/section-1-ouverture-des-donnees-publiques-1/veritable-acceleration-du-deploiement-de-la-fibre-optique"
        }
    ], 
    "votes": [], 
    "sources": [], 
    "votes_count": 0, 
    "arguments": [], 
    "arguments_count": 0, 
    "propositions_count": 1, 
    "contributions_count": 1
}