{
    "modifications": [], 
    "modifications_count": 0, 
    "sources_count": 0, 
    "propositions": [], 
    "votes": [
        {
            "article_title": "Au-del\u00e0 de la seule \u00ab v\u00e9rification \u00bb des avis, \u00e9tendre les obligations de loyaut\u00e9 du site web aux autres aspects du traitement des avis (collecte, mod\u00e9ration, publication)", 
            "date": "2015-10-17T11:35:00+0200", 
            "link": "http://www.republique-numerique.fr/projects/projet-de-loi-numerique/consultation/consultation/opinions/section-4-information-des-consommateurs/article-15-information-des-consommateurs-et-avis-en-ligne/versions/au-dela-de-la-seule-verification-des-avis-etendre-les-obligations-de-loyaute-du-site-web-aux-autres-aspects-du-traitement-des-avis-collecte-moderation-publication", 
            "id": "132923", 
            "opinion": "1"
        }, 
        {
            "article_title": "Donner au consommateur un moyen r\u00e9el d\u2019\u00e9valuer le site en faisant r\u00e9f\u00e9rence \u00e0 la norme fran\u00e7aise ou \u00e0 la norme internationale (sans les rendre obligatoires)", 
            "date": "2015-10-17T11:35:00+0200", 
            "link": "http://www.republique-numerique.fr/projects/projet-de-loi-numerique/consultation/consultation/opinions/section-4-information-des-consommateurs/article-15-information-des-consommateurs-et-avis-en-ligne/versions/donner-au-consommateur-un-moyen-reel-d-evaluer-le-site-en-faisant-reference-a-la-norme-francaise-ou-a-la-norme-internationale-sans-les-rendre-obligatoires", 
            "id": "132928", 
            "opinion": "1"
        }, 
        {
            "article_title": "Pr\u00e9ciser que la v\u00e9rification de l\u2019avis porte sur la r\u00e9alit\u00e9 de l\u2019exp\u00e9rience de consommation", 
            "date": "2015-10-17T11:35:00+0200", 
            "link": "http://www.republique-numerique.fr/projects/projet-de-loi-numerique/consultation/consultation/opinions/section-4-information-des-consommateurs/article-15-information-des-consommateurs-et-avis-en-ligne/versions/preciser-que-la-verification-de-l-avis-porte-sur-la-realite-de-l-experience-de-consommation", 
            "id": "132934", 
            "opinion": "1"
        }, 
        {
            "article_title": "Rendre obligatoire l\u2019affichage de tous les avis, et leur classement par d\u00e9faut des avis dans un ordre chronologique (le plus neutre)", 
            "date": "2015-10-17T11:35:00+0200", 
            "link": "http://www.republique-numerique.fr/projects/projet-de-loi-numerique/consultation/consultation/opinions/section-4-information-des-consommateurs/article-15-information-des-consommateurs-et-avis-en-ligne/versions/rendre-obligatoire-l-affichage-de-tous-les-avis-et-leur-classement-par-defaut-des-avis-dans-un-ordre-chronologique-le-plus-neutre", 
            "id": "132941", 
            "opinion": "1"
        }
    ], 
    "sources": [], 
    "votes_count": 4, 
    "arguments": [], 
    "arguments_count": 0, 
    "propositions_count": 0, 
    "contributions_count": 0
}