{
    "modifications": [], 
    "modifications_count": 0, 
    "sources_count": 0, 
    "propositions": [], 
    "votes": [
        {
            "article_title": "E-Testament", 
            "date": "2015-10-01T13:43:00+0200", 
            "link": "http://www.republique-numerique.fr/projects/projet-de-loi-numerique/consultation/consultation/opinions/section-2-portabilite-des-donnees/e-testament", 
            "id": "23572", 
            "opinion": "1"
        }, 
        {
            "article_title": "Article 31 - Acc\u00e8s \u00e0 la connexion", 
            "date": "2015-10-01T13:46:00+0200", 
            "link": "http://www.republique-numerique.fr/projects/projet-de-loi-numerique/consultation/consultation/opinions/section-3-maintien-de-la-connexion-internet/article-31-acces-a-la-connexion", 
            "id": "23591", 
            "opinion": "1"
        }, 
        {
            "article_title": "Obligation pour les op\u00e9rateurs de proposer un service d'acc\u00e8s \u00e0 Internet nu", 
            "date": "2015-10-01T13:47:00+0200", 
            "link": "http://www.republique-numerique.fr/projects/projet-de-loi-numerique/consultation/consultation/opinions/section-3-maintien-de-la-connexion-internet/obligation-pour-les-operateurs-de-proposer-un-service-d-acces-a-internet-nu", 
            "id": "23601", 
            "opinion": "1"
        }, 
        {
            "article_title": "Utilisation de GNU/Linux dans l'administration", 
            "date": "2015-10-01T13:49:00+0200", 
            "link": "http://www.republique-numerique.fr/projects/projet-de-loi-numerique/consultation/consultation/opinions/section-3-donnees-d-interet-general/utilisation-de-gnu-linux-dans-l-administration", 
            "id": "23614", 
            "opinion": "1"
        }, 
        {
            "article_title": "GNU/Linux n'est qu'un logiciel libre parmi d'autres", 
            "date": "2015-10-08T13:08:00+0200", 
            "link": "http://www.republique-numerique.fr/projects/projet-de-loi-numerique/consultation/consultation/opinions/section-2-service-public-de-la-donnee-1/utiliser-les-logiciels-libres-gnu-linux-dans-les-ecoles-et-les-universites/versions/gnu-linux-n-est-qu-un-logiciel-libre-parmi-d-autres", 
            "id": "39358", 
            "opinion": "1"
        }, 
        {
            "article_title": "Le don par SMS pour toutes les associations", 
            "date": "2015-10-08T13:08:00+0200", 
            "link": "http://www.republique-numerique.fr/projects/projet-de-loi-numerique/consultation/consultation/opinions/section-2-paiement-par-sms/article-27-paiement-par-sms/versions/le-don-par-sms-pour-toutes-les-associations", 
            "id": "39365", 
            "opinion": "-1"
        }, 
        {
            "article_title": "remplacer \"open data\" par \"donn\u00e9es ouvertes\" dans votre pr\u00e9sentation", 
            "date": "2015-10-08T13:10:00+0200", 
            "link": "http://www.republique-numerique.fr/projects/projet-de-loi-numerique/consultation/consultation/opinions/section-1-ouverture-des-donnees-publiques-1/article-1-elargissement-du-champ-de-diffusion-par-l-administration/versions/remplacer-open-data-par-donnees-ouvertes-dans-votre-presentation", 
            "id": "39373", 
            "opinion": "-1"
        }, 
        {
            "article_title": "Respect de la loi informatique et libert\u00e9s", 
            "date": "2015-10-08T13:11:00+0200", 
            "link": "http://www.republique-numerique.fr/projects/projet-de-loi-numerique/consultation/consultation/opinions/section-1-ouverture-des-donnees-publiques-1/article-1-elargissement-du-champ-de-diffusion-par-l-administration/versions/respect-de-la-loi-informatique-et-libertes", 
            "id": "39379", 
            "opinion": "1"
        }, 
        {
            "article_title": "Vote par internet et ouverture du code", 
            "date": "2015-10-08T13:11:00+0200", 
            "link": "http://www.republique-numerique.fr/projects/projet-de-loi-numerique/consultation/consultation/opinions/section-1-ouverture-des-donnees-publiques-1/le-vote-par-internet/versions/vote-par-internet-et-ouverture-du-code", 
            "id": "39388", 
            "opinion": "1"
        }, 
        {
            "article_title": "article primordiale Acc\u00e8s a la 4G et la fibre pour tous", 
            "date": "2015-10-08T13:21:00+0200", 
            "link": "http://www.republique-numerique.fr/projects/projet-de-loi-numerique/consultation/consultation/opinions/section-1-ouverture-des-donnees-publiques-1/article-primordiale-acces-a-la-4g-et-la-fibre-pour-tous", 
            "id": "39463", 
            "opinion": "1"
        }, 
        {
            "article_title": "logiciel anti publicite", 
            "date": "2015-10-08T13:27:00+0200", 
            "link": "http://www.republique-numerique.fr/projects/projet-de-loi-numerique/consultation/consultation/opinions/section-3-loyaute-des-plateformes/interdiction-de-la-vente-liee-ordinateur-systeme-d-exploitation/versions/logiciel-anti-publicite", 
            "id": "39490", 
            "opinion": "1"
        }, 
        {
            "article_title": "Cr\u00e9ation d'une plate-forme num\u00e9rique \"@voter\" avec une carte d'\u00e9lecteur num\u00e9rique d\u00e8s l'\u00e2ge de 16 ans.", 
            "date": "2015-10-08T13:31:00+0200", 
            "link": "http://www.republique-numerique.fr/projects/projet-de-loi-numerique/consultation/consultation/opinions/section-1-ouverture-des-donnees-publiques-1/creation-d-une-plate-forme-numerique-voter-avec-une-carte-d-electeur-numerique-des-l-age-de-16-ans", 
            "id": "39510", 
            "opinion": "-1"
        }, 
        {
            "article_title": "DROIT \u00e0 la FIBRE", 
            "date": "2015-10-08T13:32:00+0200", 
            "link": "http://www.republique-numerique.fr/projects/projet-de-loi-numerique/consultation/consultation/opinions/section-1-ouverture-des-donnees-publiques-1/droit-a-la-fibre", 
            "id": "39519", 
            "opinion": "1"
        }, 
        {
            "article_title": "G\u00e9n\u00e9ralisation des certifications des usages des outils informatiques et internet (C2i)", 
            "date": "2015-10-08T13:33:00+0200", 
            "link": "http://www.republique-numerique.fr/projects/projet-de-loi-numerique/consultation/consultation/opinions/section-1-ouverture-des-donnees-publiques-1/generalisation-des-certifications-des-usages-des-outils-informatiques-et-internet-c2i", 
            "id": "39523", 
            "opinion": "1"
        }, 
        {
            "article_title": "D\u00e9menteler la HADOPI", 
            "date": "2015-10-08T13:33:00+0200", 
            "link": "http://www.republique-numerique.fr/projects/projet-de-loi-numerique/consultation/consultation/opinions/section-1-ouverture-des-donnees-publiques-1/dementeler-la-hadopi", 
            "id": "39530", 
            "opinion": "1"
        }, 
        {
            "article_title": "Cr\u00e9ation d'un service num\u00e9rique gratuit pour les webmestres des Mairies", 
            "date": "2015-10-08T13:34:00+0200", 
            "link": "http://www.republique-numerique.fr/projects/projet-de-loi-numerique/consultation/consultation/opinions/section-1-ouverture-des-donnees-publiques-1/creation-d-un-service-numerique-gratuit-pour-les-webmestres-des-mairies", 
            "id": "39536", 
            "opinion": "1"
        }
    ], 
    "sources": [], 
    "votes_count": 16, 
    "arguments": [], 
    "arguments_count": 0, 
    "propositions_count": 0, 
    "contributions_count": 0
}