{
    "modifications": [], 
    "modifications_count": 0, 
    "sources_count": 0, 
    "propositions": [], 
    "votes": [
        {
            "article_title": "Utiliser les logiciels libres & GNU/Linux dans les \u00e9coles et les universit\u00e9s", 
            "date": "2015-10-06T17:46:00+0200", 
            "link": "http://www.republique-numerique.fr/projects/projet-de-loi-numerique/consultation/consultation/opinions/section-2-service-public-de-la-donnee-1/utiliser-les-logiciels-libres-gnu-linux-dans-les-ecoles-et-les-universites", 
            "id": "33928", 
            "opinion": "1"
        }, 
        {
            "article_title": "Protection, r\u00e9compense et ind\u00e9mnisation des lanceurs d'alertes", 
            "date": "2015-10-06T17:47:00+0200", 
            "link": "http://www.republique-numerique.fr/projects/projet-de-loi-numerique/consultation/consultation/opinions/section-3-donnees-d-interet-general/protection-recompense-et-indemnisation-des-lanceurs-d-alertes", 
            "id": "33937", 
            "opinion": "1"
        }, 
        {
            "article_title": "Utilisation de GNU/Linux dans l'administration", 
            "date": "2015-10-06T17:48:00+0200", 
            "link": "http://www.republique-numerique.fr/projects/projet-de-loi-numerique/consultation/consultation/opinions/section-3-donnees-d-interet-general/utilisation-de-gnu-linux-dans-l-administration", 
            "id": "33940", 
            "opinion": "1"
        }, 
        {
            "article_title": "Article 11.0 - Financement public du logiciel libre", 
            "date": "2015-10-06T17:49:00+0200", 
            "link": "http://www.republique-numerique.fr/projects/projet-de-loi-numerique/consultation/consultation/opinions/section-2-travaux-de-recherche-et-de-statistique/article-11-0-financement-public-du-logiciel-libre", 
            "id": "33944", 
            "opinion": "1"
        }, 
        {
            "article_title": "Inscrire dans la loi le d\u00e9lit de non respect de la neutralit\u00e9 du net", 
            "date": "2015-10-06T17:50:00+0200", 
            "link": "http://www.republique-numerique.fr/projects/projet-de-loi-numerique/consultation/consultation/opinions/section-1-neutralite-de-l-internet/inscrire-dans-la-loi-le-delit-de-non-respect-de-la-neutralite-du-net", 
            "id": "33946", 
            "opinion": "1"
        }, 
        {
            "article_title": "Interdiction de la vente li\u00e9e ordinateur/syst\u00e8me d'exploitation", 
            "date": "2015-10-06T17:53:00+0200", 
            "link": "http://www.republique-numerique.fr/projects/projet-de-loi-numerique/consultation/consultation/opinions/section-3-loyaute-des-plateformes/interdiction-de-la-vente-liee-ordinateur-systeme-d-exploitation", 
            "id": "33952", 
            "opinion": "1"
        }, 
        {
            "article_title": "Amendement de la Loi Renseignement pour ajout du juge judiciaire", 
            "date": "2015-10-06T17:54:00+0200", 
            "link": "http://www.republique-numerique.fr/projects/projet-de-loi-numerique/consultation/consultation/opinions/section-2-confidentialite-des-correspondances-privees/amendement-de-la-loi-renseignement-pour-ajout-du-juge-judiciaire", 
            "id": "33958", 
            "opinion": "1"
        }, 
        {
            "article_title": "Imposer le chiffrement par d\u00e9faut des courriers \u00e9lectroniques par les divers prestataires", 
            "date": "2015-10-06T17:54:00+0200", 
            "link": "http://www.republique-numerique.fr/projects/projet-de-loi-numerique/consultation/consultation/opinions/section-2-confidentialite-des-correspondances-privees/imposer-le-chiffrement-par-defaut-des-courriers-electroniques-par-les-divers-prestataires", 
            "id": "33959", 
            "opinion": "1"
        }, 
        {
            "article_title": "Apprentissage de la programmation", 
            "date": "2015-10-06T17:55:00+0200", 
            "link": "http://www.republique-numerique.fr/projects/projet-de-loi-numerique/consultation/consultation/opinions/section-1-competences-et-organisation/apprentissage-de-la-programmation", 
            "id": "33963", 
            "opinion": "1"
        }, 
        {
            "article_title": "Droit \u00e0 l'internet", 
            "date": "2015-10-06T17:55:00+0200", 
            "link": "http://www.republique-numerique.fr/projects/projet-de-loi-numerique/consultation/consultation/opinions/section-1-competences-et-organisation/droit-a-l-internet", 
            "id": "33964", 
            "opinion": "1"
        }, 
        {
            "article_title": "Implication des citoyens dans la r\u00e9daction et l'\u00e9laboration des lois via le net", 
            "date": "2015-10-06T17:56:00+0200", 
            "link": "http://www.republique-numerique.fr/projects/projet-de-loi-numerique/consultation/consultation/opinions/section-1-competences-et-organisation/implication-des-citoyens-dans-la-redaction-et-l-elaboration-des-lois-via-le-net", 
            "id": "33968", 
            "opinion": "1"
        }, 
        {
            "article_title": "R\u00e9seau internet public", 
            "date": "2015-10-06T17:57:00+0200", 
            "link": "http://www.republique-numerique.fr/projects/projet-de-loi-numerique/consultation/consultation/opinions/section-2-couverture-numerique/reseau-internet-public", 
            "id": "33971", 
            "opinion": "0"
        }, 
        {
            "article_title": "Article 26bis - Portage de la plateforme contribuez.republique-numerique.fr \u00e0 d'autre projet de loi", 
            "date": "2015-10-06T17:57:00+0200", 
            "link": "http://www.republique-numerique.fr/projects/projet-de-loi-numerique/consultation/consultation/opinions/section-1-recommande-electronique/article-26bis-portage-de-la-plateforme-contribuez-republique-numerique-fr-a-d-autre-projet-de-loi", 
            "id": "33974", 
            "opinion": "1"
        }, 
        {
            "article_title": "Cr\u00e9ation d'un plate-forme de r\u00e9vision de la consitution", 
            "date": "2015-10-06T17:57:00+0200", 
            "link": "http://www.republique-numerique.fr/projects/projet-de-loi-numerique/consultation/consultation/opinions/section-1-recommande-electronique/creation-d-un-plate-forme-de-revision-de-la-consitution", 
            "id": "33977", 
            "opinion": "1"
        }, 
        {
            "article_title": "Encadrement et simplification des CGU et CGV.", 
            "date": "2015-10-06T17:58:00+0200", 
            "link": "http://www.republique-numerique.fr/projects/projet-de-loi-numerique/consultation/consultation/opinions/section-1-recommande-electronique/encadrement-et-simplification-des-cgu-et-cgv", 
            "id": "33980", 
            "opinion": "1"
        }, 
        {
            "article_title": "Un des supports personnels d'acc\u00e8s \u00e0 internet sera d\u00e9clar\u00e9 insaisissable", 
            "date": "2015-10-06T18:00:00+0200", 
            "link": "http://www.republique-numerique.fr/projects/projet-de-loi-numerique/consultation/consultation/opinions/section-3-maintien-de-la-connexion-internet/un-des-supports-personnels-d-acces-a-internet-sera-declare-insaisissable", 
            "id": "33987", 
            "opinion": "1"
        }, 
        {
            "article_title": "Ouvrir les donn\u00e9es ayant servi \u00e0 la r\u00e9daction d'un rapport publique", 
            "date": "2015-10-06T18:06:00+0200", 
            "link": "http://www.republique-numerique.fr/projects/projet-de-loi-numerique/consultation/consultation/opinions/section-1-ouverture-des-donnees-publiques-1/ouvrir-les-donnees-ayant-servi-a-la-redaction-d-un-rapport-publique", 
            "id": "34010", 
            "opinion": "1"
        }, 
        {
            "article_title": "Pr\u00e9ciser le p\u00e9rim\u00e8tre d'application de la Neutralit\u00e9 du Net", 
            "date": "2015-10-06T18:08:00+0200", 
            "link": "http://www.republique-numerique.fr/projects/projet-de-loi-numerique/consultation/consultation/opinions/section-1-neutralite-de-l-internet/article-11-neutralite-de-l-internet/versions/preciser-le-perimetre-d-application-de-la-neutralite-du-net", 
            "id": "34014", 
            "opinion": "1"
        }, 
        {
            "article_title": "article 8 bis \u00ab\u00a0D\u00e9finition des communs volontaires\u00a0\u00bb", 
            "date": "2015-10-06T18:09:00+0200", 
            "link": "http://www.republique-numerique.fr/projects/projet-de-loi-numerique/consultation/consultation/opinions/section-1-les-communs/article-8-bis-definition-des-communs-volontaires", 
            "id": "34016", 
            "opinion": "1"
        }, 
        {
            "article_title": "22 bis : affirmer et encourager le droit au chiffrement des communications", 
            "date": "2015-10-06T18:11:00+0200", 
            "link": "http://www.republique-numerique.fr/projects/projet-de-loi-numerique/consultation/consultation/opinions/section-2-confidentialite-des-correspondances-privees/22-bis-affirmer-et-encourager-le-droit-au-chiffrement-des-communications", 
            "id": "34019", 
            "opinion": "1"
        }, 
        {
            "article_title": "23 : Autoriser les actions de groupe notamment en mati\u00e8re d'atteinte au droit sur les donn\u00e9es personnelles et la neutralit\u00e9 du Net", 
            "date": "2015-10-06T18:12:00+0200", 
            "link": "http://www.republique-numerique.fr/projects/projet-de-loi-numerique/consultation/consultation/opinions/section-2-confidentialite-des-correspondances-privees/23-autoriser-les-actions-de-groupe-notamment-en-matiere-d-atteinte-au-droit-sur-les-donnees-personnelles-et-la-neutralite-du-net", 
            "id": "34020", 
            "opinion": "1"
        }, 
        {
            "article_title": "ouverture du code des algorithmes publics", 
            "date": "2015-10-06T18:15:00+0200", 
            "link": "http://www.republique-numerique.fr/projects/projet-de-loi-numerique/consultation/consultation/opinions/section-1-ouverture-des-donnees-publiques-1/ouverture-du-code-des-algorithmes-publics", 
            "id": "34025", 
            "opinion": "1"
        }, 
        {
            "article_title": "Suppression de la taxe copie priv\u00e9e", 
            "date": "2015-10-06T18:16:00+0200", 
            "link": "http://www.republique-numerique.fr/projects/projet-de-loi-numerique/consultation/consultation/opinions/section-1-ouverture-des-donnees-publiques-1/suppression-de-la-taxe-copie-privee", 
            "id": "34027", 
            "opinion": "1"
        }, 
        {
            "article_title": "Diffusion sous licence libre des \u0153uvres num\u00e9riques cr\u00e9\u00e9es avec un financement public", 
            "date": "2015-10-06T18:17:00+0200", 
            "link": "http://www.republique-numerique.fr/projects/projet-de-loi-numerique/consultation/consultation/opinions/section-1-ouverture-des-donnees-publiques-1/diffusion-sous-licence-libre-des-oeuvres-numeriques-creees-avec-un-financement-public", 
            "id": "34029", 
            "opinion": "1"
        }, 
        {
            "article_title": "niveau minimal de la paricipation de l'\u00e9tat dans le financement de l'oeuvre", 
            "date": "2015-10-06T18:17:00+0200", 
            "link": "http://www.republique-numerique.fr/projects/projet-de-loi-numerique/consultation/consultation/opinions/section-1-ouverture-des-donnees-publiques-1/diffusion-sous-licence-libre-des-oeuvres-numeriques-creees-avec-un-financement-public/versions/niveau-minimal-de-la-paricipation-de-l-etat-dans-le-financement-de-l-oeuvre", 
            "id": "34031", 
            "opinion": "1"
        }, 
        {
            "article_title": "Article (num\u00e9ro \u00e0 incr\u00e9menter) - De l'acc\u00e8s au code source", 
            "date": "2015-10-06T18:18:00+0200", 
            "link": "http://www.republique-numerique.fr/projects/projet-de-loi-numerique/consultation/consultation/opinions/section-1-ouverture-des-donnees-publiques-1/article-numero-a-incrementer-de-l-acces-au-code-source", 
            "id": "34033", 
            "opinion": "1"
        }, 
        {
            "article_title": "Rendre public la pr\u00e9sences des diff\u00e9rents ministres, d\u00e9put\u00e9s, etc... aux conseils.", 
            "date": "2015-10-06T18:20:00+0200", 
            "link": "http://www.republique-numerique.fr/projects/projet-de-loi-numerique/consultation/consultation/opinions/section-1-ouverture-des-donnees-publiques-1/rendre-public-la-presences-des-differents-ministres-deputes-etc-aux-conseils", 
            "id": "34041", 
            "opinion": "1"
        }, 
        {
            "article_title": "Obligation du format ouvert et libre pour toute administration publique et institution de formation", 
            "date": "2015-10-06T18:20:00+0200", 
            "link": "http://www.republique-numerique.fr/projects/projet-de-loi-numerique/consultation/consultation/opinions/section-1-ouverture-des-donnees-publiques-1/obligation-du-format-ouvert-et-libre-pour-toute-administration-publique-et-institution-de-formation", 
            "id": "34043", 
            "opinion": "1"
        }, 
        {
            "article_title": "DROIT A L' INFORMATION UNIVERSEL & EUROPEEN", 
            "date": "2015-10-06T18:23:00+0200", 
            "link": "http://www.republique-numerique.fr/projects/projet-de-loi-numerique/consultation/consultation/opinions/section-1-ouverture-des-donnees-publiques-1/droit-a-l-information-universel-europeen", 
            "id": "34046", 
            "opinion": "1"
        }, 
        {
            "article_title": "Trop co\u00fbteux", 
            "date": "2015-10-06T18:25:00+0200", 
            "link": "http://www.republique-numerique.fr/projects/projet-de-loi-numerique/consultation/consultation/opinions/section-1-ouverture-des-donnees-publiques-1/droit-a-l-information-universel-europeen/versions/trop-couteux", 
            "id": "34047", 
            "opinion": "-1"
        }, 
        {
            "article_title": "Le syst\u00e8me peut sembler \"archa\u00efque\" et en m\u00eame ...", 
            "date": "2015-10-09T14:13:00+0200", 
            "link": "http://www.republique-numerique.fr/projects/projet-de-loi-numerique/consultation/consultation/opinions/section-1-ouverture-des-donnees-publiques-1/le-vote-par-internet#arg-2615", 
            "id": "42998", 
            "opinion": "1"
        }, 
        {
            "article_title": "Le vote par Internet, tout comme le vote \u00e9lectron...", 
            "date": "2015-10-09T14:13:00+0200", 
            "link": "http://www.republique-numerique.fr/projects/projet-de-loi-numerique/consultation/consultation/opinions/section-1-ouverture-des-donnees-publiques-1/le-vote-par-internet#arg-2540", 
            "id": "42999", 
            "opinion": "1"
        }, 
        {
            "article_title": "Il ne faut pas confondre l'exercice de la d\u00e9mocra...", 
            "date": "2015-10-09T14:13:00+0200", 
            "link": "http://www.republique-numerique.fr/projects/projet-de-loi-numerique/consultation/consultation/opinions/section-1-ouverture-des-donnees-publiques-1/le-vote-par-internet#arg-2315", 
            "id": "43000", 
            "opinion": "1"
        }, 
        {
            "article_title": "D\u00e9menteler la HADOPI", 
            "date": "2015-10-09T14:18:00+0200", 
            "link": "http://www.republique-numerique.fr/projects/projet-de-loi-numerique/consultation/consultation/opinions/section-1-ouverture-des-donnees-publiques-1/dementeler-la-hadopi", 
            "id": "43012", 
            "opinion": "1"
        }, 
        {
            "article_title": "Digitalisation de l'appareil d'\u00e9tat", 
            "date": "2015-10-09T14:19:00+0200", 
            "link": "http://www.republique-numerique.fr/projects/projet-de-loi-numerique/consultation/consultation/opinions/section-1-ouverture-des-donnees-publiques-1/digitalisation-de-l-appareil-d-etat", 
            "id": "43023", 
            "opinion": "1"
        }, 
        {
            "article_title": "Am\u00e9lioration continue des lois", 
            "date": "2015-10-09T14:20:00+0200", 
            "link": "http://www.republique-numerique.fr/projects/projet-de-loi-numerique/consultation/consultation/opinions/section-1-ouverture-des-donnees-publiques-1/amelioration-continue-des-lois", 
            "id": "43026", 
            "opinion": "1"
        }, 
        {
            "article_title": "Sans parler des lois, il y a un nombre incalculabl...", 
            "date": "2015-10-09T14:21:00+0200", 
            "link": "http://www.republique-numerique.fr/projects/projet-de-loi-numerique/consultation/consultation/opinions/section-1-ouverture-des-donnees-publiques-1/amelioration-continue-des-lois#arg-1222", 
            "id": "43033", 
            "opinion": "1"
        }, 
        {
            "article_title": "Publication en ligne des budgets de chaque organisme d'Etat", 
            "date": "2015-10-09T14:22:00+0200", 
            "link": "http://www.republique-numerique.fr/projects/projet-de-loi-numerique/consultation/consultation/opinions/section-1-ouverture-des-donnees-publiques-1/publication-en-ligne-des-budgets-de-chaque-organisme-d-etat", 
            "id": "43035", 
            "opinion": "1"
        }, 
        {
            "article_title": "En gros, il s'agit de cr\u00e9er une vraie tra\u00e7abilit...", 
            "date": "2015-10-09T14:23:00+0200", 
            "link": "http://www.republique-numerique.fr/projects/projet-de-loi-numerique/consultation/consultation/opinions/section-1-ouverture-des-donnees-publiques-1/rendre-open-source-les-secteurs-alimentaire-et-pharmaceutique#arg-2059", 
            "id": "43041", 
            "opinion": "1"
        }, 
        {
            "article_title": "Rendre \"open-source\" les secteurs alimentaire et pharmaceutique", 
            "date": "2015-10-09T14:24:00+0200", 
            "link": "http://www.republique-numerique.fr/projects/projet-de-loi-numerique/consultation/consultation/opinions/section-1-ouverture-des-donnees-publiques-1/rendre-open-source-les-secteurs-alimentaire-et-pharmaceutique", 
            "id": "43042", 
            "opinion": "1"
        }, 
        {
            "article_title": "Le code source d'un logiciel est un document administratif communicable", 
            "date": "2015-10-09T14:25:00+0200", 
            "link": "http://www.republique-numerique.fr/projects/projet-de-loi-numerique/consultation/consultation/opinions/section-1-ouverture-des-donnees-publiques-1/le-code-source-d-un-logiciel-est-un-document-administratif-communicable", 
            "id": "43054", 
            "opinion": "1"
        }, 
        {
            "article_title": "Le code source est effectivement un texte qui docu...", 
            "date": "2015-10-09T14:26:00+0200", 
            "link": "http://www.republique-numerique.fr/projects/projet-de-loi-numerique/consultation/consultation/opinions/section-1-ouverture-des-donnees-publiques-1/le-code-source-d-un-logiciel-est-un-document-administratif-communicable#arg-2698", 
            "id": "43057", 
            "opinion": "1"
        }, 
        {
            "article_title": "Par ailleurs, la disponibilit\u00e9 du code permettrai...", 
            "date": "2015-10-09T14:26:00+0200", 
            "link": "http://www.republique-numerique.fr/projects/projet-de-loi-numerique/consultation/consultation/opinions/section-1-ouverture-des-donnees-publiques-1/le-code-source-d-un-logiciel-est-un-document-administratif-communicable#arg-2775", 
            "id": "43058", 
            "opinion": "1"
        }, 
        {
            "article_title": "La taxe doit \u00eatre supprim\u00e9e et non clarifi\u00e9e ; ...", 
            "date": "2015-10-09T14:26:00+0200", 
            "link": "http://www.republique-numerique.fr/projects/projet-de-loi-numerique/consultation/consultation/opinions/section-1-ouverture-des-donnees-publiques-1/clarification-de-la-taxe-copie-privee#arg-2163", 
            "id": "43061", 
            "opinion": "1"
        }, 
        {
            "article_title": "Renforcer les modes d\u2019intervention et les moyens de la Commission d\u2019acc\u00e8s aux documents administratifs (CADA)", 
            "date": "2015-10-09T14:28:00+0200", 
            "link": "http://www.republique-numerique.fr/projects/projet-de-loi-numerique/consultation/consultation/opinions/section-1-ouverture-des-donnees-publiques-1/renforcer-les-modes-d-intervention-et-les-moyens-de-la-commission-d-acces-aux-documents-administratifs-cada", 
            "id": "43071", 
            "opinion": "1"
        }, 
        {
            "article_title": "L'\u00e9ducation nationale n'a pas vocation \u00e0 former ...", 
            "date": "2015-10-09T14:29:00+0200", 
            "link": "http://www.republique-numerique.fr/projects/projet-de-loi-numerique/consultation/consultation/opinions/section-2-service-public-de-la-donnee-1/utiliser-les-logiciels-libres-gnu-linux-dans-les-ecoles-et-les-universites#arg-2671", 
            "id": "43077", 
            "opinion": "1"
        }, 
        {
            "article_title": "Il n'y a pas que l'utilisation de logiciels libres...", 
            "date": "2015-10-09T14:30:00+0200", 
            "link": "http://www.republique-numerique.fr/projects/projet-de-loi-numerique/consultation/consultation/opinions/section-2-service-public-de-la-donnee-1/utiliser-les-logiciels-libres-gnu-linux-dans-les-ecoles-et-les-universites#arg-2641", 
            "id": "43081", 
            "opinion": "1"
        }, 
        {
            "article_title": "Si l'Education Nationale passait sous logiciels li...", 
            "date": "2015-10-09T14:30:00+0200", 
            "link": "http://www.republique-numerique.fr/projects/projet-de-loi-numerique/consultation/consultation/opinions/section-2-service-public-de-la-donnee-1/utiliser-les-logiciels-libres-gnu-linux-dans-les-ecoles-et-les-universites#arg-2370", 
            "id": "43084", 
            "opinion": "1"
        }, 
        {
            "article_title": "Le logiciels privateurs enregistrent parfois les d...", 
            "date": "2015-10-09T14:30:00+0200", 
            "link": "http://www.republique-numerique.fr/projects/projet-de-loi-numerique/consultation/consultation/opinions/section-2-service-public-de-la-donnee-1/utiliser-les-logiciels-libres-gnu-linux-dans-les-ecoles-et-les-universites#arg-2369", 
            "id": "43087", 
            "opinion": "1"
        }, 
        {
            "article_title": "Il ne faut pas engendrer de d\u00e9pendance envers les...", 
            "date": "2015-10-09T14:30:00+0200", 
            "link": "http://www.republique-numerique.fr/projects/projet-de-loi-numerique/consultation/consultation/opinions/section-2-service-public-de-la-donnee-1/utiliser-les-logiciels-libres-gnu-linux-dans-les-ecoles-et-les-universites#arg-2366", 
            "id": "43089", 
            "opinion": "1"
        }, 
        {
            "article_title": "L'utilisation et les mises a jour constantes de mi...", 
            "date": "2015-10-09T14:31:00+0200", 
            "link": "http://www.republique-numerique.fr/projects/projet-de-loi-numerique/consultation/consultation/opinions/section-2-service-public-de-la-donnee-1/utiliser-les-logiciels-libres-gnu-linux-dans-les-ecoles-et-les-universites#arg-2299", 
            "id": "43091", 
            "opinion": "1"
        }, 
        {
            "article_title": "C'est meme super pour les couts de maintenance car...", 
            "date": "2015-10-09T14:31:00+0200", 
            "link": "http://www.republique-numerique.fr/projects/projet-de-loi-numerique/consultation/consultation/opinions/section-2-service-public-de-la-donnee-1/utiliser-les-logiciels-libres-gnu-linux-dans-les-ecoles-et-les-universites#arg-2238", 
            "id": "43094", 
            "opinion": "1"
        }, 
        {
            "article_title": "Meme en forcant le Libre, le choix EST libre. Les ...", 
            "date": "2015-10-09T14:31:00+0200", 
            "link": "http://www.republique-numerique.fr/projects/projet-de-loi-numerique/consultation/consultation/opinions/section-2-service-public-de-la-donnee-1/utiliser-les-logiciels-libres-gnu-linux-dans-les-ecoles-et-les-universites#arg-2237", 
            "id": "43100", 
            "opinion": "1"
        }, 
        {
            "article_title": "Article 5 - Cr\u00e9ation d'un compte unique des services administratifs en ligne pour chaque citoyen", 
            "date": "2015-10-09T14:42:00+0200", 
            "link": "http://www.republique-numerique.fr/projects/projet-de-loi-numerique/consultation/consultation/opinions/section-2-service-public-de-la-donnee-1/article-5-creation-d-un-compte-unique-des-services-administratifs-en-ligne-pour-chaque-citoyen", 
            "id": "43172", 
            "opinion": "1"
        }, 
        {
            "article_title": "J'approuve \u00e0 condition que l'usage des nouvelles ...", 
            "date": "2015-10-09T14:43:00+0200", 
            "link": "http://www.republique-numerique.fr/projects/projet-de-loi-numerique/consultation/consultation/opinions/section-2-service-public-de-la-donnee-1/article-5-creation-d-un-compte-unique-des-services-administratifs-en-ligne-pour-chaque-citoyen#arg-2713", 
            "id": "43174", 
            "opinion": "1"
        }, 
        {
            "article_title": "Bloquer les publicit\u00e9s par d\u00e9faut dans les lieux destin\u00e9s \u00e0 l'Education.", 
            "date": "2015-10-09T14:43:00+0200", 
            "link": "http://www.republique-numerique.fr/projects/projet-de-loi-numerique/consultation/consultation/opinions/section-2-service-public-de-la-donnee-1/bloquer-les-publicites-par-defaut-dans-les-lieux-destines-a-l-education", 
            "id": "43176", 
            "opinion": "1"
        }, 
        {
            "article_title": "Qwant", 
            "date": "2015-10-09T14:46:00+0200", 
            "link": "http://www.republique-numerique.fr/projects/projet-de-loi-numerique/consultation/consultation/opinions/section-2-service-public-de-la-donnee-1/qwant", 
            "id": "43197", 
            "opinion": "1"
        }, 
        {
            "article_title": "Qwant est le seul moteur de recherche qui ob\u00e9it a...", 
            "date": "2015-10-09T14:46:00+0200", 
            "link": "http://www.republique-numerique.fr/projects/projet-de-loi-numerique/consultation/consultation/opinions/section-2-service-public-de-la-donnee-1/qwant#arg-1602", 
            "id": "43198", 
            "opinion": "1"
        }, 
        {
            "article_title": "Qwant ou DuckDuckGo ne tracent pas. C'est bien mie...", 
            "date": "2015-10-09T14:46:00+0200", 
            "link": "http://www.republique-numerique.fr/projects/projet-de-loi-numerique/consultation/consultation/opinions/section-2-service-public-de-la-donnee-1/qwant#arg-1085", 
            "id": "43199", 
            "opinion": "1"
        }, 
        {
            "article_title": "Sous r\u00e9serve de mettre en oeuvre toutes les mesur...", 
            "date": "2015-10-09T14:51:00+0200", 
            "link": "http://www.republique-numerique.fr/projects/projet-de-loi-numerique/consultation/consultation/opinions/section-3-donnees-d-interet-general/article-7-acces-de-la-statistique-publique-aux-bases-de-donnees-privees#arg-2514", 
            "id": "43218", 
            "opinion": "1"
        }, 
        {
            "article_title": "Article 6 - Ouverture des donn\u00e9es des subventions publiques", 
            "date": "2015-10-09T14:53:00+0200", 
            "link": "http://www.republique-numerique.fr/projects/projet-de-loi-numerique/consultation/consultation/opinions/section-3-donnees-d-interet-general/article-6-ouverture-des-donnees-dans-les-conventions-de-subventions", 
            "id": "43224", 
            "opinion": "1"
        }, 
        {
            "article_title": "On ne peut pas r\u00e9compenser et indemniser un lance...", 
            "date": "2015-10-09T14:53:00+0200", 
            "link": "http://www.republique-numerique.fr/projects/projet-de-loi-numerique/consultation/consultation/opinions/section-3-donnees-d-interet-general/protection-recompense-et-indemnisation-des-lanceurs-d-alertes#arg-1959", 
            "id": "43230", 
            "opinion": "1"
        }, 
        {
            "article_title": "La protection oui, la r\u00e9compense et l\u2019indemnisa...", 
            "date": "2015-10-09T14:54:00+0200", 
            "link": "http://www.republique-numerique.fr/projects/projet-de-loi-numerique/consultation/consultation/opinions/section-3-donnees-d-interet-general/protection-recompense-et-indemnisation-des-lanceurs-d-alertes#arg-692", 
            "id": "43231", 
            "opinion": "1"
        }, 
        {
            "article_title": "Le principe est bon, mais la notion de r\u00e9compense...", 
            "date": "2015-10-09T14:54:00+0200", 
            "link": "http://www.republique-numerique.fr/projects/projet-de-loi-numerique/consultation/consultation/opinions/section-3-donnees-d-interet-general/protection-recompense-et-indemnisation-des-lanceurs-d-alertes#arg-571", 
            "id": "43233", 
            "opinion": "1"
        }, 
        {
            "article_title": "Il faut absolument pas de r\u00e9compenses, par contre...", 
            "date": "2015-10-09T14:55:00+0200", 
            "link": "http://www.republique-numerique.fr/projects/projet-de-loi-numerique/consultation/consultation/opinions/section-3-donnees-d-interet-general/protection-recompense-et-indemnisation-des-lanceurs-d-alertes#arg-273", 
            "id": "43236", 
            "opinion": "1"
        }, 
        {
            "article_title": "La protection des lanceurs d'alerte est n\u00e9cessair...", 
            "date": "2015-10-09T14:55:00+0200", 
            "link": "http://www.republique-numerique.fr/projects/projet-de-loi-numerique/consultation/consultation/opinions/section-3-donnees-d-interet-general/protection-recompense-et-indemnisation-des-lanceurs-d-alertes#arg-543", 
            "id": "43238", 
            "opinion": "1"
        }, 
        {
            "article_title": "D\u00e9voiler les interactions entre le Gouvernement et les lobbystes", 
            "date": "2015-10-09T14:57:00+0200", 
            "link": "http://www.republique-numerique.fr/projects/projet-de-loi-numerique/consultation/consultation/opinions/section-3-donnees-d-interet-general/devoiler-les-interactions-entre-le-gouvernement-et-les-lobbystes", 
            "id": "43243", 
            "opinion": "0"
        }, 
        {
            "article_title": "Cr\u00e9ation d'une platforme de modification des textes officiels.", 
            "date": "2015-10-09T14:59:00+0200", 
            "link": "http://www.republique-numerique.fr/projects/projet-de-loi-numerique/consultation/consultation/opinions/section-3-donnees-d-interet-general/creation-d-une-platforme-de-modification-des-textes-officiels", 
            "id": "43244", 
            "opinion": "1"
        }, 
        {
            "article_title": "En Suisse, il y a l\u2019exp\u00e9rience de la d\u00e9mocrati...", 
            "date": "2015-10-09T15:00:00+0200", 
            "link": "http://www.republique-numerique.fr/projects/projet-de-loi-numerique/consultation/consultation/opinions/section-3-donnees-d-interet-general/creation-d-une-platforme-de-modification-des-textes-officiels#arg-201", 
            "id": "43248", 
            "opinion": "1"
        }, 
        {
            "article_title": "Projet qui serait super int\u00e9ressant, mais qui n\u00e9...", 
            "date": "2015-10-09T15:00:00+0200", 
            "link": "http://www.republique-numerique.fr/projects/projet-de-loi-numerique/consultation/consultation/opinions/section-3-donnees-d-interet-general/creation-d-une-platforme-de-modification-des-textes-officiels#arg-166", 
            "id": "43250", 
            "opinion": "1"
        }, 
        {
            "article_title": "Article 7 - Acc\u00e8s de la statistique publique \u00e0 certaines bases de donn\u00e9es priv\u00e9es", 
            "date": "2015-10-09T15:02:00+0200", 
            "link": "http://www.republique-numerique.fr/projects/projet-de-loi-numerique/consultation/consultation/opinions/section-3-donnees-d-interet-general/article-7-acces-de-la-statistique-publique-aux-bases-de-donnees-privees", 
            "id": "43255", 
            "opinion": "0"
        }, 
        {
            "article_title": "Anonymisation pr\u00e9alable des bases de donn\u00e9es", 
            "date": "2015-10-09T15:03:00+0200", 
            "link": "http://www.republique-numerique.fr/projects/projet-de-loi-numerique/consultation/consultation/opinions/section-3-donnees-d-interet-general/article-7-acces-de-la-statistique-publique-aux-bases-de-donnees-privees/versions/anonymisation-prealable-des-bases-de-donnees", 
            "id": "43258", 
            "opinion": "1"
        }, 
        {
            "article_title": "Mise \u00e0 disposition exhaustive en ligne de TOUTES les d\u00e9penses li\u00e9es aux indemnit\u00e9s repr\u00e9sentatives de frais de mandat", 
            "date": "2015-10-09T15:04:00+0200", 
            "link": "http://www.republique-numerique.fr/projects/projet-de-loi-numerique/consultation/consultation/opinions/section-3-donnees-d-interet-general/mise-a-disposition-exhaustive-en-ligne-de-toutes-les-depenses-liees-aux-indemnites-representatives-de-frais-de-mandat", 
            "id": "43267", 
            "opinion": "1"
        }, 
        {
            "article_title": "Un \u00e9lu non pr\u00e9sent \u00e0 l'assembl\u00e9e nationale ne ...", 
            "date": "2015-10-09T15:05:00+0200", 
            "link": "http://www.republique-numerique.fr/projects/projet-de-loi-numerique/consultation/consultation/opinions/section-3-donnees-d-interet-general/mise-a-disposition-exhaustive-en-ligne-de-toutes-les-depenses-liees-aux-indemnites-representatives-de-frais-de-mandat#arg-1637", 
            "id": "43271", 
            "opinion": "1"
        }, 
        {
            "article_title": "Article 8 - D\u00e9finition positive du domaine commun informationnel", 
            "date": "2015-10-09T15:07:00+0200", 
            "link": "http://www.republique-numerique.fr/projects/projet-de-loi-numerique/consultation/consultation/opinions/section-1-les-communs/article-8-definition-du-domaine-commun-informationnel", 
            "id": "43278", 
            "opinion": "0"
        }, 
        {
            "article_title": "Je ne suis pas favorable \u00e0 la cr\u00e9ation d'un labe...", 
            "date": "2015-10-09T15:09:00+0200", 
            "link": "http://www.republique-numerique.fr/projects/projet-de-loi-numerique/consultation/consultation/opinions/section-1-les-communs/reconnaissance-du-copyleft-droit-au-remix#arg-2176", 
            "id": "43285", 
            "opinion": "1"
        }, 
        {
            "article_title": "Cela ressemble \u00e0 la version fran\u00e7aise du droit d...", 
            "date": "2015-10-09T15:11:00+0200", 
            "link": "http://www.republique-numerique.fr/projects/projet-de-loi-numerique/consultation/consultation/opinions/section-1-les-communs/reconnaissance-du-copyleft-droit-au-remix#arg-722", 
            "id": "43290", 
            "opinion": "1"
        }, 
        {
            "article_title": "RECONNAISSANCE DU COPYLEFT / DROIT AU REMIX", 
            "date": "2015-10-09T15:12:00+0200", 
            "link": "http://www.republique-numerique.fr/projects/projet-de-loi-numerique/consultation/consultation/opinions/section-1-les-communs/reconnaissance-du-copyleft-droit-au-remix", 
            "id": "43294", 
            "opinion": "1"
        }, 
        {
            "article_title": "Instaurer la libert\u00e9 de panorama en France", 
            "date": "2015-10-09T15:15:00+0200", 
            "link": "http://www.republique-numerique.fr/projects/projet-de-loi-numerique/consultation/consultation/opinions/section-1-les-communs/instaurer-la-liberte-de-panorama-en-france", 
            "id": "43296", 
            "opinion": "1"
        }, 
        {
            "article_title": "Dans la plupart des pays, les architectes voient l...", 
            "date": "2015-10-09T15:17:00+0200", 
            "link": "http://www.republique-numerique.fr/projects/projet-de-loi-numerique/consultation/consultation/opinions/section-1-les-communs/instaurer-la-liberte-de-panorama-en-france#arg-2635", 
            "id": "43301", 
            "opinion": "1"
        }, 
        {
            "article_title": "Le fait de ne pas \u00eatre libre d'exercer son droit ...", 
            "date": "2015-10-09T15:18:00+0200", 
            "link": "http://www.republique-numerique.fr/projects/projet-de-loi-numerique/consultation/consultation/opinions/section-1-les-communs/instaurer-la-liberte-de-panorama-en-france#arg-2074", 
            "id": "43304", 
            "opinion": "1"
        }, 
        {
            "article_title": "Article 8 bis - Libert\u00e9 de panorama", 
            "date": "2015-10-09T15:20:00+0200", 
            "link": "http://www.republique-numerique.fr/projects/projet-de-loi-numerique/consultation/consultation/opinions/section-1-les-communs/liberte-de-panorama", 
            "id": "43309", 
            "opinion": "1"
        }, 
        {
            "article_title": "Cet article est inutile et surtout tr\u00e8s dangereux...", 
            "date": "2015-10-09T15:24:00+0200", 
            "link": "http://www.republique-numerique.fr/projects/projet-de-loi-numerique/consultation/consultation/opinions/section-2-travaux-de-recherche-et-de-statistique/article-10-nir-statistique#arg-2740", 
            "id": "43330", 
            "opinion": "1"
        }, 
        {
            "article_title": "Le n\u00b0 de s\u00e9curit\u00e9 social est un \u00e9l\u00e9ment d'ide...", 
            "date": "2015-10-09T15:25:00+0200", 
            "link": "http://www.republique-numerique.fr/projects/projet-de-loi-numerique/consultation/consultation/opinions/section-2-travaux-de-recherche-et-de-statistique/article-10-nir-statistique#arg-2431", 
            "id": "43332", 
            "opinion": "1"
        }, 
        {
            "article_title": "Le num\u00e9ro de SS est la base de toutes les informa...", 
            "date": "2015-10-09T15:25:00+0200", 
            "link": "http://www.republique-numerique.fr/projects/projet-de-loi-numerique/consultation/consultation/opinions/section-2-travaux-de-recherche-et-de-statistique/article-10-nir-statistique#arg-2756", 
            "id": "43333", 
            "opinion": "1"
        }, 
        {
            "article_title": "Ce qui me g\u00e8ne c'est \"2\u00b0 Le fonds est aliment\u00e9 ...", 
            "date": "2015-10-09T15:27:00+0200", 
            "link": "http://www.republique-numerique.fr/projects/projet-de-loi-numerique/consultation/consultation/opinions/section-2-travaux-de-recherche-et-de-statistique/article-11-0-financement-public-du-logiciel-libre#arg-1741", 
            "id": "43342", 
            "opinion": "1"
        }, 
        {
            "article_title": "Cette proposition est id\u00e9ologique. Par contre, da...", 
            "date": "2015-10-09T15:28:00+0200", 
            "link": "http://www.republique-numerique.fr/projects/projet-de-loi-numerique/consultation/consultation/opinions/section-2-travaux-de-recherche-et-de-statistique/article-11-0-financement-public-du-logiciel-libre#arg-1231", 
            "id": "43343", 
            "opinion": "1"
        }, 
        {
            "article_title": "L'\u00e9tat n'est pas l\u00e0 pour produire. De par mon ex...", 
            "date": "2015-10-09T15:28:00+0200", 
            "link": "http://www.republique-numerique.fr/projects/projet-de-loi-numerique/consultation/consultation/opinions/section-2-travaux-de-recherche-et-de-statistique/article-11-0-financement-public-du-logiciel-libre#arg-1198", 
            "id": "43347", 
            "opinion": "1"
        }, 
        {
            "article_title": "Plut\u00f4t d'accord avec Pierre. Finance public = arg...", 
            "date": "2015-10-09T15:29:00+0200", 
            "link": "http://www.republique-numerique.fr/projects/projet-de-loi-numerique/consultation/consultation/opinions/section-2-travaux-de-recherche-et-de-statistique/article-11-0-financement-public-du-logiciel-libre#arg-618", 
            "id": "43351", 
            "opinion": "1"
        }, 
        {
            "article_title": "Soumettre le \"libre\" aux d\u00e9cisions de l'Etat, c'e...", 
            "date": "2015-10-09T15:30:00+0200", 
            "link": "http://www.republique-numerique.fr/projects/projet-de-loi-numerique/consultation/consultation/opinions/section-2-travaux-de-recherche-et-de-statistique/article-11-0-financement-public-du-logiciel-libre#arg-353", 
            "id": "43355", 
            "opinion": "1"
        }, 
        {
            "article_title": "Article 10 - Proc\u00e9dure assouplie pour les travaux statistiques ou de recherche utilisant le num\u00e9ro de s\u00e9curit\u00e9 sociale (recours \u00e0 un \u00ab NIR statistique \u00bb)", 
            "date": "2015-10-09T15:30:00+0200", 
            "link": "http://www.republique-numerique.fr/projects/projet-de-loi-numerique/consultation/consultation/opinions/section-2-travaux-de-recherche-et-de-statistique/article-10-nir-statistique", 
            "id": "43363", 
            "opinion": "0"
        }, 
        {
            "article_title": "Obligation de d\u00e9p\u00f4t des publications scientifiques dans une archive ouverte", 
            "date": "2015-10-09T15:31:00+0200", 
            "link": "http://www.republique-numerique.fr/projects/projet-de-loi-numerique/consultation/consultation/opinions/section-2-travaux-de-recherche-et-de-statistique/pour-une-obligation-de-depot-des-publications-scientifiques-dans-une-archive-ouverte", 
            "id": "43370", 
            "opinion": "1"
        }, 
        {
            "article_title": "Protection des donn\u00e9es scientifiques en vue de la publication d'un brevet d'invention", 
            "date": "2015-10-09T15:36:00+0200", 
            "link": "http://www.republique-numerique.fr/projects/projet-de-loi-numerique/consultation/consultation/opinions/section-2-travaux-de-recherche-et-de-statistique/protection-des-donnees-scientifiques-en-vue-de-la-publication-d-un-brevet-d-invention", 
            "id": "43386", 
            "opinion": "0"
        }, 
        {
            "article_title": "La neutralit\u00e9 du net devrait \u00eatre un principe ma...", 
            "date": "2015-10-09T15:38:00+0200", 
            "link": "http://www.republique-numerique.fr/projects/projet-de-loi-numerique/consultation/consultation/opinions/section-1-neutralite-de-l-internet/article-11-neutralite-de-l-internet#arg-291", 
            "id": "43394", 
            "opinion": "1"
        }, 
        {
            "article_title": "Aucune sanction n'est pr\u00e9vue except\u00e9e une mise e...", 
            "date": "2015-10-09T15:39:00+0200", 
            "link": "http://www.republique-numerique.fr/projects/projet-de-loi-numerique/consultation/consultation/opinions/section-1-neutralite-de-l-internet/article-11-neutralite-de-l-internet#arg-107", 
            "id": "43396", 
            "opinion": "1"
        }, 
        {
            "article_title": "Cet article devrait explicitement abolir, pour res...", 
            "date": "2015-10-09T15:39:00+0200", 
            "link": "http://www.republique-numerique.fr/projects/projet-de-loi-numerique/consultation/consultation/opinions/section-1-neutralite-de-l-internet/article-11-neutralite-de-l-internet#arg-66", 
            "id": "43397", 
            "opinion": "1"
        }, 
        {
            "article_title": "Dans le principe je suis pour, par contre il faudr...", 
            "date": "2015-10-09T15:43:00+0200", 
            "link": "http://www.republique-numerique.fr/projects/projet-de-loi-numerique/consultation/consultation/opinions/section-1-neutralite-de-l-internet/article-11-neutralite-de-l-internet#arg-1294", 
            "id": "43422", 
            "opinion": "1"
        }, 
        {
            "article_title": "Je suis d'accord mais il faut un v\u00e9ritable pouvoi...", 
            "date": "2015-10-09T15:44:00+0200", 
            "link": "http://www.republique-numerique.fr/projects/projet-de-loi-numerique/consultation/consultation/opinions/section-1-neutralite-de-l-internet/article-11-neutralite-de-l-internet#arg-1449", 
            "id": "43432", 
            "opinion": "1"
        }, 
        {
            "article_title": "Services sp\u00e9cialis\u00e9s et discrimination tarifaire", 
            "date": "2015-10-09T15:45:00+0200", 
            "link": "http://www.republique-numerique.fr/projects/projet-de-loi-numerique/consultation/consultation/opinions/section-1-neutralite-de-l-internet/article-11-neutralite-de-l-internet/versions/services-specialises-et-discrimination-tarifaire", 
            "id": "43442", 
            "opinion": "1"
        }, 
        {
            "article_title": "Soyons clairs et pr\u00e9cis :-)...", 
            "date": "2015-10-09T15:46:00+0200", 
            "link": "http://www.republique-numerique.fr/projects/projet-de-loi-numerique/consultation/consultation/opinions/section-1-neutralite-de-l-internet/article-11-neutralite-de-l-internet/versions/preciser-le-perimetre-d-application-de-la-neutralite-du-net#arg-2138", 
            "id": "43446", 
            "opinion": "1"
        }, 
        {
            "article_title": "Article 11bis - Transparence des algorithmes utilis\u00e9s par les services publiques et renforcement de la s\u00e9curit\u00e9 en ligne", 
            "date": "2015-10-09T15:47:00+0200", 
            "link": "http://www.republique-numerique.fr/projects/projet-de-loi-numerique/consultation/consultation/opinions/section-1-neutralite-de-l-internet/article-11bis-transparence-des-algorithmes-utilises-par-les-services-publiques", 
            "id": "43454", 
            "opinion": "1"
        }, 
        {
            "article_title": "principe fondamental d'un internet ouvert et neutre", 
            "date": "2015-10-09T15:48:00+0200", 
            "link": "http://www.republique-numerique.fr/projects/projet-de-loi-numerique/consultation/consultation/opinions/section-1-neutralite-de-l-internet/principe-fondamental-d-un-internet-ouvert-et-neutre", 
            "id": "43467", 
            "opinion": "1"
        }, 
        {
            "article_title": "Vous oubliez l'\u00c9tat dans la liste des personnes n...", 
            "date": "2015-10-09T15:48:00+0200", 
            "link": "http://www.republique-numerique.fr/projects/projet-de-loi-numerique/consultation/consultation/opinions/section-1-neutralite-de-l-internet/principe-fondamental-d-un-internet-ouvert-et-neutre#arg-2076", 
            "id": "43468", 
            "opinion": "1"
        }, 
        {
            "article_title": "Loyaut\u00e9 du DNS", 
            "date": "2015-10-09T15:50:00+0200", 
            "link": "http://www.republique-numerique.fr/projects/projet-de-loi-numerique/consultation/consultation/opinions/section-1-neutralite-de-l-internet/loyaute-du-dns", 
            "id": "43471", 
            "opinion": "1"
        }, 
        {
            "article_title": "haaaaa... la complaisance dans l'usage d'un jargon...", 
            "date": "2015-10-09T15:52:00+0200", 
            "link": "http://www.republique-numerique.fr/projects/projet-de-loi-numerique/consultation/consultation/opinions/section-1-neutralite-de-l-internet/statut-activite-demonetisee#arg-2716", 
            "id": "43476", 
            "opinion": "1"
        }, 
        {
            "article_title": "Au mieux, risque d'une d\u00e9rive par le recours syst...", 
            "date": "2015-10-09T15:52:00+0200", 
            "link": "http://www.republique-numerique.fr/projects/projet-de-loi-numerique/consultation/consultation/opinions/section-1-neutralite-de-l-internet/statut-activite-demonetisee#arg-249", 
            "id": "43480", 
            "opinion": "1"
        }, 
        {
            "article_title": "Je suis pour mais il faut clarifier deux points : ...", 
            "date": "2015-10-09T15:54:00+0200", 
            "link": "http://www.republique-numerique.fr/projects/projet-de-loi-numerique/consultation/consultation/opinions/section-1-neutralite-de-l-internet/impossibilite-de-faire-supprimer-un-contenu-ou-d-en-interdire-l-acces-sans-autorisation-d-un-juge#arg-535", 
            "id": "43483", 
            "opinion": "1"
        }, 
        {
            "article_title": "Impossibilit\u00e9 de faire supprimer un contenu, ou d'en interdire l'acc\u00e8s, sans autorisation d'un juge", 
            "date": "2015-10-09T15:54:00+0200", 
            "link": "http://www.republique-numerique.fr/projects/projet-de-loi-numerique/consultation/consultation/opinions/section-1-neutralite-de-l-internet/impossibilite-de-faire-supprimer-un-contenu-ou-d-en-interdire-l-acces-sans-autorisation-d-un-juge", 
            "id": "43482", 
            "opinion": "0"
        }, 
        {
            "article_title": "mouais... C'est aussi Apple qui est dans le colima...", 
            "date": "2015-10-09T15:58:00+0200", 
            "link": "http://www.republique-numerique.fr/projects/projet-de-loi-numerique/consultation/consultation/opinions/section-3-loyaute-des-plateformes/interdiction-de-la-vente-liee-ordinateur-systeme-d-exploitation#arg-2726", 
            "id": "43492", 
            "opinion": "1"
        }, 
        {
            "article_title": "Choisir un ordinateur c'est compliqu\u00e9 : Budget, m...", 
            "date": "2015-10-09T16:01:00+0200", 
            "link": "http://www.republique-numerique.fr/projects/projet-de-loi-numerique/consultation/consultation/opinions/section-3-loyaute-des-plateformes/interdiction-de-la-vente-liee-ordinateur-systeme-d-exploitation#arg-2677", 
            "id": "43500", 
            "opinion": "1"
        }, 
        {
            "article_title": "Microsoft l'annonce lui m\u00eame que Windows 10 est c...", 
            "date": "2015-10-09T16:01:00+0200", 
            "link": "http://www.republique-numerique.fr/projects/projet-de-loi-numerique/consultation/consultation/opinions/section-3-loyaute-des-plateformes/interdiction-de-la-vente-liee-ordinateur-systeme-d-exploitation#arg-2676", 
            "id": "43501", 
            "opinion": "1"
        }, 
        {
            "article_title": "Application de la loi sur la consommation d\u00e9j\u00e0 e...", 
            "date": "2015-10-09T16:02:00+0200", 
            "link": "http://www.republique-numerique.fr/projects/projet-de-loi-numerique/consultation/consultation/opinions/section-3-loyaute-des-plateformes/interdiction-de-la-vente-liee-ordinateur-systeme-d-exploitation#arg-1983", 
            "id": "43505", 
            "opinion": "1"
        }, 
        {
            "article_title": "Pour trouver mon ordinateur portable dans le comme...", 
            "date": "2015-10-09T16:04:00+0200", 
            "link": "http://www.republique-numerique.fr/projects/projet-de-loi-numerique/consultation/consultation/opinions/section-3-loyaute-des-plateformes/interdiction-de-la-vente-liee-ordinateur-systeme-d-exploitation#arg-1353", 
            "id": "43514", 
            "opinion": "1"
        }, 
        {
            "article_title": "Interdire cette vente li\u00e9e serait rajouter un obs...", 
            "date": "2015-10-09T16:05:00+0200", 
            "link": "http://www.republique-numerique.fr/projects/projet-de-loi-numerique/consultation/consultation/opinions/section-3-loyaute-des-plateformes/interdiction-de-la-vente-liee-ordinateur-systeme-d-exploitation#arg-654", 
            "id": "43520", 
            "opinion": "1"
        }, 
        {
            "article_title": "La loi devrait effectivement \u00eatre durcie sur ce s...", 
            "date": "2015-10-09T16:06:00+0200", 
            "link": "http://www.republique-numerique.fr/projects/projet-de-loi-numerique/consultation/consultation/opinions/section-3-loyaute-des-plateformes/interdiction-de-la-vente-liee-ordinateur-systeme-d-exploitation#arg-456", 
            "id": "43523", 
            "opinion": "1"
        }, 
        {
            "article_title": "Article 13 - Principe de loyaut\u00e9 des plateformes en lignes", 
            "date": "2015-10-09T16:08:00+0200", 
            "link": "http://www.republique-numerique.fr/projects/projet-de-loi-numerique/consultation/consultation/opinions/section-3-loyaute-des-plateformes/article-13-principe-de-loyaute-vis-a-vis-des-consommateurs", 
            "id": "43528", 
            "opinion": "1"
        }, 
        {
            "article_title": "Les contenus propos\u00e9s par les plateformes en lign...", 
            "date": "2015-10-09T16:09:00+0200", 
            "link": "http://www.republique-numerique.fr/projects/projet-de-loi-numerique/consultation/consultation/opinions/section-3-loyaute-des-plateformes/article-13-principe-de-loyaute-vis-a-vis-des-consommateurs#arg-58", 
            "id": "43536", 
            "opinion": "1"
        }, 
        {
            "article_title": "Article 14 - Informer sur les pratiques des plateformes en ligne", 
            "date": "2015-10-09T16:10:00+0200", 
            "link": "http://www.republique-numerique.fr/projects/projet-de-loi-numerique/consultation/consultation/opinions/section-3-loyaute-des-plateformes/article-14-regulation", 
            "id": "43541", 
            "opinion": "0"
        }, 
        {
            "article_title": "Droits des consommateurs \u00e0 disposer de leurs contenus physiques et d\u00e9mat\u00e9rialis\u00e9s.", 
            "date": "2015-10-09T16:11:00+0200", 
            "link": "http://www.republique-numerique.fr/projects/projet-de-loi-numerique/consultation/consultation/opinions/section-3-loyaute-des-plateformes/droits-des-consommateurs-a-disposer-de-leurs-contenus-physiques-et-dematerialises", 
            "id": "43545", 
            "opinion": "1"
        }, 
        {
            "article_title": "Le pire, ce sont les e-books qu'on ach\u00e8te et qu'o...", 
            "date": "2015-10-09T16:12:00+0200", 
            "link": "http://www.republique-numerique.fr/projects/projet-de-loi-numerique/consultation/consultation/opinions/section-3-loyaute-des-plateformes/droits-des-consommateurs-a-disposer-de-leurs-contenus-physiques-et-dematerialises#arg-615", 
            "id": "43549", 
            "opinion": "1"
        }, 
        {
            "article_title": "Il semble en effet aberrant de ne pouvoir disposer...", 
            "date": "2015-10-09T16:13:00+0200", 
            "link": "http://www.republique-numerique.fr/projects/projet-de-loi-numerique/consultation/consultation/opinions/section-3-loyaute-des-plateformes/droits-des-consommateurs-a-disposer-de-leurs-contenus-physiques-et-dematerialises#arg-390", 
            "id": "43552", 
            "opinion": "1"
        }, 
        {
            "article_title": "D\u00e9verrouillage des acc\u00e8s logiciels sur le mat\u00e9riel num\u00e9rique", 
            "date": "2015-10-09T16:15:00+0200", 
            "link": "http://www.republique-numerique.fr/projects/projet-de-loi-numerique/consultation/consultation/opinions/section-3-loyaute-des-plateformes/deverrouillage-des-acces-logiciels-sur-le-materiel-numerique", 
            "id": "43559", 
            "opinion": "1"
        }, 
        {
            "article_title": "Article 12 - Portabilit\u00e9 des donn\u00e9es", 
            "date": "2015-10-09T16:18:00+0200", 
            "link": "http://www.republique-numerique.fr/projects/projet-de-loi-numerique/consultation/consultation/opinions/section-2-portabilite-des-donnees/article-12-portabilite-des-donnees", 
            "id": "43571", 
            "opinion": "1"
        }, 
        {
            "article_title": "je suis pour le principe, mais alors, techniquemen...", 
            "date": "2015-10-09T16:21:00+0200", 
            "link": "http://www.republique-numerique.fr/projects/projet-de-loi-numerique/consultation/consultation/opinions/section-2-portabilite-des-donnees/article-12-portabilite-des-donnees#arg-979", 
            "id": "43584", 
            "opinion": "1"
        }, 
        {
            "article_title": "Je dirais que si l'internaute a choisi de ne pas p...", 
            "date": "2015-10-09T16:22:00+0200", 
            "link": "http://www.republique-numerique.fr/projects/projet-de-loi-numerique/consultation/consultation/opinions/section-2-portabilite-des-donnees/e-testament#arg-1503", 
            "id": "43591", 
            "opinion": "1"
        }, 
        {
            "article_title": "E-Testament", 
            "date": "2015-10-09T16:22:00+0200", 
            "link": "http://www.republique-numerique.fr/projects/projet-de-loi-numerique/consultation/consultation/opinions/section-2-portabilite-des-donnees/e-testament", 
            "id": "43588", 
            "opinion": "0"
        }, 
        {
            "article_title": "Le secret d'un mot de passe personnel n'a pas \u00e0 d...", 
            "date": "2015-10-09T16:23:00+0200", 
            "link": "http://www.republique-numerique.fr/projects/projet-de-loi-numerique/consultation/consultation/opinions/section-2-portabilite-des-donnees/e-testament#arg-845", 
            "id": "43595", 
            "opinion": "1"
        }, 
        {
            "article_title": "Tout \u00e0 fait d'accord, il faut avertir l'internaut...", 
            "date": "2015-10-09T16:25:00+0200", 
            "link": "http://www.republique-numerique.fr/projects/projet-de-loi-numerique/consultation/consultation/opinions/section-2-portabilite-des-donnees/indiquer-d-emblee-si-la-donnee-est-portable#arg-1499", 
            "id": "43602", 
            "opinion": "1"
        }, 
        {
            "article_title": "Indiquer d'embl\u00e9e si la donn\u00e9e est \"portable\"", 
            "date": "2015-10-09T16:25:00+0200", 
            "link": "http://www.republique-numerique.fr/projects/projet-de-loi-numerique/consultation/consultation/opinions/section-2-portabilite-des-donnees/indiquer-d-emblee-si-la-donnee-est-portable", 
            "id": "43603", 
            "opinion": "1"
        }, 
        {
            "article_title": "Droit au partage priv\u00e9 / Streaming", 
            "date": "2015-10-09T16:26:00+0200", 
            "link": "http://www.republique-numerique.fr/projects/projet-de-loi-numerique/consultation/consultation/opinions/section-2-portabilite-des-donnees/droit-au-partage-prive-streaming", 
            "id": "43607", 
            "opinion": "1"
        }, 
        {
            "article_title": "@Jeanne Varasco : le servage peut appara\u00eetre si c...", 
            "date": "2015-10-09T16:31:00+0200", 
            "link": "http://www.republique-numerique.fr/projects/projet-de-loi-numerique/consultation/consultation/opinions/section-4-information-des-consommateurs/creation-d-un-statut-de-l-acteur-collaboratif#arg-1694", 
            "id": "43618", 
            "opinion": "1"
        }, 
        {
            "article_title": "Cr\u00e9ation d'un statut de l'acteur collaboratif", 
            "date": "2015-10-09T16:32:00+0200", 
            "link": "http://www.republique-numerique.fr/projects/projet-de-loi-numerique/consultation/consultation/opinions/section-4-information-des-consommateurs/creation-d-un-statut-de-l-acteur-collaboratif", 
            "id": "43613", 
            "opinion": "0"
        }, 
        {
            "article_title": "C'est la voie ouverte pour un retour au moyen-\u00e2ge...", 
            "date": "2015-10-09T16:32:00+0200", 
            "link": "http://www.republique-numerique.fr/projects/projet-de-loi-numerique/consultation/consultation/opinions/section-4-information-des-consommateurs/creation-d-un-statut-de-l-acteur-collaboratif#arg-275", 
            "id": "43619", 
            "opinion": "1"
        }, 
        {
            "article_title": "Limitation de la publicit\u00e9 sur le net", 
            "date": "2015-10-09T16:34:00+0200", 
            "link": "http://www.republique-numerique.fr/projects/projet-de-loi-numerique/consultation/consultation/opinions/section-4-information-des-consommateurs/limitation-de-la-publicite-sur-le-net", 
            "id": "43621", 
            "opinion": "0"
        }, 
        {
            "article_title": "Cr\u00e9ation d\u2019un parquet num\u00e9rique sp\u00e9cialis\u00e9 sur les questions de contenus illicites en ligne", 
            "date": "2015-10-09T16:35:00+0200", 
            "link": "http://www.republique-numerique.fr/projects/projet-de-loi-numerique/consultation/consultation/opinions/section-4-information-des-consommateurs/creation-d-un-parquet-numerique-specialise-sur-les-questions-de-contenus-illicites-en-ligne", 
            "id": "43622", 
            "opinion": "1"
        }, 
        {
            "article_title": "Respect d'un mecanisme StopPUB pour les possesseurs de domaine via les enregistrements DNS", 
            "date": "2015-10-09T16:37:00+0200", 
            "link": "http://www.republique-numerique.fr/projects/projet-de-loi-numerique/consultation/consultation/opinions/section-4-information-des-consommateurs/respect-d-un-mecanisme-stoppub-pour-les-possesseurs-de-domaine-via-les-enregistrements-dns", 
            "id": "43635", 
            "opinion": "1"
        }, 
        {
            "article_title": "Tenir les consommateurs inform\u00e9s de la localisation g\u00e9ographique de leurs donn\u00e9es \u00e0 caract\u00e8re personnel", 
            "date": "2015-10-09T16:38:00+0200", 
            "link": "http://www.republique-numerique.fr/projects/projet-de-loi-numerique/consultation/consultation/opinions/section-4-information-des-consommateurs/etre-informes-de-la-localisation-des-donnees-a-caractere-personnel", 
            "id": "43642", 
            "opinion": "1"
        }, 
        {
            "article_title": "Ce serait simple de faire un logo avec un petit dr...", 
            "date": "2015-10-09T16:38:00+0200", 
            "link": "http://www.republique-numerique.fr/projects/projet-de-loi-numerique/consultation/consultation/opinions/section-4-information-des-consommateurs/etre-informes-de-la-localisation-des-donnees-a-caractere-personnel#arg-1107", 
            "id": "43648", 
            "opinion": "1"
        }, 
        {
            "article_title": "Mieux r\u00e9glementer les publicit\u00e9s par SPAM", 
            "date": "2015-10-09T16:39:00+0200", 
            "link": "http://www.republique-numerique.fr/projects/projet-de-loi-numerique/consultation/consultation/opinions/section-4-information-des-consommateurs/mieux-reglementer-les-publicites-par-spam", 
            "id": "43655", 
            "opinion": "1"
        }, 
        {
            "article_title": "Sur le principe, 100% pour, m\u00eame si dans la prati...", 
            "date": "2015-10-09T16:39:00+0200", 
            "link": "http://www.republique-numerique.fr/projects/projet-de-loi-numerique/consultation/consultation/opinions/section-4-information-des-consommateurs/mieux-reglementer-les-publicites-par-spam#arg-1153", 
            "id": "43656", 
            "opinion": "1"
        }, 
        {
            "article_title": "Assurer la tra\u00e7abilit\u00e9 de l'utilisation commerciale des donn\u00e9es \u00e0 caract\u00e8re personnel", 
            "date": "2015-10-09T16:41:00+0200", 
            "link": "http://www.republique-numerique.fr/projects/projet-de-loi-numerique/consultation/consultation/opinions/section-4-information-des-consommateurs/assurer-la-tracabilite-de-l-utilisation-commerciale-des-donnees-a-caractere-personnel", 
            "id": "43660", 
            "opinion": "1"
        }, 
        {
            "article_title": "Cet article est bien timide... Cela fait des ann\u00e9...", 
            "date": "2015-10-09T16:44:00+0200", 
            "link": "http://www.republique-numerique.fr/projects/projet-de-loi-numerique/consultation/consultation/opinions/section-1-protection-des-donnees-a-caractere-personnel/article-17-missions-de-la-cnil#arg-2743", 
            "id": "43676", 
            "opinion": "1"
        }, 
        {
            "article_title": "Article 17 - Evolution des missions de la CNIL", 
            "date": "2015-10-09T16:45:00+0200", 
            "link": "http://www.republique-numerique.fr/projects/projet-de-loi-numerique/consultation/consultation/opinions/section-1-protection-des-donnees-a-caractere-personnel/article-17-missions-de-la-cnil", 
            "id": "43675", 
            "opinion": "1"
        }, 
        {
            "article_title": "Article 18 - Certificat de conformit\u00e9", 
            "date": "2015-10-09T16:46:00+0200", 
            "link": "http://www.republique-numerique.fr/projects/projet-de-loi-numerique/consultation/consultation/opinions/section-1-protection-des-donnees-a-caractere-personnel/article-18-certificat-de-conformite", 
            "id": "43683", 
            "opinion": "1"
        }, 
        {
            "article_title": "La reconnaissance du droit au chiffrement", 
            "date": "2015-10-09T16:46:00+0200", 
            "link": "http://www.republique-numerique.fr/projects/projet-de-loi-numerique/consultation/consultation/opinions/section-1-protection-des-donnees-a-caractere-personnel/la-reconnaissance-du-droit-au-chiffrement", 
            "id": "43685", 
            "opinion": "1"
        }, 
        {
            "article_title": "Droit de r\u00e9clamer les cl\u00e9s de chiffrement dans l...", 
            "date": "2015-10-09T16:47:00+0200", 
            "link": "http://www.republique-numerique.fr/projects/projet-de-loi-numerique/consultation/consultation/opinions/section-1-protection-des-donnees-a-caractere-personnel/la-reconnaissance-du-droit-au-chiffrement#arg-2443", 
            "id": "43692", 
            "opinion": "1"
        }, 
        {
            "article_title": "@Fr\u00e9d\u00e9ric Boutin : si le chiffrement est cassabl...", 
            "date": "2015-10-09T16:48:00+0200", 
            "link": "http://www.republique-numerique.fr/projects/projet-de-loi-numerique/consultation/consultation/opinions/section-1-protection-des-donnees-a-caractere-personnel/la-reconnaissance-du-droit-au-chiffrement#arg-1501", 
            "id": "43703", 
            "opinion": "1"
        }, 
        {
            "article_title": "C'est le b-a ba du respect de la vie priv\u00e9e et de...", 
            "date": "2015-10-09T16:48:00+0200", 
            "link": "http://www.republique-numerique.fr/projects/projet-de-loi-numerique/consultation/consultation/opinions/section-1-protection-des-donnees-a-caractere-personnel/la-reconnaissance-du-droit-au-chiffrement#arg-228", 
            "id": "43704", 
            "opinion": "1"
        }, 
        {
            "article_title": "Article 21 - Proc\u00e9dure de sanction de la CNIL", 
            "date": "2015-10-09T16:49:00+0200", 
            "link": "http://www.republique-numerique.fr/projects/projet-de-loi-numerique/consultation/consultation/opinions/section-1-protection-des-donnees-a-caractere-personnel/article-21-procedure-de-sanction-de-la-cnil", 
            "id": "43707", 
            "opinion": "1"
        }, 
        {
            "article_title": "Cr\u00e9er un Comit\u00e9 National d'Ethique du Num\u00e9rique", 
            "date": "2015-10-09T16:50:00+0200", 
            "link": "http://www.republique-numerique.fr/projects/projet-de-loi-numerique/consultation/consultation/opinions/section-1-protection-des-donnees-a-caractere-personnel/creer-un-comite-national-d-ethique-du-numerique-1", 
            "id": "43713", 
            "opinion": "1"
        }, 
        {
            "article_title": "Il est indispensable que ce comit\u00e9 soit compos\u00e9 ...", 
            "date": "2015-10-09T16:51:00+0200", 
            "link": "http://www.republique-numerique.fr/projects/projet-de-loi-numerique/consultation/consultation/opinions/section-1-protection-des-donnees-a-caractere-personnel/creer-un-comite-national-d-ethique-du-numerique-1#arg-2101", 
            "id": "43716", 
            "opinion": "1"
        }, 
        {
            "article_title": "Droit d'avoir un pseudo num\u00e9rique", 
            "date": "2015-10-09T16:52:00+0200", 
            "link": "http://www.republique-numerique.fr/projects/projet-de-loi-numerique/consultation/consultation/opinions/section-1-protection-des-donnees-a-caractere-personnel/droit-d-avoir-un-pseudo-numerique", 
            "id": "43722", 
            "opinion": "1"
        }, 
        {
            "article_title": "Article 22 - Secret des correspondances num\u00e9riques", 
            "date": "2015-10-09T16:55:00+0200", 
            "link": "http://www.republique-numerique.fr/projects/projet-de-loi-numerique/consultation/consultation/opinions/section-2-confidentialite-des-correspondances-privees/article-22-respect-des-correspondances-privees-numeriques", 
            "id": "43732", 
            "opinion": "1"
        }, 
        {
            "article_title": "Remplacer :\"et son utilisation ne peut \u00eatre re...", 
            "date": "2015-10-09T16:58:00+0200", 
            "link": "http://www.republique-numerique.fr/projects/projet-de-loi-numerique/consultation/consultation/opinions/section-2-confidentialite-des-correspondances-privees/22-bis-affirmer-et-encourager-le-droit-au-chiffrement-des-communications#arg-2291", 
            "id": "43745", 
            "opinion": "1"
        }, 
        {
            "article_title": "Le chiffrement : oui bien s\u00fbre ! Mais il faut aus...", 
            "date": "2015-10-09T16:58:00+0200", 
            "link": "http://www.republique-numerique.fr/projects/projet-de-loi-numerique/consultation/consultation/opinions/section-2-confidentialite-des-correspondances-privees/22-bis-affirmer-et-encourager-le-droit-au-chiffrement-des-communications#arg-2177", 
            "id": "43749", 
            "opinion": "1"
        }, 
        {
            "article_title": "Dans une soci\u00e9t\u00e9 o\u00f9 la vie priv\u00e9e devient de p...", 
            "date": "2015-10-09T16:58:00+0200", 
            "link": "http://www.republique-numerique.fr/projects/projet-de-loi-numerique/consultation/consultation/opinions/section-2-confidentialite-des-correspondances-privees/22-bis-affirmer-et-encourager-le-droit-au-chiffrement-des-communications#arg-2134", 
            "id": "43750", 
            "opinion": "1"
        }, 
        {
            "article_title": "Si je comprends bien, il s'agit de donner la possi...", 
            "date": "2015-10-09T16:59:00+0200", 
            "link": "http://www.republique-numerique.fr/projects/projet-de-loi-numerique/consultation/consultation/opinions/section-2-confidentialite-des-correspondances-privees/23-autoriser-les-actions-de-groupe-notamment-en-matiere-d-atteinte-au-droit-sur-les-donnees-personnelles-et-la-neutralite-du-net#arg-2783", 
            "id": "43752", 
            "opinion": "1"
        }, 
        {
            "article_title": "Chiffrement de bout en bout insuffisant", 
            "date": "2015-10-09T17:02:00+0200", 
            "link": "http://www.republique-numerique.fr/projects/projet-de-loi-numerique/consultation/consultation/opinions/section-2-confidentialite-des-correspondances-privees/imposer-le-chiffrement-par-defaut-des-courriers-electroniques-par-les-divers-prestataires/versions/chiffrement-de-bout-en-bout-insuffisant", 
            "id": "43754", 
            "opinion": "1"
        }, 
        {
            "article_title": "Forcer un chiffrement n'assure absolument rien : i...", 
            "date": "2015-10-09T17:02:00+0200", 
            "link": "http://www.republique-numerique.fr/projects/projet-de-loi-numerique/consultation/consultation/opinions/section-2-confidentialite-des-correspondances-privees/imposer-le-chiffrement-par-defaut-des-courriers-electroniques-par-les-divers-prestataires/versions/chiffrement-de-bout-en-bout-insuffisant#arg-1180", 
            "id": "43756", 
            "opinion": "1"
        }, 
        {
            "article_title": "La centralisation de l'identit\u00e9 dans le contexte ...", 
            "date": "2015-10-09T17:04:00+0200", 
            "link": "http://www.republique-numerique.fr/projects/projet-de-loi-numerique/consultation/consultation/opinions/section-2-confidentialite-des-correspondances-privees/service-public-d-identite-electronique#arg-2117", 
            "id": "43764", 
            "opinion": "1"
        }, 
        {
            "article_title": "Contre, ceci serait nuisible au domaine de la s\u00e9c...", 
            "date": "2015-10-09T17:05:00+0200", 
            "link": "http://www.republique-numerique.fr/projects/projet-de-loi-numerique/consultation/consultation/opinions/section-2-confidentialite-des-correspondances-privees/chercher-a-decrypter-un-contenu-crypge-est-un-delit#arg-1984", 
            "id": "43768", 
            "opinion": "1"
        }, 
        {
            "article_title": "Chercher \u00e0 d\u00e9crypter un contenu crypt\u00e9 est un d\u00e9lit", 
            "date": "2015-10-09T17:05:00+0200", 
            "link": "http://www.republique-numerique.fr/projects/projet-de-loi-numerique/consultation/consultation/opinions/section-2-confidentialite-des-correspondances-privees/chercher-a-decrypter-un-contenu-crypge-est-un-delit", 
            "id": "43770", 
            "opinion": "0"
        }, 
        {
            "article_title": "A tous ceux qui expriment le fait que la vente li\ufffd...", 
            "date": "2015-10-13T09:24:00+0200", 
            "link": "http://www.republique-numerique.fr/projects/projet-de-loi-numerique/consultation/consultation/opinions/section-3-loyaute-des-plateformes/interdiction-de-la-vente-liee-ordinateur-systeme-d-exploitation#arg-3253", 
            "id": "59708", 
            "opinion": "1"
        }, 
        {
            "article_title": "Ouverture des donn\u00e9es sur l'\u00e9tendue du secret-d\u00e9fense", 
            "date": "2015-10-15T13:26:00+0200", 
            "link": "http://www.republique-numerique.fr/projects/projet-de-loi-numerique/consultation/consultation/opinions/section-3-donnees-d-interet-general/ouverture-des-donnees-sur-l-etendue-du-secret-defense", 
            "id": "95466", 
            "opinion": "1"
        }, 
        {
            "article_title": "Je suis \u00e0 priori pour l'esprit.Le point importa...", 
            "date": "2015-10-15T13:27:00+0200", 
            "link": "http://www.republique-numerique.fr/projects/projet-de-loi-numerique/consultation/consultation/opinions/section-3-donnees-d-interet-general/ouverture-des-donnees-sur-l-etendue-du-secret-defense#arg-3986", 
            "id": "95475", 
            "opinion": "1"
        }, 
        {
            "article_title": "P\u00e9nalisation de la d\u00e9sanonymisation de donn\u00e9es", 
            "date": "2015-10-15T13:29:00+0200", 
            "link": "http://www.republique-numerique.fr/projects/projet-de-loi-numerique/consultation/consultation/opinions/section-1-protection-des-donnees-a-caractere-personnel/penalisation-de-la-desanonymisation-de-donnees", 
            "id": "95515", 
            "opinion": "1"
        }, 
        {
            "article_title": "\u00c9viter la l\u00e9galisation du copyfraud", 
            "date": "2015-10-15T13:31:00+0200", 
            "link": "http://www.republique-numerique.fr/projects/projet-de-loi-numerique/consultation/consultation/opinions/section-1-les-communs/article-8-definition-du-domaine-commun-informationnel/versions/eviter-la-legalisation-du-copyfraud", 
            "id": "95561", 
            "opinion": "1"
        }, 
        {
            "article_title": "Prot\u00e9ger le droit des auteurs d'articles scientifiques, pour permettre le libre acc\u00e8s \u00e0 la recherche scientifique", 
            "date": "2015-10-15T19:57:00+0200", 
            "link": "http://www.republique-numerique.fr/projects/projet-de-loi-numerique/consultation/consultation/opinions/section-2-travaux-de-recherche-et-de-statistique/article-9-acces-aux-travaux-de-la-recherche-financee-par-des-fonds-publics/versions/proteger-le-droit-des-auteurs-d-articles-scientifiques-pour-permettre-le-libre-acces-a-la-recherche-scientifique", 
            "id": "102925", 
            "opinion": "1"
        }, 
        {
            "article_title": "Donner la priorit\u00e9 aux logiciels libres et aux formats ouverts dans le service public national et local", 
            "date": "2015-10-15T20:02:00+0200", 
            "link": "http://www.republique-numerique.fr/projects/projet-de-loi-numerique/consultation/consultation/opinions/section-3-loyaute-des-plateformes/donner-la-priorite-aux-logiciels-libres-et-aux-formats-ouverts-dans-le-service-public-national-et-local", 
            "id": "102980", 
            "opinion": "1"
        }, 
        {
            "article_title": "Consacrer un droit effectif \u00e0 la portabilit\u00e9", 
            "date": "2015-10-15T20:05:00+0200", 
            "link": "http://www.republique-numerique.fr/projects/projet-de-loi-numerique/consultation/consultation/opinions/section-2-portabilite-des-donnees/article-12-portabilite-des-donnees/versions/consacrer-un-droit-effectif-a-la-portabilite", 
            "id": "103006", 
            "opinion": "0"
        }, 
        {
            "article_title": "DRM", 
            "date": "2015-10-16T11:10:00+0200", 
            "link": "http://www.republique-numerique.fr/projects/projet-de-loi-numerique/consultation/consultation/opinions/section-1-les-communs/article-8-0-liberte-de-partage-du-savoir-numerique/versions/drm", 
            "id": "110575", 
            "opinion": "1"
        }, 
        {
            "article_title": "Interdire les DRMs", 
            "date": "2015-10-16T11:11:00+0200", 
            "link": "http://www.republique-numerique.fr/projects/projet-de-loi-numerique/consultation/consultation/opinions/section-3-loyaute-des-plateformes/encadrement-des-protections-des-jeux-videos/versions/interdire-les-drms", 
            "id": "110592", 
            "opinion": "1"
        }, 
        {
            "article_title": "Interdiction de l'usage des DRM dans la vente de bien num\u00e9riques", 
            "date": "2015-10-16T11:12:00+0200", 
            "link": "http://www.republique-numerique.fr/projects/projet-de-loi-numerique/consultation/consultation/opinions/section-1-ouverture-des-donnees-publiques-1/clarification-de-la-taxe-copie-privee/versions/interdiction-de-l-usage-des-drm-dans-la-vente-de-bien-numeriques", 
            "id": "110606", 
            "opinion": "-1"
        }, 
        {
            "article_title": "Baisser le prix du livre num\u00e9rique", 
            "date": "2015-10-16T11:13:00+0200", 
            "link": "http://www.republique-numerique.fr/projects/projet-de-loi-numerique/consultation/consultation/opinions/section-1-les-communs/baisser-le-prix-du-livre-numerique", 
            "id": "110625", 
            "opinion": "1"
        }
    ], 
    "sources": [], 
    "votes_count": 174, 
    "arguments": [
        {
            "article_title": "Signaler", 
            "votes": 2, 
            "article_link": "http://www.republique-numerique.fr/consultations/projet-de-loi-numerique/consultation/consultation/opinions/section-1-les-communs/reconnaissance-du-copyleft-droit-au-remix/arguments/2804/report", 
            "link": "http://www.republique-numerique.fr/consultations/projet-de-loi-numerique/consultation/consultation/opinions/section-1-les-communs/reconnaissance-du-copyleft-droit-au-remix/arguments/2804/report#arg-2804", 
            "date": "2015-10-09T15:12:00+0200", 
            "id": "2804"
        }, 
        {
            "article_title": "Signaler", 
            "votes": 0, 
            "article_link": "http://www.republique-numerique.fr/consultations/projet-de-loi-numerique/consultation/consultation/opinions/section-1-neutralite-de-l-internet/impossibilite-de-faire-supprimer-un-contenu-ou-d-en-interdire-l-acces-sans-autorisation-d-un-juge/arguments/2809/report", 
            "link": "http://www.republique-numerique.fr/consultations/projet-de-loi-numerique/consultation/consultation/opinions/section-1-neutralite-de-l-internet/impossibilite-de-faire-supprimer-un-contenu-ou-d-en-interdire-l-acces-sans-autorisation-d-un-juge/arguments/2809/report#arg-2809", 
            "date": "2015-10-09T15:56:00+0200", 
            "id": "2809"
        }, 
        {
            "article_title": "Signaler", 
            "votes": 3, 
            "article_link": "http://www.republique-numerique.fr/consultations/projet-de-loi-numerique/consultation/consultation/opinions/section-3-loyaute-des-plateformes/interdiction-de-la-vente-liee-ordinateur-systeme-d-exploitation/arguments/2810/report", 
            "link": "http://www.republique-numerique.fr/consultations/projet-de-loi-numerique/consultation/consultation/opinions/section-3-loyaute-des-plateformes/interdiction-de-la-vente-liee-ordinateur-systeme-d-exploitation/arguments/2810/report#arg-2810", 
            "date": "2015-10-09T16:01:00+0200", 
            "id": "2810"
        }
    ], 
    "arguments_count": 3, 
    "propositions_count": 0, 
    "contributions_count": 3
}