{
    "modifications": [], 
    "modifications_count": 0, 
    "sources_count": 0, 
    "propositions": [], 
    "votes": [
        {
            "article_title": "Il manque pas mal de d\u00e9tails pratiques qui peuven...", 
            "date": "2015-09-27T11:44:00+0200", 
            "link": "http://www.republique-numerique.fr/projects/projet-de-loi-numerique/consultation/consultation/opinions/section-1-ouverture-des-donnees-publiques-1/article-1-elargissement-du-champ-de-diffusion-par-l-administration#arg-110", 
            "id": "4680", 
            "opinion": "1"
        }, 
        {
            "article_title": "Absence de sanction de l'irrespect de l'obligation de diffusion publique en ligne", 
            "date": "2015-09-27T11:46:00+0200", 
            "link": "http://www.republique-numerique.fr/projects/projet-de-loi-numerique/consultation/consultation/opinions/section-1-ouverture-des-donnees-publiques-1/article-1-elargissement-du-champ-de-diffusion-par-l-administration/versions/absence-de-sanction-de-l-irrespect-de-l-obligation-de-diffusion-publique-en-ligne", 
            "id": "4691", 
            "opinion": "1"
        }, 
        {
            "article_title": "Le principe de gratuit\u00e9 de bout en bout.", 
            "date": "2015-09-27T11:50:00+0200", 
            "link": "http://www.republique-numerique.fr/projects/projet-de-loi-numerique/consultation/consultation/opinions/section-1-ouverture-des-donnees-publiques-1/article-2-principe-de-libre-reutilisation-des-donnees-pour-les-spic/versions/la-gratuite-doit-etre-globale-et-tracable", 
            "id": "4715", 
            "opinion": "1"
        }, 
        {
            "article_title": "Article 2 - Libre r\u00e9utilisation des donn\u00e9es des services publics industriels et commerciaux", 
            "date": "2015-09-27T11:51:00+0200", 
            "link": "http://www.republique-numerique.fr/projects/projet-de-loi-numerique/consultation/consultation/opinions/section-1-ouverture-des-donnees-publiques-1/article-2-principe-de-libre-reutilisation-des-donnees-pour-les-spic", 
            "id": "4716", 
            "opinion": "1"
        }, 
        {
            "article_title": "Ecole entreprise R\u00e9union", 
            "date": "2015-09-27T20:14:00+0200", 
            "link": "http://www.republique-numerique.fr/projects/projet-de-loi-numerique/consultation/consultation/opinions/section-1-ouverture-des-donnees-publiques-1/ecole-entreprise-reunion", 
            "id": "6816", 
            "opinion": "0"
        }
    ], 
    "sources": [], 
    "votes_count": 5, 
    "arguments": [
        {
            "article_title": "Signaler", 
            "votes": 9, 
            "article_link": "http://www.republique-numerique.fr/consultations/projet-de-loi-numerique/consultation/consultation/opinions/section-1-ouverture-des-donnees-publiques-1/article-1-elargissement-du-champ-de-diffusion-par-l-administration/arguments/475/report", 
            "link": "http://www.republique-numerique.fr/consultations/projet-de-loi-numerique/consultation/consultation/opinions/section-1-ouverture-des-donnees-publiques-1/article-1-elargissement-du-champ-de-diffusion-par-l-administration/arguments/475/report#arg-475", 
            "date": "2015-09-27T11:43:00+0200", 
            "id": "475"
        }
    ], 
    "arguments_count": 1, 
    "propositions_count": 0, 
    "contributions_count": 1
}