{
    "modifications": [], 
    "modifications_count": 0, 
    "sources_count": 0, 
    "propositions": [], 
    "votes": [
        {
            "article_title": "Droit \u00e0 l'internet", 
            "date": "2015-10-12T16:36:00+0200", 
            "link": "http://www.republique-numerique.fr/projects/projet-de-loi-numerique/consultation/consultation/opinions/section-1-competences-et-organisation/droit-a-l-internet", 
            "id": "53603", 
            "opinion": "1"
        }, 
        {
            "article_title": "Droit \u00e0 un d\u00e9bit minimum dans le cadre du d\u00e9bat citoyen et de l'obligation de t\u00e9l\u00e9d\u00e9claration en 2019.", 
            "date": "2015-10-12T16:37:00+0200", 
            "link": "http://www.republique-numerique.fr/projects/projet-de-loi-numerique/consultation/consultation/opinions/section-1-competences-et-organisation/droit-a-l-internet/versions/droit-a-un-debit-minimum-dans-le-cadre-de-l-obligation-de-teledeclaration-d-impots-pour-tous-d-ici-2019", 
            "id": "53612", 
            "opinion": "1"
        }, 
        {
            "article_title": "Article 1 - Open data par d\u00e9faut (obligation de diffuser en ligne les principaux documents et donn\u00e9es des organismes publics)", 
            "date": "2015-10-12T16:39:00+0200", 
            "link": "http://www.republique-numerique.fr/projects/projet-de-loi-numerique/consultation/consultation/opinions/section-1-ouverture-des-donnees-publiques-1/article-1-elargissement-du-champ-de-diffusion-par-l-administration", 
            "id": "53622", 
            "opinion": "1"
        }, 
        {
            "article_title": "Acc\u00e8s aux donn\u00e9es via des formats ouverts (libres) et dans une format r\u00e9utilisable ann\u00e9e apr\u00e8s ann\u00e9e", 
            "date": "2015-10-12T16:39:00+0200", 
            "link": "http://www.republique-numerique.fr/projects/projet-de-loi-numerique/consultation/consultation/opinions/section-1-ouverture-des-donnees-publiques-1/article-1-elargissement-du-champ-de-diffusion-par-l-administration/versions/acces-aux-donnees-via-des-formats-ouverts-libres-et-dans-une-format-reutilisable-annee-apres-annee", 
            "id": "53627", 
            "opinion": "1"
        }, 
        {
            "article_title": "Utiliser les logiciels libres & GNU/Linux dans les \u00e9coles et les universit\u00e9s", 
            "date": "2015-10-12T16:40:00+0200", 
            "link": "http://www.republique-numerique.fr/projects/projet-de-loi-numerique/consultation/consultation/opinions/section-2-service-public-de-la-donnee-1/utiliser-les-logiciels-libres-gnu-linux-dans-les-ecoles-et-les-universites", 
            "id": "53631", 
            "opinion": "1"
        }, 
        {
            "article_title": "R\u00e9pandre l'utilisation des logiciels libres dans les organisations financ\u00e9es par l'\u00e9tat", 
            "date": "2015-10-12T16:41:00+0200", 
            "link": "http://www.republique-numerique.fr/projects/projet-de-loi-numerique/consultation/consultation/opinions/section-2-service-public-de-la-donnee-1/utiliser-les-logiciels-libres-gnu-linux-dans-les-ecoles-et-les-universites/versions/repandre-l-utilisation-des-logiciels-libres-dans-les-organisations-financees-par-l-etat", 
            "id": "53634", 
            "opinion": "1"
        }, 
        {
            "article_title": "Donner la priorit\u00e9 aux logiciels libres et aux formats ouverts dans le service public national et local", 
            "date": "2015-10-12T16:42:00+0200", 
            "link": "http://www.republique-numerique.fr/projects/projet-de-loi-numerique/consultation/consultation/opinions/section-3-loyaute-des-plateformes/donner-la-priorite-aux-logiciels-libres-et-aux-formats-ouverts-dans-le-service-public-national-et-local", 
            "id": "53640", 
            "opinion": "1"
        }
    ], 
    "sources": [], 
    "votes_count": 7, 
    "arguments": [], 
    "arguments_count": 0, 
    "propositions_count": 0, 
    "contributions_count": 0
}