{
    "modifications": [
        {
            "stats": {
                "source": "0", 
                "votes": "29", 
                "arguments": "5"
            }, 
            "votes": {
                "data-ok": "25", 
                "data-mitige": "3", 
                "data-nok": "1"
            }, 
            "link": "/projects/projet-de-loi-numerique/consultation/consultation/opinions/section-3-donnees-d-interet-general/utilisation-de-gnu-linux-dans-l-administration/versions/utilisation-de-logiciels-libres-et-ouvert-et-de-formats-standard", 
            "id": "398", 
            "title": "Utilisation de logiciels libres et ouvert et de formats standard"
        }, 
        {
            "stats": {
                "source": "0", 
                "votes": "5", 
                "argument": "0"
            }, 
            "votes": {
                "data-ok": "5", 
                "data-mitige": "0", 
                "data-nok": "0"
            }, 
            "link": "/projects/projet-de-loi-numerique/consultation/consultation/opinions/section-2-couverture-numerique/obligation-de-rendre-les-appareils-connectes-compatibles-avec-le-protocole-ipv6/versions/les-minima-techniques-d-acces-au-reseau-sont-fixes-par-decret", 
            "id": "402", 
            "title": "Les minima techniques d'acc\u00e8s au r\u00e9seau sont fix\u00e9s par d\u00e9cret."
        }
    ], 
    "modifications_count": 2, 
    "sources_count": 0, 
    "propositions": [], 
    "votes": [
        {
            "article_title": "Utilisation de logiciels libres et ouvert et de formats standard", 
            "date": "2015-09-29T13:39:00+0200", 
            "link": "http://www.republique-numerique.fr/projects/projet-de-loi-numerique/consultation/consultation/opinions/section-3-donnees-d-interet-general/utilisation-de-gnu-linux-dans-l-administration/versions/utilisation-de-logiciels-libres-et-ouvert-et-de-formats-standard", 
            "id": "15424", 
            "opinion": "1"
        }, 
        {
            "article_title": "Article 7 - Acc\u00e8s de la statistique publique \u00e0 certaines bases de donn\u00e9es priv\u00e9es", 
            "date": "2015-09-29T13:41:00+0200", 
            "link": "http://www.republique-numerique.fr/projects/projet-de-loi-numerique/consultation/consultation/opinions/section-3-donnees-d-interet-general/article-7-acces-de-la-statistique-publique-aux-bases-de-donnees-privees", 
            "id": "15457", 
            "opinion": "1"
        }, 
        {
            "article_title": "Cr\u00e9er un domaine public volontaire", 
            "date": "2015-09-29T13:46:00+0200", 
            "link": "http://www.republique-numerique.fr/projects/projet-de-loi-numerique/consultation/consultation/opinions/section-1-les-communs/article-8-definition-du-domaine-commun-informationnel/versions/creer-un-domaine-public-volontaire", 
            "id": "15493", 
            "opinion": "1"
        }, 
        {
            "article_title": "Quand au sujet des licences, je vous fais remarque...", 
            "date": "2015-09-29T13:49:00+0200", 
            "link": "http://www.republique-numerique.fr/projects/projet-de-loi-numerique/consultation/consultation/opinions/section-2-travaux-de-recherche-et-de-statistique/article-11-0-financement-public-du-logiciel-libre#arg-1201", 
            "id": "15513", 
            "opinion": "1"
        }, 
        {
            "article_title": "les logiciels libres sous-tendent plusieurs busine...", 
            "date": "2015-09-29T13:50:00+0200", 
            "link": "http://www.republique-numerique.fr/projects/projet-de-loi-numerique/consultation/consultation/opinions/section-2-travaux-de-recherche-et-de-statistique/article-11-0-financement-public-du-logiciel-libre#arg-801", 
            "id": "15518", 
            "opinion": "1"
        }, 
        {
            "article_title": "Article 11 - Neutralit\u00e9 de l\u2019internet", 
            "date": "2015-09-29T13:51:00+0200", 
            "link": "http://www.republique-numerique.fr/projects/projet-de-loi-numerique/consultation/consultation/opinions/section-1-neutralite-de-l-internet/article-11-neutralite-de-l-internet", 
            "id": "15526", 
            "opinion": "1"
        }, 
        {
            "article_title": "Les minima techniques d'acc\u00e8s au r\u00e9seau sont fix\u00e9s par d\u00e9cret.", 
            "date": "2015-09-29T14:01:00+0200", 
            "link": "http://www.republique-numerique.fr/projects/projet-de-loi-numerique/consultation/consultation/opinions/section-2-couverture-numerique/obligation-de-rendre-les-appareils-connectes-compatibles-avec-le-protocole-ipv6/versions/les-minima-techniques-d-acces-au-reseau-sont-fixes-par-decret", 
            "id": "15583", 
            "opinion": "1"
        }
    ], 
    "sources": [], 
    "votes_count": 7, 
    "arguments": [
        {
            "article_title": "Signaler", 
            "votes": 6, 
            "article_link": "http://www.republique-numerique.fr/consultations/projet-de-loi-numerique/consultation/consultation/opinions/section-3-donnees-d-interet-general/utilisation-de-gnu-linux-dans-l-administration/arguments/1226/report", 
            "link": "http://www.republique-numerique.fr/consultations/projet-de-loi-numerique/consultation/consultation/opinions/section-3-donnees-d-interet-general/utilisation-de-gnu-linux-dans-l-administration/arguments/1226/report#arg-1226", 
            "date": "2015-09-29T13:36:00+0200", 
            "id": "1226"
        }, 
        {
            "article_title": "Signaler", 
            "votes": 5, 
            "article_link": "http://www.republique-numerique.fr/consultations/projet-de-loi-numerique/consultation/consultation/opinions/section-2-travaux-de-recherche-et-de-statistique/article-11-0-financement-public-du-logiciel-libre/arguments/1231/report", 
            "link": "http://www.republique-numerique.fr/consultations/projet-de-loi-numerique/consultation/consultation/opinions/section-2-travaux-de-recherche-et-de-statistique/article-11-0-financement-public-du-logiciel-libre/arguments/1231/report#arg-1231", 
            "date": "2015-09-29T13:49:00+0200", 
            "id": "1231"
        }
    ], 
    "arguments_count": 3, 
    "propositions_count": 0, 
    "contributions_count": 5
}