{
    "modifications": [
        {
            "stats": {
                "source": "0", 
                "votes": "45", 
                "arguments": "6"
            }, 
            "votes": {
                "data-ok": "26", 
                "data-mitige": "2", 
                "data-nok": "17"
            }, 
            "link": "/projects/projet-de-loi-numerique/consultation/consultation/opinions/section-2-travaux-de-recherche-et-de-statistique/article-9-acces-aux-travaux-de-la-recherche-financee-par-des-fonds-publics/versions/acces-libre-integral-et-obligatoire", 
            "id": "589", 
            "title": "Acc\u00e8s libre int\u00e9gral et obligatoire"
        }
    ], 
    "modifications_count": 1, 
    "sources_count": 1, 
    "propositions": [], 
    "votes": [
        {
            "article_title": "Un embargo d'un an en sciences, au vu de la vitess...", 
            "date": "2015-10-03T16:18:00+0200", 
            "link": "http://www.republique-numerique.fr/projects/projet-de-loi-numerique/consultation/consultation/opinions/section-2-travaux-de-recherche-et-de-statistique/article-9-acces-aux-travaux-de-la-recherche-financee-par-des-fonds-publics#arg-2055", 
            "id": "28445", 
            "opinion": "1"
        }, 
        {
            "article_title": "Embargo reduit a 6-12 mois et obligation faite a l...", 
            "date": "2015-10-03T16:18:00+0200", 
            "link": "http://www.republique-numerique.fr/projects/projet-de-loi-numerique/consultation/consultation/opinions/section-2-travaux-de-recherche-et-de-statistique/article-9-acces-aux-travaux-de-la-recherche-financee-par-des-fonds-publics#arg-2046", 
            "id": "28446", 
            "opinion": "1"
        }, 
        {
            "article_title": "Ce d\u00e9lai d'embargo est beaucoup trop long. On peu...", 
            "date": "2015-10-03T16:20:00+0200", 
            "link": "http://www.republique-numerique.fr/projects/projet-de-loi-numerique/consultation/consultation/opinions/section-2-travaux-de-recherche-et-de-statistique/article-9-acces-aux-travaux-de-la-recherche-financee-par-des-fonds-publics#arg-1597", 
            "id": "28452", 
            "opinion": "1"
        }, 
        {
            "article_title": "Vote ambigu car je suis pour le libre acc\u00e8s aux p...", 
            "date": "2015-10-03T16:20:00+0200", 
            "link": "http://www.republique-numerique.fr/projects/projet-de-loi-numerique/consultation/consultation/opinions/section-2-travaux-de-recherche-et-de-statistique/article-9-acces-aux-travaux-de-la-recherche-financee-par-des-fonds-publics#arg-1506", 
            "id": "28453", 
            "opinion": "1"
        }, 
        {
            "article_title": "pourquoi r\u00e9diger un article qui ne fait que repre...", 
            "date": "2015-10-03T16:21:00+0200", 
            "link": "http://www.republique-numerique.fr/projects/projet-de-loi-numerique/consultation/consultation/opinions/section-2-travaux-de-recherche-et-de-statistique/article-9-acces-aux-travaux-de-la-recherche-financee-par-des-fonds-publics#arg-871", 
            "id": "28455", 
            "opinion": "1"
        }, 
        {
            "article_title": "Le principe m\u00eame d'embargo est contraire \u00e0 l'esp...", 
            "date": "2015-10-03T16:22:00+0200", 
            "link": "http://www.republique-numerique.fr/projects/projet-de-loi-numerique/consultation/consultation/opinions/section-2-travaux-de-recherche-et-de-statistique/article-9-acces-aux-travaux-de-la-recherche-financee-par-des-fonds-publics#arg-463", 
            "id": "28458", 
            "opinion": "1"
        }, 
        {
            "article_title": "J'ai vot\u00e9 mitig\u00e9 car ce texte est une avanc\u00e9e m...", 
            "date": "2015-10-03T16:22:00+0200", 
            "link": "http://www.republique-numerique.fr/projects/projet-de-loi-numerique/consultation/consultation/opinions/section-2-travaux-de-recherche-et-de-statistique/article-9-acces-aux-travaux-de-la-recherche-financee-par-des-fonds-publics#arg-175", 
            "id": "28460", 
            "opinion": "1"
        }, 
        {
            "article_title": "La recherche financ\u00e9e par l'Etat appartient \u00e0 tous !", 
            "date": "2015-10-03T16:25:00+0200", 
            "link": "http://www.republique-numerique.fr/projects/projet-de-loi-numerique/consultation/consultation/opinions/section-2-travaux-de-recherche-et-de-statistique/article-9-acces-aux-travaux-de-la-recherche-financee-par-des-fonds-publics/versions/la-recherche-financee-par-l-etat-appartient-a-tous", 
            "id": "28463", 
            "opinion": "0"
        }, 
        {
            "article_title": "Toute restriction \u00e0 l'acc\u00e8s aux publications scientifiques est n\u00e9faste et co\u00fbteuse.", 
            "date": "2015-10-03T16:29:00+0200", 
            "link": "http://www.republique-numerique.fr/projects/projet-de-loi-numerique/consultation/consultation/opinions/section-2-travaux-de-recherche-et-de-statistique/article-9-acces-aux-travaux-de-la-recherche-financee-par-des-fonds-publics/versions/toute-restriction-a-l-acces-aux-publications-scientifiques-est-nefaste-et-couteuse", 
            "id": "28470", 
            "opinion": "1"
        }, 
        {
            "article_title": "Pour voir un exemple de ce qui se passe pour des a...", 
            "date": "2015-10-03T18:51:00+0200", 
            "link": "http://www.republique-numerique.fr/projects/projet-de-loi-numerique/consultation/consultation/opinions/section-2-travaux-de-recherche-et-de-statistique/article-9-acces-aux-travaux-de-la-recherche-financee-par-des-fonds-publics#arg-2132", 
            "id": "28669", 
            "opinion": "1"
        }, 
        {
            "article_title": "Je renvoie a la lecture de l'article (redige en 2...", 
            "date": "2015-10-03T18:51:00+0200", 
            "link": "http://www.republique-numerique.fr/projects/projet-de-loi-numerique/consultation/consultation/opinions/section-2-travaux-de-recherche-et-de-statistique/article-9-acces-aux-travaux-de-la-recherche-financee-par-des-fonds-publics#arg-2131", 
            "id": "28670", 
            "opinion": "1"
        }, 
        {
            "article_title": "Dans l'etat actuel du droit, la captation forcee (...", 
            "date": "2015-10-03T18:51:00+0200", 
            "link": "http://www.republique-numerique.fr/projects/projet-de-loi-numerique/consultation/consultation/opinions/section-2-travaux-de-recherche-et-de-statistique/article-9-acces-aux-travaux-de-la-recherche-financee-par-des-fonds-publics#arg-2130", 
            "id": "28671", 
            "opinion": "1"
        }, 
        {
            "article_title": "Supprimer le d\u00e9lai", 
            "date": "2015-10-03T18:52:00+0200", 
            "link": "http://www.republique-numerique.fr/projects/projet-de-loi-numerique/consultation/consultation/opinions/section-2-travaux-de-recherche-et-de-statistique/article-9-acces-aux-travaux-de-la-recherche-financee-par-des-fonds-publics/versions/supprimer-le-delai", 
            "id": "28672", 
            "opinion": "1"
        }, 
        {
            "article_title": "Acc\u00e8s libre int\u00e9gral et obligatoire", 
            "date": "2015-10-03T19:01:00+0200", 
            "link": "http://www.republique-numerique.fr/projects/projet-de-loi-numerique/consultation/consultation/opinions/section-2-travaux-de-recherche-et-de-statistique/article-9-acces-aux-travaux-de-la-recherche-financee-par-des-fonds-publics/versions/acces-libre-integral-et-obligatoire", 
            "id": "28684", 
            "opinion": "1"
        }, 
        {
            "article_title": "Trente-six mois pour les sciences humaines et sociales", 
            "date": "2015-10-03T19:03:00+0200", 
            "link": "http://www.republique-numerique.fr/projects/projet-de-loi-numerique/consultation/consultation/opinions/section-2-travaux-de-recherche-et-de-statistique/article-9-acces-aux-travaux-de-la-recherche-financee-par-des-fonds-publics/versions/trente-six-mois-pour-les-sciences-humaines-et-sociales", 
            "id": "28686", 
            "opinion": "-1"
        }, 
        {
            "article_title": "Un encadrement l\u00e9gislatif est indispensable car l...", 
            "date": "2015-10-06T07:19:00+0200", 
            "link": "http://www.republique-numerique.fr/projects/projet-de-loi-numerique/consultation/consultation/opinions/section-2-travaux-de-recherche-et-de-statistique/article-9-acces-aux-travaux-de-la-recherche-financee-par-des-fonds-publics/versions/acces-libre-integral-et-obligatoire#arg-2165", 
            "id": "32723", 
            "opinion": "1"
        }, 
        {
            "article_title": "Recommandations de l'European Research Council sur l'acc\u00e8s libre aux publications scientifiques", 
            "date": "2015-10-06T07:22:00+0200", 
            "link": "http://www.republique-numerique.fr/projects/projet-de-loi-numerique/consultation/consultation/opinions/section-2-travaux-de-recherche-et-de-statistique/article-9-acces-aux-travaux-de-la-recherche-financee-par-des-fonds-publics#source-222", 
            "id": "32726", 
            "opinion": "1"
        }
    ], 
    "sources": [
        {
            "category": "Lois et r\u00e8glements", 
            "body": "Les recommandations de l'ERC, principale instance de financement et supervision de la recherche europ\u00e9enne, imposent des d\u00e9lais de mise en acc\u00e8s libre bien plus brefs que ceux pr\u00e9vus dans l'article 9 de l'avant-projet de loi.", 
            "votes": 9, 
            "title": "\nProfil de Olivier Morin\n\n", 
            "source_link": "/profile/oliviermorin1", 
            "id": "source222"
        }
    ], 
    "votes_count": 17, 
    "arguments": [
        {
            "article_title": "Signaler", 
            "votes": 14, 
            "article_link": "http://www.republique-numerique.fr/consultations/projet-de-loi-numerique/consultation/consultation/opinions/section-2-travaux-de-recherche-et-de-statistique/article-9-acces-aux-travaux-de-la-recherche-financee-par-des-fonds-publics/arguments/2106/report", 
            "link": "http://www.republique-numerique.fr/consultations/projet-de-loi-numerique/consultation/consultation/opinions/section-2-travaux-de-recherche-et-de-statistique/article-9-acces-aux-travaux-de-la-recherche-financee-par-des-fonds-publics/arguments/2106/report#arg-2106", 
            "date": "2015-10-03T16:23:00+0200", 
            "id": "2106"
        }
    ], 
    "arguments_count": 8, 
    "propositions_count": 0, 
    "contributions_count": 10
}