{
    "modifications": [], 
    "modifications_count": 0, 
    "sources_count": 0, 
    "propositions": [], 
    "votes": [
        {
            "article_title": "Article 31 - Acc\u00e8s \u00e0 la connexion", 
            "date": "2015-10-11T20:11:00+0200", 
            "link": "http://www.republique-numerique.fr/projects/projet-de-loi-numerique/consultation/consultation/opinions/section-3-maintien-de-la-connexion-internet/article-31-acces-a-la-connexion", 
            "id": "49945", 
            "opinion": "1"
        }, 
        {
            "article_title": "Un des supports personnels d'acc\u00e8s \u00e0 internet sera d\u00e9clar\u00e9 insaisissable", 
            "date": "2015-10-11T20:12:00+0200", 
            "link": "http://www.republique-numerique.fr/projects/projet-de-loi-numerique/consultation/consultation/opinions/section-3-maintien-de-la-connexion-internet/un-des-supports-personnels-d-acces-a-internet-sera-declare-insaisissable", 
            "id": "49952", 
            "opinion": "1"
        }, 
        {
            "article_title": "D\u00e9faillance d'un op\u00e9rateur ou tout ou partie d'un r\u00e9seau", 
            "date": "2015-10-11T20:14:00+0200", 
            "link": "http://www.republique-numerique.fr/projects/projet-de-loi-numerique/consultation/consultation/opinions/section-3-maintien-de-la-connexion-internet/defaillance-d-un-operateur-ou-tout-ou-partie-d-un-reseau", 
            "id": "49977", 
            "opinion": "-1"
        }, 
        {
            "article_title": "Cr\u00e9ation d'un poste de r\u00e9f\u00e9rent accessibilit\u00e9 num\u00e9rique par groupement de communes", 
            "date": "2015-10-11T20:15:00+0200", 
            "link": "http://www.republique-numerique.fr/projects/projet-de-loi-numerique/consultation/consultation/opinions/section-1-accessibilite-des-personnes-handicapees-aux-services-telephoniques/creation-d-un-poste-de-referent-accessibilite-numerique-par-groupement-de-communes", 
            "id": "49986", 
            "opinion": "-1"
        }
    ], 
    "sources": [], 
    "votes_count": 4, 
    "arguments": [], 
    "arguments_count": 0, 
    "propositions_count": 0, 
    "contributions_count": 0
}