{
    "modifications": [], 
    "modifications_count": 0, 
    "sources_count": 0, 
    "propositions": [], 
    "votes": [
        {
            "article_title": "Tr\u00e8s complet. L'embargo sur les preprint serait u...", 
            "date": "2015-10-13T14:53:00+0200", 
            "link": "http://www.republique-numerique.fr/projects/projet-de-loi-numerique/consultation/consultation/opinions/section-2-travaux-de-recherche-et-de-statistique/article-9-acces-aux-travaux-de-la-recherche-financee-par-des-fonds-publics/versions/garantir-l-autorisation-du-depot-immediat-de-la-version-auteur-dans-une-archive-ouverte#arg-3458", 
            "id": "69953", 
            "opinion": "1"
        }, 
        {
            "article_title": "Garantir l'autorisation du d\u00e9p\u00f4t imm\u00e9diat de la version \"auteur\" dans une archive ouverte", 
            "date": "2015-10-13T14:55:00+0200", 
            "link": "http://www.republique-numerique.fr/projects/projet-de-loi-numerique/consultation/consultation/opinions/section-2-travaux-de-recherche-et-de-statistique/article-9-acces-aux-travaux-de-la-recherche-financee-par-des-fonds-publics/versions/garantir-l-autorisation-du-depot-immediat-de-la-version-auteur-dans-une-archive-ouverte", 
            "id": "69983", 
            "opinion": "1"
        }, 
        {
            "article_title": "Confier la r\u00e9flexion \u00e9thique sur les impacts du num\u00e9rique \u00e0 une instance sp\u00e9cifique", 
            "date": "2015-10-13T14:56:00+0200", 
            "link": "http://www.republique-numerique.fr/projects/projet-de-loi-numerique/consultation/consultation/opinions/section-1-protection-des-donnees-a-caractere-personnel/confier-la-reflexion-ethique-sur-les-impacts-du-numerique-a-une-instance-specifique", 
            "id": "70015", 
            "opinion": "1"
        }, 
        {
            "article_title": "Doter la France d'une repr\u00e9sentation structur\u00e9e et officielle dans la gouvernance de l'Internet", 
            "date": "2015-10-13T14:57:00+0200", 
            "link": "http://www.republique-numerique.fr/projects/projet-de-loi-numerique/consultation/consultation/opinions/section-1-neutralite-de-l-internet/doter-la-france-d-une-representation-structuree-et-officielle-dans-la-gouvernance-de-l-internet", 
            "id": "70050", 
            "opinion": "1"
        }, 
        {
            "article_title": "D\u00e9mocratie communale", 
            "date": "2015-10-13T14:59:00+0200", 
            "link": "http://www.republique-numerique.fr/projects/projet-de-loi-numerique/consultation/consultation/opinions/section-1-ouverture-des-donnees-publiques-1/article-1-elargissement-du-champ-de-diffusion-par-l-administration/versions/democratie-communale", 
            "id": "70096", 
            "opinion": "1"
        }, 
        {
            "article_title": "Cela va dans le bon sens, mais il ne faut pas rest...", 
            "date": "2015-10-13T14:59:00+0200", 
            "link": "http://www.republique-numerique.fr/projects/projet-de-loi-numerique/consultation/consultation/opinions/section-1-ouverture-des-donnees-publiques-1/article-1-elargissement-du-champ-de-diffusion-par-l-administration/versions/democratie-communale#arg-3370", 
            "id": "70105", 
            "opinion": "1"
        }, 
        {
            "article_title": "Article 1 - Open data par d\u00e9faut (obligation de diffuser en ligne les principaux documents et donn\u00e9es des organismes publics)", 
            "date": "2015-10-13T15:00:00+0200", 
            "link": "http://www.republique-numerique.fr/projects/projet-de-loi-numerique/consultation/consultation/opinions/section-1-ouverture-des-donnees-publiques-1/article-1-elargissement-du-champ-de-diffusion-par-l-administration", 
            "id": "70118", 
            "opinion": "0"
        }, 
        {
            "article_title": "R\u00e9f\u00e9rencer les jeux de donn\u00e9es sur www.data.gouv.fr et appliquer la Licence Ouverte.", 
            "date": "2015-10-13T15:02:00+0200", 
            "link": "http://www.republique-numerique.fr/projects/projet-de-loi-numerique/consultation/consultation/opinions/section-1-ouverture-des-donnees-publiques-1/article-1-elargissement-du-champ-de-diffusion-par-l-administration/versions/referencer-les-jeux-de-donnees-sur-www-data-gouv-fr-et-appliquer-la-licence-ouverte", 
            "id": "70154", 
            "opinion": "0"
        }, 
        {
            "article_title": "La publication sur data.gouv.fr est \u00e9videmment un...", 
            "date": "2015-10-13T15:02:00+0200", 
            "link": "http://www.republique-numerique.fr/projects/projet-de-loi-numerique/consultation/consultation/opinions/section-1-ouverture-des-donnees-publiques-1/article-1-elargissement-du-champ-de-diffusion-par-l-administration/versions/referencer-les-jeux-de-donnees-sur-www-data-gouv-fr-et-appliquer-la-licence-ouverte#arg-2791", 
            "id": "70161", 
            "opinion": "1"
        }, 
        {
            "article_title": "c'est un travail de longue haleine, a terme toutes...", 
            "date": "2015-10-13T15:03:00+0200", 
            "link": "http://www.republique-numerique.fr/projects/projet-de-loi-numerique/consultation/consultation/opinions/section-1-ouverture-des-donnees-publiques-1/article-1-elargissement-du-champ-de-diffusion-par-l-administration/versions/seulement-les-documents-ayant-moins-de-10-ans#arg-2558", 
            "id": "70175", 
            "opinion": "1"
        }, 
        {
            "article_title": "Seulement les documents ayant moins de 10 ans", 
            "date": "2015-10-13T15:03:00+0200", 
            "link": "http://www.republique-numerique.fr/projects/projet-de-loi-numerique/consultation/consultation/opinions/section-1-ouverture-des-donnees-publiques-1/article-1-elargissement-du-champ-de-diffusion-par-l-administration/versions/seulement-les-documents-ayant-moins-de-10-ans", 
            "id": "70178", 
            "opinion": "0"
        }, 
        {
            "article_title": "Inclure des concessionaires disposant d'une d\u00e9l\u00e9gation de service publique", 
            "date": "2015-10-13T15:04:00+0200", 
            "link": "http://www.republique-numerique.fr/projects/projet-de-loi-numerique/consultation/consultation/opinions/section-1-ouverture-des-donnees-publiques-1/article-1-elargissement-du-champ-de-diffusion-par-l-administration/versions/inclure-des-concessionaires-disposant-d-une-delegation-de-service-publique", 
            "id": "70184", 
            "opinion": "0"
        }, 
        {
            "article_title": "Faire mention explicite d'un format non propri\u00e9taire, pour \u00e9viter les formats de fichiers Microsoft par d\u00e9faut", 
            "date": "2015-10-13T15:04:00+0200", 
            "link": "http://www.republique-numerique.fr/projects/projet-de-loi-numerique/consultation/consultation/opinions/section-1-ouverture-des-donnees-publiques-1/article-1-elargissement-du-champ-de-diffusion-par-l-administration/versions/faire-mention-explicite-d-un-format-non-proprietaire-pour-eviter-les-formats-de-fichiers-microsoft-par-defaut", 
            "id": "70187", 
            "opinion": "1"
        }, 
        {
            "article_title": "Je rappelle que le format Open XML de Microsoft po...", 
            "date": "2015-10-13T15:04:00+0200", 
            "link": "http://www.republique-numerique.fr/projects/projet-de-loi-numerique/consultation/consultation/opinions/section-1-ouverture-des-donnees-publiques-1/article-1-elargissement-du-champ-de-diffusion-par-l-administration/versions/faire-mention-explicite-d-un-format-non-proprietaire-pour-eviter-les-formats-de-fichiers-microsoft-par-defaut#arg-1933", 
            "id": "70197", 
            "opinion": "1"
        }, 
        {
            "article_title": "Les d\u00e9l\u00e9gations de service publiques sont de plu...", 
            "date": "2015-10-13T15:05:00+0200", 
            "link": "http://www.republique-numerique.fr/projects/projet-de-loi-numerique/consultation/consultation/opinions/section-1-ouverture-des-donnees-publiques-1/article-1-elargissement-du-champ-de-diffusion-par-l-administration/versions/il-ne-faut-pas-se-limiter-aux-seules-administartions-et-collectivites-locales-mais-etendre-aussi-auz-filiales-directes-de-l-etat-sncf-edf-france-televisions-etc#arg-1920", 
            "id": "70220", 
            "opinion": "1"
        }, 
        {
            "article_title": "J'approuve, et je confirme qu'il est important que...", 
            "date": "2015-10-13T15:05:00+0200", 
            "link": "http://www.republique-numerique.fr/projects/projet-de-loi-numerique/consultation/consultation/opinions/section-1-ouverture-des-donnees-publiques-1/article-1-elargissement-du-champ-de-diffusion-par-l-administration/versions/il-ne-faut-pas-se-limiter-aux-seules-administartions-et-collectivites-locales-mais-etendre-aussi-auz-filiales-directes-de-l-etat-sncf-edf-france-televisions-etc#arg-2573", 
            "id": "70221", 
            "opinion": "1"
        }, 
        {
            "article_title": "Attention aux statuts des entreprises concern\u00e9es ...", 
            "date": "2015-10-13T15:05:00+0200", 
            "link": "http://www.republique-numerique.fr/projects/projet-de-loi-numerique/consultation/consultation/opinions/section-1-ouverture-des-donnees-publiques-1/article-1-elargissement-du-champ-de-diffusion-par-l-administration/versions/il-ne-faut-pas-se-limiter-aux-seules-administartions-et-collectivites-locales-mais-etendre-aussi-auz-filiales-directes-de-l-etat-sncf-edf-france-televisions-etc#arg-2974", 
            "id": "70222", 
            "opinion": "1"
        }, 
        {
            "article_title": "il ne faut pas se limiter aux seules administartions et collectivit\u00e9s locales mais \u00e9tendre aussi auz filiales directes de l'\u00c9tat ( SNCF, EDF, France T\u00e9l\u00e9visions ...etc).", 
            "date": "2015-10-13T15:06:00+0200", 
            "link": "http://www.republique-numerique.fr/projects/projet-de-loi-numerique/consultation/consultation/opinions/section-1-ouverture-des-donnees-publiques-1/article-1-elargissement-du-champ-de-diffusion-par-l-administration/versions/il-ne-faut-pas-se-limiter-aux-seules-administartions-et-collectivites-locales-mais-etendre-aussi-auz-filiales-directes-de-l-etat-sncf-edf-france-televisions-etc", 
            "id": "70232", 
            "opinion": "1"
        }, 
        {
            "article_title": "Transparence profonde des march\u00e9s publiques", 
            "date": "2015-10-13T15:08:00+0200", 
            "link": "http://www.republique-numerique.fr/projects/projet-de-loi-numerique/consultation/consultation/opinions/section-1-ouverture-des-donnees-publiques-1/article-1-elargissement-du-champ-de-diffusion-par-l-administration/versions/transparence-profonde-des-marches-publiques", 
            "id": "70286", 
            "opinion": "1"
        }, 
        {
            "article_title": "remplacer \"open data\" par \"donn\u00e9es ouvertes\" dans votre pr\u00e9sentation", 
            "date": "2015-10-13T15:09:00+0200", 
            "link": "http://www.republique-numerique.fr/projects/projet-de-loi-numerique/consultation/consultation/opinions/section-1-ouverture-des-donnees-publiques-1/article-1-elargissement-du-champ-de-diffusion-par-l-administration/versions/remplacer-open-data-par-donnees-ouvertes-dans-votre-presentation", 
            "id": "70302", 
            "opinion": "1"
        }, 
        {
            "article_title": "Ecole entreprise R\u00e9union", 
            "date": "2015-10-13T15:10:00+0200", 
            "link": "http://www.republique-numerique.fr/projects/projet-de-loi-numerique/consultation/consultation/opinions/section-1-ouverture-des-donnees-publiques-1/ecole-entreprise-reunion", 
            "id": "70351", 
            "opinion": "-1"
        }, 
        {
            "article_title": "M\u00e9lange de plusieurs choses : l\u00e9gislation des dr...", 
            "date": "2015-10-13T15:11:00+0200", 
            "link": "http://www.republique-numerique.fr/projects/projet-de-loi-numerique/consultation/consultation/opinions/section-1-ouverture-des-donnees-publiques-1/clarification-sur-le-statut-des-drones-de-combats-et-de-reconnaissances#arg-3588", 
            "id": "70371", 
            "opinion": "1"
        }, 
        {
            "article_title": "Il ne s'agit pas d'un probl\u00e8me num\u00e9rique propre,...", 
            "date": "2015-10-13T15:12:00+0200", 
            "link": "http://www.republique-numerique.fr/projects/projet-de-loi-numerique/consultation/consultation/opinions/section-1-ouverture-des-donnees-publiques-1/clarification-sur-le-statut-des-drones-de-combats-et-de-reconnaissances#arg-2416", 
            "id": "70375", 
            "opinion": "1"
        }, 
        {
            "article_title": "Article 4 - Cr\u00e9ation d\u2019un service public de la donn\u00e9e (garantie de qualit\u00e9 des donn\u00e9es publiques de r\u00e9f\u00e9rence)", 
            "date": "2015-10-13T15:13:00+0200", 
            "link": "http://www.republique-numerique.fr/projects/projet-de-loi-numerique/consultation/consultation/opinions/section-2-service-public-de-la-donnee-1/article-4-creation-d-un-service-public-de-la-donnee", 
            "id": "70409", 
            "opinion": "1"
        }, 
        {
            "article_title": "Article 5 - Ouverture des donn\u00e9es des d\u00e9l\u00e9gations de service public", 
            "date": "2015-10-13T15:14:00+0200", 
            "link": "http://www.republique-numerique.fr/projects/projet-de-loi-numerique/consultation/consultation/opinions/section-3-donnees-d-interet-general/article-5-ouverture-des-donnees-par-defaut-dans-les-contrats-de-dsp", 
            "id": "70456", 
            "opinion": "1"
        }, 
        {
            "article_title": "Seulement si ce sont des donn\u00e9es d'int\u00e9r\u00eat g\u00e9n\u00e9ral et avec contrepartie pour les entreprises concern\u00e9es", 
            "date": "2015-10-13T15:15:00+0200", 
            "link": "http://www.republique-numerique.fr/projects/projet-de-loi-numerique/consultation/consultation/opinions/section-3-donnees-d-interet-general/article-5-ouverture-des-donnees-par-defaut-dans-les-contrats-de-dsp/versions/seulement-si-ce-sont-des-donnees-d-interet-general-et-avec-contrepartie-pour-les-entreprises-concernees", 
            "id": "70467", 
            "opinion": "-1"
        }, 
        {
            "article_title": "Article 6 - Ouverture des donn\u00e9es des subventions publiques", 
            "date": "2015-10-13T15:16:00+0200", 
            "link": "http://www.republique-numerique.fr/projects/projet-de-loi-numerique/consultation/consultation/opinions/section-3-donnees-d-interet-general/article-6-ouverture-des-donnees-dans-les-conventions-de-subventions", 
            "id": "70494", 
            "opinion": "1"
        }, 
        {
            "article_title": "quelle d\u00e9magogie. a l'Etat de se d\u00e9fendre. pourq...", 
            "date": "2015-10-13T15:19:00+0200", 
            "link": "http://www.republique-numerique.fr/projects/projet-de-loi-numerique/consultation/consultation/opinions/section-1-les-communs/article-8-definition-du-domaine-commun-informationnel#arg-2221", 
            "id": "70572", 
            "opinion": "1"
        }, 
        {
            "article_title": "Le fait de confier \u00e0 des associations agr\u00e9\u00e9es l...", 
            "date": "2015-10-13T15:19:00+0200", 
            "link": "http://www.republique-numerique.fr/projects/projet-de-loi-numerique/consultation/consultation/opinions/section-1-les-communs/article-8-definition-du-domaine-commun-informationnel#arg-1999", 
            "id": "70575", 
            "opinion": "1"
        }, 
        {
            "article_title": "Article 9 - Libre acc\u00e8s aux publications scientifiques de la recherche publique", 
            "date": "2015-10-13T15:22:00+0200", 
            "link": "http://www.republique-numerique.fr/projects/projet-de-loi-numerique/consultation/consultation/opinions/section-2-travaux-de-recherche-et-de-statistique/article-9-acces-aux-travaux-de-la-recherche-financee-par-des-fonds-publics", 
            "id": "70619", 
            "opinion": "0"
        }, 
        {
            "article_title": "Les d\u00e9lais d'embargo doivent \u00eatre conditionn\u00e9s \u00e0 des \u00e9tudes d'impact", 
            "date": "2015-10-13T15:23:00+0200", 
            "link": "http://www.republique-numerique.fr/projects/projet-de-loi-numerique/consultation/consultation/opinions/section-2-travaux-de-recherche-et-de-statistique/article-9-acces-aux-travaux-de-la-recherche-financee-par-des-fonds-publics/versions/les-delais-d-embargo-doivent-etre-conditionnes-a-des-etudes-d-impact", 
            "id": "70633", 
            "opinion": "-1"
        }, 
        {
            "article_title": "Conditionner la d\u00e9finition des dur\u00e9es d'embargo \u00e0 la r\u00e9alisation d'\u00e9tudes d'impact sur l'\u00e9conomie des revues scientifiques concern\u00e9es", 
            "date": "2015-10-13T15:23:00+0200", 
            "link": "http://www.republique-numerique.fr/projects/projet-de-loi-numerique/consultation/consultation/opinions/section-2-travaux-de-recherche-et-de-statistique/article-9-acces-aux-travaux-de-la-recherche-financee-par-des-fonds-publics/versions/conditionner-la-definition-des-durees-d-embargo-a-la-realisation-d-etudes-d-impact-sur-l-economie-des-revues-scientifiques-concernees", 
            "id": "70636", 
            "opinion": "-1"
        }, 
        {
            "article_title": "Prot\u00e9ger le droit des auteurs d'articles scientifiques, pour permettre le libre acc\u00e8s \u00e0 la recherche scientifique", 
            "date": "2015-10-13T15:24:00+0200", 
            "link": "http://www.republique-numerique.fr/projects/projet-de-loi-numerique/consultation/consultation/opinions/section-2-travaux-de-recherche-et-de-statistique/article-9-acces-aux-travaux-de-la-recherche-financee-par-des-fonds-publics/versions/proteger-le-droit-des-auteurs-d-articles-scientifiques-pour-permettre-le-libre-acces-a-la-recherche-scientifique", 
            "id": "70643", 
            "opinion": "1"
        }, 
        {
            "article_title": "Cette proposition reprend les positions duCNRS s...", 
            "date": "2015-10-13T15:24:00+0200", 
            "link": "http://www.republique-numerique.fr/projects/projet-de-loi-numerique/consultation/consultation/opinions/section-2-travaux-de-recherche-et-de-statistique/article-9-acces-aux-travaux-de-la-recherche-financee-par-des-fonds-publics/versions/proteger-le-droit-des-auteurs-d-articles-scientifiques-pour-permettre-le-libre-acces-a-la-recherche-scientifique#arg-2786", 
            "id": "70645", 
            "opinion": "1"
        }, 
        {
            "article_title": "La loi ne peut en aucun cas \u00eatre en r\u00e9gression p...", 
            "date": "2015-10-13T15:24:00+0200", 
            "link": "http://www.republique-numerique.fr/projects/projet-de-loi-numerique/consultation/consultation/opinions/section-2-travaux-de-recherche-et-de-statistique/article-9-acces-aux-travaux-de-la-recherche-financee-par-des-fonds-publics/versions/proteger-le-droit-des-auteurs-d-articles-scientifiques-pour-permettre-le-libre-acces-a-la-recherche-scientifique#arg-3416", 
            "id": "70650", 
            "opinion": "1"
        }, 
        {
            "article_title": "Deux points pour soutenir encore la proposition et...", 
            "date": "2015-10-13T15:24:00+0200", 
            "link": "http://www.republique-numerique.fr/projects/projet-de-loi-numerique/consultation/consultation/opinions/section-2-travaux-de-recherche-et-de-statistique/article-9-acces-aux-travaux-de-la-recherche-financee-par-des-fonds-publics/versions/proteger-le-droit-des-auteurs-d-articles-scientifiques-pour-permettre-le-libre-acces-a-la-recherche-scientifique#arg-3473", 
            "id": "70655", 
            "opinion": "1"
        }, 
        {
            "article_title": "24 mois pour les sciences humaines c'est trop long, quid de l'\u00e9tude d'internet, des r\u00e9seaux sociaux, du big data, etc ? 12 mois pour tous", 
            "date": "2015-10-13T15:25:00+0200", 
            "link": "http://www.republique-numerique.fr/projects/projet-de-loi-numerique/consultation/consultation/opinions/section-2-travaux-de-recherche-et-de-statistique/article-9-acces-aux-travaux-de-la-recherche-financee-par-des-fonds-publics/versions/24-mois-pour-les-sciences-humaines-c-est-trop-long-quid-de-l-etude-d-internet-des-reseaux-sociaux-du-big-data-etc-12-mois-pour-tous", 
            "id": "70664", 
            "opinion": "-1"
        }, 
        {
            "article_title": "Pour un droit de fouiller les textes : autoriser le text et datamining", 
            "date": "2015-10-13T15:27:00+0200", 
            "link": "http://www.republique-numerique.fr/projects/projet-de-loi-numerique/consultation/consultation/opinions/section-2-travaux-de-recherche-et-de-statistique/article-9-acces-aux-travaux-de-la-recherche-financee-par-des-fonds-publics/versions/poir-un-droit-de-fouiller-les-textes-autoriser-le-text-et-datamining", 
            "id": "70703", 
            "opinion": "1"
        }, 
        {
            "article_title": "Pour une obligation de d\u00e9p\u00f4t des publications scientifiques dans une archive ouverte", 
            "date": "2015-10-13T15:28:00+0200", 
            "link": "http://www.republique-numerique.fr/projects/projet-de-loi-numerique/consultation/consultation/opinions/section-2-travaux-de-recherche-et-de-statistique/article-9-acces-aux-travaux-de-la-recherche-financee-par-des-fonds-publics/versions/pour-une-obligation-de-depot-des-publications-scientifiques-dans-une-archive-ouverte", 
            "id": "70743", 
            "opinion": "1"
        }, 
        {
            "article_title": "Article 11 - Neutralit\u00e9 de l\u2019internet", 
            "date": "2015-10-13T15:42:00+0200", 
            "link": "http://www.republique-numerique.fr/projects/projet-de-loi-numerique/consultation/consultation/opinions/section-1-neutralite-de-l-internet/article-11-neutralite-de-l-internet", 
            "id": "71077", 
            "opinion": "1"
        }, 
        {
            "article_title": "Article 12 - Portabilit\u00e9 des donn\u00e9es", 
            "date": "2015-10-13T15:42:00+0200", 
            "link": "http://www.republique-numerique.fr/projects/projet-de-loi-numerique/consultation/consultation/opinions/section-2-portabilite-des-donnees/article-12-portabilite-des-donnees", 
            "id": "71085", 
            "opinion": "1"
        }, 
        {
            "article_title": "Article 13 - Principe de loyaut\u00e9 des plateformes en lignes", 
            "date": "2015-10-13T15:43:00+0200", 
            "link": "http://www.republique-numerique.fr/projects/projet-de-loi-numerique/consultation/consultation/opinions/section-3-loyaute-des-plateformes/article-13-principe-de-loyaute-vis-a-vis-des-consommateurs", 
            "id": "71097", 
            "opinion": "1"
        }, 
        {
            "article_title": "Article 15 - Mieux informer sur les avis en ligne et sur les d\u00e9bits", 
            "date": "2015-10-13T15:46:00+0200", 
            "link": "http://www.republique-numerique.fr/projects/projet-de-loi-numerique/consultation/consultation/opinions/section-4-information-des-consommateurs/article-15-information-des-consommateurs-et-avis-en-ligne", 
            "id": "71170", 
            "opinion": "1"
        }, 
        {
            "article_title": "Article 17 - Evolution des missions de la CNIL", 
            "date": "2015-10-13T15:51:00+0200", 
            "link": "http://www.republique-numerique.fr/projects/projet-de-loi-numerique/consultation/consultation/opinions/section-1-protection-des-donnees-a-caractere-personnel/article-17-missions-de-la-cnil", 
            "id": "71280", 
            "opinion": "1"
        }, 
        {
            "article_title": "Article 18 - Certificat de conformit\u00e9", 
            "date": "2015-10-13T15:52:00+0200", 
            "link": "http://www.republique-numerique.fr/projects/projet-de-loi-numerique/consultation/consultation/opinions/section-1-protection-des-donnees-a-caractere-personnel/article-18-certificat-de-conformite", 
            "id": "71294", 
            "opinion": "0"
        }, 
        {
            "article_title": "Accompagnement payant ou gratuit ?", 
            "date": "2015-10-13T15:53:00+0200", 
            "link": "http://www.republique-numerique.fr/projects/projet-de-loi-numerique/consultation/consultation/opinions/section-1-protection-des-donnees-a-caractere-personnel/article-18-certificat-de-conformite/versions/accompagnement-payant-ou-gratuit", 
            "id": "71316", 
            "opinion": "1"
        }, 
        {
            "article_title": "Qui de la capacit\u00e9 de la CNIL \u00e0 r\u00e9pondre \u00e0 la demande ?", 
            "date": "2015-10-13T15:53:00+0200", 
            "link": "http://www.republique-numerique.fr/projects/projet-de-loi-numerique/consultation/consultation/opinions/section-1-protection-des-donnees-a-caractere-personnel/article-18-certificat-de-conformite/versions/qui-de-de-la-capacite-de-la-cnil-a-repondre-a-la-demande", 
            "id": "71324", 
            "opinion": "1"
        }, 
        {
            "article_title": "Article 19 - Droit \u00e0 l\u2019oubli pour les mineurs", 
            "date": "2015-10-13T15:55:00+0200", 
            "link": "http://www.republique-numerique.fr/projects/projet-de-loi-numerique/consultation/consultation/opinions/section-1-protection-des-donnees-a-caractere-personnel/article-19-droit-a-l-oubli-pour-les-mineurs-procedure-acceleree", 
            "id": "71346", 
            "opinion": "0"
        }, 
        {
            "article_title": "G\u00e9n\u00e9ralisation du droit \u00e0 l'oubli", 
            "date": "2015-10-13T15:55:00+0200", 
            "link": "http://www.republique-numerique.fr/projects/projet-de-loi-numerique/consultation/consultation/opinions/section-1-protection-des-donnees-a-caractere-personnel/article-19-droit-a-l-oubli-pour-les-mineurs-procedure-acceleree/versions/generalisation-du-droit-a-l-oubli", 
            "id": "71349", 
            "opinion": "1"
        }, 
        {
            "article_title": "Pour un droit \u00e0 l'oubli et \u00e0 la libre disposition de ses donn\u00e9es pour tous", 
            "date": "2015-10-13T15:55:00+0200", 
            "link": "http://www.republique-numerique.fr/projects/projet-de-loi-numerique/consultation/consultation/opinions/section-1-protection-des-donnees-a-caractere-personnel/article-19-droit-a-l-oubli-pour-les-mineurs-procedure-acceleree/versions/pour-un-droit-a-l-oubli-et-a-la-libre-disposition-de-ses-donnees-pour-tous", 
            "id": "71360", 
            "opinion": "1"
        }, 
        {
            "article_title": "Article 20 - Mort num\u00e9rique", 
            "date": "2015-10-13T15:56:00+0200", 
            "link": "http://www.republique-numerique.fr/projects/projet-de-loi-numerique/consultation/consultation/opinions/section-1-protection-des-donnees-a-caractere-personnel/article-20-personnes-decedees", 
            "id": "71380", 
            "opinion": "1"
        }, 
        {
            "article_title": "Article 21 - Proc\u00e9dure de sanction de la CNIL", 
            "date": "2015-10-13T15:57:00+0200", 
            "link": "http://www.republique-numerique.fr/projects/projet-de-loi-numerique/consultation/consultation/opinions/section-1-protection-des-donnees-a-caractere-personnel/article-21-procedure-de-sanction-de-la-cnil", 
            "id": "71405", 
            "opinion": "1"
        }, 
        {
            "article_title": "Article 22 - Secret des correspondances num\u00e9riques", 
            "date": "2015-10-14T11:25:00+0200", 
            "link": "http://www.republique-numerique.fr/projects/projet-de-loi-numerique/consultation/consultation/opinions/section-2-confidentialite-des-correspondances-privees/article-22-respect-des-correspondances-privees-numeriques", 
            "id": "81881", 
            "opinion": "1"
        }, 
        {
            "article_title": "secret de l'identit\u00e9 des signataires exp\u00e9diteurs et des destinataires - l'identit\u00e9 est en elle-m\u00eame une donn\u00e9e personnelle", 
            "date": "2015-10-14T11:28:00+0200", 
            "link": "http://www.republique-numerique.fr/projects/projet-de-loi-numerique/consultation/consultation/opinions/section-2-confidentialite-des-correspondances-privees/article-22-respect-des-correspondances-privees-numeriques/versions/secret-de-l-identite-des-signataires-expediteurs-et-des-destinataires-l-identite-est-en-elle-meme-une-donnee-personnelle", 
            "id": "81922", 
            "opinion": "-1"
        }, 
        {
            "article_title": "Sur le fond, l'\u00e9diteur doit n\u00e9cessairement prend...", 
            "date": "2015-10-14T11:28:00+0200", 
            "link": "http://www.republique-numerique.fr/projects/projet-de-loi-numerique/consultation/consultation/opinions/section-2-confidentialite-des-correspondances-privees/article-22-respect-des-correspondances-privees-numeriques/versions/secret-de-l-identite-des-signataires-expediteurs-et-des-destinataires-l-identite-est-en-elle-meme-une-donnee-personnelle#arg-3163", 
            "id": "81935", 
            "opinion": "1"
        }, 
        {
            "article_title": "Pour une lettre, le destinataire et l'exp\u00e9diteur ...", 
            "date": "2015-10-14T11:28:00+0200", 
            "link": "http://www.republique-numerique.fr/projects/projet-de-loi-numerique/consultation/consultation/opinions/section-2-confidentialite-des-correspondances-privees/article-22-respect-des-correspondances-privees-numeriques/versions/secret-de-l-identite-des-signataires-expediteurs-et-des-destinataires-l-identite-est-en-elle-meme-une-donnee-personnelle#arg-3587", 
            "id": "81940", 
            "opinion": "1"
        }, 
        {
            "article_title": "Article 24 - Ouverture des donn\u00e9es de la couverture num\u00e9rique des territoires", 
            "date": "2015-10-14T11:30:00+0200", 
            "link": "http://www.republique-numerique.fr/projects/projet-de-loi-numerique/consultation/consultation/opinions/section-2-couverture-numerique/article-24-publicite-de-la-qualite-des-services-numeriques", 
            "id": "81955", 
            "opinion": "1"
        }, 
        {
            "article_title": "Pr\u00e9ciser pour chaque information la date d'actualisation (indicateur de la qualit\u00e9)", 
            "date": "2015-10-14T11:30:00+0200", 
            "link": "http://www.republique-numerique.fr/projects/projet-de-loi-numerique/consultation/consultation/opinions/section-2-couverture-numerique/article-24-publicite-de-la-qualite-des-services-numeriques/versions/preciser-pour-chaque-information-la-date-d-actualisation-indicateur-de-la-qualite", 
            "id": "81967", 
            "opinion": "1"
        }, 
        {
            "article_title": "Format non propri\u00e9taire", 
            "date": "2015-10-14T11:31:00+0200", 
            "link": "http://www.republique-numerique.fr/projects/projet-de-loi-numerique/consultation/consultation/opinions/section-2-couverture-numerique/article-24-publicite-de-la-qualite-des-services-numeriques/versions/format-non-proprietaire", 
            "id": "81976", 
            "opinion": "1"
        }, 
        {
            "article_title": "Pr\u00e9cision pour \u00e9viter les d\u00e9rives commerciales de l'acc\u00e8s \u00e0 ses donn\u00e9es", 
            "date": "2015-10-14T11:31:00+0200", 
            "link": "http://www.republique-numerique.fr/projects/projet-de-loi-numerique/consultation/consultation/opinions/section-2-couverture-numerique/article-24-publicite-de-la-qualite-des-services-numeriques/versions/precision-pour-eviter-les-derives-commerciales-de-l-acces-a-ses-donnees", 
            "id": "81990", 
            "opinion": "-1"
        }, 
        {
            "article_title": "Article 25 - Modification des principes d\u2019\u00e9tablissement des redevances d\u2019utilisation des fr\u00e9quences", 
            "date": "2015-10-14T11:34:00+0200", 
            "link": "http://www.republique-numerique.fr/projects/projet-de-loi-numerique/consultation/consultation/opinions/section-2-couverture-numerique/article-25-principe-de-calcul-des-redevances-d-usage-des-frequences", 
            "id": "82033", 
            "opinion": "0"
        }, 
        {
            "article_title": "Lettre 100% \u00e9lectronique et paslettre hybride", 
            "date": "2015-10-14T13:07:00+0200", 
            "link": "http://www.republique-numerique.fr/projects/projet-de-loi-numerique/consultation/consultation/opinions/section-1-recommande-electronique/article-26-recommande-electronique/versions/lettre-100-electronique-et-pas-lettre-hybride", 
            "id": "83320", 
            "opinion": "1"
        }, 
        {
            "article_title": "Logiciel libre et recommand\u00e9 electronique, un pr\u00e9-requis", 
            "date": "2015-10-14T13:08:00+0200", 
            "link": "http://www.republique-numerique.fr/projects/projet-de-loi-numerique/consultation/consultation/opinions/section-1-recommande-electronique/article-26-recommande-electronique/versions/logiciel-libre-et-recommande-electronique-un-pre-requis", 
            "id": "83324", 
            "opinion": "1"
        }, 
        {
            "article_title": "Doit-on l\u00e9gif\u00e9rer sur un tel sujet ?", 
            "date": "2015-10-14T13:08:00+0200", 
            "link": "http://www.republique-numerique.fr/projects/projet-de-loi-numerique/consultation/consultation/opinions/section-1-recommande-electronique/article-26-recommande-electronique/versions/doit-on-legiferer-sur-un-tel-sujet", 
            "id": "83327", 
            "opinion": "-1"
        }, 
        {
            "article_title": "Pr\u00e9ciser les garanties et l\u2019information de l\u2019utilisateur du recommand\u00e9 \u00e9lectronique", 
            "date": "2015-10-14T13:09:00+0200", 
            "link": "http://www.republique-numerique.fr/projects/projet-de-loi-numerique/consultation/consultation/opinions/section-1-recommande-electronique/article-26-recommande-electronique/versions/preciser-les-garanties-et-l-information-de-l-utilisateur-du-recommande-electronique", 
            "id": "83332", 
            "opinion": "1"
        }, 
        {
            "article_title": "Article 26 - D\u00e9finition d\u2019un cadre de confiance pour le recommand\u00e9 \u00e9lectronique", 
            "date": "2015-10-14T13:09:00+0200", 
            "link": "http://www.republique-numerique.fr/projects/projet-de-loi-numerique/consultation/consultation/opinions/section-1-recommande-electronique/article-26-recommande-electronique", 
            "id": "83333", 
            "opinion": "0"
        }, 
        {
            "article_title": "Article 27 - Paiement par SMS", 
            "date": "2015-10-14T13:11:00+0200", 
            "link": "http://www.republique-numerique.fr/projects/projet-de-loi-numerique/consultation/consultation/opinions/section-2-paiement-par-sms/article-27-paiement-par-sms", 
            "id": "83350", 
            "opinion": "0"
        }, 
        {
            "article_title": "Le don par SMS est un moyen d\u2019\u00eatre solidaire, i...", 
            "date": "2015-10-14T13:12:00+0200", 
            "link": "http://www.republique-numerique.fr/projects/projet-de-loi-numerique/consultation/consultation/opinions/section-2-paiement-par-sms/article-27-paiement-par-sms#arg-3494", 
            "id": "83353", 
            "opinion": "1"
        }, 
        {
            "article_title": "Le Secours Catholique d\u00e9pend pour pr\u00e8s de 90 % d...", 
            "date": "2015-10-14T13:13:00+0200", 
            "link": "http://www.republique-numerique.fr/projects/projet-de-loi-numerique/consultation/consultation/opinions/section-2-paiement-par-sms/article-27-paiement-par-sms#arg-3335", 
            "id": "83357", 
            "opinion": "1"
        }, 
        {
            "article_title": "Faire acte de solidarit\u00e9 devrait \u00eatre \u00e0 la port...", 
            "date": "2015-10-14T13:13:00+0200", 
            "link": "http://www.republique-numerique.fr/projects/projet-de-loi-numerique/consultation/consultation/opinions/section-2-paiement-par-sms/article-27-paiement-par-sms#arg-3309", 
            "id": "83358", 
            "opinion": "1"
        }, 
        {
            "article_title": "Lors de notre exp\u00e9rimentation, le don par SMS a r...", 
            "date": "2015-10-14T13:13:00+0200", 
            "link": "http://www.republique-numerique.fr/projects/projet-de-loi-numerique/consultation/consultation/opinions/section-2-paiement-par-sms/article-27-paiement-par-sms#arg-2813", 
            "id": "83361", 
            "opinion": "1"
        }, 
        {
            "article_title": "Validation n\u00e9cessaire du paiemant par le client", 
            "date": "2015-10-14T13:14:00+0200", 
            "link": "http://www.republique-numerique.fr/projects/projet-de-loi-numerique/consultation/consultation/opinions/section-2-paiement-par-sms/article-27-paiement-par-sms/versions/validation-necessaire-du-paiemant-par-le-client", 
            "id": "83374", 
            "opinion": "1"
        }, 
        {
            "article_title": "En r\u00e9ponse a Jedeons, mon exp\u00e9rience aussi bien ...", 
            "date": "2015-10-14T13:14:00+0200", 
            "link": "http://www.republique-numerique.fr/projects/projet-de-loi-numerique/consultation/consultation/opinions/section-2-paiement-par-sms/article-27-paiement-par-sms/versions/validation-necessaire-du-paiemant-par-le-client#arg-1220", 
            "id": "83379", 
            "opinion": "1"
        }, 
        {
            "article_title": "Pose un probl\u00e8me pour les mineurs", 
            "date": "2015-10-14T13:14:00+0200", 
            "link": "http://www.republique-numerique.fr/projects/projet-de-loi-numerique/consultation/consultation/opinions/section-2-paiement-par-sms/article-27-paiement-par-sms/versions/pose-un-probleme-pour-les-mineurs", 
            "id": "83383", 
            "opinion": "1"
        }, 
        {
            "article_title": "En r\u00e9ponse \u00e0 l'argument \"contre\" de jedeons, cet...", 
            "date": "2015-10-14T13:14:00+0200", 
            "link": "http://www.republique-numerique.fr/projects/projet-de-loi-numerique/consultation/consultation/opinions/section-2-paiement-par-sms/article-27-paiement-par-sms/versions/pose-un-probleme-pour-les-mineurs#arg-1232", 
            "id": "83386", 
            "opinion": "1"
        }, 
        {
            "article_title": "Pourquoi limiter les usages \u00e0 certains cas et pas d'autres ?", 
            "date": "2015-10-14T13:16:00+0200", 
            "link": "http://www.republique-numerique.fr/projects/projet-de-loi-numerique/consultation/consultation/opinions/section-2-paiement-par-sms/article-27-paiement-par-sms/versions/pourquoi-limiter-les-usages-a-certains-cas-et-pas-d-autres", 
            "id": "83399", 
            "opinion": "1"
        }, 
        {
            "article_title": "Faire acte de solidarit\u00e9 devrait \u00eatre \u00e0 la port...", 
            "date": "2015-10-14T13:17:00+0200", 
            "link": "http://www.republique-numerique.fr/projects/projet-de-loi-numerique/consultation/consultation/opinions/section-2-paiement-par-sms/article-27-paiement-par-sms/versions/le-don-par-sms-pour-les-osbl-d-interet-general-et-faisant-appel-a-la-generosite#arg-2818", 
            "id": "83405", 
            "opinion": "1"
        }, 
        {
            "article_title": "Le don par SMS pour les OSBL d'int\u00e9r\u00eat g\u00e9n\u00e9ral et faisant appel \u00e0 la g\u00e9n\u00e9rosit\u00e9", 
            "date": "2015-10-14T13:17:00+0200", 
            "link": "http://www.republique-numerique.fr/projects/projet-de-loi-numerique/consultation/consultation/opinions/section-2-paiement-par-sms/article-27-paiement-par-sms/versions/le-don-par-sms-pour-les-osbl-d-interet-general-et-faisant-appel-a-la-generosite", 
            "id": "83406", 
            "opinion": "1"
        }, 
        {
            "article_title": "Le seuil de 300\u20ac doit \u00eatre un maximum et le client doit pouvoir demander un seuil inf\u00e9rieur", 
            "date": "2015-10-14T13:17:00+0200", 
            "link": "http://www.republique-numerique.fr/projects/projet-de-loi-numerique/consultation/consultation/opinions/section-2-paiement-par-sms/article-27-paiement-par-sms/versions/le-seuil-de-300-doit-etre-un-maximum-et-le-client-doit-pouvoir-demander-un-seuil-inferieur", 
            "id": "83409", 
            "opinion": "1"
        }, 
        {
            "article_title": "Augment\u00e9 la s\u00e9curit\u00e9 de ce mode de paiement", 
            "date": "2015-10-14T13:17:00+0200", 
            "link": "http://www.republique-numerique.fr/projects/projet-de-loi-numerique/consultation/consultation/opinions/section-2-paiement-par-sms/article-27-paiement-par-sms/versions/augmente-la-securite-de-ce-mode-de-paiement", 
            "id": "83412", 
            "opinion": "1"
        }, 
        {
            "article_title": "Article 28 - Accessibilit\u00e9 des services publics, des services client et des offres de communications \u00e9lectroniques aux personnes sourdes et malentendantes", 
            "date": "2015-10-14T13:20:00+0200", 
            "link": "http://www.republique-numerique.fr/projects/projet-de-loi-numerique/consultation/consultation/opinions/section-1-accessibilite-des-personnes-handicapees-aux-services-telephoniques/article-28-accueil-telephonique-des-personnes-publiques-et-des-entreprises-offre-pour-les-deficients-auditifs", 
            "id": "83427", 
            "opinion": "1"
        }, 
        {
            "article_title": "Pr\u00e9cision : je suis prestataire du secteur, je di...", 
            "date": "2015-10-14T13:23:00+0200", 
            "link": "http://www.republique-numerique.fr/projects/projet-de-loi-numerique/consultation/consultation/opinions/section-2-accessibilite-des-personnes-handicapees-aux-sites-internet-publics/article-29-accessibilite-numerique-des-services-publics#arg-31", 
            "id": "83472", 
            "opinion": "1"
        }, 
        {
            "article_title": "Tout d'abord, ce texte a le m\u00e9rite d'englober les...", 
            "date": "2015-10-14T13:24:00+0200", 
            "link": "http://www.republique-numerique.fr/projects/projet-de-loi-numerique/consultation/consultation/opinions/section-2-accessibilite-des-personnes-handicapees-aux-sites-internet-publics/article-29-accessibilite-numerique-des-services-publics#arg-2039", 
            "id": "83474", 
            "opinion": "1"
        }, 
        {
            "article_title": "Comme beaucoup ici dans les arguments, on peut reg...", 
            "date": "2015-10-14T13:24:00+0200", 
            "link": "http://www.republique-numerique.fr/projects/projet-de-loi-numerique/consultation/consultation/opinions/section-2-accessibilite-des-personnes-handicapees-aux-sites-internet-publics/article-29-accessibilite-numerique-des-services-publics#arg-1444", 
            "id": "83480", 
            "opinion": "1"
        }, 
        {
            "article_title": "Je rejoins Elie Slo\u00efm dans ses propos. J'ajoutera...", 
            "date": "2015-10-14T13:24:00+0200", 
            "link": "http://www.republique-numerique.fr/projects/projet-de-loi-numerique/consultation/consultation/opinions/section-2-accessibilite-des-personnes-handicapees-aux-sites-internet-publics/article-29-accessibilite-numerique-des-services-publics#arg-1243", 
            "id": "83482", 
            "opinion": "1"
        }, 
        {
            "article_title": "Article 29 - Accessibilit\u00e9 aux personnes handicap\u00e9es des sites internet des administrations", 
            "date": "2015-10-14T13:25:00+0200", 
            "link": "http://www.republique-numerique.fr/projects/projet-de-loi-numerique/consultation/consultation/opinions/section-2-accessibilite-des-personnes-handicapees-aux-sites-internet-publics/article-29-accessibilite-numerique-des-services-publics", 
            "id": "83490", 
            "opinion": "0"
        }, 
        {
            "article_title": "Droit d\u2019acc\u00e8s minimal pour maintien service courrier \u00e9lectronique et acc\u00e8s aux plateformes publiques et priv\u00e9es essentielles", 
            "date": "2015-10-14T13:27:00+0200", 
            "link": "http://www.republique-numerique.fr/projects/projet-de-loi-numerique/consultation/consultation/opinions/section-3-maintien-de-la-connexion-internet/article-30-maintien-temporaire-de-la-connexion/versions/droit-d-acces-aux-donnees-personnelles-stockees-numeriquement", 
            "id": "83510", 
            "opinion": "1"
        }, 
        {
            "article_title": "Acc\u00e8s \u00e0 internet restreint", 
            "date": "2015-10-14T13:28:00+0200", 
            "link": "http://www.republique-numerique.fr/projects/projet-de-loi-numerique/consultation/consultation/opinions/section-3-maintien-de-la-connexion-internet/article-30-maintien-temporaire-de-la-connexion/versions/acces-a-internet-restreint", 
            "id": "83533", 
            "opinion": "1"
        }, 
        {
            "article_title": "Limitation de la connexion pour \u00e9viter les abus", 
            "date": "2015-10-14T13:28:00+0200", 
            "link": "http://www.republique-numerique.fr/projects/projet-de-loi-numerique/consultation/consultation/opinions/section-3-maintien-de-la-connexion-internet/article-30-maintien-temporaire-de-la-connexion/versions/limitation-de-la-connexion-pour-eviter-les-abus", 
            "id": "83537", 
            "opinion": "1"
        }, 
        {
            "article_title": "Contrairement \u00e0 ce qu'affirme M. Gimbert dans les...", 
            "date": "2015-10-14T15:46:00+0200", 
            "link": "http://www.republique-numerique.fr/projects/projet-de-loi-numerique/consultation/consultation/opinions/section-2-travaux-de-recherche-et-de-statistique/article-9-acces-aux-travaux-de-la-recherche-financee-par-des-fonds-publics/versions/proteger-le-droit-des-auteurs-d-articles-scientifiques-pour-permettre-le-libre-acces-a-la-recherche-scientifique#arg-3526", 
            "id": "85270", 
            "opinion": "1"
        }, 
        {
            "article_title": "Comme l'a d\u00e9j\u00e0 signal\u00e9 R. Di Cosmo, cette versi...", 
            "date": "2015-10-15T10:55:00+0200", 
            "link": "http://www.republique-numerique.fr/projects/projet-de-loi-numerique/consultation/consultation/opinions/section-2-travaux-de-recherche-et-de-statistique/article-9-acces-aux-travaux-de-la-recherche-financee-par-des-fonds-publics/versions/une-duree-d-embargo-plus-courte-ne-pas-entraver-le-tdm-fouille-de-texte-et-de-donnees-et-ne-pas-interdire-une-exploitation-commerciale#arg-3882", 
            "id": "93566", 
            "opinion": "1"
        }, 
        {
            "article_title": "6 mois c'est encore beaucoup. Il faudrait 0....", 
            "date": "2015-10-15T10:55:00+0200", 
            "link": "http://www.republique-numerique.fr/projects/projet-de-loi-numerique/consultation/consultation/opinions/section-2-travaux-de-recherche-et-de-statistique/article-9-acces-aux-travaux-de-la-recherche-financee-par-des-fonds-publics/versions/une-duree-d-embargo-plus-courte-ne-pas-entraver-le-tdm-fouille-de-texte-et-de-donnees-et-ne-pas-interdire-une-exploitation-commerciale#arg-3820", 
            "id": "93568", 
            "opinion": "1"
        }, 
        {
            "article_title": "Pourquoi 6 mois? Il faut un d\u00e9lai nul....", 
            "date": "2015-10-15T10:55:00+0200", 
            "link": "http://www.republique-numerique.fr/projects/projet-de-loi-numerique/consultation/consultation/opinions/section-2-travaux-de-recherche-et-de-statistique/article-9-acces-aux-travaux-de-la-recherche-financee-par-des-fonds-publics/versions/une-duree-d-embargo-plus-courte-ne-pas-entraver-le-tdm-fouille-de-texte-et-de-donnees-et-ne-pas-interdire-une-exploitation-commerciale#arg-3787", 
            "id": "93571", 
            "opinion": "1"
        }, 
        {
            "article_title": "Cet amendement est trop fouilli.Quelle partie de...", 
            "date": "2015-10-15T10:56:00+0200", 
            "link": "http://www.republique-numerique.fr/projects/projet-de-loi-numerique/consultation/consultation/opinions/section-2-travaux-de-recherche-et-de-statistique/article-9-acces-aux-travaux-de-la-recherche-financee-par-des-fonds-publics/versions/une-duree-d-embargo-plus-courte-ne-pas-entraver-le-tdm-fouille-de-texte-et-de-donnees-et-ne-pas-interdire-une-exploitation-commerciale#arg-3198", 
            "id": "93578", 
            "opinion": "1"
        }, 
        {
            "article_title": "Je ne vois aucun argument justifiant de conserver ...", 
            "date": "2015-10-15T10:56:00+0200", 
            "link": "http://www.republique-numerique.fr/projects/projet-de-loi-numerique/consultation/consultation/opinions/section-2-travaux-de-recherche-et-de-statistique/article-9-acces-aux-travaux-de-la-recherche-financee-par-des-fonds-publics/versions/une-duree-d-embargo-plus-courte-ne-pas-entraver-le-tdm-fouille-de-texte-et-de-donnees-et-ne-pas-interdire-une-exploitation-commerciale#arg-2729", 
            "id": "93581", 
            "opinion": "1"
        }, 
        {
            "article_title": "Il faut absolument r\u00e9duire la dur\u00e9e d'embargo au...", 
            "date": "2015-10-15T10:56:00+0200", 
            "link": "http://www.republique-numerique.fr/projects/projet-de-loi-numerique/consultation/consultation/opinions/section-2-travaux-de-recherche-et-de-statistique/article-9-acces-aux-travaux-de-la-recherche-financee-par-des-fonds-publics/versions/une-duree-d-embargo-plus-courte-ne-pas-entraver-le-tdm-fouille-de-texte-et-de-donnees-et-ne-pas-interdire-une-exploitation-commerciale#arg-2056", 
            "id": "93582", 
            "opinion": "1"
        }, 
        {
            "article_title": "Il faut supprimer les d\u00e9lais d'embargo afin de me...", 
            "date": "2015-10-15T10:56:00+0200", 
            "link": "http://www.republique-numerique.fr/projects/projet-de-loi-numerique/consultation/consultation/opinions/section-2-travaux-de-recherche-et-de-statistique/article-9-acces-aux-travaux-de-la-recherche-financee-par-des-fonds-publics/versions/une-duree-d-embargo-plus-courte-ne-pas-entraver-le-tdm-fouille-de-texte-et-de-donnees-et-ne-pas-interdire-une-exploitation-commerciale#arg-1968", 
            "id": "93583", 
            "opinion": "1"
        }, 
        {
            "article_title": "Le d\u00e9lai de mise \u00e0 disposition gratuite par l'au...", 
            "date": "2015-10-15T10:56:00+0200", 
            "link": "http://www.republique-numerique.fr/projects/projet-de-loi-numerique/consultation/consultation/opinions/section-2-travaux-de-recherche-et-de-statistique/article-9-acces-aux-travaux-de-la-recherche-financee-par-des-fonds-publics/versions/une-duree-d-embargo-plus-courte-ne-pas-entraver-le-tdm-fouille-de-texte-et-de-donnees-et-ne-pas-interdire-une-exploitation-commerciale#arg-1964", 
            "id": "93585", 
            "opinion": "1"
        }, 
        {
            "article_title": "1 point par amendement svp, sinon on ne peut pas v...", 
            "date": "2015-10-15T10:56:00+0200", 
            "link": "http://www.republique-numerique.fr/projects/projet-de-loi-numerique/consultation/consultation/opinions/section-2-travaux-de-recherche-et-de-statistique/article-9-acces-aux-travaux-de-la-recherche-financee-par-des-fonds-publics/versions/une-duree-d-embargo-plus-courte-ne-pas-entraver-le-tdm-fouille-de-texte-et-de-donnees-et-ne-pas-interdire-une-exploitation-commerciale#arg-1888", 
            "id": "93586", 
            "opinion": "1"
        }, 
        {
            "article_title": "Une dur\u00e9e d'embargo plus courte, ne pas entraver le TDM (fouille de texte et de donn\u00e9es) et ne pas interdire une exploitation commerciale", 
            "date": "2015-10-15T10:56:00+0200", 
            "link": "http://www.republique-numerique.fr/projects/projet-de-loi-numerique/consultation/consultation/opinions/section-2-travaux-de-recherche-et-de-statistique/article-9-acces-aux-travaux-de-la-recherche-financee-par-des-fonds-publics/versions/une-duree-d-embargo-plus-courte-ne-pas-entraver-le-tdm-fouille-de-texte-et-de-donnees-et-ne-pas-interdire-une-exploitation-commerciale", 
            "id": "93587", 
            "opinion": "-1"
        }, 
        {
            "article_title": "Soumettre le responsable de traitement \u00e0 une obligation de r\u00e9sultat quant \u00e0 la s\u00e9curit\u00e9 des donn\u00e9es", 
            "date": "2015-10-15T11:01:00+0200", 
            "link": "http://www.republique-numerique.fr/projects/projet-de-loi-numerique/consultation/consultation/opinions/section-1-protection-des-donnees-a-caractere-personnel/article-16-libre-disposition-de-ses-donnees-a-caractere-personnel/versions/soumettre-le-responsable-de-traitement-a-une-obligation-de-resultat-quant-a-la-securite-des-donnees", 
            "id": "93650", 
            "opinion": "0"
        }, 
        {
            "article_title": "Consacrer un droit effectif \u00e0 la portabilit\u00e9", 
            "date": "2015-10-15T11:06:00+0200", 
            "link": "http://www.republique-numerique.fr/projects/projet-de-loi-numerique/consultation/consultation/opinions/section-2-portabilite-des-donnees/article-12-portabilite-des-donnees/versions/consacrer-un-droit-effectif-a-la-portabilite", 
            "id": "93748", 
            "opinion": "0"
        }, 
        {
            "article_title": "Mitig\u00e9.Dommage de proposer des modifs sur trois...", 
            "date": "2015-10-15T11:13:00+0200", 
            "link": "http://www.republique-numerique.fr/projects/projet-de-loi-numerique/consultation/consultation/opinions/section-2-travaux-de-recherche-et-de-statistique/article-9-acces-aux-travaux-de-la-recherche-financee-par-des-fonds-publics/versions/une-duree-d-embargo-plus-courte-ne-pas-entraver-le-tdm-fouille-de-texte-et-de-donnees-et-ne-pas-interdire-une-exploitation-commerciale#arg-3149", 
            "id": "93850", 
            "opinion": "1"
        }, 
        {
            "article_title": "Dur\u00e9e d'embargo et TDM", 
            "date": "2015-10-16T11:27:00+0200", 
            "link": "http://www.republique-numerique.fr/projects/projet-de-loi-numerique/consultation/consultation/opinions/section-2-travaux-de-recherche-et-de-statistique/article-9-acces-aux-travaux-de-la-recherche-financee-par-des-fonds-publics/versions/duree-d-embargo-et-tdm-1", 
            "id": "110972", 
            "opinion": "-1"
        }, 
        {
            "article_title": "Il convient de ne pas se tromper de combat.Oui, c...", 
            "date": "2015-10-16T11:28:00+0200", 
            "link": "http://www.republique-numerique.fr/projects/projet-de-loi-numerique/consultation/consultation/opinions/section-2-travaux-de-recherche-et-de-statistique/article-9-acces-aux-travaux-de-la-recherche-financee-par-des-fonds-publics/versions/duree-d-embargo-et-tdm-1#arg-3938", 
            "id": "110982", 
            "opinion": "1"
        }, 
        {
            "article_title": "Par principe, il tout simplement inadmissible d'op...", 
            "date": "2015-10-16T11:28:00+0200", 
            "link": "http://www.republique-numerique.fr/projects/projet-de-loi-numerique/consultation/consultation/opinions/section-2-travaux-de-recherche-et-de-statistique/article-9-acces-aux-travaux-de-la-recherche-financee-par-des-fonds-publics/versions/duree-d-embargo-et-tdm-1#arg-4577", 
            "id": "110989", 
            "opinion": "1"
        }, 
        {
            "article_title": "Il est assez significatif qu'une organisation pr\u00e9...", 
            "date": "2015-10-16T11:30:00+0200", 
            "link": "http://www.republique-numerique.fr/projects/projet-de-loi-numerique/consultation/consultation/opinions/section-2-travaux-de-recherche-et-de-statistique/article-9-acces-aux-travaux-de-la-recherche-financee-par-des-fonds-publics/versions/les-delais-d-embargo-doivent-etre-conditionnes-a-des-etudes-d-impact#arg-3790", 
            "id": "111034", 
            "opinion": "1"
        }, 
        {
            "article_title": "l'amendement revient \u00e0 consid\u00e9rer que les auteur...", 
            "date": "2015-10-16T11:30:00+0200", 
            "link": "http://www.republique-numerique.fr/projects/projet-de-loi-numerique/consultation/consultation/opinions/section-2-travaux-de-recherche-et-de-statistique/article-9-acces-aux-travaux-de-la-recherche-financee-par-des-fonds-publics/versions/les-delais-d-embargo-doivent-etre-conditionnes-a-des-etudes-d-impact#arg-3833", 
            "id": "111036", 
            "opinion": "1"
        }
    ], 
    "sources": [], 
    "votes_count": 108, 
    "arguments": [], 
    "arguments_count": 2, 
    "propositions_count": 0, 
    "contributions_count": 2
}