{
    "modifications": [], 
    "modifications_count": 0, 
    "sources_count": 0, 
    "propositions": [], 
    "votes": [
        {
            "article_title": "\u00c9viter la l\u00e9galisation du copyfraud", 
            "date": "2015-10-14T19:22:00+0200", 
            "link": "http://www.republique-numerique.fr/projects/projet-de-loi-numerique/consultation/consultation/opinions/section-1-les-communs/article-8-definition-du-domaine-commun-informationnel/versions/eviter-la-legalisation-du-copyfraud", 
            "id": "88153", 
            "opinion": "1"
        }, 
        {
            "article_title": "\u00c9largir les possibilit\u00e9s d'action contre les atteintes au domaine commun informationnel", 
            "date": "2015-10-14T19:22:00+0200", 
            "link": "http://www.republique-numerique.fr/projects/projet-de-loi-numerique/consultation/consultation/opinions/section-1-les-communs/article-8-definition-du-domaine-commun-informationnel/versions/elargir-les-possibilites-d-action-contre-les-atteintes-au-domaine-commun-informationnel", 
            "id": "88156", 
            "opinion": "1"
        }, 
        {
            "article_title": "article 8 bis \u00ab\u00a0D\u00e9finition des communs volontaires\u00a0\u00bb", 
            "date": "2015-10-14T19:23:00+0200", 
            "link": "http://www.republique-numerique.fr/projects/projet-de-loi-numerique/consultation/consultation/opinions/section-1-les-communs/article-8-bis-definition-des-communs-volontaires", 
            "id": "88159", 
            "opinion": "1"
        }, 
        {
            "article_title": "Pr\u00e9ciser le p\u00e9rim\u00e8tre d'application de la Neutralit\u00e9 du Net", 
            "date": "2015-10-14T19:23:00+0200", 
            "link": "http://www.republique-numerique.fr/projects/projet-de-loi-numerique/consultation/consultation/opinions/section-1-neutralite-de-l-internet/article-11-neutralite-de-l-internet/versions/preciser-le-perimetre-d-application-de-la-neutralite-du-net", 
            "id": "88161", 
            "opinion": "1"
        }, 
        {
            "article_title": "Ajouter la promotion du chiffrement des communications dans les missions de la CNIL", 
            "date": "2015-10-14T19:23:00+0200", 
            "link": "http://www.republique-numerique.fr/projects/projet-de-loi-numerique/consultation/consultation/opinions/section-1-protection-des-donnees-a-caractere-personnel/article-17-missions-de-la-cnil/versions/ajouter-la-promotion-du-chiffrement-des-communications-dans-les-missions-de-la-cnil", 
            "id": "88167", 
            "opinion": "1"
        }, 
        {
            "article_title": "23 : Autoriser les actions de groupe notamment en mati\u00e8re d'atteinte au droit sur les donn\u00e9es personnelles et la neutralit\u00e9 du Net", 
            "date": "2015-10-14T19:27:00+0200", 
            "link": "http://www.republique-numerique.fr/projects/projet-de-loi-numerique/consultation/consultation/opinions/section-2-confidentialite-des-correspondances-privees/23-autoriser-les-actions-de-groupe-notamment-en-matiere-d-atteinte-au-droit-sur-les-donnees-personnelles-et-la-neutralite-du-net", 
            "id": "88233", 
            "opinion": "1"
        }, 
        {
            "article_title": "Consacrer un droit d'information sur les modalit\u00e9s du stockage des fichiers et donn\u00e9es-utilisateur", 
            "date": "2015-10-14T19:27:00+0200", 
            "link": "http://www.republique-numerique.fr/projects/projet-de-loi-numerique/consultation/consultation/opinions/section-2-portabilite-des-donnees/article-12-portabilite-des-donnees/versions/consacrer-un-droit-d-information-sur-les-modalites-du-stockage-des-fichiers-et-donnees-utilisateur", 
            "id": "88237", 
            "opinion": "1"
        }, 
        {
            "article_title": "Donner la priorit\u00e9 aux logiciels libres et aux formats ouverts dans le service public national et local", 
            "date": "2015-10-16T18:34:00+0200", 
            "link": "http://www.republique-numerique.fr/projects/projet-de-loi-numerique/consultation/consultation/opinions/section-3-loyaute-des-plateformes/donner-la-priorite-aux-logiciels-libres-et-aux-formats-ouverts-dans-le-service-public-national-et-local", 
            "id": "120590", 
            "opinion": "1"
        }, 
        {
            "article_title": "Le code source d'un logiciel est un document administratif communicable", 
            "date": "2015-10-16T18:35:00+0200", 
            "link": "http://www.republique-numerique.fr/projects/projet-de-loi-numerique/consultation/consultation/opinions/section-1-ouverture-des-donnees-publiques-1/le-code-source-d-un-logiciel-est-un-document-administratif-communicable", 
            "id": "120600", 
            "opinion": "1"
        }, 
        {
            "article_title": "Protection des correspondants", 
            "date": "2015-10-16T18:35:00+0200", 
            "link": "http://www.republique-numerique.fr/projects/projet-de-loi-numerique/consultation/consultation/opinions/section-2-confidentialite-des-correspondances-privees/protection-des-correspondants", 
            "id": "120609", 
            "opinion": "1"
        }
    ], 
    "sources": [], 
    "votes_count": 10, 
    "arguments": [], 
    "arguments_count": 0, 
    "propositions_count": 0, 
    "contributions_count": 0
}