{
    "modifications": [], 
    "modifications_count": 0, 
    "sources_count": 0, 
    "propositions": [], 
    "votes": [
        {
            "article_title": "Utiliser les logiciels libres & GNU/Linux dans les \u00e9coles et les universit\u00e9s", 
            "date": "2015-10-18T16:56:00+0200", 
            "link": "http://www.republique-numerique.fr/projects/projet-de-loi-numerique/consultation/consultation/opinions/section-2-service-public-de-la-donnee-1/utiliser-les-logiciels-libres-gnu-linux-dans-les-ecoles-et-les-universites", 
            "id": "155975", 
            "opinion": "1"
        }, 
        {
            "article_title": "Neutralit\u00e9 et diversit\u00e9 num\u00e9rique dans les pratiques \u00e9ducatives et formatives de l'\u00e9cole \u00e0 l'universit\u00e9", 
            "date": "2015-10-18T16:58:00+0200", 
            "link": "http://www.republique-numerique.fr/projects/projet-de-loi-numerique/consultation/consultation/opinions/section-2-service-public-de-la-donnee-1/utiliser-les-logiciels-libres-gnu-linux-dans-les-ecoles-et-les-universites/versions/neutralite-et-diversite-numerique-dans-les-pratiques-educatives-et-formatives-de-l-ecole-a-l-universite", 
            "id": "156013", 
            "opinion": "1"
        }, 
        {
            "article_title": "La r\u00e9utilisation des donn\u00e9es \u00e0 caract\u00e8re personnel doit \u00eatre declar\u00e9e \u00e0 la CNIL qui peut s'y opposer.", 
            "date": "2015-10-18T17:00:00+0200", 
            "link": "http://www.republique-numerique.fr/projects/projet-de-loi-numerique/consultation/consultation/opinions/section-1-ouverture-des-donnees-publiques-1/article-3-dispositions-diverses/versions/la-reutilisation-des-donnees-a-caractere-personnel-doit-etre-declaree-a-la-cnil-qui-peut-s-y-opposer", 
            "id": "156067", 
            "opinion": "1"
        }, 
        {
            "article_title": "D\u00e9menteler la HADOPI", 
            "date": "2015-10-18T17:52:00+0200", 
            "link": "http://www.republique-numerique.fr/projects/projet-de-loi-numerique/consultation/consultation/opinions/section-1-ouverture-des-donnees-publiques-1/dementeler-la-hadopi", 
            "id": "157643", 
            "opinion": "1"
        }, 
        {
            "article_title": "Pr\u00e9ambule : r\u00e9ellement prendre en compte cette consultation.", 
            "date": "2015-10-18T17:54:00+0200", 
            "link": "http://www.republique-numerique.fr/projects/projet-de-loi-numerique/consultation/consultation/opinions/section-1-ouverture-des-donnees-publiques-1/preambule-reellement-prendre-en-compte-cette-consultation", 
            "id": "157688", 
            "opinion": "1"
        }, 
        {
            "article_title": "Souhaiter un Joyeux anniversaire \u00e0 Madame la Secr\u00e9taire d'Etat, Axelle Lemaire,le 18 octobre 2015, et comm\u00e9morer cette date chaque ann\u00e9e......", 
            "date": "2015-10-18T17:55:00+0200", 
            "link": "http://www.republique-numerique.fr/projects/projet-de-loi-numerique/consultation/consultation/opinions/section-1-ouverture-des-donnees-publiques-1/souhaiter-un-joyeux-anniversaire-a-madame-la-secretaire-d-etat-axelle-lemaire-le-18-octobre-2015-et-commemorer-cette-date-chaque-annee", 
            "id": "157743", 
            "opinion": "-1"
        }, 
        {
            "article_title": "Libre choix des syst\u00e8mes d'exploitation", 
            "date": "2015-10-18T17:58:00+0200", 
            "link": "http://www.republique-numerique.fr/projects/projet-de-loi-numerique/consultation/consultation/opinions/section-1-ouverture-des-donnees-publiques-1/libre-choix-des-systemes-d-exploitation", 
            "id": "157823", 
            "opinion": "1"
        }, 
        {
            "article_title": "Transparence / S\u00e9curit\u00e9", 
            "date": "2015-10-18T17:59:00+0200", 
            "link": "http://www.republique-numerique.fr/projects/projet-de-loi-numerique/consultation/consultation/opinions/section-1-ouverture-des-donnees-publiques-1/transparence-securite", 
            "id": "157846", 
            "opinion": "1"
        }, 
        {
            "article_title": "Le Vote par internet", 
            "date": "2015-10-18T18:00:00+0200", 
            "link": "http://www.republique-numerique.fr/projects/projet-de-loi-numerique/consultation/consultation/opinions/section-1-ouverture-des-donnees-publiques-1/le-vote-par-internet", 
            "id": "157880", 
            "opinion": "-1"
        }, 
        {
            "article_title": "Vote electronique = porte ouverte au hacking de la democratie.", 
            "date": "2015-10-18T18:01:00+0200", 
            "link": "http://www.republique-numerique.fr/projects/projet-de-loi-numerique/consultation/consultation/opinions/section-1-ouverture-des-donnees-publiques-1/le-vote-par-internet/versions/vote-electronique-porte-ouverte-au-hacking-de-la-democratie", 
            "id": "157901", 
            "opinion": "1"
        }, 
        {
            "article_title": "le vote \u00e9lectronique doit \u00eatre banni dans notre soci\u00e9t\u00e9 d\u00e9mocratique", 
            "date": "2015-10-18T18:02:00+0200", 
            "link": "http://www.republique-numerique.fr/projects/projet-de-loi-numerique/consultation/consultation/opinions/section-1-ouverture-des-donnees-publiques-1/le-vote-par-internet/versions/le-vote-electronique-doit-etre-banni-dans-notre-societe-democratique", 
            "id": "157928", 
            "opinion": "1"
        }, 
        {
            "article_title": "Evolution progressive vers le vote par Internet et la d\u00e9mocratie directe.", 
            "date": "2015-10-18T18:03:00+0200", 
            "link": "http://www.republique-numerique.fr/projects/projet-de-loi-numerique/consultation/consultation/opinions/section-1-ouverture-des-donnees-publiques-1/le-vote-par-internet/versions/evolution-progressive-vers-le-vote-par-internet-et-la-democratie-directe", 
            "id": "157949", 
            "opinion": "-1"
        }, 
        {
            "article_title": "Logiciel et mat\u00e9riel certifier libres", 
            "date": "2015-10-18T18:03:00+0200", 
            "link": "http://www.republique-numerique.fr/projects/projet-de-loi-numerique/consultation/consultation/opinions/section-1-ouverture-des-donnees-publiques-1/le-vote-par-internet/versions/logiciel-et-materiel-certifier-libres", 
            "id": "157962", 
            "opinion": "1"
        }, 
        {
            "article_title": "Contr\u00f4le de l'absence de piratage du scrutin", 
            "date": "2015-10-18T18:04:00+0200", 
            "link": "http://www.republique-numerique.fr/projects/projet-de-loi-numerique/consultation/consultation/opinions/section-1-ouverture-des-donnees-publiques-1/le-vote-par-internet/versions/controle-de-l-absence-de-piratage-du-scrutin", 
            "id": "157977", 
            "opinion": "0"
        }, 
        {
            "article_title": "Vote par internet et ouverture du code", 
            "date": "2015-10-18T18:04:00+0200", 
            "link": "http://www.republique-numerique.fr/projects/projet-de-loi-numerique/consultation/consultation/opinions/section-1-ouverture-des-donnees-publiques-1/le-vote-par-internet/versions/vote-par-internet-et-ouverture-du-code", 
            "id": "157986", 
            "opinion": "1"
        }, 
        {
            "article_title": "Procuration \u00e0 un logiciel", 
            "date": "2015-10-18T18:05:00+0200", 
            "link": "http://www.republique-numerique.fr/projects/projet-de-loi-numerique/consultation/consultation/opinions/section-1-ouverture-des-donnees-publiques-1/le-vote-par-internet/versions/procuration-a-un-logiciel", 
            "id": "157998", 
            "opinion": "-1"
        }, 
        {
            "article_title": "plateforme de democratie directe", 
            "date": "2015-10-18T18:10:00+0200", 
            "link": "http://www.republique-numerique.fr/projects/projet-de-loi-numerique/consultation/consultation/opinions/section-1-ouverture-des-donnees-publiques-1/le-vote-par-internet/versions/plateforme-de-democratie-directe", 
            "id": "158089", 
            "opinion": "1"
        }, 
        {
            "article_title": "Le vote pour internet", 
            "date": "2015-10-18T18:12:00+0200", 
            "link": "http://www.republique-numerique.fr/projects/projet-de-loi-numerique/consultation/consultation/opinions/section-1-ouverture-des-donnees-publiques-1/le-vote-par-internet/versions/le-vote-pour-internet", 
            "id": "158127", 
            "opinion": "-1"
        }, 
        {
            "article_title": "La loi sur le renseignement a permis de mettre en ...", 
            "date": "2015-10-18T18:14:00+0200", 
            "link": "http://www.republique-numerique.fr/projects/projet-de-loi-numerique/consultation/consultation/opinions/section-1-ouverture-des-donnees-publiques-1/le-vote-par-internet#arg-5153", 
            "id": "158152", 
            "opinion": "1"
        }, 
        {
            "article_title": "Les seuls scrutins permettant de garantir la sinc\ufffd...", 
            "date": "2015-10-18T18:14:00+0200", 
            "link": "http://www.republique-numerique.fr/projects/projet-de-loi-numerique/consultation/consultation/opinions/section-1-ouverture-des-donnees-publiques-1/le-vote-par-internet#arg-5780", 
            "id": "158160", 
            "opinion": "1"
        }, 
        {
            "article_title": "Comment v\u00e9rifier que les votants par internet son...", 
            "date": "2015-10-18T18:14:00+0200", 
            "link": "http://www.republique-numerique.fr/projects/projet-de-loi-numerique/consultation/consultation/opinions/section-1-ouverture-des-donnees-publiques-1/le-vote-par-internet#arg-5921", 
            "id": "158165", 
            "opinion": "1"
        }, 
        {
            "article_title": "L'\u00e9cran n'est pas un levier contre l'abstentionni...", 
            "date": "2015-10-18T18:14:00+0200", 
            "link": "http://www.republique-numerique.fr/projects/projet-de-loi-numerique/consultation/consultation/opinions/section-1-ouverture-des-donnees-publiques-1/le-vote-par-internet#arg-5690", 
            "id": "158171", 
            "opinion": "1"
        }, 
        {
            "article_title": "Le vote \u00e9lectronique (ou informatique) ne peut pa...", 
            "date": "2015-10-18T18:15:00+0200", 
            "link": "http://www.republique-numerique.fr/projects/projet-de-loi-numerique/consultation/consultation/opinions/section-1-ouverture-des-donnees-publiques-1/le-vote-par-internet#arg-4071", 
            "id": "158203", 
            "opinion": "1"
        }, 
        {
            "article_title": "La m\u00e9connaissance des limites de l'informatique a...", 
            "date": "2015-10-18T18:16:00+0200", 
            "link": "http://www.republique-numerique.fr/projects/projet-de-loi-numerique/consultation/consultation/opinions/section-1-ouverture-des-donnees-publiques-1/le-vote-par-internet#arg-4066", 
            "id": "158213", 
            "opinion": "1"
        }, 
        {
            "article_title": "Le vote \u00e9lectronique anonyme n'est pas s\u00fbr, et n...", 
            "date": "2015-10-18T18:16:00+0200", 
            "link": "http://www.republique-numerique.fr/projects/projet-de-loi-numerique/consultation/consultation/opinions/section-1-ouverture-des-donnees-publiques-1/le-vote-par-internet#arg-3291", 
            "id": "158229", 
            "opinion": "1"
        }, 
        {
            "article_title": "Le syst\u00e8me peut sembler \"archa\u00efque\" et en m\u00eame ...", 
            "date": "2015-10-18T18:17:00+0200", 
            "link": "http://www.republique-numerique.fr/projects/projet-de-loi-numerique/consultation/consultation/opinions/section-1-ouverture-des-donnees-publiques-1/le-vote-par-internet#arg-2615", 
            "id": "158256", 
            "opinion": "1"
        }, 
        {
            "article_title": "Le vote par Internet, tout comme le vote \u00e9lectron...", 
            "date": "2015-10-18T18:17:00+0200", 
            "link": "http://www.republique-numerique.fr/projects/projet-de-loi-numerique/consultation/consultation/opinions/section-1-ouverture-des-donnees-publiques-1/le-vote-par-internet#arg-2540", 
            "id": "158259", 
            "opinion": "1"
        }, 
        {
            "article_title": "\u00c9tant du m\u00e9tier, je confirme l'impossibilit\u00e9 de...", 
            "date": "2015-10-18T18:18:00+0200", 
            "link": "http://www.republique-numerique.fr/projects/projet-de-loi-numerique/consultation/consultation/opinions/section-1-ouverture-des-donnees-publiques-1/le-vote-par-internet#arg-2112", 
            "id": "158264", 
            "opinion": "1"
        }, 
        {
            "article_title": "ouverture du code des algorithmes publics", 
            "date": "2015-10-18T19:05:00+0200", 
            "link": "http://www.republique-numerique.fr/projects/projet-de-loi-numerique/consultation/consultation/opinions/section-1-ouverture-des-donnees-publiques-1/ouverture-du-code-des-algorithmes-publics", 
            "id": "159439", 
            "opinion": "1"
        }, 
        {
            "article_title": "Algo de surveillance", 
            "date": "2015-10-18T19:49:00+0200", 
            "link": "http://www.republique-numerique.fr/projects/projet-de-loi-numerique/consultation/consultation/opinions/section-1-ouverture-des-donnees-publiques-1/ouverture-du-code-des-algorithmes-publics/versions/algo-de-surveillance", 
            "id": "160505", 
            "opinion": "1"
        }, 
        {
            "article_title": "non parce que de tous syst\u00e8mes de d\u00e9cisions, l'\ufffd...", 
            "date": "2015-10-18T19:50:00+0200", 
            "link": "http://www.republique-numerique.fr/projects/projet-de-loi-numerique/consultation/consultation/opinions/section-1-ouverture-des-donnees-publiques-1/ouverture-du-code-des-algorithmes-publics/versions/algorytme-des-systemes-de-vote-electronique#arg-1448", 
            "id": "160537", 
            "opinion": "1"
        }
    ], 
    "sources": [], 
    "votes_count": 31, 
    "arguments": [
        {
            "article_title": "Signaler", 
            "votes": 2, 
            "article_link": "http://www.republique-numerique.fr/consultations/projet-de-loi-numerique/consultation/consultation/opinions/section-1-ouverture-des-donnees-publiques-1/le-vote-par-internet/arguments/5967/report", 
            "link": "http://www.republique-numerique.fr/consultations/projet-de-loi-numerique/consultation/consultation/opinions/section-1-ouverture-des-donnees-publiques-1/le-vote-par-internet/arguments/5967/report#arg-5967", 
            "date": "2015-10-18T18:22:00+0200", 
            "id": "5967"
        }, 
        {
            "article_title": "Signaler", 
            "votes": 0, 
            "article_link": "http://www.republique-numerique.fr/consultations/projet-de-loi-numerique/consultation/consultation/opinions/section-1-ouverture-des-donnees-publiques-1/ouverture-du-code-des-algorithmes-publics/arguments/6008/report", 
            "link": "http://www.republique-numerique.fr/consultations/projet-de-loi-numerique/consultation/consultation/opinions/section-1-ouverture-des-donnees-publiques-1/ouverture-du-code-des-algorithmes-publics/arguments/6008/report#arg-6008", 
            "date": "2015-10-18T19:18:00+0200", 
            "id": "6008"
        }
    ], 
    "arguments_count": 3, 
    "propositions_count": 0, 
    "contributions_count": 3
}