{
    "modifications": [], 
    "modifications_count": 0, 
    "sources_count": 0, 
    "propositions": [], 
    "votes": [
        {
            "article_title": "Article additionnel : Les comp\u00e9titions de jeux vid\u00e9o \u00ab e-sport \u00bb", 
            "date": "2015-10-16T19:32:00+0200", 
            "link": "http://www.republique-numerique.fr/projects/projet-de-loi-numerique/consultation/consultation/opinions/section-2-travaux-de-recherche-et-de-statistique/les-competitions-de-jeux-video-e-sport", 
            "id": "122854", 
            "opinion": "1"
        }, 
        {
            "article_title": "Article 3 - Droit d\u2019acc\u00e8s des organismes publics aux donn\u00e9es publiques & de r\u00e9utilisation d\u2019informations comportant des donn\u00e9es personnelles d\u00e9j\u00e0 publi\u00e9es", 
            "date": "2015-10-16T19:33:00+0200", 
            "link": "http://www.republique-numerique.fr/projects/projet-de-loi-numerique/consultation/consultation/opinions/section-1-ouverture-des-donnees-publiques-1/article-3-dispositions-diverses", 
            "id": "122890", 
            "opinion": "-1"
        }
    ], 
    "sources": [], 
    "votes_count": 2, 
    "arguments": [], 
    "arguments_count": 0, 
    "propositions_count": 0, 
    "contributions_count": 0
}