{
    "modifications": [], 
    "modifications_count": 0, 
    "sources_count": 0, 
    "propositions": [], 
    "votes": [
        {
            "article_title": "Donn\u00e9es critiques pour acc\u00e9der \u00e0 Internet", 
            "date": "2015-10-18T19:50:00+0200", 
            "link": "http://www.republique-numerique.fr/projects/projet-de-loi-numerique/consultation/consultation/opinions/section-3-donnees-d-interet-general/donnees-critiques-pour-acceder-a-internet", 
            "id": "160534", 
            "opinion": "1"
        }, 
        {
            "article_title": "Construire sa personnalit\u00e9 num\u00e9rique\u00a0: un droit fondamental du citoyen", 
            "date": "2015-10-18T19:52:00+0200", 
            "link": "http://www.republique-numerique.fr/projects/projet-de-loi-numerique/consultation/consultation/opinions/section-1-ouverture-des-donnees-publiques-1/construire-sa-personnalite-numerique-un-droit-fondamental-du-citoyen", 
            "id": "160585", 
            "opinion": "-1"
        }
    ], 
    "sources": [], 
    "votes_count": 2, 
    "arguments": [], 
    "arguments_count": 0, 
    "propositions_count": 0, 
    "contributions_count": 0
}