{
    "modifications": [], 
    "modifications_count": 0, 
    "sources_count": 0, 
    "propositions": [], 
    "votes": [
        {
            "article_title": "Protection du statut de lanceurs d'alertes et precisions sur les moyens d'obtenir ce statut", 
            "date": "2015-09-26T17:49:00+0200", 
            "link": "http://www.republique-numerique.fr/projects/projet-de-loi-numerique/consultation/consultation/opinions/section-3-donnees-d-interet-general/protection-recompense-et-indemnisation-des-lanceurs-d-alertes/versions/protection-du-statut-de-lanceurs-d-alertes-et-precisions-sur-les-moyens-d-obtenir-ce-statut", 
            "id": "1822", 
            "opinion": "1"
        }
    ], 
    "sources": [], 
    "votes_count": 1, 
    "arguments": [], 
    "arguments_count": 0, 
    "propositions_count": 0, 
    "contributions_count": 0
}