{
    "modifications": [], 
    "modifications_count": 0, 
    "sources_count": 0, 
    "propositions": [], 
    "votes": [
        {
            "article_title": "Consacrer un droit effectif \u00e0 la portabilit\u00e9", 
            "date": "2015-10-07T17:20:00+0200", 
            "link": "http://www.republique-numerique.fr/projects/projet-de-loi-numerique/consultation/consultation/opinions/section-2-portabilite-des-donnees/article-12-portabilite-des-donnees/versions/consacrer-un-droit-effectif-a-la-portabilite", 
            "id": "36369", 
            "opinion": "1"
        }, 
        {
            "article_title": "Instaurer la libert\u00e9 de panorama en France", 
            "date": "2015-10-07T17:20:00+0200", 
            "link": "http://www.republique-numerique.fr/projects/projet-de-loi-numerique/consultation/consultation/opinions/section-1-les-communs/instaurer-la-liberte-de-panorama-en-france", 
            "id": "36373", 
            "opinion": "1"
        }, 
        {
            "article_title": "\u00c9viter la l\u00e9galisation du copyfraud", 
            "date": "2015-10-07T17:21:00+0200", 
            "link": "http://www.republique-numerique.fr/projects/projet-de-loi-numerique/consultation/consultation/opinions/section-1-les-communs/article-8-definition-du-domaine-commun-informationnel/versions/eviter-la-legalisation-du-copyfraud", 
            "id": "36381", 
            "opinion": "1"
        }, 
        {
            "article_title": "Une dur\u00e9e d'embargo plus courte, ne pas entraver le TDM (fouille de texte et de donn\u00e9es) et ne pas interdire une exploitation commerciale", 
            "date": "2015-10-07T17:21:00+0200", 
            "link": "http://www.republique-numerique.fr/projects/projet-de-loi-numerique/consultation/consultation/opinions/section-2-travaux-de-recherche-et-de-statistique/article-9-acces-aux-travaux-de-la-recherche-financee-par-des-fonds-publics/versions/une-duree-d-embargo-plus-courte-ne-pas-entraver-le-tdm-fouille-de-texte-et-de-donnees-et-ne-pas-interdire-une-exploitation-commerciale", 
            "id": "36385", 
            "opinion": "1"
        }, 
        {
            "article_title": "Introduire le principe du contradictoire dans le retrait/d\u00e9r\u00e9f\u00e9rencement de contenus par les plateformes", 
            "date": "2015-10-07T17:21:00+0200", 
            "link": "http://www.republique-numerique.fr/projects/projet-de-loi-numerique/consultation/consultation/opinions/section-3-loyaute-des-plateformes/article-13-principe-de-loyaute-vis-a-vis-des-consommateurs/versions/introduire-le-principe-du-contradictoire-dans-le-retrait-dereferencement-de-contenus-par-les-plateformes", 
            "id": "36389", 
            "opinion": "1"
        }, 
        {
            "article_title": "Ajouter la promotion du chiffrement des communications dans les missions de la CNIL", 
            "date": "2015-10-07T17:22:00+0200", 
            "link": "http://www.republique-numerique.fr/projects/projet-de-loi-numerique/consultation/consultation/opinions/section-1-protection-des-donnees-a-caractere-personnel/article-17-missions-de-la-cnil/versions/ajouter-la-promotion-du-chiffrement-des-communications-dans-les-missions-de-la-cnil", 
            "id": "36393", 
            "opinion": "1"
        }, 
        {
            "article_title": "23 : Autoriser les actions de groupe notamment en mati\u00e8re d'atteinte au droit sur les donn\u00e9es personnelles et la neutralit\u00e9 du Net", 
            "date": "2015-10-07T17:22:00+0200", 
            "link": "http://www.republique-numerique.fr/projects/projet-de-loi-numerique/consultation/consultation/opinions/section-2-confidentialite-des-correspondances-privees/23-autoriser-les-actions-de-groupe-notamment-en-matiere-d-atteinte-au-droit-sur-les-donnees-personnelles-et-la-neutralite-du-net", 
            "id": "36398", 
            "opinion": "1"
        }, 
        {
            "article_title": "Cr\u00e9ation d\u2019un parquet num\u00e9rique sp\u00e9cialis\u00e9 sur les questions de contenus illicites en ligne", 
            "date": "2015-10-07T17:22:00+0200", 
            "link": "http://www.republique-numerique.fr/projects/projet-de-loi-numerique/consultation/consultation/opinions/section-4-information-des-consommateurs/creation-d-un-parquet-numerique-specialise-sur-les-questions-de-contenus-illicites-en-ligne", 
            "id": "36402", 
            "opinion": "1"
        }, 
        {
            "article_title": "Cr\u00e9ation d\u2019un statut de m\u00e9diateur num\u00e9rique", 
            "date": "2015-10-07T17:22:00+0200", 
            "link": "http://www.republique-numerique.fr/projects/projet-de-loi-numerique/consultation/consultation/opinions/section-3-maintien-de-la-connexion-internet/creation-d-un-statut-de-mediateur-numerique", 
            "id": "36406", 
            "opinion": "1"
        }, 
        {
            "article_title": "22 bis : affirmer et encourager le droit au chiffrement des communications", 
            "date": "2015-10-07T17:22:00+0200", 
            "link": "http://www.republique-numerique.fr/projects/projet-de-loi-numerique/consultation/consultation/opinions/section-2-confidentialite-des-correspondances-privees/22-bis-affirmer-et-encourager-le-droit-au-chiffrement-des-communications", 
            "id": "36410", 
            "opinion": "1"
        }
    ], 
    "sources": [], 
    "votes_count": 10, 
    "arguments": [], 
    "arguments_count": 0, 
    "propositions_count": 0, 
    "contributions_count": 0
}