{
    "modifications": [
        {
            "stats": {
                "source": "0", 
                "votes": "28", 
                "arguments": "3"
            }, 
            "votes": {
                "data-ok": "20", 
                "data-mitige": "1", 
                "data-nok": "7"
            }, 
            "link": "/projects/projet-de-loi-numerique/consultation/consultation/opinions/section-2-service-public-de-la-donnee-1/utiliser-les-logiciels-libres-gnu-linux-dans-les-ecoles-et-les-universites/versions/etendre-cette-proposition-a-toutes-les-entreprises-dont-l-etat-est-actionnaire-majoritaire", 
            "id": "546", 
            "title": "Etendre cette proposition \u00e0 toutes les entreprises dont l'\u00e9tat est actionnaire majoritaire"
        }
    ], 
    "modifications_count": 1, 
    "sources_count": 0, 
    "propositions": [], 
    "votes": [], 
    "sources": [], 
    "votes_count": 0, 
    "arguments": [], 
    "arguments_count": 0, 
    "propositions_count": 0, 
    "contributions_count": 1
}