{
    "modifications": [], 
    "modifications_count": 0, 
    "sources_count": 0, 
    "propositions": [], 
    "votes": [
        {
            "article_title": "Introduire une dynamique participative dans l'\u00e9laboration du volet services des SDTAN", 
            "date": "2015-09-28T14:23:00+0200", 
            "link": "http://www.republique-numerique.fr/projects/projet-de-loi-numerique/consultation/consultation/opinions/section-1-competences-et-organisation/article-23-schema-directeur-numerique-des-collectivites/versions/introduire-une-dynamique-participative-dans-l-elaboration-du-volet-services-des-sdtan", 
            "id": "10020", 
            "opinion": "1"
        }, 
        {
            "article_title": "Instaurer une formation obligatoire au num\u00e9rique de tous les \u00e9lus", 
            "date": "2015-09-30T10:11:00+0200", 
            "link": "http://www.republique-numerique.fr/projects/projet-de-loi-numerique/consultation/consultation/opinions/section-1-competences-et-organisation/instaurer-une-formation-obligatoire-au-numerique-de-tous-les-elus", 
            "id": "19078", 
            "opinion": "1"
        }
    ], 
    "sources": [], 
    "votes_count": 2, 
    "arguments": [], 
    "arguments_count": 0, 
    "propositions_count": 0, 
    "contributions_count": 0
}