{
    "modifications": [
        {
            "stats": {
                "sources": "6", 
                "votes": "6", 
                "arguments": "9"
            }, 
            "votes": {
                "data-ok": "6", 
                "data-mitige": "0", 
                "data-nok": "0"
            }, 
            "link": "/projects/projet-de-loi-numerique/consultation/consultation/opinions/section-2-travaux-de-recherche-et-de-statistique/pour-une-obligation-de-depot-des-publications-scientifiques-dans-une-archive-ouverte/versions/journaux-scientifiques-libres", 
            "id": "782", 
            "title": "Journaux scientifiques libres"
        }
    ], 
    "modifications_count": 1, 
    "sources_count": 12, 
    "propositions": [], 
    "votes": [
        {
            "article_title": "Le concept fondamental du partage des donn\u00e9es est...", 
            "date": "2015-10-10T13:03:00+0200", 
            "link": "http://www.republique-numerique.fr/projects/projet-de-loi-numerique/consultation/consultation/opinions/section-1-ouverture-des-donnees-publiques-1/article-1-elargissement-du-champ-de-diffusion-par-l-administration/versions/ne-pas-exclure-les-collectivites-territoriales-de-l-obligation-de-mise-en-ligne-des-documents#arg-2332", 
            "id": "45589", 
            "opinion": "1"
        }, 
        {
            "article_title": "La r\u00e9serve du seuil fix\u00e9 par d\u00e9cret risque d'in...", 
            "date": "2015-10-10T14:22:00+0200", 
            "link": "http://www.republique-numerique.fr/projects/projet-de-loi-numerique/consultation/consultation/opinions/section-1-ouverture-des-donnees-publiques-1/article-1-elargissement-du-champ-de-diffusion-par-l-administration#arg-2836", 
            "id": "45865", 
            "opinion": "1"
        }, 
        {
            "article_title": "Obligation de d\u00e9p\u00f4t des publications scientifiques dans une archive ouverte", 
            "date": "2015-10-10T14:43:00+0200", 
            "link": "http://www.republique-numerique.fr/projects/projet-de-loi-numerique/consultation/consultation/opinions/section-2-travaux-de-recherche-et-de-statistique/pour-une-obligation-de-depot-des-publications-scientifiques-dans-une-archive-ouverte", 
            "id": "45937", 
            "opinion": "1"
        }, 
        {
            "article_title": "Il est n\u00e9cessaire que les articles puissent \u00eatre...", 
            "date": "2015-10-10T14:43:00+0200", 
            "link": "http://www.republique-numerique.fr/projects/projet-de-loi-numerique/consultation/consultation/opinions/section-2-travaux-de-recherche-et-de-statistique/pour-une-obligation-de-depot-des-publications-scientifiques-dans-une-archive-ouverte#arg-2766", 
            "id": "45938", 
            "opinion": "1"
        }, 
        {
            "article_title": "Nous partageons ce point de vue, \u00e0 condition cepe...", 
            "date": "2015-10-10T14:43:00+0200", 
            "link": "http://www.republique-numerique.fr/projects/projet-de-loi-numerique/consultation/consultation/opinions/section-2-travaux-de-recherche-et-de-statistique/pour-une-obligation-de-depot-des-publications-scientifiques-dans-une-archive-ouverte#arg-2281", 
            "id": "45939", 
            "opinion": "1"
        }, 
        {
            "article_title": "Utiliser Wikip\u00e9dia comme outil p\u00e9dagogique et \u00e9ducatif pour apprendre des comp\u00e9tences et des valeurs", 
            "date": "2015-10-10T17:49:00+0200", 
            "link": "http://www.republique-numerique.fr/projects/projet-de-loi-numerique/consultation/consultation/opinions/section-1-les-communs/utiliser-wikipedia-comme-outil-pedagogique-et-educatif-pour-apprendre-des-competences-et-des-valeurs", 
            "id": "46498", 
            "opinion": "1"
        }, 
        {
            "article_title": "Wikip\u00e9dia est un outil formidable, si tant est qu...", 
            "date": "2015-10-10T17:50:00+0200", 
            "link": "http://www.republique-numerique.fr/projects/projet-de-loi-numerique/consultation/consultation/opinions/section-1-les-communs/utiliser-wikipedia-comme-outil-pedagogique-et-educatif-pour-apprendre-des-competences-et-des-valeurs#arg-2143", 
            "id": "46508", 
            "opinion": "1"
        }, 
        {
            "article_title": "Contributeur depuis 2006 sur Wikipedia, il est reg...", 
            "date": "2015-10-10T17:50:00+0200", 
            "link": "http://www.republique-numerique.fr/projects/projet-de-loi-numerique/consultation/consultation/opinions/section-1-les-communs/utiliser-wikipedia-comme-outil-pedagogique-et-educatif-pour-apprendre-des-competences-et-des-valeurs#arg-2931", 
            "id": "46509", 
            "opinion": "1"
        }, 
        {
            "article_title": "J'utilise Wikip\u00e9dia depuis quatre ans dans le cad...", 
            "date": "2015-10-10T17:52:00+0200", 
            "link": "http://www.republique-numerique.fr/projects/projet-de-loi-numerique/consultation/consultation/opinions/section-1-les-communs/utiliser-wikipedia-comme-outil-pedagogique-et-educatif-pour-apprendre-des-competences-et-des-valeurs#arg-688", 
            "id": "46513", 
            "opinion": "1"
        }, 
        {
            "article_title": "Article 8 bis - Libert\u00e9 de panorama", 
            "date": "2015-10-10T17:57:00+0200", 
            "link": "http://www.republique-numerique.fr/projects/projet-de-loi-numerique/consultation/consultation/opinions/section-1-les-communs/liberte-de-panorama", 
            "id": "46523", 
            "opinion": "1"
        }, 
        {
            "article_title": "@ Phay Syvoun :Avez-vous utilis\u00e9 une version r\ufffd...", 
            "date": "2015-10-10T18:00:00+0200", 
            "link": "http://www.republique-numerique.fr/projects/projet-de-loi-numerique/consultation/consultation/opinions/section-2-service-public-de-la-donnee-1/utiliser-les-logiciels-libres-gnu-linux-dans-les-ecoles-et-les-universites#arg-2805", 
            "id": "46531", 
            "opinion": "1"
        }, 
        {
            "article_title": "10 arguments pour le logiciel libre- Licences gr...", 
            "date": "2015-10-10T18:02:00+0200", 
            "link": "http://www.republique-numerique.fr/projects/projet-de-loi-numerique/consultation/consultation/opinions/section-2-service-public-de-la-donnee-1/utiliser-les-logiciels-libres-gnu-linux-dans-les-ecoles-et-les-universites#arg-524", 
            "id": "46536", 
            "opinion": "1"
        }, 
        {
            "article_title": "On pourrait m\u00eame l'\u00e9tendre \u00e0 l'ensemble des adm...", 
            "date": "2015-10-10T18:02:00+0200", 
            "link": "http://www.republique-numerique.fr/projects/projet-de-loi-numerique/consultation/consultation/opinions/section-2-service-public-de-la-donnee-1/utiliser-les-logiciels-libres-gnu-linux-dans-les-ecoles-et-les-universites#arg-917", 
            "id": "46537", 
            "opinion": "1"
        }, 
        {
            "article_title": "@Alex Hoyau: les politiques d'\u00e9ducation et d'ense...", 
            "date": "2015-10-10T18:02:00+0200", 
            "link": "http://www.republique-numerique.fr/projects/projet-de-loi-numerique/consultation/consultation/opinions/section-2-service-public-de-la-donnee-1/utiliser-les-logiciels-libres-gnu-linux-dans-les-ecoles-et-les-universites#arg-715", 
            "id": "46539", 
            "opinion": "1"
        }, 
        {
            "article_title": "Limiter les frais dans les \u00e9coles et universit\u00e9s...", 
            "date": "2015-10-10T18:03:00+0200", 
            "link": "http://www.republique-numerique.fr/projects/projet-de-loi-numerique/consultation/consultation/opinions/section-2-service-public-de-la-donnee-1/utiliser-les-logiciels-libres-gnu-linux-dans-les-ecoles-et-les-universites#arg-415", 
            "id": "46541", 
            "opinion": "1"
        }, 
        {
            "article_title": "Si l'Education Nationale passait sous logiciels li...", 
            "date": "2015-10-10T18:03:00+0200", 
            "link": "http://www.republique-numerique.fr/projects/projet-de-loi-numerique/consultation/consultation/opinions/section-2-service-public-de-la-donnee-1/utiliser-les-logiciels-libres-gnu-linux-dans-les-ecoles-et-les-universites#arg-2370", 
            "id": "46542", 
            "opinion": "1"
        }, 
        {
            "article_title": "Les logiciels libres incitent \u00e0 la participation,...", 
            "date": "2015-10-10T18:03:00+0200", 
            "link": "http://www.republique-numerique.fr/projects/projet-de-loi-numerique/consultation/consultation/opinions/section-2-service-public-de-la-donnee-1/utiliser-les-logiciels-libres-gnu-linux-dans-les-ecoles-et-les-universites#arg-880", 
            "id": "46543", 
            "opinion": "1"
        }, 
        {
            "article_title": "assurer une \u00e9galit\u00e9 entre \u00e9l\u00e8ves avec des logi...", 
            "date": "2015-10-10T18:04:00+0200", 
            "link": "http://www.republique-numerique.fr/projects/projet-de-loi-numerique/consultation/consultation/opinions/section-2-service-public-de-la-donnee-1/utiliser-les-logiciels-libres-gnu-linux-dans-les-ecoles-et-les-universites#arg-657", 
            "id": "46546", 
            "opinion": "1"
        }, 
        {
            "article_title": "Instaurer la libert\u00e9 de panorama en France", 
            "date": "2015-10-10T18:06:00+0200", 
            "link": "http://www.republique-numerique.fr/projects/projet-de-loi-numerique/consultation/consultation/opinions/section-1-les-communs/instaurer-la-liberte-de-panorama-en-france", 
            "id": "46550", 
            "opinion": "1"
        }, 
        {
            "article_title": "Utilisation de GNU/Linux dans l'administration", 
            "date": "2015-10-10T18:08:00+0200", 
            "link": "http://www.republique-numerique.fr/projects/projet-de-loi-numerique/consultation/consultation/opinions/section-3-donnees-d-interet-general/utilisation-de-gnu-linux-dans-l-administration", 
            "id": "46555", 
            "opinion": "1"
        }, 
        {
            "article_title": "Il est \u00e9tonnant que seul la Gendarmerie soit la s...", 
            "date": "2015-10-10T18:11:00+0200", 
            "link": "http://www.republique-numerique.fr/projects/projet-de-loi-numerique/consultation/consultation/opinions/section-3-donnees-d-interet-general/utilisation-de-gnu-linux-dans-l-administration#arg-1938", 
            "id": "46565", 
            "opinion": "1"
        }, 
        {
            "article_title": "Les embargos doivent s'appliquer \u00e0 la version \u00e9d...", 
            "date": "2015-10-11T00:27:00+0200", 
            "link": "http://www.republique-numerique.fr/projects/projet-de-loi-numerique/consultation/consultation/opinions/section-2-travaux-de-recherche-et-de-statistique/article-9-acces-aux-travaux-de-la-recherche-financee-par-des-fonds-publics#arg-2794", 
            "id": "47512", 
            "opinion": "1"
        }, 
        {
            "article_title": "Je suis parfaitement pour le libre acc\u00e8s aux arti...", 
            "date": "2015-10-11T00:29:00+0200", 
            "link": "http://www.republique-numerique.fr/projects/projet-de-loi-numerique/consultation/consultation/opinions/section-2-travaux-de-recherche-et-de-statistique/article-9-acces-aux-travaux-de-la-recherche-financee-par-des-fonds-publics#arg-2686", 
            "id": "47516", 
            "opinion": "1"
        }, 
        {
            "article_title": "La diff\u00e9rence d'embargo entre les SHS et les autr...", 
            "date": "2015-10-11T00:29:00+0200", 
            "link": "http://www.republique-numerique.fr/projects/projet-de-loi-numerique/consultation/consultation/opinions/section-2-travaux-de-recherche-et-de-statistique/article-9-acces-aux-travaux-de-la-recherche-financee-par-des-fonds-publics#arg-2657", 
            "id": "47517", 
            "opinion": "1"
        }, 
        {
            "article_title": "Dans le cas d'une recherche financ\u00e9e au moins pou...", 
            "date": "2015-10-11T00:29:00+0200", 
            "link": "http://www.republique-numerique.fr/projects/projet-de-loi-numerique/consultation/consultation/opinions/section-2-travaux-de-recherche-et-de-statistique/article-9-acces-aux-travaux-de-la-recherche-financee-par-des-fonds-publics#arg-2476", 
            "id": "47518", 
            "opinion": "1"
        }, 
        {
            "article_title": "Article 9 - Libre acc\u00e8s aux publications scientifiques de la recherche publique", 
            "date": "2015-10-11T00:29:00+0200", 
            "link": "http://www.republique-numerique.fr/projects/projet-de-loi-numerique/consultation/consultation/opinions/section-2-travaux-de-recherche-et-de-statistique/article-9-acces-aux-travaux-de-la-recherche-financee-par-des-fonds-publics", 
            "id": "47519", 
            "opinion": "-1"
        }, 
        {
            "article_title": "Mise \u00e0 disposition syst\u00e9matique des r\u00e9sultats d...", 
            "date": "2015-10-11T00:30:00+0200", 
            "link": "http://www.republique-numerique.fr/projects/projet-de-loi-numerique/consultation/consultation/opinions/section-2-travaux-de-recherche-et-de-statistique/article-9-acces-aux-travaux-de-la-recherche-financee-par-des-fonds-publics#arg-2400", 
            "id": "47520", 
            "opinion": "1"
        }, 
        {
            "article_title": "Cet article ent\u00e9rine un usage tr\u00e8s r\u00e9pandu (l\ufffd...", 
            "date": "2015-10-11T00:31:00+0200", 
            "link": "http://www.republique-numerique.fr/projects/projet-de-loi-numerique/consultation/consultation/opinions/section-2-travaux-de-recherche-et-de-statistique/article-9-acces-aux-travaux-de-la-recherche-financee-par-des-fonds-publics#arg-2106", 
            "id": "47525", 
            "opinion": "1"
        }, 
        {
            "article_title": "Reconnaissance et/ou cr\u00e9ation d'une plateforme de relecture collaborative des articles scientifiques", 
            "date": "2015-10-11T00:38:00+0200", 
            "link": "http://www.republique-numerique.fr/projects/projet-de-loi-numerique/consultation/consultation/opinions/section-2-travaux-de-recherche-et-de-statistique/reconnaissance-et-ou-creation-d-une-plateforme-de-relecture-collaborative-des-articles-scientifiques", 
            "id": "47535", 
            "opinion": "1"
        }, 
        {
            "article_title": "Ecole entreprise R\u00e9union", 
            "date": "2015-10-11T10:38:00+0200", 
            "link": "http://www.republique-numerique.fr/projects/projet-de-loi-numerique/consultation/consultation/opinions/section-1-ouverture-des-donnees-publiques-1/ecole-entreprise-reunion", 
            "id": "47978", 
            "opinion": "0"
        }, 
        {
            "article_title": "Utiliser les logiciels libres & GNU/Linux dans les \u00e9coles et les universit\u00e9s", 
            "date": "2015-10-11T11:38:00+0200", 
            "link": "http://www.republique-numerique.fr/projects/projet-de-loi-numerique/consultation/consultation/opinions/section-2-service-public-de-la-donnee-1/utiliser-les-logiciels-libres-gnu-linux-dans-les-ecoles-et-les-universites", 
            "id": "48171", 
            "opinion": "1"
        }, 
        {
            "article_title": "Article 4 - Cr\u00e9ation d\u2019un service public de la donn\u00e9e (garantie de qualit\u00e9 des donn\u00e9es publiques de r\u00e9f\u00e9rence)", 
            "date": "2015-10-11T17:50:00+0200", 
            "link": "http://www.republique-numerique.fr/projects/projet-de-loi-numerique/consultation/consultation/opinions/section-2-service-public-de-la-donnee-1/article-4-creation-d-un-service-public-de-la-donnee", 
            "id": "49560", 
            "opinion": "0"
        }, 
        {
            "article_title": "Article 8 bis - Gratuit\u00e9 des droits de participation des acteurs de la recherche publique aux travaux de normalisation internationaux", 
            "date": "2015-10-11T18:09:00+0200", 
            "link": "http://www.republique-numerique.fr/projects/projet-de-loi-numerique/consultation/consultation/opinions/section-1-les-communs/article-8-bis-gratuite-des-droits-de-participation-des-acteurs-de-la-recherche-publique-aux-travaux-de-normalisation-internationaux", 
            "id": "49603", 
            "opinion": "0"
        }, 
        {
            "article_title": "Bonjour,Je pense qu'il est temps comprendre que ...", 
            "date": "2015-10-11T18:45:00+0200", 
            "link": "http://www.republique-numerique.fr/projects/projet-de-loi-numerique/consultation/consultation/opinions/section-2-service-public-de-la-donnee-1/a-argent-public-logiciel-public#arg-1941", 
            "id": "49665", 
            "opinion": "1"
        }, 
        {
            "article_title": "A argent public, logiciel public !", 
            "date": "2015-10-11T18:46:00+0200", 
            "link": "http://www.republique-numerique.fr/projects/projet-de-loi-numerique/consultation/consultation/opinions/section-2-service-public-de-la-donnee-1/a-argent-public-logiciel-public", 
            "id": "49666", 
            "opinion": "1"
        }, 
        {
            "article_title": "<p>Je suis totalement contre la brevetabilit\u00e9 abu...", 
            "date": "2015-10-16T09:22:00+0200", 
            "link": "http://www.republique-numerique.fr/projects/projet-de-loi-numerique/consultation/consultation/opinions/section-1-les-communs/article-8-definition-du-domaine-commun-informationnel/versions/eviter-la-legalisation-du-copyfraud#arg-3885", 
            "id": "108258", 
            "opinion": "1"
        }, 
        {
            "article_title": "Extension de l'objet de la mission de service public de l'acc\u00e8s au droit aux d\u00e9cisions de premi\u00e8re instance", 
            "date": "2015-10-16T12:38:00+0200", 
            "link": "http://www.republique-numerique.fr/projects/projet-de-loi-numerique/consultation/consultation/opinions/section-1-ouverture-des-donnees-publiques-1/article-1-elargissement-du-champ-de-diffusion-par-l-administration/versions/extension-de-l-objet-de-la-mission-de-service-public-de-l-acces-au-droit-aux-decisions-de-premiere-instance", 
            "id": "112444", 
            "opinion": "0"
        }, 
        {
            "article_title": "Commencez par appliquer la loi actuelle !", 
            "date": "2015-10-17T08:03:00+0200", 
            "link": "http://www.republique-numerique.fr/projects/projet-de-loi-numerique/consultation/consultation/opinions/section-1-ouverture-des-donnees-publiques-1/article-1-elargissement-du-champ-de-diffusion-par-l-administration/versions/commencez-par-appliquer-la-loi-actuelle", 
            "id": "130124", 
            "opinion": "1"
        }, 
        {
            "article_title": "Le code source d'un logiciel est un document administratif communicable", 
            "date": "2015-10-17T22:16:00+0200", 
            "link": "http://www.republique-numerique.fr/projects/projet-de-loi-numerique/consultation/consultation/opinions/section-1-ouverture-des-donnees-publiques-1/le-code-source-d-un-logiciel-est-un-document-administratif-communicable", 
            "id": "145139", 
            "opinion": "1"
        }
    ], 
    "sources": [
        {
            "category": "Autre", 
            "body": "\u00c9volution d'organes de normalisation \"\u00e0 p\u00e9age\" \u00e0 des organes ouverts.La question est de savoir quel(s) autre(s) mod\u00e8le(s) de financement peut(vent) \u00eatre employ\u00e9(s) par les organismes de normalisation. https://fr.wikipedia.org/wiki/Norme_et_standard_techniques#Organismes_de_normalisationSur la base des nouveaux formats de gestion de donn\u00e9es, c'est plus un travail de traitement des similarit\u00e9s des ontologies choisi qui me semble pertinent.", 
            "votes": 1, 
            "title": "\nProfil de Rudy Patard\n\n", 
            "source_link": "/profile/rudypatard", 
            "id": "source284"
        }, 
        {
            "category": "Articles de presse", 
            "body": "\"Alors que la presse fran\u00e7aise titube, l\u2019exigence s\u2019affirme d\u2019un mod\u00e8le radicalement diff\u00e9rent. Quel serait son cahier des charges ? Produire une information de qualit\u00e9 soustraite \u00e0 la loi du march\u00e9 comme aux pressions du pouvoir, loger num\u00e9rique et papier \u00e0 la m\u00eame enseigne, inventer un mode de financement solide et juste. Surprise, les outils n\u00e9cessaires \u00e0 la mise en place d\u2019un tel syst\u00e8me sont sous nos yeux.\"", 
            "votes": 1, 
            "title": "\nProfil de Rudy Patard\n\n", 
            "source_link": "/profile/rudypatard", 
            "id": "source283"
        }, 
        {
            "category": "Autre", 
            "body": "\"Signataires :Open Knowledge Foundation France (OKF France) est un groupe local de l\u2019Open Knowlegde, un r\u00e9seau international \u00e0 but non lucratif fond\u00e9 en 2004 qui promeut la culture libre sous toutes ses formes. L\u2019OKF France participe activement \u00e0 des initiatives de port\u00e9e internationale telles que l\u2019Open Data Index et d\u00e9veloppe des outils num\u00e9riques tels que le Calculateur du Domaine Public. Contact : [email\u00a0protected]/* <![CDATA[ */!function(){try{var t=\"currentScript\"in document?document.currentScript:function(){for(var t=document.getElementsByTagName(\"script\"),e=t.length;e--;)if(t[e].getAttribute(\"data-cfhash\"))return t[e]}();if(t&&t.previousSibling){var e,r,n,i,c=t.previousSibling,a=c.getAttribute(\"data-cfemail\");if(a){for(e=\"\",r=parseInt(a.substr(0,2),16),n=2;a.length-n;n+=2)i=parseInt(a.substr(n,2),16)^r,e+=String.fromCharCode(i);e=document.createTextNode(e),c.parentNode.replaceChild(e,c)}t.parentNode.removeChild(t);}}catch(u){}}()/* ]]> */SavoirsCom1 est un collectif qui s\u2019int\u00e9resse aux politiques des biens communs de la connaissance. SavoirsCom1 d\u00e9fend les positions exprim\u00e9es dans son Manifeste. Contact : [email\u00a0protected]/* <![CDATA[ */!function(){try{var t=\"currentScript\"in document?document.currentScript:function(){for(var t=document.getElementsByTagName(\"script\"),e=t.length;e--;)if(t[e].getAttribute(\"data-cfhash\"))return t[e]}();if(t&&t.previousSibling){var e,r,n,i,c=t.previousSibling,a=c.getAttribute(\"data-cfemail\");if(a){for(e=\"\",r=parseInt(a.substr(0,2),16),n=2;a.length-n;n+=2)i=parseInt(a.substr(n,2),16)^r,e+=String.fromCharCode(i);e=document.createTextNode(e),c.parentNode.replaceChild(e,c)}t.parentNode.removeChild(t);}}catch(u){}}()/* ]]> */La Quadrature du Net est une organisation de d\u00e9fense des droits et libert\u00e9s des citoyens sur Internet. \u00c0 ce titre, la Quadrature du Net intervient notamment dans les d\u00e9bats concernant la libert\u00e9 d\u2019expression, le droit d\u2019auteur, la r\u00e9gulation du secteur des t\u00e9l\u00e9communications ou encore le respect de la vie priv\u00e9e. Contact : Philippe Aigrain, co-fondateur et conseiller strat\u00e9gique [email\u00a0protected]/* <![CDATA[ */!function(){try{var t=\"currentScript\"in document?document.currentScript:function(){for(var t=document.getElementsByTagName(\"script\"),e=t.length;e--;)if(t[e].getAttribute(\"data-cfhash\"))return t[e]}();if(t&&t.previousSibling){var e,r,n,i,c=t.previousSibling,a=c.getAttribute(\"data-cfemail\");if(a){for(e=\"\",r=parseInt(a.substr(0,2),16),n=2;a.length-n;n+=2)i=parseInt(a.substr(n,2),16)^r,e+=String.fromCharCode(i);e=document.createTextNode(e),c.parentNode.replaceChild(e,c)}t.parentNode.removeChild(t);}}catch(u){}}()/* ]]> */ +33 6 85 80 19 31R\u00e9publique Citoyenne est une association aidant les citoyens \u00e0 se forger des opinions sur le Gouvernement ouvert et \u00e0 les faire valoir. Contact : [email\u00a0protected]/* <![CDATA[ */!function(){try{var t=\"currentScript\"in document?document.currentScript:function(){for(var t=document.getElementsByTagName(\"script\"),e=t.length;e--;)if(t[e].getAttribute(\"data-cfhash\"))return t[e]}();if(t&&t.previousSibling){var e,r,n,i,c=t.previousSibling,a=c.getAttribute(\"data-cfemail\");if(a){for(e=\"\",r=parseInt(a.substr(0,2),16),n=2;a.length-n;n+=2)i=parseInt(a.substr(n,2),16)^r,e+=String.fromCharCode(i);e=document.createTextNode(e),c.parentNode.replaceChild(e,c)}t.parentNode.removeChild(t);}}catch(u){}}()/* ]]> */Framasoft, r\u00e9seau d\u2019education populaire au Libre en g\u00e9n\u00e9ral et au logiciel libre en particulier.Contact : [email\u00a0protected]/* <![CDATA[ */!function(){try{var t=\"currentScript\"in document?document.currentScript:function(){for(var t=document.getElementsByTagName(\"script\"),e=t.length;e--;)if(t[e].getAttribute(\"data-cfhash\"))return t[e]}();if(t&&t.previousSibling){var e,r,n,i,c=t.previousSibling,a=c.getAttribute(\"data-cfemail\");if(a){for(e=\"\",r=parseInt(a.substr(0,2),16),n=2;a.length-n;n+=2)i=parseInt(a.substr(n,2),16)^r,e+=String.fromCharCode(i);e=document.createTextNode(e),c.parentNode.replaceChild(e,c)}t.parentNode.removeChild(t);}}catch(u){}}()/* ]]> */LiberTIC est une association nantaise de loi 1901, ind\u00e9pendante et non-partisane, qui a pour objectif de promouvoir l\u2019e-d\u00e9mocratie et l\u2019ouverture des donn\u00e9es publiques. Contact : [email\u00a0protected]/* <![CDATA[ */!function(){try{var t=\"currentScript\"in document?document.currentScript:function(){for(var t=document.getElementsByTagName(\"script\"),e=t.length;e--;)if(t[e].getAttribute(\"data-cfhash\"))return t[e]}();if(t&&t.previousSibling){var e,r,n,i,c=t.previousSibling,a=c.getAttribute(\"data-cfemail\");if(a){for(e=\"\",r=parseInt(a.substr(0,2),16),n=2;a.length-n;n+=2)i=parseInt(a.substr(n,2),16)^r,e+=String.fromCharCode(i);e=document.createTextNode(e),c.parentNode.replaceChild(e,c)}t.parentNode.removeChild(t);}}catch(u){}}()/* ]]> */Creative Commons France est une organisation \u00e0 but non lucratif qui a pour dessein de faciliter la diffusion et le partage des oeuvres tout en accompagnant les nouvelles pratiques de cr\u00e9ation \u00e0 l\u2019\u00e8re num\u00e9rique.April : Pionni\u00e8re du logiciel libre en France, l\u2019April, constitu\u00e9e de 4884 adh\u00e9rents (4431 individus, 453 entreprises, associations et organisations), est depuis 1996 un acteur majeur de la d\u00e9mocratisation et de la diffusion du logiciel libre et des standards ouverts aupr\u00e8s du grand public, des professionnels et des institutions dans l\u2019espace francophone.- See more at: http://fr.okfn.org/2014/10/08/une-declaration-unilaterale-des-droits-de-lhomme-numerique-qui-confond-dangereusement-donnees-personnelles-et-oeuvres-de-lesprit/#sthash.JdMmdwZe.RiqZqbvT.dpuf\"", 
            "votes": 2, 
            "title": "\nProfil de Rudy Patard\n\n", 
            "source_link": "/profile/rudypatard", 
            "id": "source276"
        }, 
        {
            "category": "Article scientifique", 
            "body": "mardi 4 ao\u00fbt 2015, par G\u00e9rard Collet\"Pourquoi s\u2019int\u00e9resser, au sein d\u2019un dossier sur la \u00ab connaissance \u00bb, \u00e0 la survenue des technologies de l\u2019information et de la communication (TIC) [1] dans le paysage \u00e9ducatif ? Il se trouve que lesdites technologies sont au confluent d\u2019attendus \u00e9conomiques majeurs et d\u2019impacts sociaux et \u00e9ducatifs non moins importants. Leur arriv\u00e9e dans le paysage de l\u2019\u00e9ducation depuis une quarantaine d\u2019ann\u00e9es est de nature \u00e0 modifier \u00e0 la fois le regard que l\u2019on jette sur la connaissance et sa nature m\u00eame ; elle peut \u00e9galement faire \u00e9voluer le syst\u00e8me de valeurs qui fonde le syst\u00e8me \u00e9ducatif. Il y a l\u00e0 un faisceau de raisons suffisant pour approfondir le sujet.\"", 
            "votes": 2, 
            "title": "\nProfil de Rudy Patard\n\n", 
            "source_link": "/profile/rudypatard", 
            "id": "source275"
        }, 
        {
            "category": "Autre", 
            "body": "Proposition de sch\u00e9ma de publication scientifique hors circuit propri\u00e9taire sur la base des technologies existantes.(part de mes travaux sur l'ACV)Les explorations et exp\u00e9rimentations sont \u00e0 suivre aux liens suivants :https://fr.wikiversity.org/wiki/Projet:Journal_scientifique_libre (d\u00e9bat pr\u00e9alable : https://fr.wikiversity.org/wiki/Projet:Wikiversit%C3%A9/Journal_scientifique_libre)Pour ma th\u00e9matique (\"\u00c9cologie industrielle et \u00c9valuation environnementale\")http://enipedia.tudelft.nl/wiki/Portal:wiki-based_free_open_journals", 
            "votes": 1, 
            "title": "\nProfil de Rudy Patard\n\n", 
            "source_link": "/profile/rudypatard", 
            "id": "source260"
        }, 
        {
            "category": "Article scientifique", 
            "body": "Pr\u00e9sentation du mod\u00e8le de li\u00e8ge.Abstract:The decision to build an institutional repository at the University of Li\u00e8ge was taken in 2005. It took 3 years to prepare for a faultless start in November 2008. A strong communication campaign conveyed the Open Access concept to the ULg research community. A name was coined to personalise the concept : ORBi (Open Repository and Bibliography, http://orbi.ulg.ac.be/), suggesting an improved worldwide audience. A special effort in internal communication was devoted to acceptance of the mandate. It appeared essential to make it plain that ORBi would offer an unprecedented increase in readership, but that it would only be valuable if all ULg members would abide by the new rules.Any mandate needs some coercitive persuasion. Rather than resting on advocacy, we linked internal assessment to the scientific production stored in ORBi. Those applying for promotion have no choice but to file all their production in full text. This created waves of progression.Since then, evidence for a much increased readership (about twice, http://opcit.eprints.org/) has transformed the early participants in strong advocates of the repository. 68,000 items have been filed, 41,000 (60,2%) with full text (only mandatory for documents published later that 2002). According to ROAR (http://roar.eprints.org ), out of 1,568 IRs, ORBi comes 27th for the number of references, 15th for \u00ab high activity level \u00bb and 1st for \u00ab medium activity level \u00bb (number of days with 10-99 deposits/day).ORBi is now considered a success by almost all ULg members. Its advantages to individual authors have become a better incentive than the mandate itself.", 
            "votes": 0, 
            "title": "\nProfil de Rudy Patard\n\n", 
            "source_link": "/profile/rudypatard", 
            "id": "source259"
        }
    ], 
    "votes_count": 39, 
    "arguments": [
        {
            "article_title": "Signaler", 
            "votes": 1, 
            "article_link": "http://www.republique-numerique.fr/consultations/projet-de-loi-numerique/consultation/consultation/opinions/section-2-travaux-de-recherche-et-de-statistique/pour-une-obligation-de-depot-des-publications-scientifiques-dans-une-archive-ouverte/arguments/2940/report", 
            "link": "http://www.republique-numerique.fr/consultations/projet-de-loi-numerique/consultation/consultation/opinions/section-2-travaux-de-recherche-et-de-statistique/pour-une-obligation-de-depot-des-publications-scientifiques-dans-une-archive-ouverte/arguments/2940/report#arg-2940", 
            "date": "2015-10-10T14:51:00+0200", 
            "id": "2940"
        }, 
        {
            "article_title": "Signaler", 
            "votes": 0, 
            "article_link": "http://www.republique-numerique.fr/consultations/projet-de-loi-numerique/consultation/consultation/opinions/section-2-travaux-de-recherche-et-de-statistique/reconnaissance-et-ou-creation-d-une-plateforme-de-relecture-collaborative-des-articles-scientifiques/arguments/3072/report", 
            "link": "http://www.republique-numerique.fr/consultations/projet-de-loi-numerique/consultation/consultation/opinions/section-2-travaux-de-recherche-et-de-statistique/reconnaissance-et-ou-creation-d-une-plateforme-de-relecture-collaborative-des-articles-scientifiques/arguments/3072/report#arg-3072", 
            "date": "2015-10-11T00:43:00+0200", 
            "id": "3072"
        }, 
        {
            "article_title": "Signaler", 
            "votes": 0, 
            "article_link": "http://www.republique-numerique.fr/consultations/projet-de-loi-numerique/consultation/consultation/opinions/section-1-ouverture-des-donnees-publiques-1/ecole-entreprise-reunion/arguments/3113/report", 
            "link": "http://www.republique-numerique.fr/consultations/projet-de-loi-numerique/consultation/consultation/opinions/section-1-ouverture-des-donnees-publiques-1/ecole-entreprise-reunion/arguments/3113/report#arg-3113", 
            "date": "2015-10-11T11:07:00+0200", 
            "id": "3113"
        }, 
        {
            "article_title": "Signaler", 
            "votes": 4, 
            "article_link": "http://www.republique-numerique.fr/consultations/projet-de-loi-numerique/consultation/consultation/opinions/section-2-service-public-de-la-donnee-1/utiliser-les-logiciels-libres-gnu-linux-dans-les-ecoles-et-les-universites/arguments/3118/report", 
            "link": "http://www.republique-numerique.fr/consultations/projet-de-loi-numerique/consultation/consultation/opinions/section-2-service-public-de-la-donnee-1/utiliser-les-logiciels-libres-gnu-linux-dans-les-ecoles-et-les-universites/arguments/3118/report#arg-3118", 
            "date": "2015-10-11T11:48:00+0200", 
            "id": "3118"
        }, 
        {
            "article_title": "Signaler", 
            "votes": 0, 
            "article_link": "http://www.republique-numerique.fr/consultations/projet-de-loi-numerique/consultation/consultation/opinions/section-2-service-public-de-la-donnee-1/article-4-creation-d-un-service-public-de-la-donnee/arguments/3182/report", 
            "link": "http://www.republique-numerique.fr/consultations/projet-de-loi-numerique/consultation/consultation/opinions/section-2-service-public-de-la-donnee-1/article-4-creation-d-un-service-public-de-la-donnee/arguments/3182/report#arg-3182", 
            "date": "2015-10-11T17:59:00+0200", 
            "id": "3182"
        }, 
        {
            "article_title": "Signaler", 
            "votes": 0, 
            "article_link": "http://www.republique-numerique.fr/consultations/projet-de-loi-numerique/consultation/consultation/opinions/section-1-les-communs/article-8-bis-gratuite-des-droits-de-participation-des-acteurs-de-la-recherche-publique-aux-travaux-de-normalisation-internationaux/arguments/3187/report", 
            "link": "http://www.republique-numerique.fr/consultations/projet-de-loi-numerique/consultation/consultation/opinions/section-1-les-communs/article-8-bis-gratuite-des-droits-de-participation-des-acteurs-de-la-recherche-publique-aux-travaux-de-normalisation-internationaux/arguments/3187/report#arg-3187", 
            "date": "2015-10-11T18:13:00+0200", 
            "id": "3187"
        }, 
        {
            "article_title": "Signaler", 
            "votes": 1, 
            "article_link": "http://www.republique-numerique.fr/consultations/projet-de-loi-numerique/consultation/consultation/opinions/section-2-service-public-de-la-donnee-1/a-argent-public-logiciel-public/arguments/3194/report", 
            "link": "http://www.republique-numerique.fr/consultations/projet-de-loi-numerique/consultation/consultation/opinions/section-2-service-public-de-la-donnee-1/a-argent-public-logiciel-public/arguments/3194/report#arg-3194", 
            "date": "2015-10-11T18:52:00+0200", 
            "id": "3194"
        }
    ], 
    "arguments_count": 17, 
    "propositions_count": 0, 
    "contributions_count": 30
}