{
    "modifications": [
        {
            "stats": {
                "source": "0", 
                "votes": "8", 
                "arguments": "5"
            }, 
            "votes": {
                "data-ok": "1", 
                "data-mitige": "0", 
                "data-nok": "7"
            }, 
            "link": "/projects/projet-de-loi-numerique/consultation/consultation/opinions/section-1-ouverture-des-donnees-publiques-1/article-1-elargissement-du-champ-de-diffusion-par-l-administration/versions/manque-d-amour-envers-les-etres", 
            "id": "190", 
            "title": "Manque d'amour envers les \u00eatres"
        }
    ], 
    "modifications_count": 1, 
    "sources_count": 0, 
    "propositions": [], 
    "votes": [], 
    "sources": [], 
    "votes_count": 0, 
    "arguments": [], 
    "arguments_count": 0, 
    "propositions_count": 0, 
    "contributions_count": 1
}