{
    "modifications": [], 
    "modifications_count": 0, 
    "sources_count": 0, 
    "propositions": [], 
    "votes": [
        {
            "article_title": "Donner la priorit\u00e9 aux logiciels libres et aux formats ouverts dans le service public national et local", 
            "date": "2015-10-18T16:49:00+0200", 
            "link": "http://www.republique-numerique.fr/projects/projet-de-loi-numerique/consultation/consultation/opinions/section-3-loyaute-des-plateformes/donner-la-priorite-aux-logiciels-libres-et-aux-formats-ouverts-dans-le-service-public-national-et-local", 
            "id": "155772", 
            "opinion": "1"
        }, 
        {
            "article_title": "Le code source d'un logiciel est un document administratif communicable", 
            "date": "2015-10-18T16:49:00+0200", 
            "link": "http://www.republique-numerique.fr/projects/projet-de-loi-numerique/consultation/consultation/opinions/section-1-ouverture-des-donnees-publiques-1/le-code-source-d-un-logiciel-est-un-document-administratif-communicable", 
            "id": "155791", 
            "opinion": "1"
        }, 
        {
            "article_title": "Ecole entreprise R\u00e9union", 
            "date": "2015-10-18T16:53:00+0200", 
            "link": "http://www.republique-numerique.fr/projects/projet-de-loi-numerique/consultation/consultation/opinions/section-1-ouverture-des-donnees-publiques-1/ecole-entreprise-reunion", 
            "id": "155897", 
            "opinion": "0"
        }, 
        {
            "article_title": "ouverture du code des algorithmes publics", 
            "date": "2015-10-18T16:54:00+0200", 
            "link": "http://www.republique-numerique.fr/projects/projet-de-loi-numerique/consultation/consultation/opinions/section-1-ouverture-des-donnees-publiques-1/ouverture-du-code-des-algorithmes-publics", 
            "id": "155924", 
            "opinion": "1"
        }, 
        {
            "article_title": "Article 1 - Open data par d\u00e9faut (obligation de diffuser en ligne les principaux documents et donn\u00e9es des organismes publics)", 
            "date": "2015-10-18T16:55:00+0200", 
            "link": "http://www.republique-numerique.fr/projects/projet-de-loi-numerique/consultation/consultation/opinions/section-1-ouverture-des-donnees-publiques-1/article-1-elargissement-du-champ-de-diffusion-par-l-administration", 
            "id": "155941", 
            "opinion": "1"
        }, 
        {
            "article_title": "Article 2 - Libre r\u00e9utilisation des donn\u00e9es des services publics industriels et commerciaux", 
            "date": "2015-10-18T16:56:00+0200", 
            "link": "http://www.republique-numerique.fr/projects/projet-de-loi-numerique/consultation/consultation/opinions/section-1-ouverture-des-donnees-publiques-1/article-2-principe-de-libre-reutilisation-des-donnees-pour-les-spic", 
            "id": "155973", 
            "opinion": "1"
        }, 
        {
            "article_title": "Article 3 - Droit d\u2019acc\u00e8s des organismes publics aux donn\u00e9es publiques & de r\u00e9utilisation d\u2019informations comportant des donn\u00e9es personnelles d\u00e9j\u00e0 publi\u00e9es", 
            "date": "2015-10-18T16:57:00+0200", 
            "link": "http://www.republique-numerique.fr/projects/projet-de-loi-numerique/consultation/consultation/opinions/section-1-ouverture-des-donnees-publiques-1/article-3-dispositions-diverses", 
            "id": "155985", 
            "opinion": "1"
        }, 
        {
            "article_title": "Suppression de la taxe copie priv\u00e9e", 
            "date": "2015-10-18T16:57:00+0200", 
            "link": "http://www.republique-numerique.fr/projects/projet-de-loi-numerique/consultation/consultation/opinions/section-1-ouverture-des-donnees-publiques-1/suppression-de-la-taxe-copie-privee", 
            "id": "155999", 
            "opinion": "1"
        }, 
        {
            "article_title": "Du capitalisme num\u00e9rique en d\u00e9mocratie participative", 
            "date": "2015-10-18T16:58:00+0200", 
            "link": "http://www.republique-numerique.fr/projects/projet-de-loi-numerique/consultation/consultation/opinions/section-1-ouverture-des-donnees-publiques-1/du-capitalisme-numerique-en-democratie-participative", 
            "id": "156021", 
            "opinion": "-1"
        }, 
        {
            "article_title": "Obligation du format ouvert et libre pour toute administration publique et institution de formation", 
            "date": "2015-10-18T16:59:00+0200", 
            "link": "http://www.republique-numerique.fr/projects/projet-de-loi-numerique/consultation/consultation/opinions/section-1-ouverture-des-donnees-publiques-1/obligation-du-format-ouvert-et-libre-pour-toute-administration-publique-et-institution-de-formation", 
            "id": "156031", 
            "opinion": "1"
        }, 
        {
            "article_title": "Rendre public la pr\u00e9sences des diff\u00e9rents ministres, d\u00e9put\u00e9s, etc... aux conseils.", 
            "date": "2015-10-18T16:59:00+0200", 
            "link": "http://www.republique-numerique.fr/projects/projet-de-loi-numerique/consultation/consultation/opinions/section-1-ouverture-des-donnees-publiques-1/rendre-public-la-presences-des-differents-ministres-deputes-etc-aux-conseils", 
            "id": "156043", 
            "opinion": "1"
        }, 
        {
            "article_title": "Faciliter l'exploitation des donn\u00e9es \u00e0 caract\u00e8re personnel d\u00e9j\u00e0 publi\u00e9es", 
            "date": "2015-10-18T17:00:00+0200", 
            "link": "http://www.republique-numerique.fr/projects/projet-de-loi-numerique/consultation/consultation/opinions/section-1-ouverture-des-donnees-publiques-1/faciliter-l-exploitation-des-donnees-a-caractere-personnel-deja-publiees", 
            "id": "156070", 
            "opinion": "-1"
        }, 
        {
            "article_title": "Article 9 - Libre acc\u00e8s aux publications scientifiques de la recherche publique", 
            "date": "2015-10-18T17:01:00+0200", 
            "link": "http://www.republique-numerique.fr/projects/projet-de-loi-numerique/consultation/consultation/opinions/section-2-travaux-de-recherche-et-de-statistique/article-9-acces-aux-travaux-de-la-recherche-financee-par-des-fonds-publics", 
            "id": "156092", 
            "opinion": "-1"
        }, 
        {
            "article_title": "Cr\u00e9ation d'une maison d'\u00e9dition publique pour la publication des recherches scientifiques", 
            "date": "2015-10-18T17:02:00+0200", 
            "link": "http://www.republique-numerique.fr/projects/projet-de-loi-numerique/consultation/consultation/opinions/section-2-travaux-de-recherche-et-de-statistique/creation-d-une-maison-d-edition-publique-pour-la-publication-des-recherches-scientifiques", 
            "id": "156115", 
            "opinion": "1"
        }
    ], 
    "sources": [], 
    "votes_count": 14, 
    "arguments": [], 
    "arguments_count": 0, 
    "propositions_count": 0, 
    "contributions_count": 0
}