{
    "modifications": [], 
    "modifications_count": 0, 
    "sources_count": 0, 
    "propositions": [], 
    "votes": [
        {
            "article_title": "Donner la priorit\u00e9 aux logiciels libres et aux formats ouverts dans le service public national et local", 
            "date": "2015-10-13T22:05:00+0200", 
            "link": "http://www.republique-numerique.fr/projects/projet-de-loi-numerique/consultation/consultation/opinions/section-3-loyaute-des-plateformes/donner-la-priorite-aux-logiciels-libres-et-aux-formats-ouverts-dans-le-service-public-national-et-local", 
            "id": "77011", 
            "opinion": "1"
        }, 
        {
            "article_title": "Le code source d'un logiciel est un document administratif communicable", 
            "date": "2015-10-13T22:06:00+0200", 
            "link": "http://www.republique-numerique.fr/projects/projet-de-loi-numerique/consultation/consultation/opinions/section-1-ouverture-des-donnees-publiques-1/le-code-source-d-un-logiciel-est-un-document-administratif-communicable", 
            "id": "77016", 
            "opinion": "1"
        }, 
        {
            "article_title": "Utiliser les logiciels libres & GNU/Linux dans les \u00e9coles et les universit\u00e9s", 
            "date": "2015-10-13T22:06:00+0200", 
            "link": "http://www.republique-numerique.fr/projects/projet-de-loi-numerique/consultation/consultation/opinions/section-2-service-public-de-la-donnee-1/utiliser-les-logiciels-libres-gnu-linux-dans-les-ecoles-et-les-universites", 
            "id": "77033", 
            "opinion": "1"
        }, 
        {
            "article_title": "Utilisation de GNU/Linux dans l'administration", 
            "date": "2015-10-13T22:08:00+0200", 
            "link": "http://www.republique-numerique.fr/projects/projet-de-loi-numerique/consultation/consultation/opinions/section-3-donnees-d-interet-general/utilisation-de-gnu-linux-dans-l-administration", 
            "id": "77048", 
            "opinion": "1"
        }, 
        {
            "article_title": "Protection des correspondants", 
            "date": "2015-10-13T22:09:00+0200", 
            "link": "http://www.republique-numerique.fr/projects/projet-de-loi-numerique/consultation/consultation/opinions/section-2-confidentialite-des-correspondances-privees/protection-des-correspondants", 
            "id": "77075", 
            "opinion": "1"
        }, 
        {
            "article_title": "Interdiction de la vente li\u00e9e ordinateur/syst\u00e8me d'exploitation", 
            "date": "2015-10-13T22:09:00+0200", 
            "link": "http://www.republique-numerique.fr/projects/projet-de-loi-numerique/consultation/consultation/opinions/section-3-loyaute-des-plateformes/interdiction-de-la-vente-liee-ordinateur-systeme-d-exploitation", 
            "id": "77079", 
            "opinion": "1"
        }, 
        {
            "article_title": "Le Vote par internet", 
            "date": "2015-10-13T22:11:00+0200", 
            "link": "http://www.republique-numerique.fr/projects/projet-de-loi-numerique/consultation/consultation/opinions/section-1-ouverture-des-donnees-publiques-1/le-vote-par-internet", 
            "id": "77117", 
            "opinion": "-1"
        }, 
        {
            "article_title": "Suppression de la taxe copie priv\u00e9e", 
            "date": "2015-10-13T22:13:00+0200", 
            "link": "http://www.republique-numerique.fr/projects/projet-de-loi-numerique/consultation/consultation/opinions/section-1-ouverture-des-donnees-publiques-1/suppression-de-la-taxe-copie-privee", 
            "id": "77154", 
            "opinion": "1"
        }, 
        {
            "article_title": "L'enseignement de l'informatique pour tous", 
            "date": "2015-10-15T15:55:00+0200", 
            "link": "http://www.republique-numerique.fr/projects/projet-de-loi-numerique/consultation/consultation/opinions/section-1-competences-et-organisation/l-enseignement-de-l-informatique-pour-tous", 
            "id": "98445", 
            "opinion": "1"
        }, 
        {
            "article_title": "Prot\u00e9ger le droit des auteurs d'articles scientifiques, pour permettre le libre acc\u00e8s \u00e0 la recherche scientifique", 
            "date": "2015-10-15T15:56:00+0200", 
            "link": "http://www.republique-numerique.fr/projects/projet-de-loi-numerique/consultation/consultation/opinions/section-2-travaux-de-recherche-et-de-statistique/article-9-acces-aux-travaux-de-la-recherche-financee-par-des-fonds-publics/versions/proteger-le-droit-des-auteurs-d-articles-scientifiques-pour-permettre-le-libre-acces-a-la-recherche-scientifique", 
            "id": "98462", 
            "opinion": "1"
        }, 
        {
            "article_title": "Consacrer un droit effectif \u00e0 la portabilit\u00e9", 
            "date": "2015-10-15T15:57:00+0200", 
            "link": "http://www.republique-numerique.fr/projects/projet-de-loi-numerique/consultation/consultation/opinions/section-2-portabilite-des-donnees/article-12-portabilite-des-donnees/versions/consacrer-un-droit-effectif-a-la-portabilite", 
            "id": "98493", 
            "opinion": "1"
        }
    ], 
    "sources": [], 
    "votes_count": 11, 
    "arguments": [], 
    "arguments_count": 0, 
    "propositions_count": 0, 
    "contributions_count": 0
}