{
    "modifications": [], 
    "modifications_count": 0, 
    "sources_count": 0, 
    "propositions": [], 
    "votes": [
        {
            "article_title": "Instaurer la libert\u00e9 de panorama en France", 
            "date": "2015-10-18T23:00:00+0200", 
            "link": "http://www.republique-numerique.fr/projects/projet-de-loi-numerique/consultation/consultation/opinions/section-1-les-communs/instaurer-la-liberte-de-panorama-en-france", 
            "id": "164917", 
            "opinion": "1"
        }, 
        {
            "article_title": "Il faut prot\u00e9ger les droits d'auteur", 
            "date": "2015-10-18T23:02:00+0200", 
            "link": "http://www.republique-numerique.fr/projects/projet-de-loi-numerique/consultation/consultation/opinions/section-1-les-communs/instaurer-la-liberte-de-panorama-en-france/versions/il-faut-proteger-les-droits-d-auteur", 
            "id": "164951", 
            "opinion": "-1"
        }, 
        {
            "article_title": "Suppression de cet article.", 
            "date": "2015-10-18T23:04:00+0200", 
            "link": "http://www.republique-numerique.fr/projects/projet-de-loi-numerique/consultation/consultation/opinions/section-1-les-communs/instaurer-la-liberte-de-panorama-en-france/versions/suppression-de-cet-article-1", 
            "id": "165025", 
            "opinion": "-1"
        }, 
        {
            "article_title": "Libert\u00e9 de panorama sous licence CC BY-NC-SA 3.0 FR", 
            "date": "2015-10-18T23:06:00+0200", 
            "link": "http://www.republique-numerique.fr/projects/projet-de-loi-numerique/consultation/consultation/opinions/section-1-les-communs/instaurer-la-liberte-de-panorama-en-france/versions/liberte-de-panorama-sous-licence-cc-by-nc-sa-3-0-fr", 
            "id": "165070", 
            "opinion": "-1"
        }, 
        {
            "article_title": "Il est d\u00e9j\u00e0 possible de publier ces images : EN PAYANT L'AUTEUR !!!", 
            "date": "2015-10-18T23:09:00+0200", 
            "link": "http://www.republique-numerique.fr/projects/projet-de-loi-numerique/consultation/consultation/opinions/section-1-les-communs/instaurer-la-liberte-de-panorama-en-france/versions/il-est-deja-possible-de-publier-ces-images-en-payant-l-auteur", 
            "id": "165175", 
            "opinion": "-1"
        }, 
        {
            "article_title": "Retirer l'exception de panorama", 
            "date": "2015-10-18T23:11:00+0200", 
            "link": "http://www.republique-numerique.fr/projects/projet-de-loi-numerique/consultation/consultation/opinions/section-1-les-communs/instaurer-la-liberte-de-panorama-en-france/versions/les-auteurs-ne-sont-pas-fous-ou-stupides-ils-sont-les-premiers-a-autoriser-la-reproduction-et-la-circulation-de-leurs-oeuvres-gracieusement-en-faveur-de-demarches-non-commerciales", 
            "id": "165224", 
            "opinion": "-1"
        }
    ], 
    "sources": [], 
    "votes_count": 6, 
    "arguments": [], 
    "arguments_count": 0, 
    "propositions_count": 0, 
    "contributions_count": 0
}