{
    "modifications": [], 
    "modifications_count": 0, 
    "sources_count": 0, 
    "propositions": [], 
    "votes": [
        {
            "article_title": "Sous sa forme initiale telle que propos\u00e9e, il ne ...", 
            "date": "2015-09-28T10:47:00+0200", 
            "link": "http://www.republique-numerique.fr/projects/projet-de-loi-numerique/consultation/consultation/opinions/section-2-couverture-numerique/obligation-de-rendre-les-appareils-connectes-compatibles-avec-le-protocole-ipv6#arg-428", 
            "id": "8664", 
            "opinion": "1"
        }, 
        {
            "article_title": "Obligation de rendre les appareils connect\u00e9s compatibles avec le protocole IPv6", 
            "date": "2015-09-28T10:48:00+0200", 
            "link": "http://www.republique-numerique.fr/projects/projet-de-loi-numerique/consultation/consultation/opinions/section-2-couverture-numerique/obligation-de-rendre-les-appareils-connectes-compatibles-avec-le-protocole-ipv6", 
            "id": "8681", 
            "opinion": "1"
        }
    ], 
    "sources": [], 
    "votes_count": 2, 
    "arguments": [], 
    "arguments_count": 0, 
    "propositions_count": 0, 
    "contributions_count": 0
}