{
    "modifications": [], 
    "modifications_count": 0, 
    "sources_count": 0, 
    "propositions": [], 
    "votes": [
        {
            "article_title": "Respect de la CNIL, droit \u00e0 l'oubli, etc... Cela ...", 
            "date": "2015-09-29T11:40:00+0200", 
            "link": "http://www.republique-numerique.fr/projects/projet-de-loi-numerique/consultation/consultation/opinions/section-2-service-public-de-la-donnee-1/sanctuaire-publique-de-la-donnee#arg-590", 
            "id": "14884", 
            "opinion": "1"
        }, 
        {
            "article_title": "SANCTUAIRE PUBLIQUE DE LA DONNEE", 
            "date": "2015-09-29T11:43:00+0200", 
            "link": "http://www.republique-numerique.fr/projects/projet-de-loi-numerique/consultation/consultation/opinions/section-2-service-public-de-la-donnee-1/sanctuaire-publique-de-la-donnee", 
            "id": "14888", 
            "opinion": "-1"
        }, 
        {
            "article_title": "Interdiction par les banques d'utiliser des acc\u00e8s s\u00e9curis\u00e9s aux comptes impliquant pour le client l'usage d'un smartphone", 
            "date": "2015-09-29T11:45:00+0200", 
            "link": "http://www.republique-numerique.fr/projects/projet-de-loi-numerique/consultation/consultation/opinions/section-1-ouverture-des-donnees-publiques-1/interdiction-par-les-banques-d-utiliser-des-acces-securises-aux-comptes-impliquant-pour-le-client-l-usage-d-un-smartphone", 
            "id": "14914", 
            "opinion": "1"
        }, 
        {
            "article_title": "La libert\u00e9 d'expression totale sur internet sans aucune restriction.", 
            "date": "2015-09-29T11:45:00+0200", 
            "link": "http://www.republique-numerique.fr/projects/projet-de-loi-numerique/consultation/consultation/opinions/section-1-ouverture-des-donnees-publiques-1/la-liberte-d-expression-totale-sur-internet-sans-aucune-restriction", 
            "id": "14918", 
            "opinion": "-1"
        }, 
        {
            "article_title": "Non, il faudra toujours limiter sur les propos x\u00e9...", 
            "date": "2015-09-29T11:46:00+0200", 
            "link": "http://www.republique-numerique.fr/projects/projet-de-loi-numerique/consultation/consultation/opinions/section-1-ouverture-des-donnees-publiques-1/la-liberte-d-expression-totale-sur-internet-sans-aucune-restriction#arg-1078", 
            "id": "14920", 
            "opinion": "1"
        }, 
        {
            "article_title": "Inscrire dans la loi le d\u00e9lit de non respect de la neutralit\u00e9 du net", 
            "date": "2015-09-29T11:46:00+0200", 
            "link": "http://www.republique-numerique.fr/projects/projet-de-loi-numerique/consultation/consultation/opinions/section-1-neutralite-de-l-internet/inscrire-dans-la-loi-le-delit-de-non-respect-de-la-neutralite-du-net", 
            "id": "14927", 
            "opinion": "1"
        }, 
        {
            "article_title": "Article 22 - Secret des correspondances num\u00e9riques", 
            "date": "2015-09-29T11:48:00+0200", 
            "link": "http://www.republique-numerique.fr/projects/projet-de-loi-numerique/consultation/consultation/opinions/section-2-confidentialite-des-correspondances-privees/article-22-respect-des-correspondances-privees-numeriques", 
            "id": "14944", 
            "opinion": "1"
        }
    ], 
    "sources": [], 
    "votes_count": 7, 
    "arguments": [
        {
            "article_title": "Signaler", 
            "votes": 1, 
            "article_link": "http://www.republique-numerique.fr/consultations/projet-de-loi-numerique/consultation/consultation/opinions/section-2-service-public-de-la-donnee-1/sanctuaire-publique-de-la-donnee/arguments/1192/report", 
            "link": "http://www.republique-numerique.fr/consultations/projet-de-loi-numerique/consultation/consultation/opinions/section-2-service-public-de-la-donnee-1/sanctuaire-publique-de-la-donnee/arguments/1192/report#arg-1192", 
            "date": "2015-09-29T11:43:00+0200", 
            "id": "1192"
        }
    ], 
    "arguments_count": 1, 
    "propositions_count": 0, 
    "contributions_count": 1
}