{
    "modifications": [], 
    "modifications_count": 0, 
    "sources_count": 0, 
    "propositions": [], 
    "votes": [
        {
            "article_title": "Elargissement du service", 
            "date": "2015-10-12T21:12:00+0200", 
            "link": "http://www.republique-numerique.fr/projects/projet-de-loi-numerique/consultation/consultation/opinions/section-1-accessibilite-des-personnes-handicapees-aux-services-telephoniques/elargissement-du-service", 
            "id": "55874", 
            "opinion": "1"
        }, 
        {
            "article_title": "Prix du service d'accessibilit\u00e9", 
            "date": "2015-10-12T21:14:00+0200", 
            "link": "http://www.republique-numerique.fr/projects/projet-de-loi-numerique/consultation/consultation/opinions/section-1-accessibilite-des-personnes-handicapees-aux-services-telephoniques/prix-du-service-d-accessibilite", 
            "id": "55905", 
            "opinion": "1"
        }, 
        {
            "article_title": "Elargir \u00e0 des op\u00e9rateurs comp\u00e9tents en LSF", 
            "date": "2015-10-12T21:18:00+0200", 
            "link": "http://www.republique-numerique.fr/projects/projet-de-loi-numerique/consultation/consultation/opinions/section-1-accessibilite-des-personnes-handicapees-aux-services-telephoniques/elargir-a-des-operateurs-competents-en-lsf", 
            "id": "55970", 
            "opinion": "1"
        }, 
        {
            "article_title": "Dignit\u00e9 des personnes sourdes et malentendantes", 
            "date": "2015-10-12T21:21:00+0200", 
            "link": "http://www.republique-numerique.fr/projects/projet-de-loi-numerique/consultation/consultation/opinions/section-1-accessibilite-des-personnes-handicapees-aux-services-telephoniques/dignite-des-personnes-sourdes-et-malentendantes", 
            "id": "56013", 
            "opinion": "1"
        }, 
        {
            "article_title": "Journal t\u00e9l\u00e9vis\u00e9 en Langue des Signes", 
            "date": "2015-10-12T21:22:00+0200", 
            "link": "http://www.republique-numerique.fr/projects/projet-de-loi-numerique/consultation/consultation/opinions/section-2-accessibilite-des-personnes-handicapees-aux-sites-internet-publics/journal-televise-en-langue-des-signes", 
            "id": "56043", 
            "opinion": "1"
        }, 
        {
            "article_title": "Traduction en LSF des sites internet du service public", 
            "date": "2015-10-12T21:29:00+0200", 
            "link": "http://www.republique-numerique.fr/projects/projet-de-loi-numerique/consultation/consultation/opinions/section-2-accessibilite-des-personnes-handicapees-aux-sites-internet-publics/traduction-en-lsf-des-sites-internet-de-service-public", 
            "id": "56172", 
            "opinion": "1"
        }
    ], 
    "sources": [], 
    "votes_count": 6, 
    "arguments": [], 
    "arguments_count": 0, 
    "propositions_count": 0, 
    "contributions_count": 0
}