{
    "modifications": [], 
    "modifications_count": 0, 
    "sources_count": 0, 
    "propositions": [], 
    "votes": [
        {
            "article_title": "Faire acte de solidarit\u00e9 devrait \u00eatre \u00e0 la port...", 
            "date": "2015-10-12T16:03:00+0200", 
            "link": "http://www.republique-numerique.fr/projects/projet-de-loi-numerique/consultation/consultation/opinions/section-2-paiement-par-sms/article-27-paiement-par-sms#arg-3309", 
            "id": "53348", 
            "opinion": "1"
        }, 
        {
            "article_title": "Ce syst\u00e8me est d\u00e9j\u00e0 en place dans 14 pays de l'...", 
            "date": "2015-10-12T16:03:00+0200", 
            "link": "http://www.republique-numerique.fr/projects/projet-de-loi-numerique/consultation/consultation/opinions/section-2-paiement-par-sms/article-27-paiement-par-sms#arg-3299", 
            "id": "53349", 
            "opinion": "1"
        }, 
        {
            "article_title": "Lors de notre exp\u00e9rimentation, le don par SMS a r...", 
            "date": "2015-10-12T16:04:00+0200", 
            "link": "http://www.republique-numerique.fr/projects/projet-de-loi-numerique/consultation/consultation/opinions/section-2-paiement-par-sms/article-27-paiement-par-sms#arg-2813", 
            "id": "53352", 
            "opinion": "1"
        }, 
        {
            "article_title": "Article 27 - Paiement par SMS", 
            "date": "2015-10-12T16:11:00+0200", 
            "link": "http://www.republique-numerique.fr/projects/projet-de-loi-numerique/consultation/consultation/opinions/section-2-paiement-par-sms/article-27-paiement-par-sms", 
            "id": "53421", 
            "opinion": "1"
        }
    ], 
    "sources": [], 
    "votes_count": 4, 
    "arguments": [], 
    "arguments_count": 0, 
    "propositions_count": 0, 
    "contributions_count": 0
}