{
    "modifications": [], 
    "modifications_count": 0, 
    "sources_count": 0, 
    "propositions": [], 
    "votes": [
        {
            "article_title": "Logiciel libre, culture libre et copyleft", 
            "date": "2015-10-15T16:00:00+0200", 
            "link": "http://www.republique-numerique.fr/projects/projet-de-loi-numerique/consultation/consultation/opinions/section-1-ouverture-des-donnees-publiques-1/logiciel-libre-culture-libre-et-copyleft", 
            "id": "98543", 
            "opinion": "-1"
        }, 
        {
            "article_title": "Droits diff\u00e9renci\u00e9s et renforcement de l'exception p\u00e9dagogique", 
            "date": "2015-10-15T16:00:00+0200", 
            "link": "http://www.republique-numerique.fr/projects/projet-de-loi-numerique/consultation/consultation/opinions/section-1-les-communs/droits-differencies-et-renforcement-de-l-exception-pedagogique", 
            "id": "98547", 
            "opinion": "-1"
        }, 
        {
            "article_title": "R\u00e9affirmer l'applicabilit\u00e9 du domaine public aux contenus num\u00e9riques", 
            "date": "2015-10-15T16:00:00+0200", 
            "link": "http://www.republique-numerique.fr/projects/projet-de-loi-numerique/consultation/consultation/opinions/section-1-les-communs/reaffirmer-l-applicabilite-du-domaine-public-aux-contenus-numeriques", 
            "id": "98553", 
            "opinion": "-1"
        }, 
        {
            "article_title": "Baisser le prix du livre num\u00e9rique", 
            "date": "2015-10-15T16:00:00+0200", 
            "link": "http://www.republique-numerique.fr/projects/projet-de-loi-numerique/consultation/consultation/opinions/section-1-les-communs/baisser-le-prix-du-livre-numerique", 
            "id": "98555", 
            "opinion": "-1"
        }, 
        {
            "article_title": "Suppression de l'article 8", 
            "date": "2015-10-15T16:01:00+0200", 
            "link": "http://www.republique-numerique.fr/projects/projet-de-loi-numerique/consultation/consultation/opinions/section-1-les-communs/article-8-definition-du-domaine-commun-informationnel/versions/suppression-de-l-article-8", 
            "id": "98559", 
            "opinion": "1"
        }, 
        {
            "article_title": "Cet article flou et facteur de contentieux devrait \u00eatre retir\u00e9 du projet de loi", 
            "date": "2015-10-15T16:01:00+0200", 
            "link": "http://www.republique-numerique.fr/projects/projet-de-loi-numerique/consultation/consultation/opinions/section-1-les-communs/article-8-definition-du-domaine-commun-informationnel/versions/cet-article-flou-et-facteur-de-contentieux-devrait-etre-retire-du-projet-de-loi", 
            "id": "98565", 
            "opinion": "1"
        }, 
        {
            "article_title": "Recherches financ\u00e9es par des fonds publics accessibles sans d\u00e9lai", 
            "date": "2015-10-15T16:01:00+0200", 
            "link": "http://www.republique-numerique.fr/projects/projet-de-loi-numerique/consultation/consultation/opinions/section-2-travaux-de-recherche-et-de-statistique/article-9-acces-aux-travaux-de-la-recherche-financee-par-des-fonds-publics/versions/recherches-financees-par-des-fonds-publics-accessibles-sans-delai", 
            "id": "98579", 
            "opinion": "-1"
        }, 
        {
            "article_title": "R\u00e9duire la dur\u00e9e d'embargo", 
            "date": "2015-10-15T16:01:00+0200", 
            "link": "http://www.republique-numerique.fr/projects/projet-de-loi-numerique/consultation/consultation/opinions/section-2-travaux-de-recherche-et-de-statistique/article-9-acces-aux-travaux-de-la-recherche-financee-par-des-fonds-publics/versions/reduire-la-duree-d-embargo", 
            "id": "98582", 
            "opinion": "-1"
        }, 
        {
            "article_title": "Dur\u00e9e d'embargo et TDM", 
            "date": "2015-10-15T16:01:00+0200", 
            "link": "http://www.republique-numerique.fr/projects/projet-de-loi-numerique/consultation/consultation/opinions/section-2-travaux-de-recherche-et-de-statistique/article-9-acces-aux-travaux-de-la-recherche-financee-par-des-fonds-publics/versions/duree-d-embargo-et-tdm-1", 
            "id": "98593", 
            "opinion": "-1"
        }, 
        {
            "article_title": "Rendre effective l'exception pr\u00e9vue par le l'art. L342-3 du CPI en faveur d'un usage p\u00e9dagogique et de recherche des bases de donn\u00e9es", 
            "date": "2015-10-15T16:02:00+0200", 
            "link": "http://www.republique-numerique.fr/projects/projet-de-loi-numerique/consultation/consultation/opinions/section-2-travaux-de-recherche-et-de-statistique/rendre-effective-l-exception-prevue-par-le-l-art-l342-3-du-cpi-en-faveur-d-un-usage-pedagogique-et-de-recherche-des-bases-de-donnees", 
            "id": "98597", 
            "opinion": "-1"
        }, 
        {
            "article_title": "Pour l\u00e9gif\u00e9rer sur le libre acc\u00e8s, une \u00e9tude d'impact est n\u00e9cessaire.", 
            "date": "2015-10-15T16:02:00+0200", 
            "link": "http://www.republique-numerique.fr/projects/projet-de-loi-numerique/consultation/consultation/opinions/section-2-travaux-de-recherche-et-de-statistique/article-9-acces-aux-travaux-de-la-recherche-financee-par-des-fonds-publics/versions/pour-legiferer-sur-le-libre-acces-une-etude-d-impact-est-necessaire", 
            "id": "98603", 
            "opinion": "1"
        }
    ], 
    "sources": [], 
    "votes_count": 11, 
    "arguments": [], 
    "arguments_count": 0, 
    "propositions_count": 0, 
    "contributions_count": 0
}