{
    "modifications": [], 
    "modifications_count": 0, 
    "sources_count": 0, 
    "propositions": [], 
    "votes": [
        {
            "article_title": "RECUPERATION DES DONNEES LORS du DECES d'1 CONJOINT o\u00f9 PROCHE", 
            "date": "2015-10-01T16:14:00+0200", 
            "link": "http://www.republique-numerique.fr/projects/projet-de-loi-numerique/consultation/consultation/opinions/section-2-portabilite-des-donnees/recuperation-des-donnees-lors-du-deces-d-1-conjoint-ou-proche", 
            "id": "24087", 
            "opinion": "1"
        }, 
        {
            "article_title": "E-Testament", 
            "date": "2015-10-01T16:16:00+0200", 
            "link": "http://www.republique-numerique.fr/projects/projet-de-loi-numerique/consultation/consultation/opinions/section-2-portabilite-des-donnees/e-testament", 
            "id": "24088", 
            "opinion": "1"
        }
    ], 
    "sources": [], 
    "votes_count": 2, 
    "arguments": [], 
    "arguments_count": 0, 
    "propositions_count": 0, 
    "contributions_count": 0
}