{
    "modifications": [], 
    "modifications_count": 0, 
    "sources_count": 0, 
    "propositions": [], 
    "votes": [
        {
            "article_title": "Article 5 - Cr\u00e9ation d'un compte unique des services administratifs en ligne pour chaque citoyen", 
            "date": "2015-09-29T12:57:00+0200", 
            "link": "http://www.republique-numerique.fr/projects/projet-de-loi-numerique/consultation/consultation/opinions/section-2-service-public-de-la-donnee-1/article-5-creation-d-un-compte-unique-des-services-administratifs-en-ligne-pour-chaque-citoyen", 
            "id": "15185", 
            "opinion": "1"
        }, 
        {
            "article_title": "E-Testament", 
            "date": "2015-09-29T13:00:00+0200", 
            "link": "http://www.republique-numerique.fr/projects/projet-de-loi-numerique/consultation/consultation/opinions/section-2-portabilite-des-donnees/e-testament", 
            "id": "15202", 
            "opinion": "1"
        }, 
        {
            "article_title": "Droits des consommateurs \u00e0 disposer de leurs contenus physiques et d\u00e9mat\u00e9rialis\u00e9s.", 
            "date": "2015-09-29T13:01:00+0200", 
            "link": "http://www.republique-numerique.fr/projects/projet-de-loi-numerique/consultation/consultation/opinions/section-3-loyaute-des-plateformes/droits-des-consommateurs-a-disposer-de-leurs-contenus-physiques-et-dematerialises", 
            "id": "15207", 
            "opinion": "1"
        }, 
        {
            "article_title": "Article 15.0 - Permettre une meilleure distinction des \"publicit\u00e9s d\u00e9guis\u00e9es\" sur les supports m\u00e9diatiques.", 
            "date": "2015-09-29T13:02:00+0200", 
            "link": "http://www.republique-numerique.fr/projects/projet-de-loi-numerique/consultation/consultation/opinions/section-4-information-des-consommateurs/article-15-0-permettre-une-meilleure-distinction-des-publicites-deguisees-sur-les-supports-mediatiques", 
            "id": "15210", 
            "opinion": "1"
        }, 
        {
            "article_title": "Article 22 - Secret des correspondances num\u00e9riques", 
            "date": "2015-09-29T13:03:00+0200", 
            "link": "http://www.republique-numerique.fr/projects/projet-de-loi-numerique/consultation/consultation/opinions/section-2-confidentialite-des-correspondances-privees/article-22-respect-des-correspondances-privees-numeriques", 
            "id": "15216", 
            "opinion": "1"
        }, 
        {
            "article_title": "D\u00e9veloppement de la couverture num\u00e9rique dans les transports en commun publics", 
            "date": "2015-09-29T13:05:00+0200", 
            "link": "http://www.republique-numerique.fr/projects/projet-de-loi-numerique/consultation/consultation/opinions/section-1-competences-et-organisation/developpement-de-la-couverture-numerique-dans-les-transports-en-commun-publics", 
            "id": "15219", 
            "opinion": "1"
        }
    ], 
    "sources": [], 
    "votes_count": 6, 
    "arguments": [], 
    "arguments_count": 0, 
    "propositions_count": 0, 
    "contributions_count": 0
}