{
    "modifications": [], 
    "modifications_count": 0, 
    "sources_count": 0, 
    "propositions": [], 
    "votes": [
        {
            "article_title": "Utiliser les logiciels libres & GNU/Linux dans les \u00e9coles et les universit\u00e9s", 
            "date": "2015-09-29T14:25:00+0200", 
            "link": "http://www.republique-numerique.fr/projects/projet-de-loi-numerique/consultation/consultation/opinions/section-2-service-public-de-la-donnee-1/utiliser-les-logiciels-libres-gnu-linux-dans-les-ecoles-et-les-universites", 
            "id": "15739", 
            "opinion": "1"
        }, 
        {
            "article_title": "Amendement de la Loi Renseignement pour ajout du juge judiciaire", 
            "date": "2015-09-29T14:27:00+0200", 
            "link": "http://www.republique-numerique.fr/projects/projet-de-loi-numerique/consultation/consultation/opinions/section-2-confidentialite-des-correspondances-privees/amendement-de-la-loi-renseignement-pour-ajout-du-juge-judiciaire", 
            "id": "15756", 
            "opinion": "1"
        }, 
        {
            "article_title": "Ouvrir les donn\u00e9es ayant servi \u00e0 la r\u00e9daction d'un rapport publique", 
            "date": "2015-09-29T14:28:00+0200", 
            "link": "http://www.republique-numerique.fr/projects/projet-de-loi-numerique/consultation/consultation/opinions/section-1-ouverture-des-donnees-publiques-1/ouvrir-les-donnees-ayant-servi-a-la-redaction-d-un-rapport-publique", 
            "id": "15760", 
            "opinion": "1"
        }, 
        {
            "article_title": "Utilisation de GNU/Linux dans l'administration", 
            "date": "2015-09-29T14:28:00+0200", 
            "link": "http://www.republique-numerique.fr/projects/projet-de-loi-numerique/consultation/consultation/opinions/section-3-donnees-d-interet-general/utilisation-de-gnu-linux-dans-l-administration", 
            "id": "15765", 
            "opinion": "1"
        }, 
        {
            "article_title": "Interdiction de la vente li\u00e9e ordinateur/syst\u00e8me d'exploitation", 
            "date": "2015-09-29T14:28:00+0200", 
            "link": "http://www.republique-numerique.fr/projects/projet-de-loi-numerique/consultation/consultation/opinions/section-3-loyaute-des-plateformes/interdiction-de-la-vente-liee-ordinateur-systeme-d-exploitation", 
            "id": "15767", 
            "opinion": "1"
        }, 
        {
            "article_title": "Protection, r\u00e9compense et ind\u00e9mnisation des lanceurs d'alertes", 
            "date": "2015-09-29T14:29:00+0200", 
            "link": "http://www.republique-numerique.fr/projects/projet-de-loi-numerique/consultation/consultation/opinions/section-3-donnees-d-interet-general/protection-recompense-et-indemnisation-des-lanceurs-d-alertes", 
            "id": "15771", 
            "opinion": "1"
        }, 
        {
            "article_title": "Article 5 - Cr\u00e9ation d'un compte unique des services administratifs en ligne pour chaque citoyen", 
            "date": "2015-09-29T14:30:00+0200", 
            "link": "http://www.republique-numerique.fr/projects/projet-de-loi-numerique/consultation/consultation/opinions/section-2-service-public-de-la-donnee-1/article-5-creation-d-un-compte-unique-des-services-administratifs-en-ligne-pour-chaque-citoyen", 
            "id": "15778", 
            "opinion": "1"
        }, 
        {
            "article_title": "Suppression de la taxe copie priv\u00e9e", 
            "date": "2015-09-29T14:30:00+0200", 
            "link": "http://www.republique-numerique.fr/projects/projet-de-loi-numerique/consultation/consultation/opinions/section-1-ouverture-des-donnees-publiques-1/suppression-de-la-taxe-copie-privee", 
            "id": "15782", 
            "opinion": "1"
        }, 
        {
            "article_title": "Article 11.0 - Financement public du logiciel libre", 
            "date": "2015-09-29T14:32:00+0200", 
            "link": "http://www.republique-numerique.fr/projects/projet-de-loi-numerique/consultation/consultation/opinions/section-2-travaux-de-recherche-et-de-statistique/article-11-0-financement-public-du-logiciel-libre", 
            "id": "15793", 
            "opinion": "1"
        }, 
        {
            "article_title": "Article 26bis - Portage de la plateforme contribuez.republique-numerique.fr \u00e0 d'autre projet de loi", 
            "date": "2015-09-29T14:32:00+0200", 
            "link": "http://www.republique-numerique.fr/projects/projet-de-loi-numerique/consultation/consultation/opinions/section-1-recommande-electronique/article-26bis-portage-de-la-plateforme-contribuez-republique-numerique-fr-a-d-autre-projet-de-loi", 
            "id": "15797", 
            "opinion": "1"
        }, 
        {
            "article_title": "Le Vote par internet", 
            "date": "2015-09-29T14:33:00+0200", 
            "link": "http://www.republique-numerique.fr/projects/projet-de-loi-numerique/consultation/consultation/opinions/section-1-ouverture-des-donnees-publiques-1/le-vote-par-internet", 
            "id": "15800", 
            "opinion": "-1"
        }, 
        {
            "article_title": "Article 15.0 - Permettre une meilleure distinction des \"publicit\u00e9s d\u00e9guis\u00e9es\" sur les supports m\u00e9diatiques.", 
            "date": "2015-09-29T14:34:00+0200", 
            "link": "http://www.republique-numerique.fr/projects/projet-de-loi-numerique/consultation/consultation/opinions/section-4-information-des-consommateurs/article-15-0-permettre-une-meilleure-distinction-des-publicites-deguisees-sur-les-supports-mediatiques", 
            "id": "15816", 
            "opinion": "1"
        }, 
        {
            "article_title": "Protection du statut de lanceurs d'alertes et precisions sur les moyens d'obtenir ce statut", 
            "date": "2015-09-29T14:47:00+0200", 
            "link": "http://www.republique-numerique.fr/projects/projet-de-loi-numerique/consultation/consultation/opinions/section-3-donnees-d-interet-general/protection-recompense-et-indemnisation-des-lanceurs-d-alertes/versions/protection-du-statut-de-lanceurs-d-alertes-et-precisions-sur-les-moyens-d-obtenir-ce-statut", 
            "id": "15889", 
            "opinion": "1"
        }, 
        {
            "article_title": "Domaine public positif et opposable.", 
            "date": "2015-09-29T14:47:00+0200", 
            "link": "http://www.republique-numerique.fr/projects/projet-de-loi-numerique/consultation/consultation/opinions/section-1-les-communs/article-8-definition-du-domaine-commun-informationnel/versions/domaine-public-positif-et-opposable", 
            "id": "15891", 
            "opinion": "1"
        }, 
        {
            "article_title": "Article 11bis - Transparence des algorithmes utilis\u00e9s par les services publiques et renforcement de la s\u00e9curit\u00e9 en ligne", 
            "date": "2015-09-29T14:47:00+0200", 
            "link": "http://www.republique-numerique.fr/projects/projet-de-loi-numerique/consultation/consultation/opinions/section-1-neutralite-de-l-internet/article-11bis-transparence-des-algorithmes-utilises-par-les-services-publiques", 
            "id": "15893", 
            "opinion": "1"
        }, 
        {
            "article_title": "Inscrire dans la loi le d\u00e9lit de non respect de la neutralit\u00e9 du net", 
            "date": "2015-09-29T14:48:00+0200", 
            "link": "http://www.republique-numerique.fr/projects/projet-de-loi-numerique/consultation/consultation/opinions/section-1-neutralite-de-l-internet/inscrire-dans-la-loi-le-delit-de-non-respect-de-la-neutralite-du-net", 
            "id": "15896", 
            "opinion": "1"
        }, 
        {
            "article_title": "Mettre les m\u00e9dias produits par de l'argent public dans les communs", 
            "date": "2015-09-29T14:48:00+0200", 
            "link": "http://www.republique-numerique.fr/projects/projet-de-loi-numerique/consultation/consultation/opinions/section-1-les-communs/article-8-definition-du-domaine-commun-informationnel/versions/mettre-les-medias-produit-par-de-l-argent-public-dans-les-communs", 
            "id": "15897", 
            "opinion": "1"
        }, 
        {
            "article_title": "Ouverture des d\u00e9penses et recettes d\u00e9taill\u00e9es", 
            "date": "2015-09-29T14:49:00+0200", 
            "link": "http://www.republique-numerique.fr/projects/projet-de-loi-numerique/consultation/consultation/opinions/section-3-donnees-d-interet-general/ouverture-des-depenses-et-recettes-detaillees-de-l-etat", 
            "id": "15899", 
            "opinion": "1"
        }
    ], 
    "sources": [], 
    "votes_count": 18, 
    "arguments": [], 
    "arguments_count": 0, 
    "propositions_count": 0, 
    "contributions_count": 0
}