{
    "modifications": [], 
    "modifications_count": 0, 
    "sources_count": 0, 
    "propositions": [], 
    "votes": [
        {
            "article_title": "Les logiciels pay\u00e9s par le publics (via ses imp\u00f4...", 
            "date": "2015-10-17T11:06:00+0200", 
            "link": "http://www.republique-numerique.fr/projects/projet-de-loi-numerique/consultation/consultation/opinions/section-3-loyaute-des-plateformes/donner-la-priorite-aux-logiciels-libres-et-aux-formats-ouverts-dans-le-service-public-national-et-local#arg-5119", 
            "id": "132303", 
            "opinion": "1"
        }, 
        {
            "article_title": "il semble \u00e9vident qu'il faut privil\u00e9gier les log...", 
            "date": "2015-10-17T11:07:00+0200", 
            "link": "http://www.republique-numerique.fr/projects/projet-de-loi-numerique/consultation/consultation/opinions/section-3-loyaute-des-plateformes/donner-la-priorite-aux-logiciels-libres-et-aux-formats-ouverts-dans-le-service-public-national-et-local#arg-4315", 
            "id": "132322", 
            "opinion": "1"
        }, 
        {
            "article_title": "Nous avons l'exemple du brevet de Daguerre qui fut...", 
            "date": "2015-10-17T11:08:00+0200", 
            "link": "http://www.republique-numerique.fr/projects/projet-de-loi-numerique/consultation/consultation/opinions/section-3-loyaute-des-plateformes/donner-la-priorite-aux-logiciels-libres-et-aux-formats-ouverts-dans-le-service-public-national-et-local#arg-3529", 
            "id": "132338", 
            "opinion": "1"
        }, 
        {
            "article_title": "C. Thierry \u00e9crit \" comparer un logiciel libre et ...", 
            "date": "2015-10-17T11:08:00+0200", 
            "link": "http://www.republique-numerique.fr/projects/projet-de-loi-numerique/consultation/consultation/opinions/section-3-loyaute-des-plateformes/donner-la-priorite-aux-logiciels-libres-et-aux-formats-ouverts-dans-le-service-public-national-et-local#arg-3047", 
            "id": "132342", 
            "opinion": "1"
        }, 
        {
            "article_title": "Les formats ouverts favorisent la concurrence en \ufffd...", 
            "date": "2015-10-17T11:08:00+0200", 
            "link": "http://www.republique-numerique.fr/projects/projet-de-loi-numerique/consultation/consultation/opinions/section-3-loyaute-des-plateformes/donner-la-priorite-aux-logiciels-libres-et-aux-formats-ouverts-dans-le-service-public-national-et-local#arg-2956", 
            "id": "132348", 
            "opinion": "1"
        }, 
        {
            "article_title": "Peut-\u00eatre faudrait-il \u00eatre plus contraignant pou...", 
            "date": "2015-10-17T11:10:00+0200", 
            "link": "http://www.republique-numerique.fr/projects/projet-de-loi-numerique/consultation/consultation/opinions/section-3-loyaute-des-plateformes/donner-la-priorite-aux-logiciels-libres-et-aux-formats-ouverts-dans-le-service-public-national-et-local#arg-2963", 
            "id": "132386", 
            "opinion": "1"
        }, 
        {
            "article_title": "Donner la priorit\u00e9 aux logiciels libres et aux formats ouverts dans le service public national et local", 
            "date": "2015-10-17T11:11:00+0200", 
            "link": "http://www.republique-numerique.fr/projects/projet-de-loi-numerique/consultation/consultation/opinions/section-3-loyaute-des-plateformes/donner-la-priorite-aux-logiciels-libres-et-aux-formats-ouverts-dans-le-service-public-national-et-local", 
            "id": "132404", 
            "opinion": "0"
        }, 
        {
            "article_title": "Tout \u00e0 fait pour.N\u00e9anmoins comment garantir q...", 
            "date": "2015-10-17T11:15:00+0200", 
            "link": "http://www.republique-numerique.fr/projects/projet-de-loi-numerique/consultation/consultation/opinions/section-1-ouverture-des-donnees-publiques-1/le-code-source-d-un-logiciel-est-un-document-administratif-communicable#arg-4284", 
            "id": "132478", 
            "opinion": "1"
        }, 
        {
            "article_title": "Code source publique = garantie que le logiciel ne...", 
            "date": "2015-10-17T11:15:00+0200", 
            "link": "http://www.republique-numerique.fr/projects/projet-de-loi-numerique/consultation/consultation/opinions/section-1-ouverture-des-donnees-publiques-1/le-code-source-d-un-logiciel-est-un-document-administratif-communicable#arg-5122", 
            "id": "132485", 
            "opinion": "1"
        }, 
        {
            "article_title": "Il faudrait pr\u00e9ciser de quels logiciels il faut p...", 
            "date": "2015-10-17T11:15:00+0200", 
            "link": "http://www.republique-numerique.fr/projects/projet-de-loi-numerique/consultation/consultation/opinions/section-1-ouverture-des-donnees-publiques-1/le-code-source-d-un-logiciel-est-un-document-administratif-communicable#arg-4180", 
            "id": "132499", 
            "opinion": "1"
        }, 
        {
            "article_title": "@Patas Le vote \u00e9lectronique est \u00e0 bannir. Il s'a...", 
            "date": "2015-10-17T11:16:00+0200", 
            "link": "http://www.republique-numerique.fr/projects/projet-de-loi-numerique/consultation/consultation/opinions/section-1-ouverture-des-donnees-publiques-1/le-code-source-d-un-logiciel-est-un-document-administratif-communicable#arg-3856", 
            "id": "132511", 
            "opinion": "1"
        }, 
        {
            "article_title": "Que la diffusion du code source ne soit pas une co...", 
            "date": "2015-10-17T11:17:00+0200", 
            "link": "http://www.republique-numerique.fr/projects/projet-de-loi-numerique/consultation/consultation/opinions/section-1-ouverture-des-donnees-publiques-1/le-code-source-d-un-logiciel-est-un-document-administratif-communicable#arg-3801", 
            "id": "132516", 
            "opinion": "1"
        }, 
        {
            "article_title": "Il est important d'ent\u00e9riner dans la loi ce princ...", 
            "date": "2015-10-17T11:18:00+0200", 
            "link": "http://www.republique-numerique.fr/projects/projet-de-loi-numerique/consultation/consultation/opinions/section-1-ouverture-des-donnees-publiques-1/le-code-source-d-un-logiciel-est-un-document-administratif-communicable#arg-2821", 
            "id": "132546", 
            "opinion": "1"
        }, 
        {
            "article_title": "Le code source est effectivement un texte qui docu...", 
            "date": "2015-10-17T11:19:00+0200", 
            "link": "http://www.republique-numerique.fr/projects/projet-de-loi-numerique/consultation/consultation/opinions/section-1-ouverture-des-donnees-publiques-1/le-code-source-d-un-logiciel-est-un-document-administratif-communicable#arg-2698", 
            "id": "132563", 
            "opinion": "1"
        }, 
        {
            "article_title": "Le code source d'un logiciel est un document administratif communicable", 
            "date": "2015-10-17T11:20:00+0200", 
            "link": "http://www.republique-numerique.fr/projects/projet-de-loi-numerique/consultation/consultation/opinions/section-1-ouverture-des-donnees-publiques-1/le-code-source-d-un-logiciel-est-un-document-administratif-communicable", 
            "id": "132575", 
            "opinion": "1"
        }, 
        {
            "article_title": "\"Le syst\u00e8me d'exploitation et les logicels sont l...", 
            "date": "2015-10-17T11:25:00+0200", 
            "link": "http://www.republique-numerique.fr/projects/projet-de-loi-numerique/consultation/consultation/opinions/section-3-donnees-d-interet-general/utilisation-de-gnu-linux-dans-l-administration#arg-4674", 
            "id": "132668", 
            "opinion": "1"
        }, 
        {
            "article_title": "Je pense qu'il est temps de changer de trajectoir...", 
            "date": "2015-10-17T11:25:00+0200", 
            "link": "http://www.republique-numerique.fr/projects/projet-de-loi-numerique/consultation/consultation/opinions/section-3-donnees-d-interet-general/utilisation-de-gnu-linux-dans-l-administration#arg-4477", 
            "id": "132675", 
            "opinion": "1"
        }, 
        {
            "article_title": "les logiciels libres sont suffisamment facile \u00e0 u...", 
            "date": "2015-10-17T11:26:00+0200", 
            "link": "http://www.republique-numerique.fr/projects/projet-de-loi-numerique/consultation/consultation/opinions/section-3-donnees-d-interet-general/utilisation-de-gnu-linux-dans-l-administration#arg-4317", 
            "id": "132685", 
            "opinion": "1"
        }, 
        {
            "article_title": "L'id\u00e9e est excellente, mal r\u00e9dig\u00e9e mais d\u00e9j\u00e0 ...", 
            "date": "2015-10-17T11:27:00+0200", 
            "link": "http://www.republique-numerique.fr/projects/projet-de-loi-numerique/consultation/consultation/opinions/section-3-donnees-d-interet-general/utilisation-de-gnu-linux-dans-l-administration#arg-3958", 
            "id": "132713", 
            "opinion": "1"
        }, 
        {
            "article_title": "R\u00e9ponses \u00e0 Nathalie Musset.\"Si l'intention est l...", 
            "date": "2015-10-17T11:28:00+0200", 
            "link": "http://www.republique-numerique.fr/projects/projet-de-loi-numerique/consultation/consultation/opinions/section-3-donnees-d-interet-general/utilisation-de-gnu-linux-dans-l-administration#arg-3692", 
            "id": "132741", 
            "opinion": "1"
        }, 
        {
            "article_title": "cela \u00e9vite le risque de \"back doors\", c'est trans...", 
            "date": "2015-10-17T11:29:00+0200", 
            "link": "http://www.republique-numerique.fr/projects/projet-de-loi-numerique/consultation/consultation/opinions/section-3-donnees-d-interet-general/utilisation-de-gnu-linux-dans-l-administration#arg-3574", 
            "id": "132747", 
            "opinion": "1"
        }, 
        {
            "article_title": "Je rappelle \u00e0 certains qui hurlent \u00e0 l'entrave \ufffd...", 
            "date": "2015-10-17T11:29:00+0200", 
            "link": "http://www.republique-numerique.fr/projects/projet-de-loi-numerique/consultation/consultation/opinions/section-3-donnees-d-interet-general/utilisation-de-gnu-linux-dans-l-administration#arg-3286", 
            "id": "132755", 
            "opinion": "1"
        }, 
        {
            "article_title": "L'administration devrait aussi justifier syst\u00e9mat...", 
            "date": "2015-10-17T11:30:00+0200", 
            "link": "http://www.republique-numerique.fr/projects/projet-de-loi-numerique/consultation/consultation/opinions/section-3-donnees-d-interet-general/utilisation-de-gnu-linux-dans-l-administration#arg-3033", 
            "id": "132778", 
            "opinion": "1"
        }, 
        {
            "article_title": "Il est \u00e9tonnant que seul la Gendarmerie soit la s...", 
            "date": "2015-10-17T11:32:00+0200", 
            "link": "http://www.republique-numerique.fr/projects/projet-de-loi-numerique/consultation/consultation/opinions/section-3-donnees-d-interet-general/utilisation-de-gnu-linux-dans-l-administration#arg-1938", 
            "id": "132824", 
            "opinion": "1"
        }, 
        {
            "article_title": "En plus de la question \u00e9thique de la fuite des do...", 
            "date": "2015-10-17T11:32:00+0200", 
            "link": "http://www.republique-numerique.fr/projects/projet-de-loi-numerique/consultation/consultation/opinions/section-3-donnees-d-interet-general/utilisation-de-gnu-linux-dans-l-administration#arg-1707", 
            "id": "132835", 
            "opinion": "1"
        }, 
        {
            "article_title": "R\u00e9ponse \u00e0 St\u00e9phane L1)\"Cet article n'a aucun ...", 
            "date": "2015-10-17T11:35:00+0200", 
            "link": "http://www.republique-numerique.fr/projects/projet-de-loi-numerique/consultation/consultation/opinions/section-3-donnees-d-interet-general/utilisation-de-gnu-linux-dans-l-administration#arg-1022", 
            "id": "132929", 
            "opinion": "1"
        }, 
        {
            "article_title": "C'est assez amusant de voir que les personnes r\u00e9d...", 
            "date": "2015-10-17T11:36:00+0200", 
            "link": "http://www.republique-numerique.fr/projects/projet-de-loi-numerique/consultation/consultation/opinions/section-3-donnees-d-interet-general/utilisation-de-gnu-linux-dans-l-administration#arg-757", 
            "id": "132952", 
            "opinion": "1"
        }, 
        {
            "article_title": "R\u00e9ponses \u00e0 CLEMENT :1) \"Linux une vaste blague ...", 
            "date": "2015-10-17T11:38:00+0200", 
            "link": "http://www.republique-numerique.fr/projects/projet-de-loi-numerique/consultation/consultation/opinions/section-3-donnees-d-interet-general/utilisation-de-gnu-linux-dans-l-administration#arg-655", 
            "id": "133012", 
            "opinion": "1"
        }, 
        {
            "article_title": "[Je ne vise pas que les syst\u00e8mes d'exploitation, ...", 
            "date": "2015-10-17T11:42:00+0200", 
            "link": "http://www.republique-numerique.fr/projects/projet-de-loi-numerique/consultation/consultation/opinions/section-3-donnees-d-interet-general/utilisation-de-gnu-linux-dans-l-administration#arg-649", 
            "id": "133116", 
            "opinion": "1"
        }, 
        {
            "article_title": "Attention \u00e0 ne pas partir sur une fausse piste: L...", 
            "date": "2015-10-17T11:44:00+0200", 
            "link": "http://www.republique-numerique.fr/projects/projet-de-loi-numerique/consultation/consultation/opinions/section-3-donnees-d-interet-general/utilisation-de-gnu-linux-dans-l-administration#arg-526", 
            "id": "133142", 
            "opinion": "1"
        }, 
        {
            "article_title": "Utiliser et promouvoir les logiciels libres. Lorsq...", 
            "date": "2015-10-17T11:45:00+0200", 
            "link": "http://www.republique-numerique.fr/projects/projet-de-loi-numerique/consultation/consultation/opinions/section-3-donnees-d-interet-general/utilisation-de-gnu-linux-dans-l-administration#arg-197", 
            "id": "133171", 
            "opinion": "1"
        }, 
        {
            "article_title": "Plusieurs services de l'\u00e9tat utilisent d\u00e9j\u00e0 GNU...", 
            "date": "2015-10-17T11:46:00+0200", 
            "link": "http://www.republique-numerique.fr/projects/projet-de-loi-numerique/consultation/consultation/opinions/section-3-donnees-d-interet-general/utilisation-de-gnu-linux-dans-l-administration#arg-178", 
            "id": "133185", 
            "opinion": "1"
        }, 
        {
            "article_title": "Oui l\u2019utilisation des OS libres est une n\u00e9cessi...", 
            "date": "2015-10-17T11:46:00+0200", 
            "link": "http://www.republique-numerique.fr/projects/projet-de-loi-numerique/consultation/consultation/opinions/section-3-donnees-d-interet-general/utilisation-de-gnu-linux-dans-l-administration#arg-164", 
            "id": "133198", 
            "opinion": "1"
        }, 
        {
            "article_title": "Le choix d'un syst\u00e8me au niveau d'une loi est res...", 
            "date": "2015-10-17T11:48:00+0200", 
            "link": "http://www.republique-numerique.fr/projects/projet-de-loi-numerique/consultation/consultation/opinions/section-3-donnees-d-interet-general/utilisation-de-gnu-linux-dans-l-administration#arg-2700", 
            "id": "133245", 
            "opinion": "1"
        }, 
        {
            "article_title": "Linux n'est pas plus compliqu\u00e9 de Windows, c'est ...", 
            "date": "2015-10-17T12:16:00+0200", 
            "link": "http://www.republique-numerique.fr/projects/projet-de-loi-numerique/consultation/consultation/opinions/section-2-service-public-de-la-donnee-1/utiliser-les-logiciels-libres-gnu-linux-dans-les-ecoles-et-les-universites#arg-4593", 
            "id": "134046", 
            "opinion": "1"
        }, 
        {
            "article_title": "Encore trop de personnes associent GNU/Linux \u00e0 un...", 
            "date": "2015-10-17T12:16:00+0200", 
            "link": "http://www.republique-numerique.fr/projects/projet-de-loi-numerique/consultation/consultation/opinions/section-2-service-public-de-la-donnee-1/utiliser-les-logiciels-libres-gnu-linux-dans-les-ecoles-et-les-universites#arg-4635", 
            "id": "134047", 
            "opinion": "1"
        }, 
        {
            "article_title": "les logiciels libres garantissent l'ind\u00e9pendance ...", 
            "date": "2015-10-17T12:19:00+0200", 
            "link": "http://www.republique-numerique.fr/projects/projet-de-loi-numerique/consultation/consultation/opinions/section-2-service-public-de-la-donnee-1/utiliser-les-logiciels-libres-gnu-linux-dans-les-ecoles-et-les-universites#arg-3570", 
            "id": "134129", 
            "opinion": "1"
        }, 
        {
            "article_title": "@Karima: Non c'est faux, on peut faire du libre po...", 
            "date": "2015-10-17T12:23:00+0200", 
            "link": "http://www.republique-numerique.fr/projects/projet-de-loi-numerique/consultation/consultation/opinions/section-2-service-public-de-la-donnee-1/utiliser-les-logiciels-libres-gnu-linux-dans-les-ecoles-et-les-universites#arg-3468", 
            "id": "134213", 
            "opinion": "1"
        }, 
        {
            "article_title": "Les logiciels libres peuvent d\u00e9j\u00e0 \u00eatre utilis\u00e9...", 
            "date": "2015-10-17T12:24:00+0200", 
            "link": "http://www.republique-numerique.fr/projects/projet-de-loi-numerique/consultation/consultation/opinions/section-2-service-public-de-la-donnee-1/utiliser-les-logiciels-libres-gnu-linux-dans-les-ecoles-et-les-universites#arg-3337", 
            "id": "134226", 
            "opinion": "1"
        }, 
        {
            "article_title": "Les postes dans les gendarmeries sont d\u00e9j\u00e0 sous ...", 
            "date": "2015-10-17T12:26:00+0200", 
            "link": "http://www.republique-numerique.fr/projects/projet-de-loi-numerique/consultation/consultation/opinions/section-2-service-public-de-la-donnee-1/utiliser-les-logiciels-libres-gnu-linux-dans-les-ecoles-et-les-universites#arg-3270", 
            "id": "134256", 
            "opinion": "1"
        }, 
        {
            "article_title": "L'utilisation de logiciels libres devrait \u00eatre un...", 
            "date": "2015-10-17T12:28:00+0200", 
            "link": "http://www.republique-numerique.fr/projects/projet-de-loi-numerique/consultation/consultation/opinions/section-2-service-public-de-la-donnee-1/utiliser-les-logiciels-libres-gnu-linux-dans-les-ecoles-et-les-universites#arg-3119", 
            "id": "134292", 
            "opinion": "1"
        }, 
        {
            "article_title": "@ Phay Syvoun :Avez-vous utilis\u00e9 une version r\ufffd...", 
            "date": "2015-10-17T12:29:00+0200", 
            "link": "http://www.republique-numerique.fr/projects/projet-de-loi-numerique/consultation/consultation/opinions/section-2-service-public-de-la-donnee-1/utiliser-les-logiciels-libres-gnu-linux-dans-les-ecoles-et-les-universites#arg-2805", 
            "id": "134322", 
            "opinion": "1"
        }, 
        {
            "article_title": "La maintenance et le support pourrait se faire aup...", 
            "date": "2015-10-17T12:29:00+0200", 
            "link": "http://www.republique-numerique.fr/projects/projet-de-loi-numerique/consultation/consultation/opinions/section-2-service-public-de-la-donnee-1/utiliser-les-logiciels-libres-gnu-linux-dans-les-ecoles-et-les-universites#arg-2675", 
            "id": "134331", 
            "opinion": "1"
        }, 
        {
            "article_title": "L'\u00e9ducation nationale n'a pas vocation \u00e0 former ...", 
            "date": "2015-10-17T12:29:00+0200", 
            "link": "http://www.republique-numerique.fr/projects/projet-de-loi-numerique/consultation/consultation/opinions/section-2-service-public-de-la-donnee-1/utiliser-les-logiciels-libres-gnu-linux-dans-les-ecoles-et-les-universites#arg-2671", 
            "id": "134336", 
            "opinion": "1"
        }, 
        {
            "article_title": "Il ne faut pas engendrer de d\u00e9pendance envers les...", 
            "date": "2015-10-17T12:31:00+0200", 
            "link": "http://www.republique-numerique.fr/projects/projet-de-loi-numerique/consultation/consultation/opinions/section-2-service-public-de-la-donnee-1/utiliser-les-logiciels-libres-gnu-linux-dans-les-ecoles-et-les-universites#arg-2366", 
            "id": "134363", 
            "opinion": "1"
        }, 
        {
            "article_title": "L'utilisation et les mises a jour constantes de mi...", 
            "date": "2015-10-17T12:31:00+0200", 
            "link": "http://www.republique-numerique.fr/projects/projet-de-loi-numerique/consultation/consultation/opinions/section-2-service-public-de-la-donnee-1/utiliser-les-logiciels-libres-gnu-linux-dans-les-ecoles-et-les-universites#arg-2299", 
            "id": "134375", 
            "opinion": "1"
        }, 
        {
            "article_title": "C'est meme super pour les couts de maintenance car...", 
            "date": "2015-10-17T12:32:00+0200", 
            "link": "http://www.republique-numerique.fr/projects/projet-de-loi-numerique/consultation/consultation/opinions/section-2-service-public-de-la-donnee-1/utiliser-les-logiciels-libres-gnu-linux-dans-les-ecoles-et-les-universites#arg-2238", 
            "id": "134379", 
            "opinion": "1"
        }, 
        {
            "article_title": "Meme en forcant le Libre, le choix EST libre. Les ...", 
            "date": "2015-10-17T12:32:00+0200", 
            "link": "http://www.republique-numerique.fr/projects/projet-de-loi-numerique/consultation/consultation/opinions/section-2-service-public-de-la-donnee-1/utiliser-les-logiciels-libres-gnu-linux-dans-les-ecoles-et-les-universites#arg-2237", 
            "id": "134382", 
            "opinion": "1"
        }, 
        {
            "article_title": "Pour bosser sur des savoirs libres, il faut du lib...", 
            "date": "2015-10-17T12:32:00+0200", 
            "link": "http://www.republique-numerique.fr/projects/projet-de-loi-numerique/consultation/consultation/opinions/section-2-service-public-de-la-donnee-1/utiliser-les-logiciels-libres-gnu-linux-dans-les-ecoles-et-les-universites#arg-2236", 
            "id": "134390", 
            "opinion": "1"
        }, 
        {
            "article_title": "Depuis Windows 10, son bridage et son intrusion da...", 
            "date": "2015-10-17T12:33:00+0200", 
            "link": "http://www.republique-numerique.fr/projects/projet-de-loi-numerique/consultation/consultation/opinions/section-2-service-public-de-la-donnee-1/utiliser-les-logiciels-libres-gnu-linux-dans-les-ecoles-et-les-universites#arg-2031", 
            "id": "134418", 
            "opinion": "1"
        }, 
        {
            "article_title": "Tr\u00e8s bonne id\u00e9e. Ma m\u00e9diath\u00e8que est sous un sy...", 
            "date": "2015-10-17T12:34:00+0200", 
            "link": "http://www.republique-numerique.fr/projects/projet-de-loi-numerique/consultation/consultation/opinions/section-2-service-public-de-la-donnee-1/utiliser-les-logiciels-libres-gnu-linux-dans-les-ecoles-et-les-universites#arg-2024", 
            "id": "134433", 
            "opinion": "1"
        }, 
        {
            "article_title": "Plusieurs param\u00e8tres devraient encourager l\u2019\u00c9t...", 
            "date": "2015-10-17T12:34:00+0200", 
            "link": "http://www.republique-numerique.fr/projects/projet-de-loi-numerique/consultation/consultation/opinions/section-2-service-public-de-la-donnee-1/utiliser-les-logiciels-libres-gnu-linux-dans-les-ecoles-et-les-universites#arg-1761", 
            "id": "134446", 
            "opinion": "1"
        }, 
        {
            "article_title": "(avis en deux parties : 1/2)Les arguments en fav...", 
            "date": "2015-10-17T12:37:00+0200", 
            "link": "http://www.republique-numerique.fr/projects/projet-de-loi-numerique/consultation/consultation/opinions/section-2-service-public-de-la-donnee-1/utiliser-les-logiciels-libres-gnu-linux-dans-les-ecoles-et-les-universites#arg-1594", 
            "id": "134528", 
            "opinion": "1"
        }, 
        {
            "article_title": "Les Universit\u00e9 sont majoritairement d\u00e9j\u00e0 sous L...", 
            "date": "2015-10-17T13:40:00+0200", 
            "link": "http://www.republique-numerique.fr/projects/projet-de-loi-numerique/consultation/consultation/opinions/section-2-service-public-de-la-donnee-1/utiliser-les-logiciels-libres-gnu-linux-dans-les-ecoles-et-les-universites#arg-1130", 
            "id": "136059", 
            "opinion": "1"
        }, 
        {
            "article_title": "L incitation ne fonctionne pas. Il faut imposer,...", 
            "date": "2015-10-17T13:40:00+0200", 
            "link": "http://www.republique-numerique.fr/projects/projet-de-loi-numerique/consultation/consultation/opinions/section-2-service-public-de-la-donnee-1/utiliser-les-logiciels-libres-gnu-linux-dans-les-ecoles-et-les-universites#arg-1043", 
            "id": "136070", 
            "opinion": "1"
        }, 
        {
            "article_title": "Id\u00e9e salutaire, il est pr\u00e9f\u00e9rable d'avoir \u00e0 ap...", 
            "date": "2015-10-17T13:41:00+0200", 
            "link": "http://www.republique-numerique.fr/projects/projet-de-loi-numerique/consultation/consultation/opinions/section-2-service-public-de-la-donnee-1/utiliser-les-logiciels-libres-gnu-linux-dans-les-ecoles-et-les-universites#arg-973", 
            "id": "136138", 
            "opinion": "1"
        }, 
        {
            "article_title": "@Eric Heliot :Faire s'affronter les deux mod\u00e8les...", 
            "date": "2015-10-17T13:42:00+0200", 
            "link": "http://www.republique-numerique.fr/projects/projet-de-loi-numerique/consultation/consultation/opinions/section-2-service-public-de-la-donnee-1/utiliser-les-logiciels-libres-gnu-linux-dans-les-ecoles-et-les-universites#arg-891", 
            "id": "136154", 
            "opinion": "1"
        }, 
        {
            "article_title": "@Alex Hoyau, la situation actuelle avec l'informat...", 
            "date": "2015-10-17T13:42:00+0200", 
            "link": "http://www.republique-numerique.fr/projects/projet-de-loi-numerique/consultation/consultation/opinions/section-2-service-public-de-la-donnee-1/utiliser-les-logiciels-libres-gnu-linux-dans-les-ecoles-et-les-universites#arg-883", 
            "id": "136157", 
            "opinion": "1"
        }, 
        {
            "article_title": "Les logiciels libres incitent \u00e0 la participation,...", 
            "date": "2015-10-17T13:43:00+0200", 
            "link": "http://www.republique-numerique.fr/projects/projet-de-loi-numerique/consultation/consultation/opinions/section-2-service-public-de-la-donnee-1/utiliser-les-logiciels-libres-gnu-linux-dans-les-ecoles-et-les-universites#arg-880", 
            "id": "136162", 
            "opinion": "1"
        }, 
        {
            "article_title": "On pourrait m\u00eame l'\u00e9tendre \u00e0 l'ensemble des adm...", 
            "date": "2015-10-17T13:43:00+0200", 
            "link": "http://www.republique-numerique.fr/projects/projet-de-loi-numerique/consultation/consultation/opinions/section-2-service-public-de-la-donnee-1/utiliser-les-logiciels-libres-gnu-linux-dans-les-ecoles-et-les-universites#arg-917", 
            "id": "136168", 
            "opinion": "1"
        }, 
        {
            "article_title": "tout a fait daccord avecl'article, actuellement c ...", 
            "date": "2015-10-17T13:45:00+0200", 
            "link": "http://www.republique-numerique.fr/projects/projet-de-loi-numerique/consultation/consultation/opinions/section-2-service-public-de-la-donnee-1/utiliser-les-logiciels-libres-gnu-linux-dans-les-ecoles-et-les-universites#arg-668", 
            "id": "136218", 
            "opinion": "1"
        }, 
        {
            "article_title": "10 arguments pour le logiciel libre- Licences gr...", 
            "date": "2015-10-17T13:46:00+0200", 
            "link": "http://www.republique-numerique.fr/projects/projet-de-loi-numerique/consultation/consultation/opinions/section-2-service-public-de-la-donnee-1/utiliser-les-logiciels-libres-gnu-linux-dans-les-ecoles-et-les-universites#arg-524", 
            "id": "136240", 
            "opinion": "1"
        }, 
        {
            "article_title": "Utiliser les logiciels libres & GNU/Linux dans les \u00e9coles et les universit\u00e9s", 
            "date": "2015-10-17T13:56:00+0200", 
            "link": "http://www.republique-numerique.fr/projects/projet-de-loi-numerique/consultation/consultation/opinions/section-2-service-public-de-la-donnee-1/utiliser-les-logiciels-libres-gnu-linux-dans-les-ecoles-et-les-universites", 
            "id": "136397", 
            "opinion": "1"
        }, 
        {
            "article_title": "Acqu\u00e9rir mat\u00e9riels, syst\u00e8me d\u2019exploitation et...", 
            "date": "2015-10-17T14:03:00+0200", 
            "link": "http://www.republique-numerique.fr/projects/projet-de-loi-numerique/consultation/consultation/opinions/section-2-confidentialite-des-correspondances-privees/protection-des-correspondants#arg-3045", 
            "id": "136534", 
            "opinion": "1"
        }, 
        {
            "article_title": "Cet article est l'occasion d'en finir avec cette p...", 
            "date": "2015-10-17T14:04:00+0200", 
            "link": "http://www.republique-numerique.fr/projects/projet-de-loi-numerique/consultation/consultation/opinions/section-2-confidentialite-des-correspondances-privees/protection-des-correspondants#arg-2972", 
            "id": "136548", 
            "opinion": "1"
        }, 
        {
            "article_title": "Protection des correspondants", 
            "date": "2015-10-17T14:04:00+0200", 
            "link": "http://www.republique-numerique.fr/projects/projet-de-loi-numerique/consultation/consultation/opinions/section-2-confidentialite-des-correspondances-privees/protection-des-correspondants", 
            "id": "136553", 
            "opinion": "1"
        }, 
        {
            "article_title": "La vente li\u00e9e est d\u00e9j\u00e0 interdite.Cet article n'...", 
            "date": "2015-10-17T14:09:00+0200", 
            "link": "http://www.republique-numerique.fr/projects/projet-de-loi-numerique/consultation/consultation/opinions/section-3-loyaute-des-plateformes/interdiction-de-la-vente-liee-ordinateur-systeme-d-exploitation#arg-3035", 
            "id": "136651", 
            "opinion": "1"
        }, 
        {
            "article_title": "mouais... C'est aussi Apple qui est dans le colima...", 
            "date": "2015-10-17T14:09:00+0200", 
            "link": "http://www.republique-numerique.fr/projects/projet-de-loi-numerique/consultation/consultation/opinions/section-3-loyaute-des-plateformes/interdiction-de-la-vente-liee-ordinateur-systeme-d-exploitation#arg-2726", 
            "id": "136652", 
            "opinion": "1"
        }, 
        {
            "article_title": "Proposition purement id\u00e9ologique : il est d\u00e9j\u00e0 ...", 
            "date": "2015-10-17T14:09:00+0200", 
            "link": "http://www.republique-numerique.fr/projects/projet-de-loi-numerique/consultation/consultation/opinions/section-3-loyaute-des-plateformes/interdiction-de-la-vente-liee-ordinateur-systeme-d-exploitation#arg-2534", 
            "id": "136654", 
            "opinion": "1"
        }, 
        {
            "article_title": "laisser le choix aux utilisateurs car nous ne somm...", 
            "date": "2015-10-17T14:10:00+0200", 
            "link": "http://www.republique-numerique.fr/projects/projet-de-loi-numerique/consultation/consultation/opinions/section-3-loyaute-des-plateformes/interdiction-de-la-vente-liee-ordinateur-systeme-d-exploitation#arg-1845", 
            "id": "136660", 
            "opinion": "1"
        }, 
        {
            "article_title": "Je pense plus qu'il devrait y avoir un choix laiss...", 
            "date": "2015-10-17T14:12:00+0200", 
            "link": "http://www.republique-numerique.fr/projects/projet-de-loi-numerique/consultation/consultation/opinions/section-3-loyaute-des-plateformes/interdiction-de-la-vente-liee-ordinateur-systeme-d-exploitation#arg-676", 
            "id": "136722", 
            "opinion": "1"
        }, 
        {
            "article_title": "Pas d'interdiction, un ordinateur doit \u00eatre achet...", 
            "date": "2015-10-17T14:12:00+0200", 
            "link": "http://www.republique-numerique.fr/projects/projet-de-loi-numerique/consultation/consultation/opinions/section-3-loyaute-des-plateformes/interdiction-de-la-vente-liee-ordinateur-systeme-d-exploitation#arg-954", 
            "id": "136725", 
            "opinion": "1"
        }, 
        {
            "article_title": "C'est beaucoup trop restrictif si on le cantonne a...", 
            "date": "2015-10-17T14:13:00+0200", 
            "link": "http://www.republique-numerique.fr/projects/projet-de-loi-numerique/consultation/consultation/opinions/section-3-loyaute-des-plateformes/interdiction-de-la-vente-liee-ordinateur-systeme-d-exploitation#arg-1150", 
            "id": "136727", 
            "opinion": "1"
        }, 
        {
            "article_title": "Pouvoir utiliser un OS diff\u00e9rent (notamment sur l...", 
            "date": "2015-10-17T14:13:00+0200", 
            "link": "http://www.republique-numerique.fr/projects/projet-de-loi-numerique/consultation/consultation/opinions/section-3-loyaute-des-plateformes/interdiction-de-la-vente-liee-ordinateur-systeme-d-exploitation#arg-1378", 
            "id": "136733", 
            "opinion": "1"
        }, 
        {
            "article_title": "Interdire cette vente li\u00e9e serait rajouter un obs...", 
            "date": "2015-10-17T14:13:00+0200", 
            "link": "http://www.republique-numerique.fr/projects/projet-de-loi-numerique/consultation/consultation/opinions/section-3-loyaute-des-plateformes/interdiction-de-la-vente-liee-ordinateur-systeme-d-exploitation#arg-654", 
            "id": "136737", 
            "opinion": "1"
        }, 
        {
            "article_title": "Cela permettrait d'am\u00e9liorer la qualit\u00e9 comptabl...", 
            "date": "2015-10-17T14:18:00+0200", 
            "link": "http://www.republique-numerique.fr/projects/projet-de-loi-numerique/consultation/consultation/opinions/section-3-loyaute-des-plateformes/interdiction-de-la-vente-liee-ordinateur-systeme-d-exploitation#arg-3709", 
            "id": "136828", 
            "opinion": "1"
        }, 
        {
            "article_title": "La loi interdit actuellement la vente li\u00e9e. MAIS ...", 
            "date": "2015-10-17T14:19:00+0200", 
            "link": "http://www.republique-numerique.fr/projects/projet-de-loi-numerique/consultation/consultation/opinions/section-3-loyaute-des-plateformes/interdiction-de-la-vente-liee-ordinateur-systeme-d-exploitation#arg-3361", 
            "id": "136840", 
            "opinion": "1"
        }, 
        {
            "article_title": "La vente li\u00e9e est d\u00e9j\u00e0 interdite en France et e...", 
            "date": "2015-10-17T14:19:00+0200", 
            "link": "http://www.republique-numerique.fr/projects/projet-de-loi-numerique/consultation/consultation/opinions/section-3-loyaute-des-plateformes/interdiction-de-la-vente-liee-ordinateur-systeme-d-exploitation#arg-3295", 
            "id": "136841", 
            "opinion": "1"
        }, 
        {
            "article_title": "A tous ceux qui expriment le fait que la vente li\ufffd...", 
            "date": "2015-10-17T14:20:00+0200", 
            "link": "http://www.republique-numerique.fr/projects/projet-de-loi-numerique/consultation/consultation/opinions/section-3-loyaute-des-plateformes/interdiction-de-la-vente-liee-ordinateur-systeme-d-exploitation#arg-3253", 
            "id": "136852", 
            "opinion": "1"
        }, 
        {
            "article_title": "pour r\u00e9pondre \u00e0 nicolas joly, il faudrait un cas...", 
            "date": "2015-10-17T14:21:00+0200", 
            "link": "http://www.republique-numerique.fr/projects/projet-de-loi-numerique/consultation/consultation/opinions/section-3-loyaute-des-plateformes/interdiction-de-la-vente-liee-ordinateur-systeme-d-exploitation#arg-2810", 
            "id": "136870", 
            "opinion": "1"
        }, 
        {
            "article_title": "Choisir un ordinateur c'est compliqu\u00e9 : Budget, m...", 
            "date": "2015-10-17T14:21:00+0200", 
            "link": "http://www.republique-numerique.fr/projects/projet-de-loi-numerique/consultation/consultation/opinions/section-3-loyaute-des-plateformes/interdiction-de-la-vente-liee-ordinateur-systeme-d-exploitation#arg-2677", 
            "id": "136876", 
            "opinion": "1"
        }, 
        {
            "article_title": "Microsoft l'annonce lui m\u00eame que Windows 10 est c...", 
            "date": "2015-10-17T14:21:00+0200", 
            "link": "http://www.republique-numerique.fr/projects/projet-de-loi-numerique/consultation/consultation/opinions/section-3-loyaute-des-plateformes/interdiction-de-la-vente-liee-ordinateur-systeme-d-exploitation#arg-2676", 
            "id": "136895", 
            "opinion": "1"
        }, 
        {
            "article_title": "@Claude Vous avez jet\u00e9 un \u0153il sur les sources?V...", 
            "date": "2015-10-17T14:22:00+0200", 
            "link": "http://www.republique-numerique.fr/projects/projet-de-loi-numerique/consultation/consultation/opinions/section-3-loyaute-des-plateformes/interdiction-de-la-vente-liee-ordinateur-systeme-d-exploitation#arg-2547", 
            "id": "136910", 
            "opinion": "1"
        }, 
        {
            "article_title": "Plusieurs arguments contre ne tiennent pas la rout...", 
            "date": "2015-10-17T14:24:00+0200", 
            "link": "http://www.republique-numerique.fr/projects/projet-de-loi-numerique/consultation/consultation/opinions/section-3-loyaute-des-plateformes/interdiction-de-la-vente-liee-ordinateur-systeme-d-exploitation#arg-1370", 
            "id": "136972", 
            "opinion": "1"
        }, 
        {
            "article_title": "Le client devrait avoir le droit de refuser de se ...", 
            "date": "2015-10-17T14:25:00+0200", 
            "link": "http://www.republique-numerique.fr/projects/projet-de-loi-numerique/consultation/consultation/opinions/section-3-loyaute-des-plateformes/interdiction-de-la-vente-liee-ordinateur-systeme-d-exploitation#arg-1054", 
            "id": "136982", 
            "opinion": "1"
        }, 
        {
            "article_title": "Il faut effectivement que syst\u00e8me et hardware soi...", 
            "date": "2015-10-17T14:26:00+0200", 
            "link": "http://www.republique-numerique.fr/projects/projet-de-loi-numerique/consultation/consultation/opinions/section-3-loyaute-des-plateformes/interdiction-de-la-vente-liee-ordinateur-systeme-d-exploitation#arg-664", 
            "id": "136995", 
            "opinion": "1"
        }, 
        {
            "article_title": "Microsoft a trop abus\u00e9 dans ce domaine et aujourd...", 
            "date": "2015-10-17T14:26:00+0200", 
            "link": "http://www.republique-numerique.fr/projects/projet-de-loi-numerique/consultation/consultation/opinions/section-3-loyaute-des-plateformes/interdiction-de-la-vente-liee-ordinateur-systeme-d-exploitation#arg-617", 
            "id": "136997", 
            "opinion": "1"
        }, 
        {
            "article_title": "Interdiction de la vente li\u00e9e ordinateur/syst\u00e8me d'exploitation", 
            "date": "2015-10-17T14:26:00+0200", 
            "link": "http://www.republique-numerique.fr/projects/projet-de-loi-numerique/consultation/consultation/opinions/section-3-loyaute-des-plateformes/interdiction-de-la-vente-liee-ordinateur-systeme-d-exploitation", 
            "id": "137006", 
            "opinion": "0"
        }
    ], 
    "sources": [], 
    "votes_count": 88, 
    "arguments": [], 
    "arguments_count": 0, 
    "propositions_count": 0, 
    "contributions_count": 0
}