{
    "modifications": [
        {
            "stats": {
                "vote": "0", 
                "source": "0", 
                "argument": "0"
            }, 
            "votes": {
                "data-ok": "0", 
                "data-mitige": "0", 
                "data-nok": "0"
            }, 
            "link": "/projects/projet-de-loi-numerique/consultation/consultation/opinions/section-1-ouverture-des-donnees-publiques-1/article-1-elargissement-du-champ-de-diffusion-par-l-administration/versions/le-limitations", 
            "id": "1395", 
            "title": "le limitations ..."
        }, 
        {
            "stats": {
                "vote": "0", 
                "source": "0", 
                "argument": "0"
            }, 
            "votes": {
                "data-ok": "0", 
                "data-mitige": "0", 
                "data-nok": "0"
            }, 
            "link": "/projects/projet-de-loi-numerique/consultation/consultation/opinions/section-1-ouverture-des-donnees-publiques-1/article-2-principe-de-libre-reutilisation-des-donnees-pour-les-spic/versions/ouvrir-la-loi-ne-pas-mettre-des-limites-dans-un-champ-d-activite-qui-en-met-deja-trop", 
            "id": "1396", 
            "title": "ouvrir la loi ne pas mettre des limites dans un champ d'activit\u00e9 qui en met d\u00e9j\u00e0 trop"
        }, 
        {
            "stats": {
                "vote": "0", 
                "source": "0", 
                "argument": "0"
            }, 
            "votes": {
                "data-ok": "0", 
                "data-mitige": "0", 
                "data-nok": "0"
            }, 
            "link": "/projects/projet-de-loi-numerique/consultation/consultation/opinions/section-1-ouverture-des-donnees-publiques-1/article-3-dispositions-diverses/versions/simplifier-la-loi", 
            "id": "1400", 
            "title": "simplifier la loi"
        }, 
        {
            "stats": {
                "vote": "0", 
                "source": "0", 
                "argument": "0"
            }, 
            "votes": {
                "data-ok": "0", 
                "data-mitige": "0", 
                "data-nok": "0"
            }, 
            "link": "/projects/projet-de-loi-numerique/consultation/consultation/opinions/section-1-ouverture-des-donnees-publiques-1/ecole-entreprise-reunion/versions/ouvrir-les-classes-des-le-college-et-non-le-lycee-vers-les-logiciels-libres", 
            "id": "1401", 
            "title": "ouvrir les classes d\u00e9s le coll\u00e8ge et non le lyc\u00e9e vers les logiciels libres."
        }, 
        {
            "stats": {
                "vote": "0", 
                "source": "0", 
                "argument": "0"
            }, 
            "votes": {
                "data-ok": "0", 
                "data-mitige": "0", 
                "data-nok": "0"
            }, 
            "link": "/projects/projet-de-loi-numerique/consultation/consultation/opinions/section-1-ouverture-des-donnees-publiques-1/le-vote-par-internet/versions/pas-de-numerisation-des-citoyens", 
            "id": "1402", 
            "title": "pas de num\u00e9risation des citoyens"
        }, 
        {
            "stats": {
                "vote": "0", 
                "source": "0", 
                "argument": "0"
            }, 
            "votes": {
                "data-ok": "0", 
                "data-mitige": "0", 
                "data-nok": "0"
            }, 
            "link": "/projects/projet-de-loi-numerique/consultation/consultation/opinions/section-1-ouverture-des-donnees-publiques-1/article-numero-a-incrementer-de-l-acces-au-code-source/versions/modification-de-la-portee-de-la-loi", 
            "id": "1404", 
            "title": "modification de la port\u00e9e de la loi"
        }, 
        {
            "stats": {
                "vote": "0", 
                "source": "0", 
                "argument": "0"
            }, 
            "votes": {
                "data-ok": "0", 
                "data-mitige": "0", 
                "data-nok": "0"
            }, 
            "link": "/projects/projet-de-loi-numerique/consultation/consultation/opinions/section-1-ouverture-des-donnees-publiques-1/digitalisation-de-l-appareil-d-etat/versions/termes-utilises", 
            "id": "1405", 
            "title": "termes utilis\u00e9s"
        }, 
        {
            "stats": {
                "vote": "1", 
                "source": "0", 
                "argument": "0"
            }, 
            "votes": {
                "data-ok": "1", 
                "data-mitige": "0", 
                "data-nok": "0"
            }, 
            "link": "/projects/projet-de-loi-numerique/consultation/consultation/opinions/section-1-ouverture-des-donnees-publiques-1/licence-publique-a-reciprocite-renforcee-usage-differencie-de-la-donnee-publique/versions/pas-de-delai-de-restitution-passage-obligatoire-par-la-cnil-avant-transmission", 
            "id": "1406", 
            "title": "pas de d\u00e9lai de restitution, passage obligatoire par la CNIL avant transmission"
        }
    ], 
    "modifications_count": 8, 
    "sources_count": 0, 
    "propositions": [], 
    "votes": [
        {
            "article_title": "Article 2 - Libre r\u00e9utilisation des donn\u00e9es des services publics industriels et commerciaux", 
            "date": "2015-10-18T21:06:00+0200", 
            "link": "http://www.republique-numerique.fr/projects/projet-de-loi-numerique/consultation/consultation/opinions/section-1-ouverture-des-donnees-publiques-1/article-2-principe-de-libre-reutilisation-des-donnees-pour-les-spic", 
            "id": "162177", 
            "opinion": "-1"
        }, 
        {
            "article_title": "Article 3 - Droit d\u2019acc\u00e8s des organismes publics aux donn\u00e9es publiques & de r\u00e9utilisation d\u2019informations comportant des donn\u00e9es personnelles d\u00e9j\u00e0 publi\u00e9es", 
            "date": "2015-10-18T21:10:00+0200", 
            "link": "http://www.republique-numerique.fr/projects/projet-de-loi-numerique/consultation/consultation/opinions/section-1-ouverture-des-donnees-publiques-1/article-3-dispositions-diverses", 
            "id": "162289", 
            "opinion": "-1"
        }, 
        {
            "article_title": "Ecole entreprise R\u00e9union", 
            "date": "2015-10-18T21:19:00+0200", 
            "link": "http://www.republique-numerique.fr/projects/projet-de-loi-numerique/consultation/consultation/opinions/section-1-ouverture-des-donnees-publiques-1/ecole-entreprise-reunion", 
            "id": "162446", 
            "opinion": "0"
        }, 
        {
            "article_title": "Ouvrir les donn\u00e9es ayant servi \u00e0 la r\u00e9daction d'un rapport publique", 
            "date": "2015-10-18T21:23:00+0200", 
            "link": "http://www.republique-numerique.fr/projects/projet-de-loi-numerique/consultation/consultation/opinions/section-1-ouverture-des-donnees-publiques-1/ouvrir-les-donnees-ayant-servi-a-la-redaction-d-un-rapport-publique", 
            "id": "162535", 
            "opinion": "1"
        }, 
        {
            "article_title": "Le Vote par internet", 
            "date": "2015-10-18T21:23:00+0200", 
            "link": "http://www.republique-numerique.fr/projects/projet-de-loi-numerique/consultation/consultation/opinions/section-1-ouverture-des-donnees-publiques-1/le-vote-par-internet", 
            "id": "162555", 
            "opinion": "-1"
        }, 
        {
            "article_title": "ouverture du code des algorithmes publics", 
            "date": "2015-10-18T21:27:00+0200", 
            "link": "http://www.republique-numerique.fr/projects/projet-de-loi-numerique/consultation/consultation/opinions/section-1-ouverture-des-donnees-publiques-1/ouverture-du-code-des-algorithmes-publics", 
            "id": "162653", 
            "opinion": "1"
        }, 
        {
            "article_title": "Suppression de la taxe copie priv\u00e9e", 
            "date": "2015-10-18T21:28:00+0200", 
            "link": "http://www.republique-numerique.fr/projects/projet-de-loi-numerique/consultation/consultation/opinions/section-1-ouverture-des-donnees-publiques-1/suppression-de-la-taxe-copie-privee", 
            "id": "162687", 
            "opinion": "1"
        }, 
        {
            "article_title": "Strat\u00e9gie territoriale de services num\u00e9riques", 
            "date": "2015-10-18T21:30:00+0200", 
            "link": "http://www.republique-numerique.fr/projects/projet-de-loi-numerique/consultation/consultation/opinions/section-1-ouverture-des-donnees-publiques-1/strategie-territoriale-de-services-numeriques", 
            "id": "162718", 
            "opinion": "1"
        }, 
        {
            "article_title": "Article (num\u00e9ro \u00e0 incr\u00e9menter) - De l'acc\u00e8s au code source", 
            "date": "2015-10-18T21:30:00+0200", 
            "link": "http://www.republique-numerique.fr/projects/projet-de-loi-numerique/consultation/consultation/opinions/section-1-ouverture-des-donnees-publiques-1/article-numero-a-incrementer-de-l-acces-au-code-source", 
            "id": "162734", 
            "opinion": "0"
        }, 
        {
            "article_title": "Transparence / S\u00e9curit\u00e9", 
            "date": "2015-10-18T21:34:00+0200", 
            "link": "http://www.republique-numerique.fr/projects/projet-de-loi-numerique/consultation/consultation/opinions/section-1-ouverture-des-donnees-publiques-1/transparence-securite", 
            "id": "162827", 
            "opinion": "0"
        }, 
        {
            "article_title": "Clarification sur le statut des drones de combats et de reconnaissances", 
            "date": "2015-10-18T21:34:00+0200", 
            "link": "http://www.republique-numerique.fr/projects/projet-de-loi-numerique/consultation/consultation/opinions/section-1-ouverture-des-donnees-publiques-1/clarification-sur-le-statut-des-drones-de-combats-et-de-reconnaissances", 
            "id": "162840", 
            "opinion": "1"
        }, 
        {
            "article_title": "DROIT A L' INFORMATION UNIVERSEL & EUROPEEN", 
            "date": "2015-10-18T21:35:00+0200", 
            "link": "http://www.republique-numerique.fr/projects/projet-de-loi-numerique/consultation/consultation/opinions/section-1-ouverture-des-donnees-publiques-1/droit-a-l-information-universel-europeen", 
            "id": "162859", 
            "opinion": "0"
        }, 
        {
            "article_title": "Cr\u00e9ation d'ateliers citoyens numeriques", 
            "date": "2015-10-18T21:36:00+0200", 
            "link": "http://www.republique-numerique.fr/projects/projet-de-loi-numerique/consultation/consultation/opinions/section-1-ouverture-des-donnees-publiques-1/creation-d-ateliers-citoyens-numeriques", 
            "id": "162878", 
            "opinion": "1"
        }, 
        {
            "article_title": "Digitalisation de l'appareil d'\u00e9tat", 
            "date": "2015-10-18T21:36:00+0200", 
            "link": "http://www.republique-numerique.fr/projects/projet-de-loi-numerique/consultation/consultation/opinions/section-1-ouverture-des-donnees-publiques-1/digitalisation-de-l-appareil-d-etat", 
            "id": "162891", 
            "opinion": "0"
        }, 
        {
            "article_title": "veritable acceleration du deploiement de la fibre optique", 
            "date": "2015-10-18T21:40:00+0200", 
            "link": "http://www.republique-numerique.fr/projects/projet-de-loi-numerique/consultation/consultation/opinions/section-1-ouverture-des-donnees-publiques-1/veritable-acceleration-du-deploiement-de-la-fibre-optique", 
            "id": "162980", 
            "opinion": "1"
        }, 
        {
            "article_title": "Licence publique \u00e0 r\u00e9ciprocit\u00e9 renforc\u00e9e - usage diff\u00e9renci\u00e9 de la donn\u00e9e publique", 
            "date": "2015-10-18T21:41:00+0200", 
            "link": "http://www.republique-numerique.fr/projects/projet-de-loi-numerique/consultation/consultation/opinions/section-1-ouverture-des-donnees-publiques-1/licence-publique-a-reciprocite-renforcee-usage-differencie-de-la-donnee-publique", 
            "id": "162998", 
            "opinion": "0"
        }, 
        {
            "article_title": "Du capitalisme num\u00e9rique en d\u00e9mocratie participative", 
            "date": "2015-10-18T21:45:00+0200", 
            "link": "http://www.republique-numerique.fr/projects/projet-de-loi-numerique/consultation/consultation/opinions/section-1-ouverture-des-donnees-publiques-1/du-capitalisme-numerique-en-democratie-participative", 
            "id": "163088", 
            "opinion": "-1"
        }, 
        {
            "article_title": "Am\u00e9lioration continue des lois", 
            "date": "2015-10-18T21:46:00+0200", 
            "link": "http://www.republique-numerique.fr/projects/projet-de-loi-numerique/consultation/consultation/opinions/section-1-ouverture-des-donnees-publiques-1/amelioration-continue-des-lois", 
            "id": "163103", 
            "opinion": "1"
        }, 
        {
            "article_title": "L'hyper ruralit\u00e9 dans la loi num\u00e9rique", 
            "date": "2015-10-18T21:47:00+0200", 
            "link": "http://www.republique-numerique.fr/projects/projet-de-loi-numerique/consultation/consultation/opinions/section-1-ouverture-des-donnees-publiques-1/l-hyper-ruralite-dans-la-loi-numerique", 
            "id": "163114", 
            "opinion": "1"
        }, 
        {
            "article_title": "Introduction des \u00e9l\u00e9ves \u00e0 l'\u00e9conomie num\u00e9rique", 
            "date": "2015-10-18T21:47:00+0200", 
            "link": "http://www.republique-numerique.fr/projects/projet-de-loi-numerique/consultation/consultation/opinions/section-1-ouverture-des-donnees-publiques-1/introduction-des-eleves-a-l-economie-numerique", 
            "id": "163133", 
            "opinion": "1"
        }, 
        {
            "article_title": "Cr\u00e9ation d\u2019une plateforme unique pour les donn\u00e9es de sant\u00e9", 
            "date": "2015-10-18T21:49:00+0200", 
            "link": "http://www.republique-numerique.fr/projects/projet-de-loi-numerique/consultation/consultation/opinions/section-2-service-public-de-la-donnee-1/creation-d-une-plateforme-unique-pour-les-donnees-de-sante", 
            "id": "163160", 
            "opinion": "1"
        }, 
        {
            "article_title": "Cr\u00e9ation de la Soci\u00e9t\u00e9 France des Droits du Net aux cr\u00e9ateurs,", 
            "date": "2015-10-18T21:50:00+0200", 
            "link": "http://www.republique-numerique.fr/projects/projet-de-loi-numerique/consultation/consultation/opinions/section-1-neutralite-de-l-internet/creation-de-la-societe-france-des-droits-du-net-aux-createurs", 
            "id": "163182", 
            "opinion": "-1"
        }, 
        {
            "article_title": "Article 4 - Cr\u00e9ation d\u2019un service public de la donn\u00e9e (garantie de qualit\u00e9 des donn\u00e9es publiques de r\u00e9f\u00e9rence)", 
            "date": "2015-10-18T21:50:00+0200", 
            "link": "http://www.republique-numerique.fr/projects/projet-de-loi-numerique/consultation/consultation/opinions/section-2-service-public-de-la-donnee-1/article-4-creation-d-un-service-public-de-la-donnee", 
            "id": "163193", 
            "opinion": "1"
        }, 
        {
            "article_title": "Utiliser les logiciels libres & GNU/Linux dans les \u00e9coles et les universit\u00e9s", 
            "date": "2015-10-18T21:51:00+0200", 
            "link": "http://www.republique-numerique.fr/projects/projet-de-loi-numerique/consultation/consultation/opinions/section-2-service-public-de-la-donnee-1/utiliser-les-logiciels-libres-gnu-linux-dans-les-ecoles-et-les-universites", 
            "id": "163204", 
            "opinion": "1"
        }, 
        {
            "article_title": "Article 5 - Cr\u00e9ation d'un compte unique des services administratifs en ligne pour chaque citoyen", 
            "date": "2015-10-18T21:51:00+0200", 
            "link": "http://www.republique-numerique.fr/projects/projet-de-loi-numerique/consultation/consultation/opinions/section-2-service-public-de-la-donnee-1/article-5-creation-d-un-compte-unique-des-services-administratifs-en-ligne-pour-chaque-citoyen", 
            "id": "163217", 
            "opinion": "1"
        }, 
        {
            "article_title": "S\u00e9curit\u00e9, confidentialit\u00e9 et int\u00e9grit\u00e9 des donn\u00e9es publiques", 
            "date": "2015-10-18T21:52:00+0200", 
            "link": "http://www.republique-numerique.fr/projects/projet-de-loi-numerique/consultation/consultation/opinions/section-2-service-public-de-la-donnee-1/securite-confidentialite-et-integrite-des-donnees-publiques", 
            "id": "163237", 
            "opinion": "1"
        }, 
        {
            "article_title": "Article 7 - Acc\u00e8s de la statistique publique \u00e0 certaines bases de donn\u00e9es priv\u00e9es", 
            "date": "2015-10-18T21:53:00+0200", 
            "link": "http://www.republique-numerique.fr/projects/projet-de-loi-numerique/consultation/consultation/opinions/section-3-donnees-d-interet-general/article-7-acces-de-la-statistique-publique-aux-bases-de-donnees-privees", 
            "id": "163270", 
            "opinion": "-1"
        }, 
        {
            "article_title": "Protection, r\u00e9compense et ind\u00e9mnisation des lanceurs d'alertes", 
            "date": "2015-10-18T21:53:00+0200", 
            "link": "http://www.republique-numerique.fr/projects/projet-de-loi-numerique/consultation/consultation/opinions/section-3-donnees-d-interet-general/protection-recompense-et-indemnisation-des-lanceurs-d-alertes", 
            "id": "163280", 
            "opinion": "1"
        }, 
        {
            "article_title": "Utilisation de GNU/Linux dans l'administration", 
            "date": "2015-10-18T21:53:00+0200", 
            "link": "http://www.republique-numerique.fr/projects/projet-de-loi-numerique/consultation/consultation/opinions/section-3-donnees-d-interet-general/utilisation-de-gnu-linux-dans-l-administration", 
            "id": "163291", 
            "opinion": "1"
        }, 
        {
            "article_title": "RECIPROCITE DE L'OUVERTURE DES DONNEES PUBLIQUES PAR L'OUVERTURE DES DONNEES PRIVEES D'INTERET GENERAL", 
            "date": "2015-10-18T21:54:00+0200", 
            "link": "http://www.republique-numerique.fr/projects/projet-de-loi-numerique/consultation/consultation/opinions/section-3-donnees-d-interet-general/reciprocite-de-l-ouverture-des-donnees-publiques-par-l-ouverture-des-donnees-privees-d-interet-general", 
            "id": "163314", 
            "opinion": "-1"
        }, 
        {
            "article_title": "Utiliser Wikip\u00e9dia comme outil p\u00e9dagogique et \u00e9ducatif pour apprendre des comp\u00e9tences et des valeurs", 
            "date": "2015-10-18T21:55:00+0200", 
            "link": "http://www.republique-numerique.fr/projects/projet-de-loi-numerique/consultation/consultation/opinions/section-1-les-communs/utiliser-wikipedia-comme-outil-pedagogique-et-educatif-pour-apprendre-des-competences-et-des-valeurs", 
            "id": "163324", 
            "opinion": "-1"
        }, 
        {
            "article_title": "D\u00e9voiler les interactions entre le Gouvernement et les lobbystes", 
            "date": "2015-10-18T21:55:00+0200", 
            "link": "http://www.republique-numerique.fr/projects/projet-de-loi-numerique/consultation/consultation/opinions/section-3-donnees-d-interet-general/devoiler-les-interactions-entre-le-gouvernement-et-les-lobbystes", 
            "id": "163335", 
            "opinion": "1"
        }, 
        {
            "article_title": "Interdiction de la vente li\u00e9e ordinateur/syst\u00e8me d'exploitation", 
            "date": "2015-10-18T21:56:00+0200", 
            "link": "http://www.republique-numerique.fr/projects/projet-de-loi-numerique/consultation/consultation/opinions/section-3-loyaute-des-plateformes/interdiction-de-la-vente-liee-ordinateur-systeme-d-exploitation", 
            "id": "163346", 
            "opinion": "1"
        }
    ], 
    "sources": [], 
    "votes_count": 33, 
    "arguments": [], 
    "arguments_count": 0, 
    "propositions_count": 0, 
    "contributions_count": 8
}