{
    "modifications": [], 
    "modifications_count": 0, 
    "sources_count": 0, 
    "propositions": [], 
    "votes": [
        {
            "article_title": "Aligner les d\u00e9lais d'embargo sur ceux de la Communaut\u00e9 Europ\u00e9enne (6 et 12 mois)", 
            "date": "2015-09-28T11:41:00+0200", 
            "link": "http://www.republique-numerique.fr/projects/projet-de-loi-numerique/consultation/consultation/opinions/section-2-travaux-de-recherche-et-de-statistique/article-9-acces-aux-travaux-de-la-recherche-financee-par-des-fonds-publics/versions/aligner-les-delais-d-embargo-sur-ceux-de-la-communaute-europeenne-6-et-12-mois", 
            "id": "9062", 
            "opinion": "1"
        }, 
        {
            "article_title": "Garantir le libre acc\u00e8s aux r\u00e9sultats de la recherche financ\u00e9e par des fonds publics", 
            "date": "2015-10-02T20:53:00+0200", 
            "link": "http://www.republique-numerique.fr/projects/projet-de-loi-numerique/consultation/consultation/opinions/section-2-travaux-de-recherche-et-de-statistique/article-9-acces-aux-travaux-de-la-recherche-financee-par-des-fonds-publics/versions/garantir-le-libre-acces-aux-resultats-de-la-recherche-financee-par-des-fonds-publics", 
            "id": "27154", 
            "opinion": "1"
        }, 
        {
            "article_title": "Obligation de d\u00e9p\u00f4t des publications scientifiques dans une archive ouverte", 
            "date": "2015-10-02T21:02:00+0200", 
            "link": "http://www.republique-numerique.fr/projects/projet-de-loi-numerique/consultation/consultation/opinions/section-2-travaux-de-recherche-et-de-statistique/pour-une-obligation-de-depot-des-publications-scientifiques-dans-une-archive-ouverte", 
            "id": "27195", 
            "opinion": "1"
        }, 
        {
            "article_title": "Exception de fouille de textes et de donn\u00e9es", 
            "date": "2015-10-02T21:03:00+0200", 
            "link": "http://www.republique-numerique.fr/projects/projet-de-loi-numerique/consultation/consultation/opinions/section-2-travaux-de-recherche-et-de-statistique/exception-de-fouille-de-texte-et-de-donnees", 
            "id": "27198", 
            "opinion": "1"
        }, 
        {
            "article_title": "Pour un droit de fouiller les textes : autoriser le text et datamining", 
            "date": "2015-10-03T14:43:00+0200", 
            "link": "http://www.republique-numerique.fr/projects/projet-de-loi-numerique/consultation/consultation/opinions/section-2-travaux-de-recherche-et-de-statistique/article-9-acces-aux-travaux-de-la-recherche-financee-par-des-fonds-publics/versions/poir-un-droit-de-fouiller-les-textes-autoriser-le-text-et-datamining", 
            "id": "28192", 
            "opinion": "1"
        }, 
        {
            "article_title": "Pour une obligation de d\u00e9p\u00f4t des publications scientifiques dans une archive ouverte", 
            "date": "2015-10-03T14:43:00+0200", 
            "link": "http://www.republique-numerique.fr/projects/projet-de-loi-numerique/consultation/consultation/opinions/section-2-travaux-de-recherche-et-de-statistique/article-9-acces-aux-travaux-de-la-recherche-financee-par-des-fonds-publics/versions/pour-une-obligation-de-depot-des-publications-scientifiques-dans-une-archive-ouverte", 
            "id": "28195", 
            "opinion": "1"
        }, 
        {
            "article_title": "\u00c9viter la l\u00e9galisation du copyfraud", 
            "date": "2015-10-04T09:44:00+0200", 
            "link": "http://www.republique-numerique.fr/projects/projet-de-loi-numerique/consultation/consultation/opinions/section-1-les-communs/article-8-definition-du-domaine-commun-informationnel/versions/eviter-la-legalisation-du-copyfraud", 
            "id": "29180", 
            "opinion": "1"
        }, 
        {
            "article_title": "article 8 bis \u00ab\u00a0D\u00e9finition des communs volontaires\u00a0\u00bb", 
            "date": "2015-10-04T09:45:00+0200", 
            "link": "http://www.republique-numerique.fr/projects/projet-de-loi-numerique/consultation/consultation/opinions/section-1-les-communs/article-8-bis-definition-des-communs-volontaires", 
            "id": "29181", 
            "opinion": "1"
        }, 
        {
            "article_title": "Garantir l'autorisation du d\u00e9p\u00f4t imm\u00e9diat de la version \"auteur\" dans une archive ouverte", 
            "date": "2015-10-12T18:47:00+0200", 
            "link": "http://www.republique-numerique.fr/projects/projet-de-loi-numerique/consultation/consultation/opinions/section-2-travaux-de-recherche-et-de-statistique/article-9-acces-aux-travaux-de-la-recherche-financee-par-des-fonds-publics/versions/garantir-l-autorisation-du-depot-immediat-de-la-version-auteur-dans-une-archive-ouverte", 
            "id": "54424", 
            "opinion": "1"
        }, 
        {
            "article_title": "POUR UNE GARANTIE DE DIFFUSION EN ACC\u00c8S OUVERT", 
            "date": "2015-10-12T18:50:00+0200", 
            "link": "http://www.republique-numerique.fr/projects/projet-de-loi-numerique/consultation/consultation/opinions/section-2-travaux-de-recherche-et-de-statistique/article-9-acces-aux-travaux-de-la-recherche-financee-par-des-fonds-publics/versions/pour-une-garantie-de-diffusion-en-acces-ouvert", 
            "id": "54447", 
            "opinion": "1"
        }, 
        {
            "article_title": "Pour une obligation de d\u00e9p\u00f4t et le libre acc\u00e8s assorti de la libre r\u00e9utilisation des r\u00e9sultats de la recherche", 
            "date": "2015-10-12T18:50:00+0200", 
            "link": "http://www.republique-numerique.fr/projects/projet-de-loi-numerique/consultation/consultation/opinions/section-2-travaux-de-recherche-et-de-statistique/article-9-acces-aux-travaux-de-la-recherche-financee-par-des-fonds-publics/versions/pour-une-obligation-de-depot-et-le-libre-acces-assorti-de-la-libre-reutilisation-des-resultats-de-la-recherche", 
            "id": "54453", 
            "opinion": "1"
        }, 
        {
            "article_title": "Article 8 quater - Faciliter la r\u00e9utilisation des donn\u00e9es de la recherche", 
            "date": "2015-10-12T19:10:00+0200", 
            "link": "http://www.republique-numerique.fr/projects/projet-de-loi-numerique/consultation/consultation/opinions/section-1-les-communs/article-8-quater-faciliter-la-reutilisation-des-donnees-de-la-recherche", 
            "id": "54558", 
            "opinion": "1"
        }, 
        {
            "article_title": "Dur\u00e9e d'embargo et TDM", 
            "date": "2015-10-14T21:37:00+0200", 
            "link": "http://www.republique-numerique.fr/projects/projet-de-loi-numerique/consultation/consultation/opinions/section-2-travaux-de-recherche-et-de-statistique/article-9-acces-aux-travaux-de-la-recherche-financee-par-des-fonds-publics/versions/duree-d-embargo-et-tdm-1", 
            "id": "89497", 
            "opinion": "-1"
        }, 
        {
            "article_title": "Il convient de ne pas se tromper de combat.Oui, c...", 
            "date": "2015-10-14T21:37:00+0200", 
            "link": "http://www.republique-numerique.fr/projects/projet-de-loi-numerique/consultation/consultation/opinions/section-2-travaux-de-recherche-et-de-statistique/article-9-acces-aux-travaux-de-la-recherche-financee-par-des-fonds-publics/versions/duree-d-embargo-et-tdm-1#arg-3938", 
            "id": "89499", 
            "opinion": "1"
        }, 
        {
            "article_title": "Quel sens aurait une \u00e9tude d'impact\u00a0? sur quelle...", 
            "date": "2015-10-17T07:50:00+0200", 
            "link": "http://www.republique-numerique.fr/projects/projet-de-loi-numerique/consultation/consultation/opinions/section-2-travaux-de-recherche-et-de-statistique/article-9-acces-aux-travaux-de-la-recherche-financee-par-des-fonds-publics/versions/favoriser-le-libre-acces-sans-mettre-en-peril-les-revues-shs-imaginer-de-nouveaux-modeles-de-diffusion-de-la-science#arg-4889", 
            "id": "130078", 
            "opinion": "1"
        }, 
        {
            "article_title": "Favoriser le libre acc\u00e8s sans mettre en p\u00e9ril les revues SHS - Imaginer de nouveaux mod\u00e8les de diffusion de la science", 
            "date": "2015-10-17T07:50:00+0200", 
            "link": "http://www.republique-numerique.fr/projects/projet-de-loi-numerique/consultation/consultation/opinions/section-2-travaux-de-recherche-et-de-statistique/article-9-acces-aux-travaux-de-la-recherche-financee-par-des-fonds-publics/versions/favoriser-le-libre-acces-sans-mettre-en-peril-les-revues-shs-imaginer-de-nouveaux-modeles-de-diffusion-de-la-science", 
            "id": "130080", 
            "opinion": "-1"
        }, 
        {
            "article_title": "Pour une science ouverte : l'acc\u00e8s et l'exploitation des bien communs de la connaissance ne doivent pas \u00eatre entrav\u00e9s", 
            "date": "2015-10-17T17:23:00+0200", 
            "link": "http://www.republique-numerique.fr/projects/projet-de-loi-numerique/consultation/consultation/opinions/section-2-travaux-de-recherche-et-de-statistique/article-9-acces-aux-travaux-de-la-recherche-financee-par-des-fonds-publics/versions/pour-une-science-ouverte-l-acces-et-l-exploitation-des-bien-communs-de-la-connaissance-ne-doivent-pas-etre-entraves", 
            "id": "140562", 
            "opinion": "1"
        }
    ], 
    "sources": [], 
    "votes_count": 17, 
    "arguments": [], 
    "arguments_count": 0, 
    "propositions_count": 0, 
    "contributions_count": 0
}