{
    "modifications": [], 
    "modifications_count": 0, 
    "sources_count": 0, 
    "propositions": [], 
    "votes": [
        {
            "article_title": "Une conciliation est n\u00e9cessaire entre les deux no...", 
            "date": "2015-10-12T09:17:00+0200", 
            "link": "http://www.republique-numerique.fr/projects/projet-de-loi-numerique/consultation/consultation/opinions/section-1-ouverture-des-donnees-publiques-1/article-2-principe-de-libre-reutilisation-des-donnees-pour-les-spic/versions/clarifier-l-articulation-entre-le-principe-de-libre-reutilisation-des-informations-publiques-le-droit-d-auteur-des-agents-publics-et-le-droit-des-bases-de-donnees#arg-2834", 
            "id": "50982", 
            "opinion": "1"
        }, 
        {
            "article_title": "Pour parvenir \u00e0 une politique d\u2019open data effec...", 
            "date": "2015-10-17T21:07:00+0200", 
            "link": "http://www.republique-numerique.fr/projects/projet-de-loi-numerique/consultation/consultation/opinions/section-1-ouverture-des-donnees-publiques-1/article-2-principe-de-libre-reutilisation-des-donnees-pour-les-spic/versions/integrer-de-facon-explicite-les-bases-de-donnees-et-les-numerisations-au-champ-de-la-reutilisation#arg-4973", 
            "id": "144156", 
            "opinion": "1"
        }, 
        {
            "article_title": "L'acc\u00e8s aux archives constitue un service public,...", 
            "date": "2015-10-17T21:08:00+0200", 
            "link": "http://www.republique-numerique.fr/projects/projet-de-loi-numerique/consultation/consultation/opinions/section-1-ouverture-des-donnees-publiques-1/article-1-elargissement-du-champ-de-diffusion-par-l-administration/versions/integrer-les-informations-conservees-par-les-collectivites-territoriales-et-les-donnees-d-archives-au-champ-de-la-reutilisation#arg-5165", 
            "id": "144176", 
            "opinion": "1"
        }, 
        {
            "article_title": "int\u00e9grer de fa\u00e7on explicite les bases de donn\u00e9es et les num\u00e9risations au champ de la r\u00e9utilisation", 
            "date": "2015-10-17T21:10:00+0200", 
            "link": "http://www.republique-numerique.fr/projects/projet-de-loi-numerique/consultation/consultation/opinions/section-1-ouverture-des-donnees-publiques-1/article-2-principe-de-libre-reutilisation-des-donnees-pour-les-spic/versions/integrer-de-facon-explicite-les-bases-de-donnees-et-les-numerisations-au-champ-de-la-reutilisation", 
            "id": "144218", 
            "opinion": "1"
        }, 
        {
            "article_title": "int\u00e9grer les informations conserv\u00e9es par les collectivit\u00e9s territoriales et les donn\u00e9es d'archives au champ de la r\u00e9utilisation", 
            "date": "2015-10-17T21:11:00+0200", 
            "link": "http://www.republique-numerique.fr/projects/projet-de-loi-numerique/consultation/consultation/opinions/section-1-ouverture-des-donnees-publiques-1/article-1-elargissement-du-champ-de-diffusion-par-l-administration/versions/integrer-les-informations-conservees-par-les-collectivites-territoriales-et-les-donnees-d-archives-au-champ-de-la-reutilisation", 
            "id": "144221", 
            "opinion": "1"
        }, 
        {
            "article_title": "difficult\u00e9 d'articulation avec lois existantes et risques de cette nouvelle cat\u00e9gorie juridque", 
            "date": "2015-10-17T21:11:00+0200", 
            "link": "http://www.republique-numerique.fr/projects/projet-de-loi-numerique/consultation/consultation/opinions/section-1-les-communs/article-8-definition-du-domaine-commun-informationnel/versions/difficulte-d-articulation-avec-lois-existantes-et-risques-de-cette-nouvelle-categorie-juridque", 
            "id": "144230", 
            "opinion": "1"
        }
    ], 
    "sources": [], 
    "votes_count": 6, 
    "arguments": [], 
    "arguments_count": 0, 
    "propositions_count": 0, 
    "contributions_count": 0
}