{
    "modifications": [
        {
            "stats": {
                "source": "0", 
                "votes": "46", 
                "arguments": "8"
            }, 
            "votes": {
                "data-ok": "3", 
                "data-mitige": "5", 
                "data-nok": "38"
            }, 
            "link": "/projects/projet-de-loi-numerique/consultation/consultation/opinions/section-2-service-public-de-la-donnee-1/utiliser-les-logiciels-libres-gnu-linux-dans-les-ecoles-et-les-universites/versions/laisser-le-choix", 
            "id": "349", 
            "title": "Laisser le choix"
        }
    ], 
    "modifications_count": 1, 
    "sources_count": 0, 
    "propositions": [], 
    "votes": [
        {
            "article_title": "Article 1 - Open data par d\u00e9faut (obligation de diffuser en ligne les principaux documents et donn\u00e9es des organismes publics)", 
            "date": "2015-09-28T20:59:00+0200", 
            "link": "http://www.republique-numerique.fr/projects/projet-de-loi-numerique/consultation/consultation/opinions/section-1-ouverture-des-donnees-publiques-1/article-1-elargissement-du-champ-de-diffusion-par-l-administration", 
            "id": "12483", 
            "opinion": "0"
        }, 
        {
            "article_title": "Utiliser les logiciels libres & GNU/Linux dans les \u00e9coles et les universit\u00e9s", 
            "date": "2015-09-28T21:01:00+0200", 
            "link": "http://www.republique-numerique.fr/projects/projet-de-loi-numerique/consultation/consultation/opinions/section-2-service-public-de-la-donnee-1/utiliser-les-logiciels-libres-gnu-linux-dans-les-ecoles-et-les-universites", 
            "id": "12490", 
            "opinion": "0"
        }, 
        {
            "article_title": "Je suis formateur en informatique \u00e0 l'Universit\u00e9...", 
            "date": "2015-09-28T21:06:00+0200", 
            "link": "http://www.republique-numerique.fr/projects/projet-de-loi-numerique/consultation/consultation/opinions/section-2-service-public-de-la-donnee-1/utiliser-les-logiciels-libres-gnu-linux-dans-les-ecoles-et-les-universites#arg-991", 
            "id": "12544", 
            "opinion": "1"
        }, 
        {
            "article_title": "L'Open source doit \u00eatre favoris\u00e9, mais les unive...", 
            "date": "2015-09-28T21:08:00+0200", 
            "link": "http://www.republique-numerique.fr/projects/projet-de-loi-numerique/consultation/consultation/opinions/section-2-service-public-de-la-donnee-1/utiliser-les-logiciels-libres-gnu-linux-dans-les-ecoles-et-les-universites#arg-882", 
            "id": "12556", 
            "opinion": "1"
        }, 
        {
            "article_title": "Sanctions", 
            "date": "2015-09-28T21:22:00+0200", 
            "link": "http://www.republique-numerique.fr/projects/projet-de-loi-numerique/consultation/consultation/opinions/section-1-protection-des-donnees-a-caractere-personnel/article-19-droit-a-l-oubli-pour-les-mineurs-procedure-acceleree/versions/sanctions", 
            "id": "12651", 
            "opinion": "1"
        }, 
        {
            "article_title": "Utilisation de GNU/Linux dans l'administration", 
            "date": "2015-09-28T21:26:00+0200", 
            "link": "http://www.republique-numerique.fr/projects/projet-de-loi-numerique/consultation/consultation/opinions/section-3-donnees-d-interet-general/utilisation-de-gnu-linux-dans-l-administration", 
            "id": "12683", 
            "opinion": "0"
        }, 
        {
            "article_title": "Formats libres", 
            "date": "2015-09-28T21:29:00+0200", 
            "link": "http://www.republique-numerique.fr/projects/projet-de-loi-numerique/consultation/consultation/opinions/section-3-donnees-d-interet-general/utilisation-de-gnu-linux-dans-l-administration/versions/formats-libres", 
            "id": "12704", 
            "opinion": "0"
        }, 
        {
            "article_title": "Il est par exemple dingue qu'\u00e0 l'heure actuelle, ...", 
            "date": "2015-09-28T21:30:00+0200", 
            "link": "http://www.republique-numerique.fr/projects/projet-de-loi-numerique/consultation/consultation/opinions/section-3-donnees-d-interet-general/utilisation-de-gnu-linux-dans-l-administration/versions/formats-libres#arg-161", 
            "id": "12707", 
            "opinion": "1"
        }, 
        {
            "article_title": "Laisser le choix", 
            "date": "2015-09-29T21:51:00+0200", 
            "link": "http://www.republique-numerique.fr/projects/projet-de-loi-numerique/consultation/consultation/opinions/section-2-service-public-de-la-donnee-1/utiliser-les-logiciels-libres-gnu-linux-dans-les-ecoles-et-les-universites/versions/laisser-le-choix", 
            "id": "17899", 
            "opinion": "1"
        }, 
        {
            "article_title": "Il n'y a aucune raison de diff\u00e9rencier mineur et majeur c'est un droit fondamental", 
            "date": "2015-09-29T21:54:00+0200", 
            "link": "http://www.republique-numerique.fr/projects/projet-de-loi-numerique/consultation/consultation/opinions/section-1-protection-des-donnees-a-caractere-personnel/article-19-droit-a-l-oubli-pour-les-mineurs-procedure-acceleree/versions/il-n-y-a-aucune-raison-de-differencier-mineur-et-majeur-c-est-un-droit-fondamental", 
            "id": "17917", 
            "opinion": "1"
        }, 
        {
            "article_title": "C'est vrai qu'un effacement acc\u00e9l\u00e9r\u00e9s pour les ...", 
            "date": "2015-09-29T21:56:00+0200", 
            "link": "http://www.republique-numerique.fr/projects/projet-de-loi-numerique/consultation/consultation/opinions/section-1-protection-des-donnees-a-caractere-personnel/article-19-droit-a-l-oubli-pour-les-mineurs-procedure-acceleree/versions/sanctions#arg-1038", 
            "id": "17935", 
            "opinion": "1"
        }, 
        {
            "article_title": "Les logiciels libres constituent, en fonction des ...", 
            "date": "2015-10-15T20:02:00+0200", 
            "link": "http://www.republique-numerique.fr/projects/projet-de-loi-numerique/consultation/consultation/opinions/section-2-service-public-de-la-donnee-1/utiliser-les-logiciels-libres-gnu-linux-dans-les-ecoles-et-les-universites/versions/laisser-le-choix#arg-2528", 
            "id": "102978", 
            "opinion": "1"
        }, 
        {
            "article_title": "Libert\u00e9 !", 
            "date": "2015-10-15T21:28:00+0200", 
            "link": "http://www.republique-numerique.fr/projects/projet-de-loi-numerique/consultation/consultation/opinions/section-2-service-public-de-la-donnee-1/utiliser-les-logiciels-libres-gnu-linux-dans-les-ecoles-et-les-universites/versions/liberte", 
            "id": "103942", 
            "opinion": "1"
        }
    ], 
    "sources": [], 
    "votes_count": 13, 
    "arguments": [
        {
            "article_title": "Signaler", 
            "votes": 5, 
            "article_link": "http://www.republique-numerique.fr/consultations/projet-de-loi-numerique/consultation/consultation/opinions/section-2-service-public-de-la-donnee-1/utiliser-les-logiciels-libres-gnu-linux-dans-les-ecoles-et-les-universites/arguments/1036/report", 
            "link": "http://www.republique-numerique.fr/consultations/projet-de-loi-numerique/consultation/consultation/opinions/section-2-service-public-de-la-donnee-1/utiliser-les-logiciels-libres-gnu-linux-dans-les-ecoles-et-les-universites/arguments/1036/report#arg-1036", 
            "date": "2015-09-28T21:14:00+0200", 
            "id": "1036"
        }
    ], 
    "arguments_count": 2, 
    "propositions_count": 0, 
    "contributions_count": 3
}