{
    "modifications": [
        {
            "stats": {
                "source": "0", 
                "votes": "17", 
                "argument": "0"
            }, 
            "votes": {
                "data-ok": "16", 
                "data-mitige": "1", 
                "data-nok": "0"
            }, 
            "link": "/projects/projet-de-loi-numerique/consultation/consultation/opinions/section-1-ouverture-des-donnees-publiques-1/article-1-elargissement-du-champ-de-diffusion-par-l-administration/versions/consentement-des-personnes-et-exclusion-des-collectivites", 
            "id": "478", 
            "title": "Consentement des personnes et exclusion des collectivit\u00e9s"
        }
    ], 
    "modifications_count": 1, 
    "sources_count": 0, 
    "propositions": [], 
    "votes": [
        {
            "article_title": "Article 1 - Open data par d\u00e9faut (obligation de diffuser en ligne les principaux documents et donn\u00e9es des organismes publics)", 
            "date": "2015-09-30T13:41:00+0200", 
            "link": "http://www.republique-numerique.fr/projects/projet-de-loi-numerique/consultation/consultation/opinions/section-1-ouverture-des-donnees-publiques-1/article-1-elargissement-du-champ-de-diffusion-par-l-administration", 
            "id": "20073", 
            "opinion": "0"
        }, 
        {
            "article_title": "Article 2 - Libre r\u00e9utilisation des donn\u00e9es des services publics industriels et commerciaux", 
            "date": "2015-09-30T14:31:00+0200", 
            "link": "http://www.republique-numerique.fr/projects/projet-de-loi-numerique/consultation/consultation/opinions/section-1-ouverture-des-donnees-publiques-1/article-2-principe-de-libre-reutilisation-des-donnees-pour-les-spic", 
            "id": "20301", 
            "opinion": "0"
        }, 
        {
            "article_title": "Le format des donn\u00e9es et le choix des standards est important", 
            "date": "2015-09-30T15:04:00+0200", 
            "link": "http://www.republique-numerique.fr/projects/projet-de-loi-numerique/consultation/consultation/opinions/section-1-ouverture-des-donnees-publiques-1/article-1-elargissement-du-champ-de-diffusion-par-l-administration/versions/le-format-des-donnees-et-le-choix-des-standards-est-important", 
            "id": "20418", 
            "opinion": "-1"
        }, 
        {
            "article_title": "Facilit\u00e9 d'acc\u00e8s aux donn\u00e9es publi\u00e9es", 
            "date": "2015-09-30T15:11:00+0200", 
            "link": "http://www.republique-numerique.fr/projects/projet-de-loi-numerique/consultation/consultation/opinions/section-1-ouverture-des-donnees-publiques-1/article-1-elargissement-du-champ-de-diffusion-par-l-administration/versions/facilite-d-acces-aux-donnees-publiees", 
            "id": "20459", 
            "opinion": "1"
        }, 
        {
            "article_title": "Publication en ligne du budget de l'Etat", 
            "date": "2015-09-30T15:21:00+0200", 
            "link": "http://www.republique-numerique.fr/projects/projet-de-loi-numerique/consultation/consultation/opinions/section-1-ouverture-des-donnees-publiques-1/article-1-elargissement-du-champ-de-diffusion-par-l-administration/versions/publication-en-ligne-du-budget-de-l-etat", 
            "id": "20511", 
            "opinion": "-1"
        }, 
        {
            "article_title": "Article inconstitutionnel attentatoire au principe de vie priv\u00e9e en violation du 8\u00a72 CEDH et 17\u00a72 PIDCP", 
            "date": "2015-09-30T15:28:00+0200", 
            "link": "http://www.republique-numerique.fr/projects/projet-de-loi-numerique/consultation/consultation/opinions/section-1-ouverture-des-donnees-publiques-1/article-1-elargissement-du-champ-de-diffusion-par-l-administration/versions/article-inconstitutionnel-attentatoire-au-principe-de-vie-privee-en-violation-du-8ss2-cedh-et-17ss2-pidcp", 
            "id": "20557", 
            "opinion": "1"
        }, 
        {
            "article_title": "Pas de condition d'exclusion pour l'anonymat", 
            "date": "2015-09-30T15:36:00+0200", 
            "link": "http://www.republique-numerique.fr/projects/projet-de-loi-numerique/consultation/consultation/opinions/section-1-ouverture-des-donnees-publiques-1/article-1-elargissement-du-champ-de-diffusion-par-l-administration/versions/pas-de-condition-d-exclusion-pour-l-anonymat", 
            "id": "20596", 
            "opinion": "0"
        }
    ], 
    "sources": [], 
    "votes_count": 7, 
    "arguments": [], 
    "arguments_count": 5, 
    "propositions_count": 0, 
    "contributions_count": 6
}