{
    "modifications": [], 
    "modifications_count": 0, 
    "sources_count": 0, 
    "propositions": [], 
    "votes": [
        {
            "article_title": "Cr\u00e9ation d'un cadre de confiance propice \u00e0 la valorisation des donn\u00e9es", 
            "date": "2015-10-16T22:08:00+0200", 
            "link": "http://www.republique-numerique.fr/projects/projet-de-loi-numerique/consultation/consultation/opinions/section-1-ouverture-des-donnees-publiques-1/creation-d-un-cadre-de-confiance-propice-a-la-valorisation-des-donnees", 
            "id": "126508", 
            "opinion": "1"
        }
    ], 
    "sources": [], 
    "votes_count": 1, 
    "arguments": [
        {
            "article_title": "Signaler", 
            "votes": 1, 
            "article_link": "http://www.republique-numerique.fr/consultations/projet-de-loi-numerique/consultation/consultation/opinions/section-1-ouverture-des-donnees-publiques-1/creation-d-un-cadre-de-confiance-propice-a-la-valorisation-des-donnees/arguments/5061/report", 
            "link": "http://www.republique-numerique.fr/consultations/projet-de-loi-numerique/consultation/consultation/opinions/section-1-ouverture-des-donnees-publiques-1/creation-d-un-cadre-de-confiance-propice-a-la-valorisation-des-donnees/arguments/5061/report#arg-5061", 
            "date": "2015-10-16T22:33:00+0200", 
            "id": "5061"
        }
    ], 
    "arguments_count": 1, 
    "propositions_count": 0, 
    "contributions_count": 1
}