{
    "modifications": [], 
    "modifications_count": 0, 
    "sources_count": 0, 
    "propositions": [], 
    "votes": [
        {
            "article_title": "Nouvelle version de l'article 29 : Accessibilit\u00e9 aux services et contenus num\u00e9riques par les personnes en situation de handicap", 
            "date": "2015-10-16T17:08:00+0200", 
            "link": "http://www.republique-numerique.fr/projects/projet-de-loi-numerique/consultation/consultation/opinions/section-2-accessibilite-des-personnes-handicapees-aux-sites-internet-publics/article-29-accessibilite-numerique-des-services-publics/versions/nouvelle-version-de-l-article-29-accessibilite-aux-services-et-contenus-numeriques-par-les-personnes-en-situation-de-handicap", 
            "id": "118315", 
            "opinion": "1"
        }
    ], 
    "sources": [], 
    "votes_count": 1, 
    "arguments": [], 
    "arguments_count": 0, 
    "propositions_count": 0, 
    "contributions_count": 0
}