{
    "modifications": [], 
    "modifications_count": 0, 
    "sources_count": 0, 
    "propositions": [], 
    "votes": [
        {
            "article_title": "ATTENTION cette modification est inutile puisque l...", 
            "date": "2015-10-16T18:55:00+0200", 
            "link": "http://www.republique-numerique.fr/projects/projet-de-loi-numerique/consultation/consultation/opinions/section-2-travaux-de-recherche-et-de-statistique/les-competitions-de-jeux-video-e-sport/versions/extension-du-dispositif-aux-jeux-videos-produits-par-des-studios-etrangers-representant-la-majorite-des-competitions-e-sportives#arg-4949", 
            "id": "121404", 
            "opinion": "1"
        }, 
        {
            "article_title": "Habilit\u00e9?", 
            "date": "2015-10-16T19:10:00+0200", 
            "link": "http://www.republique-numerique.fr/projects/projet-de-loi-numerique/consultation/consultation/opinions/section-2-travaux-de-recherche-et-de-statistique/les-competitions-de-jeux-video-e-sport/versions/habilite", 
            "id": "122067", 
            "opinion": "1"
        }, 
        {
            "article_title": "Article additionnel : Les comp\u00e9titions de jeux vid\u00e9o \u00ab e-sport \u00bb", 
            "date": "2015-10-16T19:40:00+0200", 
            "link": "http://www.republique-numerique.fr/projects/projet-de-loi-numerique/consultation/consultation/opinions/section-2-travaux-de-recherche-et-de-statistique/les-competitions-de-jeux-video-e-sport", 
            "id": "123094", 
            "opinion": "-1"
        }, 
        {
            "article_title": "Le fait est que la quasi-totalit\u00e9 des joueurs de ...", 
            "date": "2015-10-16T19:45:00+0200", 
            "link": "http://www.republique-numerique.fr/projects/projet-de-loi-numerique/consultation/consultation/opinions/section-2-travaux-de-recherche-et-de-statistique/les-competitions-de-jeux-video-e-sport#arg-4987", 
            "id": "123274", 
            "opinion": "1"
        }, 
        {
            "article_title": "Joueurs Pro.", 
            "date": "2015-10-16T20:33:00+0200", 
            "link": "http://www.republique-numerique.fr/projects/projet-de-loi-numerique/consultation/consultation/opinions/section-2-travaux-de-recherche-et-de-statistique/les-competitions-de-jeux-video-e-sport/versions/joueurs-pro", 
            "id": "124598", 
            "opinion": "-1"
        }, 
        {
            "article_title": "Cette modification n'a pas lieu d'\u00eatre ici dans l...", 
            "date": "2015-10-16T20:35:00+0200", 
            "link": "http://www.republique-numerique.fr/projects/projet-de-loi-numerique/consultation/consultation/opinions/section-2-travaux-de-recherche-et-de-statistique/les-competitions-de-jeux-video-e-sport/versions/joueurs-pro#arg-5020", 
            "id": "124636", 
            "opinion": "1"
        }
    ], 
    "sources": [], 
    "votes_count": 6, 
    "arguments": [
        {
            "article_title": "Signaler", 
            "votes": 6, 
            "article_link": "http://www.republique-numerique.fr/consultations/projet-de-loi-numerique/consultation/consultation/opinions/section-2-travaux-de-recherche-et-de-statistique/les-competitions-de-jeux-video-e-sport/arguments/4987/report", 
            "link": "http://www.republique-numerique.fr/consultations/projet-de-loi-numerique/consultation/consultation/opinions/section-2-travaux-de-recherche-et-de-statistique/les-competitions-de-jeux-video-e-sport/arguments/4987/report#arg-4987", 
            "date": "2015-10-16T19:43:00+0200", 
            "id": "4987"
        }
    ], 
    "arguments_count": 2, 
    "propositions_count": 0, 
    "contributions_count": 2
}