{
    "modifications": [], 
    "modifications_count": 0, 
    "sources_count": 0, 
    "propositions": [
        {
            "article_title": "D\u00e9veloppement d'une politique d'API au sein des SI publics", 
            "votes": {
                "data-ok": "32", 
                "data-mitige": "6", 
                "data-nok": "1"
            }, 
            "stats": {
                "modification": "1", 
                "source": "0", 
                "votes": "39", 
                "arguments": "6"
            }, 
            "id": "205", 
            "article_link": "/projects/projet-de-loi-numerique/consultation/consultation/opinions/section-1-neutralite-de-l-internet/developpement-d-une-politique-d-api-au-sein-des-si-publics"
        }
    ], 
    "votes": [
        {
            "article_title": "Rendre public la pr\u00e9sences des diff\u00e9rents ministres, d\u00e9put\u00e9s, etc... aux conseils.", 
            "date": "2015-09-28T12:25:00+0200", 
            "link": "http://www.republique-numerique.fr/projects/projet-de-loi-numerique/consultation/consultation/opinions/section-1-ouverture-des-donnees-publiques-1/rendre-public-la-presences-des-differents-ministres-deputes-etc-aux-conseils", 
            "id": "9390", 
            "opinion": "1"
        }, 
        {
            "article_title": "D\u00e9veloppement d'une politique d'API au sein des SI publics", 
            "date": "2015-10-15T14:36:00+0200", 
            "link": "http://www.republique-numerique.fr/projects/projet-de-loi-numerique/consultation/consultation/opinions/section-1-neutralite-de-l-internet/developpement-d-une-politique-d-api-au-sein-des-si-publics", 
            "id": "96830", 
            "opinion": "1"
        }, 
        {
            "article_title": "@Pierre: Pas question de travailler avec IBM. Donn...", 
            "date": "2015-10-15T14:36:00+0200", 
            "link": "http://www.republique-numerique.fr/projects/projet-de-loi-numerique/consultation/consultation/opinions/section-1-neutralite-de-l-internet/developpement-d-une-politique-d-api-au-sein-des-si-publics#arg-1102", 
            "id": "96840", 
            "opinion": "1"
        }, 
        {
            "article_title": "Ouvrir le droit de vote aux intelligences artificielles qui sont \u00e9quivalentes ou sup\u00e9rieures aux \u00eatres humains.", 
            "date": "2015-10-15T14:43:00+0200", 
            "link": "http://www.republique-numerique.fr/projects/projet-de-loi-numerique/consultation/consultation/opinions/section-1-ouverture-des-donnees-publiques-1/ouvrir-le-droit-de-vote-aux-intelligences-artificielles-qui-sont-equivalentes-ou-superieures-aux-etres-humains", 
            "id": "97048", 
            "opinion": "-1"
        }, 
        {
            "article_title": "Amendement de la Loi Renseignement pour ajout du juge judiciaire", 
            "date": "2015-10-15T14:46:00+0200", 
            "link": "http://www.republique-numerique.fr/projects/projet-de-loi-numerique/consultation/consultation/opinions/section-2-confidentialite-des-correspondances-privees/amendement-de-la-loi-renseignement-pour-ajout-du-juge-judiciaire", 
            "id": "97142", 
            "opinion": "1"
        }
    ], 
    "sources": [], 
    "votes_count": 5, 
    "arguments": [], 
    "arguments_count": 0, 
    "propositions_count": 1, 
    "contributions_count": 1
}