{
    "modifications": [], 
    "modifications_count": 0, 
    "sources_count": 0, 
    "propositions": [], 
    "votes": [
        {
            "article_title": "Int\u00e9grer les donn\u00e9es de connexion dans le champ du secret des correspondances", 
            "date": "2015-10-17T23:05:00+0200", 
            "link": "http://www.republique-numerique.fr/projects/projet-de-loi-numerique/consultation/consultation/opinions/section-2-confidentialite-des-correspondances-privees/article-22-respect-des-correspondances-privees-numeriques/versions/integrer-les-donnees-de-connexion-dans-le-champ-du-secret-des-correspondances", 
            "id": "145901", 
            "opinion": "1"
        }, 
        {
            "article_title": "Article 1 - Open data par d\u00e9faut (obligation de diffuser en ligne les principaux documents et donn\u00e9es des organismes publics)", 
            "date": "2015-10-17T23:07:00+0200", 
            "link": "http://www.republique-numerique.fr/projects/projet-de-loi-numerique/consultation/consultation/opinions/section-1-ouverture-des-donnees-publiques-1/article-1-elargissement-du-champ-de-diffusion-par-l-administration", 
            "id": "145917", 
            "opinion": "1"
        }, 
        {
            "article_title": "Ambigu\u00eft\u00e9 des termes \"standard ouvert\"", 
            "date": "2015-10-17T23:10:00+0200", 
            "link": "http://www.republique-numerique.fr/projects/projet-de-loi-numerique/consultation/consultation/opinions/section-1-ouverture-des-donnees-publiques-1/article-1-elargissement-du-champ-de-diffusion-par-l-administration/versions/ambiguite-des-termes-standard-ouvert", 
            "id": "145967", 
            "opinion": "1"
        }, 
        {
            "article_title": "Limiter le nombre de licences possibles et promouvoir les licences OBDL", 
            "date": "2015-10-17T23:12:00+0200", 
            "link": "http://www.republique-numerique.fr/projects/projet-de-loi-numerique/consultation/consultation/opinions/section-1-ouverture-des-donnees-publiques-1/article-1-elargissement-du-champ-de-diffusion-par-l-administration/versions/limiter-le-nombre-de-licences-possibles-et-promouvoir-les-licences-obdl", 
            "id": "145989", 
            "opinion": "0"
        }, 
        {
            "article_title": "Faire mention explicite d'un format non propri\u00e9taire, pour \u00e9viter les formats de fichiers Microsoft par d\u00e9faut", 
            "date": "2015-10-17T23:12:00+0200", 
            "link": "http://www.republique-numerique.fr/projects/projet-de-loi-numerique/consultation/consultation/opinions/section-1-ouverture-des-donnees-publiques-1/article-1-elargissement-du-champ-de-diffusion-par-l-administration/versions/faire-mention-explicite-d-un-format-non-proprietaire-pour-eviter-les-formats-de-fichiers-microsoft-par-defaut", 
            "id": "145993", 
            "opinion": "-1"
        }, 
        {
            "article_title": "Ecole entreprise R\u00e9union", 
            "date": "2015-10-17T23:12:00+0200", 
            "link": "http://www.republique-numerique.fr/projects/projet-de-loi-numerique/consultation/consultation/opinions/section-1-ouverture-des-donnees-publiques-1/ecole-entreprise-reunion", 
            "id": "146000", 
            "opinion": "-1"
        }, 
        {
            "article_title": "Ouvrir les donn\u00e9es ayant servi \u00e0 la r\u00e9daction d'un rapport publique", 
            "date": "2015-10-17T23:13:00+0200", 
            "link": "http://www.republique-numerique.fr/projects/projet-de-loi-numerique/consultation/consultation/opinions/section-1-ouverture-des-donnees-publiques-1/ouvrir-les-donnees-ayant-servi-a-la-redaction-d-un-rapport-publique", 
            "id": "146005", 
            "opinion": "1"
        }, 
        {
            "article_title": "Suppression de la taxe copie priv\u00e9e", 
            "date": "2015-10-17T23:18:00+0200", 
            "link": "http://www.republique-numerique.fr/projects/projet-de-loi-numerique/consultation/consultation/opinions/section-1-ouverture-des-donnees-publiques-1/suppression-de-la-taxe-copie-privee", 
            "id": "146107", 
            "opinion": "1"
        }, 
        {
            "article_title": "Cr\u00e9ation d'une plate-forme num\u00e9rique \"@voter\" avec une carte d'\u00e9lecteur num\u00e9rique d\u00e8s l'\u00e2ge de 16 ans.", 
            "date": "2015-10-17T23:19:00+0200", 
            "link": "http://www.republique-numerique.fr/projects/projet-de-loi-numerique/consultation/consultation/opinions/section-1-ouverture-des-donnees-publiques-1/creation-d-une-plate-forme-numerique-voter-avec-une-carte-d-electeur-numerique-des-l-age-de-16-ans", 
            "id": "146118", 
            "opinion": "-1"
        }, 
        {
            "article_title": "Publication en ligne des budgets de chaque organisme d'Etat", 
            "date": "2015-10-17T23:19:00+0200", 
            "link": "http://www.republique-numerique.fr/projects/projet-de-loi-numerique/consultation/consultation/opinions/section-1-ouverture-des-donnees-publiques-1/publication-en-ligne-des-budgets-de-chaque-organisme-d-etat", 
            "id": "146123", 
            "opinion": "1"
        }, 
        {
            "article_title": "Renforcer les modes d\u2019intervention et les moyens de la Commission d\u2019acc\u00e8s aux documents administratifs (CADA)", 
            "date": "2015-10-17T23:19:00+0200", 
            "link": "http://www.republique-numerique.fr/projects/projet-de-loi-numerique/consultation/consultation/opinions/section-1-ouverture-des-donnees-publiques-1/renforcer-les-modes-d-intervention-et-les-moyens-de-la-commission-d-acces-aux-documents-administratifs-cada", 
            "id": "146128", 
            "opinion": "1"
        }, 
        {
            "article_title": "Cr\u00e9er un droit de citation audiovisuelle", 
            "date": "2015-10-17T23:20:00+0200", 
            "link": "http://www.republique-numerique.fr/projects/projet-de-loi-numerique/consultation/consultation/opinions/section-1-ouverture-des-donnees-publiques-1/creer-un-droit-de-citation-audiovisuelle", 
            "id": "146140", 
            "opinion": "1"
        }, 
        {
            "article_title": "Le code source d'un logiciel est un document administratif communicable", 
            "date": "2015-10-17T23:20:00+0200", 
            "link": "http://www.republique-numerique.fr/projects/projet-de-loi-numerique/consultation/consultation/opinions/section-1-ouverture-des-donnees-publiques-1/le-code-source-d-un-logiciel-est-un-document-administratif-communicable", 
            "id": "146146", 
            "opinion": "1"
        }, 
        {
            "article_title": "Informer les citoyens de l'existence des donn\u00e9es publi\u00e9es", 
            "date": "2015-10-17T23:21:00+0200", 
            "link": "http://www.republique-numerique.fr/projects/projet-de-loi-numerique/consultation/consultation/opinions/section-1-ouverture-des-donnees-publiques-1/informer-les-citoyens-de-l-exitence-des-donnees-publiees", 
            "id": "146156", 
            "opinion": "1"
        }, 
        {
            "article_title": "Publier en Open Data les informations li\u00e9es aux fonctions des \u00e9lus, leurs activit\u00e9s \u00e9lectives, le d\u00e9tail de leurs indemnit\u00e9s et leurs liens d\u2019int\u00e9r\u00eats", 
            "date": "2015-10-17T23:21:00+0200", 
            "link": "http://www.republique-numerique.fr/projects/projet-de-loi-numerique/consultation/consultation/opinions/section-1-ouverture-des-donnees-publiques-1/publier-en-open-data-les-informations-liees-aux-fonctions-des-elus-leurs-activites-electives-le-detail-de-leurs-indemnites-et-leurs-liens-d-interets", 
            "id": "146166", 
            "opinion": "1"
        }, 
        {
            "article_title": "Article 4 - Cr\u00e9ation d\u2019un service public de la donn\u00e9e (garantie de qualit\u00e9 des donn\u00e9es publiques de r\u00e9f\u00e9rence)", 
            "date": "2015-10-17T23:26:00+0200", 
            "link": "http://www.republique-numerique.fr/projects/projet-de-loi-numerique/consultation/consultation/opinions/section-2-service-public-de-la-donnee-1/article-4-creation-d-un-service-public-de-la-donnee", 
            "id": "146270", 
            "opinion": "1"
        }, 
        {
            "article_title": "Article 5 - Cr\u00e9ation d'un compte unique des services administratifs en ligne pour chaque citoyen", 
            "date": "2015-10-17T23:26:00+0200", 
            "link": "http://www.republique-numerique.fr/projects/projet-de-loi-numerique/consultation/consultation/opinions/section-2-service-public-de-la-donnee-1/article-5-creation-d-un-compte-unique-des-services-administratifs-en-ligne-pour-chaque-citoyen", 
            "id": "146274", 
            "opinion": "1"
        }, 
        {
            "article_title": "S\u00e9curit\u00e9, confidentialit\u00e9 et int\u00e9grit\u00e9 des donn\u00e9es publiques", 
            "date": "2015-10-17T23:27:00+0200", 
            "link": "http://www.republique-numerique.fr/projects/projet-de-loi-numerique/consultation/consultation/opinions/section-2-service-public-de-la-donnee-1/securite-confidentialite-et-integrite-des-donnees-publiques", 
            "id": "146288", 
            "opinion": "1"
        }, 
        {
            "article_title": "Obligation de la pr\u00e9sence de l'extension .xxx pour les sites publiant des contenus \u00e9rotiques ou pornographiques", 
            "date": "2015-10-17T23:27:00+0200", 
            "link": "http://www.republique-numerique.fr/projects/projet-de-loi-numerique/consultation/consultation/opinions/section-2-service-public-de-la-donnee-1/obligation-de-la-presence-de-l-extension-xxx-pour-les-sites-publiant-des-contenus-erotiques-ou-pornographiques", 
            "id": "146292", 
            "opinion": "-1"
        }, 
        {
            "article_title": "Article 5 - Ouverture des donn\u00e9es des d\u00e9l\u00e9gations de service public", 
            "date": "2015-10-17T23:29:00+0200", 
            "link": "http://www.republique-numerique.fr/projects/projet-de-loi-numerique/consultation/consultation/opinions/section-3-donnees-d-interet-general/article-5-ouverture-des-donnees-par-defaut-dans-les-contrats-de-dsp", 
            "id": "146336", 
            "opinion": "1"
        }, 
        {
            "article_title": "Article 6 - Ouverture des donn\u00e9es des subventions publiques", 
            "date": "2015-10-17T23:30:00+0200", 
            "link": "http://www.republique-numerique.fr/projects/projet-de-loi-numerique/consultation/consultation/opinions/section-3-donnees-d-interet-general/article-6-ouverture-des-donnees-dans-les-conventions-de-subventions", 
            "id": "146347", 
            "opinion": "1"
        }, 
        {
            "article_title": "Article 7 - Acc\u00e8s de la statistique publique \u00e0 certaines bases de donn\u00e9es priv\u00e9es", 
            "date": "2015-10-17T23:31:00+0200", 
            "link": "http://www.republique-numerique.fr/projects/projet-de-loi-numerique/consultation/consultation/opinions/section-3-donnees-d-interet-general/article-7-acces-de-la-statistique-publique-aux-bases-de-donnees-privees", 
            "id": "146362", 
            "opinion": "-1"
        }, 
        {
            "article_title": "D\u00e9voiler les interactions entre le Gouvernement et les lobbystes", 
            "date": "2015-10-17T23:31:00+0200", 
            "link": "http://www.republique-numerique.fr/projects/projet-de-loi-numerique/consultation/consultation/opinions/section-3-donnees-d-interet-general/devoiler-les-interactions-entre-le-gouvernement-et-les-lobbystes", 
            "id": "146367", 
            "opinion": "1"
        }, 
        {
            "article_title": "Cr\u00e9ation d'une platforme de modification des textes officiels.", 
            "date": "2015-10-17T23:31:00+0200", 
            "link": "http://www.republique-numerique.fr/projects/projet-de-loi-numerique/consultation/consultation/opinions/section-3-donnees-d-interet-general/creation-d-une-platforme-de-modification-des-textes-officiels", 
            "id": "146372", 
            "opinion": "0"
        }, 
        {
            "article_title": "Article 8 - D\u00e9finition positive du domaine commun informationnel", 
            "date": "2015-10-17T23:34:00+0200", 
            "link": "http://www.republique-numerique.fr/projects/projet-de-loi-numerique/consultation/consultation/opinions/section-1-les-communs/article-8-definition-du-domaine-commun-informationnel", 
            "id": "146419", 
            "opinion": "1"
        }, 
        {
            "article_title": "Instaurer la libert\u00e9 de panorama en France", 
            "date": "2015-10-17T23:34:00+0200", 
            "link": "http://www.republique-numerique.fr/projects/projet-de-loi-numerique/consultation/consultation/opinions/section-1-les-communs/instaurer-la-liberte-de-panorama-en-france", 
            "id": "146424", 
            "opinion": "1"
        }, 
        {
            "article_title": "article 8 bis \u00ab\u00a0D\u00e9finition des communs volontaires\u00a0\u00bb", 
            "date": "2015-10-17T23:35:00+0200", 
            "link": "http://www.republique-numerique.fr/projects/projet-de-loi-numerique/consultation/consultation/opinions/section-1-les-communs/article-8-bis-definition-des-communs-volontaires", 
            "id": "146431", 
            "opinion": "1"
        }, 
        {
            "article_title": "Utiliser Wikip\u00e9dia comme outil p\u00e9dagogique et \u00e9ducatif pour apprendre des comp\u00e9tences et des valeurs", 
            "date": "2015-10-17T23:35:00+0200", 
            "link": "http://www.republique-numerique.fr/projects/projet-de-loi-numerique/consultation/consultation/opinions/section-1-les-communs/utiliser-wikipedia-comme-outil-pedagogique-et-educatif-pour-apprendre-des-competences-et-des-valeurs", 
            "id": "146435", 
            "opinion": "-1"
        }, 
        {
            "article_title": "Article 8.0 - Libert\u00e9 de partage du savoir num\u00e9rique", 
            "date": "2015-10-17T23:35:00+0200", 
            "link": "http://www.republique-numerique.fr/projects/projet-de-loi-numerique/consultation/consultation/opinions/section-1-les-communs/article-8-0-liberte-de-partage-du-savoir-numerique", 
            "id": "146443", 
            "opinion": "0"
        }, 
        {
            "article_title": "\u00c9tendre le statut de \u00ab livre indisponible \u00bb aux \u0153uvres musicales et cin\u00e9matographiques", 
            "date": "2015-10-17T23:35:00+0200", 
            "link": "http://www.republique-numerique.fr/projects/projet-de-loi-numerique/consultation/consultation/opinions/section-1-les-communs/etendre-le-statut-de-livre-indisponible-aux-oeuvres-musicales-et-cinematographiques", 
            "id": "146446", 
            "opinion": "1"
        }, 
        {
            "article_title": "Article 9 - Exception de panorama", 
            "date": "2015-10-17T23:36:00+0200", 
            "link": "http://www.republique-numerique.fr/projects/projet-de-loi-numerique/consultation/consultation/opinions/section-1-les-communs/article-9-exception-de-panorama", 
            "id": "146460", 
            "opinion": "-1"
        }, 
        {
            "article_title": "Article 9 - Libre acc\u00e8s aux publications scientifiques de la recherche publique", 
            "date": "2015-10-17T23:38:00+0200", 
            "link": "http://www.republique-numerique.fr/projects/projet-de-loi-numerique/consultation/consultation/opinions/section-2-travaux-de-recherche-et-de-statistique/article-9-acces-aux-travaux-de-la-recherche-financee-par-des-fonds-publics", 
            "id": "146494", 
            "opinion": "1"
        }, 
        {
            "article_title": "Article 11.0 - Financement public du logiciel libre", 
            "date": "2015-10-17T23:38:00+0200", 
            "link": "http://www.republique-numerique.fr/projects/projet-de-loi-numerique/consultation/consultation/opinions/section-2-travaux-de-recherche-et-de-statistique/article-11-0-financement-public-du-logiciel-libre", 
            "id": "146500", 
            "opinion": "0"
        }, 
        {
            "article_title": "Article 11 - Neutralit\u00e9 de l\u2019internet", 
            "date": "2015-10-17T23:40:00+0200", 
            "link": "http://www.republique-numerique.fr/projects/projet-de-loi-numerique/consultation/consultation/opinions/section-1-neutralite-de-l-internet/article-11-neutralite-de-l-internet", 
            "id": "146524", 
            "opinion": "1"
        }, 
        {
            "article_title": "Loyaut\u00e9 du DNS", 
            "date": "2015-10-17T23:40:00+0200", 
            "link": "http://www.republique-numerique.fr/projects/projet-de-loi-numerique/consultation/consultation/opinions/section-1-neutralite-de-l-internet/loyaute-du-dns", 
            "id": "146530", 
            "opinion": "1"
        }, 
        {
            "article_title": "Article 12 - Portabilit\u00e9 des donn\u00e9es", 
            "date": "2015-10-17T23:41:00+0200", 
            "link": "http://www.republique-numerique.fr/projects/projet-de-loi-numerique/consultation/consultation/opinions/section-2-portabilite-des-donnees/article-12-portabilite-des-donnees", 
            "id": "146546", 
            "opinion": "1"
        }, 
        {
            "article_title": "Article 13 - Principe de loyaut\u00e9 des plateformes en lignes", 
            "date": "2015-10-17T23:43:00+0200", 
            "link": "http://www.republique-numerique.fr/projects/projet-de-loi-numerique/consultation/consultation/opinions/section-3-loyaute-des-plateformes/article-13-principe-de-loyaute-vis-a-vis-des-consommateurs", 
            "id": "146582", 
            "opinion": "1"
        }, 
        {
            "article_title": "Article 14 - Informer sur les pratiques des plateformes en ligne", 
            "date": "2015-10-17T23:43:00+0200", 
            "link": "http://www.republique-numerique.fr/projects/projet-de-loi-numerique/consultation/consultation/opinions/section-3-loyaute-des-plateformes/article-14-regulation", 
            "id": "146587", 
            "opinion": "0"
        }, 
        {
            "article_title": "Interdiction de la vente li\u00e9e ordinateur/syst\u00e8me d'exploitation", 
            "date": "2015-10-17T23:43:00+0200", 
            "link": "http://www.republique-numerique.fr/projects/projet-de-loi-numerique/consultation/consultation/opinions/section-3-loyaute-des-plateformes/interdiction-de-la-vente-liee-ordinateur-systeme-d-exploitation", 
            "id": "146591", 
            "opinion": "1"
        }, 
        {
            "article_title": "D\u00e9verrouillage des acc\u00e8s logiciels sur le mat\u00e9riel num\u00e9rique", 
            "date": "2015-10-17T23:44:00+0200", 
            "link": "http://www.republique-numerique.fr/projects/projet-de-loi-numerique/consultation/consultation/opinions/section-3-loyaute-des-plateformes/deverrouillage-des-acces-logiciels-sur-le-materiel-numerique", 
            "id": "146596", 
            "opinion": "1"
        }, 
        {
            "article_title": "La reconnaissance du droit au chiffrement", 
            "date": "2015-10-17T23:47:00+0200", 
            "link": "http://www.republique-numerique.fr/projects/projet-de-loi-numerique/consultation/consultation/opinions/section-1-protection-des-donnees-a-caractere-personnel/la-reconnaissance-du-droit-au-chiffrement", 
            "id": "146633", 
            "opinion": "1"
        }, 
        {
            "article_title": "R\u00e9duire la dur\u00e9e de conservation des donn\u00e9es de connexion", 
            "date": "2015-10-17T23:47:00+0200", 
            "link": "http://www.republique-numerique.fr/projects/projet-de-loi-numerique/consultation/consultation/opinions/section-1-protection-des-donnees-a-caractere-personnel/reduire-la-duree-de-conservation-des-donnees-de-connexion", 
            "id": "146638", 
            "opinion": "1"
        }, 
        {
            "article_title": "Article 17 - Evolution des missions de la CNIL", 
            "date": "2015-10-17T23:48:00+0200", 
            "link": "http://www.republique-numerique.fr/projects/projet-de-loi-numerique/consultation/consultation/opinions/section-1-protection-des-donnees-a-caractere-personnel/article-17-missions-de-la-cnil", 
            "id": "146652", 
            "opinion": "1"
        }, 
        {
            "article_title": "Toute donn\u00e9e de sant\u00e9 produite par quiconque est d\u00e8s sa cr\u00e9ation la propri\u00e9t\u00e9 de la personne \u00e0 laquelle les donn\u00e9es s\u2019appliquent.", 
            "date": "2015-10-17T23:48:00+0200", 
            "link": "http://www.republique-numerique.fr/projects/projet-de-loi-numerique/consultation/consultation/opinions/section-1-protection-des-donnees-a-caractere-personnel/toute-donnee-de-sante-produite-par-quiconque-est-des-sa-creation-la-propriete-de-la-personne-a-laquelle-les-donnees-s-appliquent", 
            "id": "146654", 
            "opinion": "1"
        }, 
        {
            "article_title": "Obligation de signalement d'un vol de donn\u00e9es", 
            "date": "2015-10-17T23:48:00+0200", 
            "link": "http://www.republique-numerique.fr/projects/projet-de-loi-numerique/consultation/consultation/opinions/section-1-protection-des-donnees-a-caractere-personnel/obligation-de-signalement-d-un-vol-de-donnees", 
            "id": "146656", 
            "opinion": "1"
        }, 
        {
            "article_title": "Obligation de stocker les mots de passe de mani\u00e8re s\u00e9curis\u00e9e", 
            "date": "2015-10-17T23:49:00+0200", 
            "link": "http://www.republique-numerique.fr/projects/projet-de-loi-numerique/consultation/consultation/opinions/section-1-protection-des-donnees-a-caractere-personnel/obligation-de-stocker-les-mots-de-passe-de-maniere-securisee", 
            "id": "146661", 
            "opinion": "1"
        }, 
        {
            "article_title": "Article 22 - Secret des correspondances num\u00e9riques", 
            "date": "2015-10-17T23:50:00+0200", 
            "link": "http://www.republique-numerique.fr/projects/projet-de-loi-numerique/consultation/consultation/opinions/section-2-confidentialite-des-correspondances-privees/article-22-respect-des-correspondances-privees-numeriques", 
            "id": "146686", 
            "opinion": "1"
        }, 
        {
            "article_title": "Amendement de la Loi Renseignement pour ajout du juge judiciaire", 
            "date": "2015-10-17T23:50:00+0200", 
            "link": "http://www.republique-numerique.fr/projects/projet-de-loi-numerique/consultation/consultation/opinions/section-2-confidentialite-des-correspondances-privees/amendement-de-la-loi-renseignement-pour-ajout-du-juge-judiciaire", 
            "id": "146690", 
            "opinion": "1"
        }, 
        {
            "article_title": "22 bis : affirmer et encourager le droit au chiffrement des communications", 
            "date": "2015-10-17T23:50:00+0200", 
            "link": "http://www.republique-numerique.fr/projects/projet-de-loi-numerique/consultation/consultation/opinions/section-2-confidentialite-des-correspondances-privees/22-bis-affirmer-et-encourager-le-droit-au-chiffrement-des-communications", 
            "id": "146692", 
            "opinion": "1"
        }, 
        {
            "article_title": "23 : Autoriser les actions de groupe notamment en mati\u00e8re d'atteinte au droit sur les donn\u00e9es personnelles et la neutralit\u00e9 du Net", 
            "date": "2015-10-17T23:50:00+0200", 
            "link": "http://www.republique-numerique.fr/projects/projet-de-loi-numerique/consultation/consultation/opinions/section-2-confidentialite-des-correspondances-privees/23-autoriser-les-actions-de-groupe-notamment-en-matiere-d-atteinte-au-droit-sur-les-donnees-personnelles-et-la-neutralite-du-net", 
            "id": "146694", 
            "opinion": "1"
        }, 
        {
            "article_title": "Droit \u00e0 l'internet", 
            "date": "2015-10-17T23:52:00+0200", 
            "link": "http://www.republique-numerique.fr/projects/projet-de-loi-numerique/consultation/consultation/opinions/section-1-competences-et-organisation/droit-a-l-internet", 
            "id": "146711", 
            "opinion": "1"
        }, 
        {
            "article_title": "Implication des citoyens dans la r\u00e9daction et l'\u00e9laboration des lois via le net", 
            "date": "2015-10-17T23:52:00+0200", 
            "link": "http://www.republique-numerique.fr/projects/projet-de-loi-numerique/consultation/consultation/opinions/section-1-competences-et-organisation/implication-des-citoyens-dans-la-redaction-et-l-elaboration-des-lois-via-le-net", 
            "id": "146714", 
            "opinion": "1"
        }, 
        {
            "article_title": "L'obligation des FAI de permettre l'auto-h\u00e9bergement", 
            "date": "2015-10-17T23:54:00+0200", 
            "link": "http://www.republique-numerique.fr/projects/projet-de-loi-numerique/consultation/consultation/opinions/section-2-couverture-numerique/l-obligation-des-fai-de-permettre-l-auto-hebergement", 
            "id": "146734", 
            "opinion": "1"
        }, 
        {
            "article_title": "Article 27 - Paiement par SMS", 
            "date": "2015-10-17T23:55:00+0200", 
            "link": "http://www.republique-numerique.fr/projects/projet-de-loi-numerique/consultation/consultation/opinions/section-2-paiement-par-sms/article-27-paiement-par-sms", 
            "id": "146757", 
            "opinion": "-1"
        }, 
        {
            "article_title": "Encadrer les moyens de paiement par le biais de la facture Internet de mani\u00e8re \u00e0 garantir les droits du consommateur", 
            "date": "2015-10-17T23:56:00+0200", 
            "link": "http://www.republique-numerique.fr/projects/projet-de-loi-numerique/consultation/consultation/opinions/section-2-paiement-par-sms/encadrer-les-moyens-de-paiement-par-le-biais-de-la-facture-internet-de-maniere-a-garantir-les-droits-du-consommateur", 
            "id": "146769", 
            "opinion": "1"
        }, 
        {
            "article_title": "Article 28 - Accessibilit\u00e9 des services publics, des services client et des offres de communications \u00e9lectroniques aux personnes sourdes et malentendantes", 
            "date": "2015-10-17T23:57:00+0200", 
            "link": "http://www.republique-numerique.fr/projects/projet-de-loi-numerique/consultation/consultation/opinions/section-1-accessibilite-des-personnes-handicapees-aux-services-telephoniques/article-28-accueil-telephonique-des-personnes-publiques-et-des-entreprises-offre-pour-les-deficients-auditifs", 
            "id": "146781", 
            "opinion": "1"
        }, 
        {
            "article_title": "Respect du R\u00e9f\u00e9rentiel G\u00e9n\u00e9ral d'Interop\u00e9rabilit\u00e9 (RGI) dans les administrations", 
            "date": "2015-10-17T23:57:00+0200", 
            "link": "http://www.republique-numerique.fr/projects/projet-de-loi-numerique/consultation/consultation/opinions/section-1-accessibilite-des-personnes-handicapees-aux-services-telephoniques/respect-du-referentiel-general-d-interoperabilite-rgi-dans-les-administrations", 
            "id": "146786", 
            "opinion": "1"
        }, 
        {
            "article_title": "Article 29 - Accessibilit\u00e9 aux personnes handicap\u00e9es des sites internet des administrations", 
            "date": "2015-10-17T23:58:00+0200", 
            "link": "http://www.republique-numerique.fr/projects/projet-de-loi-numerique/consultation/consultation/opinions/section-2-accessibilite-des-personnes-handicapees-aux-sites-internet-publics/article-29-accessibilite-numerique-des-services-publics", 
            "id": "146797", 
            "opinion": "1"
        }, 
        {
            "article_title": "Accessibilit\u00e9 des sites internet des services de communication audiovisuelle", 
            "date": "2015-10-17T23:58:00+0200", 
            "link": "http://www.republique-numerique.fr/projects/projet-de-loi-numerique/consultation/consultation/opinions/section-2-accessibilite-des-personnes-handicapees-aux-sites-internet-publics/accessibilite-des-sites-internet-des-services-de-communication-audiovisuelle", 
            "id": "146802", 
            "opinion": "1"
        }, 
        {
            "article_title": "Traduction en LSF des sites internet du service public", 
            "date": "2015-10-17T23:58:00+0200", 
            "link": "http://www.republique-numerique.fr/projects/projet-de-loi-numerique/consultation/consultation/opinions/section-2-accessibilite-des-personnes-handicapees-aux-sites-internet-publics/traduction-en-lsf-des-sites-internet-de-service-public", 
            "id": "146803", 
            "opinion": "1"
        }, 
        {
            "article_title": "maintien des adresses email y compris quand elles d\u00e9pendent d'un FAI", 
            "date": "2015-10-17T23:59:00+0200", 
            "link": "http://www.republique-numerique.fr/projects/projet-de-loi-numerique/consultation/consultation/opinions/section-3-maintien-de-la-connexion-internet/maintien-des-adresses-email-y-compris-quand-elles-dependent-d-un-fai", 
            "id": "146823", 
            "opinion": "0"
        }, 
        {
            "article_title": "Article 30 - Maintien de la connexion", 
            "date": "2015-10-18T00:00:00+0200", 
            "link": "http://www.republique-numerique.fr/projects/projet-de-loi-numerique/consultation/consultation/opinions/section-3-maintien-de-la-connexion-internet/article-30-maintien-temporaire-de-la-connexion", 
            "id": "146824", 
            "opinion": "1"
        }
    ], 
    "sources": [], 
    "votes_count": 62, 
    "arguments": [], 
    "arguments_count": 0, 
    "propositions_count": 0, 
    "contributions_count": 0
}