{
    "modifications": [], 
    "modifications_count": 0, 
    "sources_count": 0, 
    "propositions": [], 
    "votes": [
        {
            "article_title": "Instaurer la libert\u00e9 de panorama en France", 
            "date": "2015-10-15T15:58:00+0200", 
            "link": "http://www.republique-numerique.fr/projects/projet-de-loi-numerique/consultation/consultation/opinions/section-1-les-communs/instaurer-la-liberte-de-panorama-en-france", 
            "id": "98517", 
            "opinion": "-1"
        }, 
        {
            "article_title": "Retirer l'exception de panorama", 
            "date": "2015-10-18T13:27:00+0200", 
            "link": "http://www.republique-numerique.fr/projects/projet-de-loi-numerique/consultation/consultation/opinions/section-1-les-communs/instaurer-la-liberte-de-panorama-en-france/versions/les-auteurs-ne-sont-pas-fous-ou-stupides-ils-sont-les-premiers-a-autoriser-la-reproduction-et-la-circulation-de-leurs-oeuvres-gracieusement-en-faveur-de-demarches-non-commerciales", 
            "id": "152109", 
            "opinion": "1"
        }
    ], 
    "sources": [], 
    "votes_count": 2, 
    "arguments": [], 
    "arguments_count": 0, 
    "propositions_count": 0, 
    "contributions_count": 0
}