{
    "modifications": [], 
    "modifications_count": 0, 
    "sources_count": 0, 
    "propositions": [], 
    "votes": [
        {
            "article_title": "ADDENDUM: La proposition de modification de l'arti...", 
            "date": "2015-10-17T00:28:00+0200", 
            "link": "http://www.republique-numerique.fr/projects/projet-de-loi-numerique/consultation/consultation/opinions/section-2-travaux-de-recherche-et-de-statistique/les-competitions-de-jeux-video-e-sport/versions/extension-du-dispositif-aux-jeux-videos-produits-par-des-studios-etrangers-representant-la-majorite-des-competitions-e-sportives#arg-4974", 
            "id": "128765", 
            "opinion": "1"
        }, 
        {
            "article_title": "Ne m\u00e9langeons pas tout et proc\u00e9dons par \u00e9tape....", 
            "date": "2015-10-17T00:29:00+0200", 
            "link": "http://www.republique-numerique.fr/projects/projet-de-loi-numerique/consultation/consultation/opinions/section-2-travaux-de-recherche-et-de-statistique/les-competitions-de-jeux-video-e-sport/versions/joueurs-pro#arg-5063", 
            "id": "128775", 
            "opinion": "1"
        }, 
        {
            "article_title": "Le fait de changer ce statut sur L'Esport permettr...", 
            "date": "2015-10-17T00:30:00+0200", 
            "link": "http://www.republique-numerique.fr/projects/projet-de-loi-numerique/consultation/consultation/opinions/section-2-travaux-de-recherche-et-de-statistique/les-competitions-de-jeux-video-e-sport#arg-5023", 
            "id": "128788", 
            "opinion": "1"
        }, 
        {
            "article_title": "Votre proposition me parait tr\u00e8s incompl\u00e8te. En ...", 
            "date": "2015-10-17T00:31:00+0200", 
            "link": "http://www.republique-numerique.fr/projects/projet-de-loi-numerique/consultation/consultation/opinions/section-2-travaux-de-recherche-et-de-statistique/les-competitions-de-jeux-video-e-sport#arg-4827", 
            "id": "128801", 
            "opinion": "1"
        }, 
        {
            "article_title": "Article additionnel : Les comp\u00e9titions de jeux vid\u00e9o \u00ab e-sport \u00bb", 
            "date": "2015-10-17T00:38:00+0200", 
            "link": "http://www.republique-numerique.fr/projects/projet-de-loi-numerique/consultation/consultation/opinions/section-2-travaux-de-recherche-et-de-statistique/les-competitions-de-jeux-video-e-sport", 
            "id": "128882", 
            "opinion": "1"
        }
    ], 
    "sources": [], 
    "votes_count": 5, 
    "arguments": [
        {
            "article_title": "Signaler", 
            "votes": 13, 
            "article_link": "http://www.republique-numerique.fr/consultations/projet-de-loi-numerique/consultation/consultation/opinions/section-2-travaux-de-recherche-et-de-statistique/les-competitions-de-jeux-video-e-sport/arguments/5093/report", 
            "link": "http://www.republique-numerique.fr/consultations/projet-de-loi-numerique/consultation/consultation/opinions/section-2-travaux-de-recherche-et-de-statistique/les-competitions-de-jeux-video-e-sport/arguments/5093/report#arg-5093", 
            "date": "2015-10-17T00:33:00+0200", 
            "id": "5093"
        }
    ], 
    "arguments_count": 1, 
    "propositions_count": 0, 
    "contributions_count": 1
}