{
    "modifications": [], 
    "modifications_count": 0, 
    "sources_count": 0, 
    "propositions": [], 
    "votes": [
        {
            "article_title": "Article 8 bis - Libert\u00e9 de panorama", 
            "date": "2015-10-17T12:20:00+0200", 
            "link": "http://www.republique-numerique.fr/projects/projet-de-loi-numerique/consultation/consultation/opinions/section-1-les-communs/liberte-de-panorama", 
            "id": "134149", 
            "opinion": "-1"
        }, 
        {
            "article_title": "La libert\u00e9 de panorama", 
            "date": "2015-10-17T12:23:00+0200", 
            "link": "http://www.republique-numerique.fr/projects/projet-de-loi-numerique/consultation/consultation/opinions/section-1-les-communs/instaurer-la-liberte-de-panorama-en-france/versions/la-liberte-de-panorama", 
            "id": "134208", 
            "opinion": "0"
        }
    ], 
    "sources": [], 
    "votes_count": 2, 
    "arguments": [], 
    "arguments_count": 0, 
    "propositions_count": 0, 
    "contributions_count": 0
}