{
    "modifications": [], 
    "modifications_count": 0, 
    "sources_count": 0, 
    "propositions": [], 
    "votes": [
        {
            "article_title": "Elargissement du service", 
            "date": "2015-10-12T23:26:00+0200", 
            "link": "http://www.republique-numerique.fr/projects/projet-de-loi-numerique/consultation/consultation/opinions/section-1-accessibilite-des-personnes-handicapees-aux-services-telephoniques/elargissement-du-service", 
            "id": "57785", 
            "opinion": "1"
        }, 
        {
            "article_title": "Dignit\u00e9 des personnes sourdes et malentendantes", 
            "date": "2015-10-12T23:27:00+0200", 
            "link": "http://www.republique-numerique.fr/projects/projet-de-loi-numerique/consultation/consultation/opinions/section-1-accessibilite-des-personnes-handicapees-aux-services-telephoniques/dignite-des-personnes-sourdes-et-malentendantes", 
            "id": "57790", 
            "opinion": "1"
        }, 
        {
            "article_title": "Elargir \u00e0 des op\u00e9rateurs comp\u00e9tents en LSF", 
            "date": "2015-10-12T23:27:00+0200", 
            "link": "http://www.republique-numerique.fr/projects/projet-de-loi-numerique/consultation/consultation/opinions/section-1-accessibilite-des-personnes-handicapees-aux-services-telephoniques/elargir-a-des-operateurs-competents-en-lsf", 
            "id": "57793", 
            "opinion": "1"
        }, 
        {
            "article_title": "Prix du service d'accessibilit\u00e9", 
            "date": "2015-10-12T23:28:00+0200", 
            "link": "http://www.republique-numerique.fr/projects/projet-de-loi-numerique/consultation/consultation/opinions/section-1-accessibilite-des-personnes-handicapees-aux-services-telephoniques/prix-du-service-d-accessibilite", 
            "id": "57797", 
            "opinion": "1"
        }
    ], 
    "sources": [], 
    "votes_count": 4, 
    "arguments": [], 
    "arguments_count": 0, 
    "propositions_count": 0, 
    "contributions_count": 0
}