{
    "modifications": [], 
    "modifications_count": 0, 
    "sources_count": 0, 
    "propositions": [
        {
            "article_title": "Instaurer la libert\u00e9 de panorama en France", 
            "votes": {
                "data-ok": "1824", 
                "data-mitige": "68", 
                "data-nok": "1403"
            }, 
            "stats": {
                "sources": "3", 
                "votes": "3295", 
                "modifications": "22", 
                "arguments": "74"
            }, 
            "id": "265", 
            "article_link": "/projects/projet-de-loi-numerique/consultation/consultation/opinions/section-1-les-communs/instaurer-la-liberte-de-panorama-en-france"
        }
    ], 
    "votes": [
        {
            "article_title": "Instaurer la libert\u00e9 de panorama en France", 
            "date": "2015-09-28T20:25:00+0200", 
            "link": "http://www.republique-numerique.fr/projects/projet-de-loi-numerique/consultation/consultation/opinions/section-1-les-communs/instaurer-la-liberte-de-panorama-en-france", 
            "id": "12170", 
            "opinion": "1"
        }
    ], 
    "sources": [], 
    "votes_count": 1, 
    "arguments": [], 
    "arguments_count": 2, 
    "propositions_count": 1, 
    "contributions_count": 3
}