{
    "modifications": [], 
    "modifications_count": 0, 
    "sources_count": 0, 
    "propositions": [], 
    "votes": [
        {
            "article_title": "Champ d'application de l'article 1 \u00e9tendu aux collectivit\u00e9s locales", 
            "date": "2015-09-26T15:52:00+0200", 
            "link": "http://www.republique-numerique.fr/projects/projet-de-loi-numerique/consultation/consultation/opinions/section-1-ouverture-des-donnees-publiques-1/article-1-elargissement-du-champ-de-diffusion-par-l-administration/versions/champ-d-application-de-l-article-1-etendu-aux-collectivites-locales", 
            "id": "1204", 
            "opinion": "1"
        }, 
        {
            "article_title": "OUVERTURE DES DONNEES PUBLIQUES", 
            "date": "2015-09-26T15:56:00+0200", 
            "link": "http://www.republique-numerique.fr/projects/projet-de-loi-numerique/consultation/consultation/opinions/section-1-ouverture-des-donnees-publiques-1/article-1-elargissement-du-champ-de-diffusion-par-l-administration/versions/ouverture-des-donnees-publiques", 
            "id": "1219", 
            "opinion": "1"
        }, 
        {
            "article_title": "Article 15 de la loi de 1978 modifi\u00e9e pour r\u00e9afirm\u00e9 le principe: \"La r\u00e9utilisation d'informations publiques est gratuite\"", 
            "date": "2015-09-26T16:00:00+0200", 
            "link": "http://www.republique-numerique.fr/projects/projet-de-loi-numerique/consultation/consultation/opinions/section-1-ouverture-des-donnees-publiques-1/article-1-elargissement-du-champ-de-diffusion-par-l-administration/versions/article-15-de-la-loi-de-1978-modifiee-pour-reafirme-le-principe-la-reutilisation-d-informations-publiques-est-gratuite", 
            "id": "1240", 
            "opinion": "1"
        }, 
        {
            "article_title": "Simplifier les fondamentaux: \"qui\" doit publier des documents", 
            "date": "2015-09-26T16:04:00+0200", 
            "link": "http://www.republique-numerique.fr/projects/projet-de-loi-numerique/consultation/consultation/opinions/section-1-ouverture-des-donnees-publiques-1/article-1-elargissement-du-champ-de-diffusion-par-l-administration/versions/simplifier-les-fondamentaux-qui-doit-publier-des-documents", 
            "id": "1252", 
            "opinion": "1"
        }, 
        {
            "article_title": "Inclusion des collectivit\u00e9s localeset des EPCI \u00e0 fiscalit\u00e9 propre", 
            "date": "2015-09-26T16:05:00+0200", 
            "link": "http://www.republique-numerique.fr/projects/projet-de-loi-numerique/consultation/consultation/opinions/section-1-ouverture-des-donnees-publiques-1/article-1-elargissement-du-champ-de-diffusion-par-l-administration/versions/inclusion-des-collectivites-locales-et-des-epci-a-fiscalite-propre", 
            "id": "1259", 
            "opinion": "1"
        }, 
        {
            "article_title": "D\u00e9termination du seuil par la loi au lieu du renvoi au d\u00e9cret", 
            "date": "2015-09-26T16:22:00+0200", 
            "link": "http://www.republique-numerique.fr/projects/projet-de-loi-numerique/consultation/consultation/opinions/section-1-ouverture-des-donnees-publiques-1/article-1-elargissement-du-champ-de-diffusion-par-l-administration/versions/determination-du-seuil-par-la-loi-au-lieu-du-renvoi-au-decret", 
            "id": "1341", 
            "opinion": "1"
        }, 
        {
            "article_title": "Ecole entreprise R\u00e9union", 
            "date": "2015-09-26T16:28:00+0200", 
            "link": "http://www.republique-numerique.fr/projects/projet-de-loi-numerique/consultation/consultation/opinions/section-1-ouverture-des-donnees-publiques-1/ecole-entreprise-reunion", 
            "id": "1370", 
            "opinion": "-1"
        }, 
        {
            "article_title": "Acc\u00e8s des personnes d\u00e9tenues au num\u00e9rique", 
            "date": "2015-09-26T16:39:00+0200", 
            "link": "http://www.republique-numerique.fr/projects/projet-de-loi-numerique/consultation/consultation/opinions/section-3-maintien-de-la-connexion-internet/acces-des-personnes-detenues-au-numerique", 
            "id": "1437", 
            "opinion": "-1"
        }, 
        {
            "article_title": "Article 30 - Maintien de la connexion", 
            "date": "2015-09-26T16:40:00+0200", 
            "link": "http://www.republique-numerique.fr/projects/projet-de-loi-numerique/consultation/consultation/opinions/section-3-maintien-de-la-connexion-internet/article-30-maintien-temporaire-de-la-connexion", 
            "id": "1444", 
            "opinion": "-1"
        }, 
        {
            "article_title": "Article 29 - Accessibilit\u00e9 aux personnes handicap\u00e9es des sites internet des administrations", 
            "date": "2015-09-26T16:45:00+0200", 
            "link": "http://www.republique-numerique.fr/projects/projet-de-loi-numerique/consultation/consultation/opinions/section-2-accessibilite-des-personnes-handicapees-aux-sites-internet-publics/article-29-accessibilite-numerique-des-services-publics", 
            "id": "1474", 
            "opinion": "-1"
        }, 
        {
            "article_title": "Acc\u00e8s aux personnes isol\u00e9es et \u00e2g\u00e9es", 
            "date": "2015-09-26T16:48:00+0200", 
            "link": "http://www.republique-numerique.fr/projects/projet-de-loi-numerique/consultation/consultation/opinions/section-1-accessibilite-des-personnes-handicapees-aux-services-telephoniques/acces-aux-personnes-isolees-et-agees", 
            "id": "1489", 
            "opinion": "1"
        }, 
        {
            "article_title": "Article 28 - Accessibilit\u00e9 des services publics, des services client et des offres de communications \u00e9lectroniques aux personnes sourdes et malentendantes", 
            "date": "2015-09-26T16:49:00+0200", 
            "link": "http://www.republique-numerique.fr/projects/projet-de-loi-numerique/consultation/consultation/opinions/section-1-accessibilite-des-personnes-handicapees-aux-services-telephoniques/article-28-accueil-telephonique-des-personnes-publiques-et-des-entreprises-offre-pour-les-deficients-auditifs", 
            "id": "1495", 
            "opinion": "-1"
        }, 
        {
            "article_title": "Article 27 - Paiement par SMS", 
            "date": "2015-09-26T16:52:00+0200", 
            "link": "http://www.republique-numerique.fr/projects/projet-de-loi-numerique/consultation/consultation/opinions/section-2-paiement-par-sms/article-27-paiement-par-sms", 
            "id": "1512", 
            "opinion": "-1"
        }, 
        {
            "article_title": "Article 26 - D\u00e9finition d\u2019un cadre de confiance pour le recommand\u00e9 \u00e9lectronique", 
            "date": "2015-09-26T16:56:00+0200", 
            "link": "http://www.republique-numerique.fr/projects/projet-de-loi-numerique/consultation/consultation/opinions/section-1-recommande-electronique/article-26-recommande-electronique", 
            "id": "1528", 
            "opinion": "1"
        }, 
        {
            "article_title": "Article 26bis - Portage de la plateforme contribuez.republique-numerique.fr \u00e0 d'autre projet de loi", 
            "date": "2015-09-26T16:58:00+0200", 
            "link": "http://www.republique-numerique.fr/projects/projet-de-loi-numerique/consultation/consultation/opinions/section-1-recommande-electronique/article-26bis-portage-de-la-plateforme-contribuez-republique-numerique-fr-a-d-autre-projet-de-loi", 
            "id": "1539", 
            "opinion": "1"
        }, 
        {
            "article_title": "Cr\u00e9ation d'un plate-forme de r\u00e9vision de la consitution", 
            "date": "2015-09-26T16:58:00+0200", 
            "link": "http://www.republique-numerique.fr/projects/projet-de-loi-numerique/consultation/consultation/opinions/section-1-recommande-electronique/creation-d-un-plate-forme-de-revision-de-la-consitution", 
            "id": "1548", 
            "opinion": "-1"
        }, 
        {
            "article_title": "Article 24 - Ouverture des donn\u00e9es de la couverture num\u00e9rique des territoires", 
            "date": "2015-09-26T17:03:00+0200", 
            "link": "http://www.republique-numerique.fr/projects/projet-de-loi-numerique/consultation/consultation/opinions/section-2-couverture-numerique/article-24-publicite-de-la-qualite-des-services-numeriques", 
            "id": "1601", 
            "opinion": "1"
        }, 
        {
            "article_title": "Couverture num\u00e9rique des langues patrimoniales de la R\u00e9publique", 
            "date": "2015-09-26T17:08:00+0200", 
            "link": "http://www.republique-numerique.fr/projects/projet-de-loi-numerique/consultation/consultation/opinions/section-2-couverture-numerique/couverture-numerique-des-langues-patrimoniales-de-la-republique", 
            "id": "1637", 
            "opinion": "-1"
        }, 
        {
            "article_title": "R\u00e9seau internet public", 
            "date": "2015-09-26T17:10:00+0200", 
            "link": "http://www.republique-numerique.fr/projects/projet-de-loi-numerique/consultation/consultation/opinions/section-2-couverture-numerique/reseau-internet-public", 
            "id": "1642", 
            "opinion": "-1"
        }, 
        {
            "article_title": "Article 23 - D\u00e9veloppement des usages num\u00e9riques dans les territoires", 
            "date": "2015-09-26T17:17:00+0200", 
            "link": "http://www.republique-numerique.fr/projects/projet-de-loi-numerique/consultation/consultation/opinions/section-1-competences-et-organisation/article-23-schema-directeur-numerique-des-collectivites", 
            "id": "1665", 
            "opinion": "-1"
        }, 
        {
            "article_title": "Article 25 - Modification des principes d\u2019\u00e9tablissement des redevances d\u2019utilisation des fr\u00e9quences", 
            "date": "2015-09-26T17:18:00+0200", 
            "link": "http://www.republique-numerique.fr/projects/projet-de-loi-numerique/consultation/consultation/opinions/section-2-couverture-numerique/article-25-principe-de-calcul-des-redevances-d-usage-des-frequences", 
            "id": "1675", 
            "opinion": "-1"
        }, 
        {
            "article_title": "Droit \u00e0 l'internet", 
            "date": "2015-09-26T17:19:00+0200", 
            "link": "http://www.republique-numerique.fr/projects/projet-de-loi-numerique/consultation/consultation/opinions/section-1-competences-et-organisation/droit-a-l-internet", 
            "id": "1678", 
            "opinion": "-1"
        }, 
        {
            "article_title": "Apprentissage de la programmation", 
            "date": "2015-09-26T17:19:00+0200", 
            "link": "http://www.republique-numerique.fr/projects/projet-de-loi-numerique/consultation/consultation/opinions/section-1-competences-et-organisation/apprentissage-de-la-programmation", 
            "id": "1680", 
            "opinion": "-1"
        }, 
        {
            "article_title": "Limiter", 
            "date": "2015-09-26T17:26:00+0200", 
            "link": "http://www.republique-numerique.fr/projects/projet-de-loi-numerique/consultation/consultation/opinions/section-2-confidentialite-des-correspondances-privees/amendement-de-la-loi-renseignement-pour-ajout-du-juge-judiciaire/versions/limiter", 
            "id": "1715", 
            "opinion": "0"
        }, 
        {
            "article_title": "Amendement de la Loi Renseignement pour ajout du juge judiciaire", 
            "date": "2015-09-26T17:28:00+0200", 
            "link": "http://www.republique-numerique.fr/projects/projet-de-loi-numerique/consultation/consultation/opinions/section-2-confidentialite-des-correspondances-privees/amendement-de-la-loi-renseignement-pour-ajout-du-juge-judiciaire", 
            "id": "1697", 
            "opinion": "-1"
        }, 
        {
            "article_title": "Article 22 - Secret des correspondances num\u00e9riques", 
            "date": "2015-09-26T17:28:00+0200", 
            "link": "http://www.republique-numerique.fr/projects/projet-de-loi-numerique/consultation/consultation/opinions/section-2-confidentialite-des-correspondances-privees/article-22-respect-des-correspondances-privees-numeriques", 
            "id": "1725", 
            "opinion": "1"
        }, 
        {
            "article_title": "Article 16 - Libre disposition de ses donn\u00e9es", 
            "date": "2015-09-26T17:29:00+0200", 
            "link": "http://www.republique-numerique.fr/projects/projet-de-loi-numerique/consultation/consultation/opinions/section-1-protection-des-donnees-a-caractere-personnel/article-16-libre-disposition-de-ses-donnees-a-caractere-personnel", 
            "id": "1728", 
            "opinion": "1"
        }, 
        {
            "article_title": "Article 17 - Evolution des missions de la CNIL", 
            "date": "2015-09-26T17:31:00+0200", 
            "link": "http://www.republique-numerique.fr/projects/projet-de-loi-numerique/consultation/consultation/opinions/section-1-protection-des-donnees-a-caractere-personnel/article-17-missions-de-la-cnil", 
            "id": "1743", 
            "opinion": "1"
        }, 
        {
            "article_title": "Participation \u00e0 la CNCTR", 
            "date": "2015-09-26T17:31:00+0200", 
            "link": "http://www.republique-numerique.fr/projects/projet-de-loi-numerique/consultation/consultation/opinions/section-1-protection-des-donnees-a-caractere-personnel/article-17-missions-de-la-cnil/versions/participation-a-la-cnctr", 
            "id": "1744", 
            "opinion": "-1"
        }, 
        {
            "article_title": "La CNIL peut donner son avis sur tout texte relatif \u00e0 un traitement.", 
            "date": "2015-09-26T17:33:00+0200", 
            "link": "http://www.republique-numerique.fr/projects/projet-de-loi-numerique/consultation/consultation/opinions/section-1-protection-des-donnees-a-caractere-personnel/article-17-missions-de-la-cnil/versions/la-cnil-peut-donner-son-avis-sur-tout-texte-relatif-a-un-traitement", 
            "id": "1751", 
            "opinion": "1"
        }, 
        {
            "article_title": "Article 18 - Certificat de conformit\u00e9", 
            "date": "2015-09-26T17:34:00+0200", 
            "link": "http://www.republique-numerique.fr/projects/projet-de-loi-numerique/consultation/consultation/opinions/section-1-protection-des-donnees-a-caractere-personnel/article-18-certificat-de-conformite", 
            "id": "1752", 
            "opinion": "1"
        }, 
        {
            "article_title": "La d\u00e9livrance d'un tel certificat de conformit\u00e9 ...", 
            "date": "2015-09-26T17:35:00+0200", 
            "link": "http://www.republique-numerique.fr/projects/projet-de-loi-numerique/consultation/consultation/opinions/section-1-protection-des-donnees-a-caractere-personnel/article-18-certificat-de-conformite#arg-68", 
            "id": "1754", 
            "opinion": "1"
        }, 
        {
            "article_title": "Article 19 - Droit \u00e0 l\u2019oubli pour les mineurs", 
            "date": "2015-09-26T17:36:00+0200", 
            "link": "http://www.republique-numerique.fr/projects/projet-de-loi-numerique/consultation/consultation/opinions/section-1-protection-des-donnees-a-caractere-personnel/article-19-droit-a-l-oubli-pour-les-mineurs-procedure-acceleree", 
            "id": "1760", 
            "opinion": "1"
        }, 
        {
            "article_title": "Pourquoi ne pas \u00e9largir \u00e0 l'ensemble des citoyen...", 
            "date": "2015-09-26T17:36:00+0200", 
            "link": "http://www.republique-numerique.fr/projects/projet-de-loi-numerique/consultation/consultation/opinions/section-1-protection-des-donnees-a-caractere-personnel/article-19-droit-a-l-oubli-pour-les-mineurs-procedure-acceleree#arg-7", 
            "id": "1763", 
            "opinion": "1"
        }, 
        {
            "article_title": "Quid du droit \u00e0 l'oubli des majeurs ?...", 
            "date": "2015-09-26T17:36:00+0200", 
            "link": "http://www.republique-numerique.fr/projects/projet-de-loi-numerique/consultation/consultation/opinions/section-1-protection-des-donnees-a-caractere-personnel/article-19-droit-a-l-oubli-pour-les-mineurs-procedure-acceleree#arg-3", 
            "id": "1764", 
            "opinion": "1"
        }, 
        {
            "article_title": "1) Le droit \u00e0 l'oubli du mineur doit pouvoir \u00eatr...", 
            "date": "2015-09-26T17:37:00+0200", 
            "link": "http://www.republique-numerique.fr/projects/projet-de-loi-numerique/consultation/consultation/opinions/section-1-protection-des-donnees-a-caractere-personnel/article-19-droit-a-l-oubli-pour-les-mineurs-procedure-acceleree#arg-9", 
            "id": "1768", 
            "opinion": "1"
        }, 
        {
            "article_title": "Modification premier alin\u00e9a", 
            "date": "2015-09-26T17:44:00+0200", 
            "link": "http://www.republique-numerique.fr/projects/projet-de-loi-numerique/consultation/consultation/opinions/section-1-protection-des-donnees-a-caractere-personnel/article-19-droit-a-l-oubli-pour-les-mineurs-procedure-acceleree/versions/modification-premier-alinea", 
            "id": "1792", 
            "opinion": "1"
        }, 
        {
            "article_title": "Il n'y a aucune raison de diff\u00e9rencier mineur et majeur c'est un droit fondamental", 
            "date": "2015-09-26T17:45:00+0200", 
            "link": "http://www.republique-numerique.fr/projects/projet-de-loi-numerique/consultation/consultation/opinions/section-1-protection-des-donnees-a-caractere-personnel/article-19-droit-a-l-oubli-pour-les-mineurs-procedure-acceleree/versions/il-n-y-a-aucune-raison-de-differencier-mineur-et-majeur-c-est-un-droit-fondamental", 
            "id": "1800", 
            "opinion": "1"
        }, 
        {
            "article_title": "Sanctions", 
            "date": "2015-09-26T17:45:00+0200", 
            "link": "http://www.republique-numerique.fr/projects/projet-de-loi-numerique/consultation/consultation/opinions/section-1-protection-des-donnees-a-caractere-personnel/article-19-droit-a-l-oubli-pour-les-mineurs-procedure-acceleree/versions/sanctions", 
            "id": "1802", 
            "opinion": "1"
        }, 
        {
            "article_title": "Auteur de la publication des donn\u00e9es \u00e0 caract\u00e8re personnel", 
            "date": "2015-09-26T17:46:00+0200", 
            "link": "http://www.republique-numerique.fr/projects/projet-de-loi-numerique/consultation/consultation/opinions/section-1-protection-des-donnees-a-caractere-personnel/article-19-droit-a-l-oubli-pour-les-mineurs-procedure-acceleree/versions/auteur-de-la-publication-des-donnees-a-caractere-personnel", 
            "id": "1810", 
            "opinion": "0"
        }, 
        {
            "article_title": "Proc\u00e9dure acc\u00e9l\u00e9r\u00e9e/proc\u00e9dure ordinaire ?", 
            "date": "2015-09-26T17:47:00+0200", 
            "link": "http://www.republique-numerique.fr/projects/projet-de-loi-numerique/consultation/consultation/opinions/section-1-protection-des-donnees-a-caractere-personnel/article-19-droit-a-l-oubli-pour-les-mineurs-procedure-acceleree/versions/procedure-acceleree-procedure-ordinaire", 
            "id": "1814", 
            "opinion": "1"
        }, 
        {
            "article_title": "Champ d'application restreint aux mineurs", 
            "date": "2015-09-26T17:49:00+0200", 
            "link": "http://www.republique-numerique.fr/projects/projet-de-loi-numerique/consultation/consultation/opinions/section-1-protection-des-donnees-a-caractere-personnel/article-19-droit-a-l-oubli-pour-les-mineurs-procedure-acceleree/versions/champ-d-application-restreint-aux-mineurs", 
            "id": "1823", 
            "opinion": "-1"
        }, 
        {
            "article_title": "Manque de pr\u00e9cisions concernant les d\u00e9lais", 
            "date": "2015-09-26T17:51:00+0200", 
            "link": "http://www.republique-numerique.fr/projects/projet-de-loi-numerique/consultation/consultation/opinions/section-1-protection-des-donnees-a-caractere-personnel/article-19-droit-a-l-oubli-pour-les-mineurs-procedure-acceleree/versions/manque-de-precisions-concernant-les-delais", 
            "id": "1829", 
            "opinion": "1"
        }, 
        {
            "article_title": "Pr\u00e9cision du d\u00e9lai de suppression des donn\u00e9es \u00e0 caract\u00e8re personnel", 
            "date": "2015-09-26T17:54:00+0200", 
            "link": "http://www.republique-numerique.fr/projects/projet-de-loi-numerique/consultation/consultation/opinions/section-1-protection-des-donnees-a-caractere-personnel/article-19-droit-a-l-oubli-pour-les-mineurs-procedure-acceleree/versions/precision-du-delai-de-suppression-des-donnees-a-caractere-personnel", 
            "id": "1841", 
            "opinion": "1"
        }, 
        {
            "article_title": "Article 20 - Mort num\u00e9rique", 
            "date": "2015-09-26T17:55:00+0200", 
            "link": "http://www.republique-numerique.fr/projects/projet-de-loi-numerique/consultation/consultation/opinions/section-1-protection-des-donnees-a-caractere-personnel/article-20-personnes-decedees", 
            "id": "1848", 
            "opinion": "1"
        }, 
        {
            "article_title": "Enregistrement des directives aupr\u00e8s de la CNIL", 
            "date": "2015-09-26T17:56:00+0200", 
            "link": "http://www.republique-numerique.fr/projects/projet-de-loi-numerique/consultation/consultation/opinions/section-1-protection-des-donnees-a-caractere-personnel/article-20-personnes-decedees/versions/enregistrement-des-directives-aupres-de-la-cnil", 
            "id": "1850", 
            "opinion": "1"
        }, 
        {
            "article_title": "Article 15 - Mieux informer sur les avis en ligne et sur les d\u00e9bits", 
            "date": "2015-09-26T17:58:00+0200", 
            "link": "http://www.republique-numerique.fr/projects/projet-de-loi-numerique/consultation/consultation/opinions/section-4-information-des-consommateurs/article-15-information-des-consommateurs-et-avis-en-ligne", 
            "id": "1857", 
            "opinion": "1"
        }, 
        {
            "article_title": "Pr\u00e9cision du service ou de la personne concern\u00e9e", 
            "date": "2015-09-26T17:59:00+0200", 
            "link": "http://www.republique-numerique.fr/projects/projet-de-loi-numerique/consultation/consultation/opinions/section-4-information-des-consommateurs/article-15-information-des-consommateurs-et-avis-en-ligne/versions/precision-du-service-ou-de-la-personne-concernee", 
            "id": "1865", 
            "opinion": "1"
        }, 
        {
            "article_title": "Cr\u00e9ation d'un statut de l'acteur collaboratif", 
            "date": "2015-09-26T18:02:00+0200", 
            "link": "http://www.republique-numerique.fr/projects/projet-de-loi-numerique/consultation/consultation/opinions/section-4-information-des-consommateurs/creation-d-un-statut-de-l-acteur-collaboratif", 
            "id": "1886", 
            "opinion": "-1"
        }, 
        {
            "article_title": "Article 13 - Principe de loyaut\u00e9 des plateformes en lignes", 
            "date": "2015-09-26T18:03:00+0200", 
            "link": "http://www.republique-numerique.fr/projects/projet-de-loi-numerique/consultation/consultation/opinions/section-3-loyaute-des-plateformes/article-13-principe-de-loyaute-vis-a-vis-des-consommateurs", 
            "id": "1890", 
            "opinion": "1"
        }, 
        {
            "article_title": "Article 14 - Informer sur les pratiques des plateformes en ligne", 
            "date": "2015-09-26T18:07:00+0200", 
            "link": "http://www.republique-numerique.fr/projects/projet-de-loi-numerique/consultation/consultation/opinions/section-3-loyaute-des-plateformes/article-14-regulation", 
            "id": "1904", 
            "opinion": "1"
        }, 
        {
            "article_title": "Article 12 - Portabilit\u00e9 des donn\u00e9es", 
            "date": "2015-09-26T18:09:00+0200", 
            "link": "http://www.republique-numerique.fr/projects/projet-de-loi-numerique/consultation/consultation/opinions/section-2-portabilite-des-donnees/article-12-portabilite-des-donnees", 
            "id": "1908", 
            "opinion": "1"
        }, 
        {
            "article_title": "Lisibilit\u00e9", 
            "date": "2015-09-26T18:12:00+0200", 
            "link": "http://www.republique-numerique.fr/projects/projet-de-loi-numerique/consultation/consultation/opinions/section-1-neutralite-de-l-internet/creation-de-la-societe-france-des-droits-du-net-aux-createurs/versions/lisibilite", 
            "id": "1927", 
            "opinion": "1"
        }, 
        {
            "article_title": "Cr\u00e9ation de la Soci\u00e9t\u00e9 France des Droits du Net aux cr\u00e9ateurs,", 
            "date": "2015-09-26T18:12:00+0200", 
            "link": "http://www.republique-numerique.fr/projects/projet-de-loi-numerique/consultation/consultation/opinions/section-1-neutralite-de-l-internet/creation-de-la-societe-france-des-droits-du-net-aux-createurs", 
            "id": "1929", 
            "opinion": "-1"
        }, 
        {
            "article_title": "Le status d'association loi 1901 et l'activit\u00e9 b\ufffd...", 
            "date": "2015-09-26T18:14:00+0200", 
            "link": "http://www.republique-numerique.fr/projects/projet-de-loi-numerique/consultation/consultation/opinions/section-1-neutralite-de-l-internet/statut-activite-demonetisee#arg-94", 
            "id": "1935", 
            "opinion": "1"
        }, 
        {
            "article_title": "Article 11 - Neutralit\u00e9 de l\u2019internet", 
            "date": "2015-09-26T18:14:00+0200", 
            "link": "http://www.republique-numerique.fr/projects/projet-de-loi-numerique/consultation/consultation/opinions/section-1-neutralite-de-l-internet/article-11-neutralite-de-l-internet", 
            "id": "1939", 
            "opinion": "1"
        }, 
        {
            "article_title": "Clarification de l'objectif poursuivi par la neutralit\u00e9 du net et des personnes concern\u00e9es", 
            "date": "2015-09-26T18:17:00+0200", 
            "link": "http://www.republique-numerique.fr/projects/projet-de-loi-numerique/consultation/consultation/opinions/section-1-neutralite-de-l-internet/article-11-neutralite-de-l-internet/versions/clarification-de-l-objectif-poursuivi-par-la-neutralite-du-net-et-des-personnes-concernees", 
            "id": "1955", 
            "opinion": "-1"
        }, 
        {
            "article_title": "En l'esp\u00e8ce on va modifier le code des postes et ...", 
            "date": "2015-09-26T18:20:00+0200", 
            "link": "http://www.republique-numerique.fr/projects/projet-de-loi-numerique/consultation/consultation/opinions/section-1-neutralite-de-l-internet/article-11-neutralite-de-l-internet/versions/y-a-pas-qu-internet#arg-20", 
            "id": "1982", 
            "opinion": "1"
        }, 
        {
            "article_title": "Y'a pas qu'internet", 
            "date": "2015-09-26T18:21:00+0200", 
            "link": "http://www.republique-numerique.fr/projects/projet-de-loi-numerique/consultation/consultation/opinions/section-1-neutralite-de-l-internet/article-11-neutralite-de-l-internet/versions/y-a-pas-qu-internet", 
            "id": "1983", 
            "opinion": "-1"
        }, 
        {
            "article_title": "C'est pratique pour la recherche, et sans risque s...", 
            "date": "2015-09-26T18:23:00+0200", 
            "link": "http://www.republique-numerique.fr/projects/projet-de-loi-numerique/consultation/consultation/opinions/section-2-travaux-de-recherche-et-de-statistique/article-10-nir-statistique#arg-65", 
            "id": "2004", 
            "opinion": "1"
        }, 
        {
            "article_title": "La discussion porte ici sur un NIR hach\u00e9, justeme...", 
            "date": "2015-09-26T18:24:00+0200", 
            "link": "http://www.republique-numerique.fr/projects/projet-de-loi-numerique/consultation/consultation/opinions/section-2-travaux-de-recherche-et-de-statistique/article-10-nir-statistique/versions/le-nir-est-rempli-de-donnees-a-caractere-personnel#arg-18", 
            "id": "2016", 
            "opinion": "1"
        }, 
        {
            "article_title": "Le nir est rempli de donn\u00e9es \u00e0 caract\u00e8re personnel", 
            "date": "2015-09-26T18:25:00+0200", 
            "link": "http://www.republique-numerique.fr/projects/projet-de-loi-numerique/consultation/consultation/opinions/section-2-travaux-de-recherche-et-de-statistique/article-10-nir-statistique/versions/le-nir-est-rempli-de-donnees-a-caractere-personnel", 
            "id": "2017", 
            "opinion": "-1"
        }, 
        {
            "article_title": "Article 10 - Proc\u00e9dure assouplie pour les travaux statistiques ou de recherche utilisant le num\u00e9ro de s\u00e9curit\u00e9 sociale (recours \u00e0 un \u00ab NIR statistique \u00bb)", 
            "date": "2015-09-26T18:29:00+0200", 
            "link": "http://www.republique-numerique.fr/projects/projet-de-loi-numerique/consultation/consultation/opinions/section-2-travaux-de-recherche-et-de-statistique/article-10-nir-statistique", 
            "id": "2055", 
            "opinion": "1"
        }, 
        {
            "article_title": "Article 9 - Libre acc\u00e8s aux publications scientifiques de la recherche publique", 
            "date": "2015-09-26T18:30:00+0200", 
            "link": "http://www.republique-numerique.fr/projects/projet-de-loi-numerique/consultation/consultation/opinions/section-2-travaux-de-recherche-et-de-statistique/article-9-acces-aux-travaux-de-la-recherche-financee-par-des-fonds-publics", 
            "id": "2060", 
            "opinion": "1"
        }, 
        {
            "article_title": "Publicit\u00e9 des articles et r\u00e9troactivit\u00e9 sur les contrats en cours", 
            "date": "2015-09-26T18:33:00+0200", 
            "link": "http://www.republique-numerique.fr/projects/projet-de-loi-numerique/consultation/consultation/opinions/section-2-travaux-de-recherche-et-de-statistique/article-9-acces-aux-travaux-de-la-recherche-financee-par-des-fonds-publics/versions/publicite-des-articles-et-retroactivite-sur-les-contrats-en-cours", 
            "id": "2086", 
            "opinion": "1"
        }, 
        {
            "article_title": "Le texte n'atteint pas ses objectifs et pr\u00e9sente des difficult\u00e9s", 
            "date": "2015-09-26T18:34:00+0200", 
            "link": "http://www.republique-numerique.fr/projects/projet-de-loi-numerique/consultation/consultation/opinions/section-2-travaux-de-recherche-et-de-statistique/article-9-acces-aux-travaux-de-la-recherche-financee-par-des-fonds-publics/versions/le-texte-n-atteint-pas-ses-objectifs-et-presentent-des-difficultes", 
            "id": "2093", 
            "opinion": "-1"
        }, 
        {
            "article_title": "12 mois en SHS, c'est encore trop....", 
            "date": "2015-09-26T18:34:00+0200", 
            "link": "http://www.republique-numerique.fr/projects/projet-de-loi-numerique/consultation/consultation/opinions/section-2-travaux-de-recherche-et-de-statistique/article-9-acces-aux-travaux-de-la-recherche-financee-par-des-fonds-publics/versions/le-texte-n-atteint-pas-ses-objectifs-et-presentent-des-difficultes#arg-61", 
            "id": "2096", 
            "opinion": "1"
        }, 
        {
            "article_title": "Si l'\u00c9tat finance des recherches et que leurs aut...", 
            "date": "2015-09-26T18:35:00+0200", 
            "link": "http://www.republique-numerique.fr/projects/projet-de-loi-numerique/consultation/consultation/opinions/section-2-travaux-de-recherche-et-de-statistique/article-9-acces-aux-travaux-de-la-recherche-financee-par-des-fonds-publics/versions/la-recherche-financee-par-l-etat-appartient-a-tous#arg-59", 
            "id": "2103", 
            "opinion": "1"
        }, 
        {
            "article_title": "La recherche financ\u00e9e par l'Etat appartient \u00e0 tous !", 
            "date": "2015-09-26T18:36:00+0200", 
            "link": "http://www.republique-numerique.fr/projects/projet-de-loi-numerique/consultation/consultation/opinions/section-2-travaux-de-recherche-et-de-statistique/article-9-acces-aux-travaux-de-la-recherche-financee-par-des-fonds-publics/versions/la-recherche-financee-par-l-etat-appartient-a-tous", 
            "id": "2111", 
            "opinion": "1"
        }, 
        {
            "article_title": "Pourquoi laisser au chercheur financ\u00e9 par l'\u00c9tat...", 
            "date": "2015-09-26T18:37:00+0200", 
            "link": "http://www.republique-numerique.fr/projects/projet-de-loi-numerique/consultation/consultation/opinions/section-2-travaux-de-recherche-et-de-statistique/article-9-acces-aux-travaux-de-la-recherche-financee-par-des-fonds-publics#arg-64", 
            "id": "2116", 
            "opinion": "1"
        }, 
        {
            "article_title": "24 mois pour les publications de sciences humaines...", 
            "date": "2015-09-26T18:37:00+0200", 
            "link": "http://www.republique-numerique.fr/projects/projet-de-loi-numerique/consultation/consultation/opinions/section-2-travaux-de-recherche-et-de-statistique/article-9-acces-aux-travaux-de-la-recherche-financee-par-des-fonds-publics#arg-63", 
            "id": "2118", 
            "opinion": "1"
        }, 
        {
            "article_title": "La r\u00e9daction en l'\u00e9tat restreint tr\u00e8s fortement...", 
            "date": "2015-09-26T18:39:00+0200", 
            "link": "http://www.republique-numerique.fr/projects/projet-de-loi-numerique/consultation/consultation/opinions/section-2-travaux-de-recherche-et-de-statistique/article-9-acces-aux-travaux-de-la-recherche-financee-par-des-fonds-publics#arg-50", 
            "id": "2126", 
            "opinion": "1"
        }, 
        {
            "article_title": "Pas de prise en compte explicite des \u201cdonn\u00e9es\ufffd...", 
            "date": "2015-09-26T18:39:00+0200", 
            "link": "http://www.republique-numerique.fr/projects/projet-de-loi-numerique/consultation/consultation/opinions/section-2-travaux-de-recherche-et-de-statistique/article-9-acces-aux-travaux-de-la-recherche-financee-par-des-fonds-publics#arg-80", 
            "id": "2128", 
            "opinion": "1"
        }, 
        {
            "article_title": "Article 8.0 - Libert\u00e9 de partage du savoir num\u00e9rique", 
            "date": "2015-09-26T18:41:00+0200", 
            "link": "http://www.republique-numerique.fr/projects/projet-de-loi-numerique/consultation/consultation/opinions/section-1-les-communs/article-8-0-liberte-de-partage-du-savoir-numerique", 
            "id": "2136", 
            "opinion": "-1"
        }, 
        {
            "article_title": "Article 8 - D\u00e9finition positive du domaine commun informationnel", 
            "date": "2015-09-26T18:42:00+0200", 
            "link": "http://www.republique-numerique.fr/projects/projet-de-loi-numerique/consultation/consultation/opinions/section-1-les-communs/article-8-definition-du-domaine-commun-informationnel", 
            "id": "2150", 
            "opinion": "1"
        }, 
        {
            "article_title": "Article 5 - Ouverture des donn\u00e9es des d\u00e9l\u00e9gations de service public", 
            "date": "2015-09-26T18:44:00+0200", 
            "link": "http://www.republique-numerique.fr/projects/projet-de-loi-numerique/consultation/consultation/opinions/section-3-donnees-d-interet-general/article-5-ouverture-des-donnees-par-defaut-dans-les-contrats-de-dsp", 
            "id": "2167", 
            "opinion": "1"
        }, 
        {
            "article_title": "Pr\u00e9cisions sur la formule r\u00e9dactionnelle \u00ab\u00a0SAUF STIPULATION CONTRAIRE\u00a0\u00bb", 
            "date": "2015-09-26T18:47:00+0200", 
            "link": "http://www.republique-numerique.fr/projects/projet-de-loi-numerique/consultation/consultation/opinions/section-3-donnees-d-interet-general/article-5-ouverture-des-donnees-par-defaut-dans-les-contrats-de-dsp/versions/precisions-sur-la-formule-redactionnelle-sauf-stipulation-contraire", 
            "id": "2198", 
            "opinion": "1"
        }, 
        {
            "article_title": "Ne pas autoriser de d\u00e9rogation contractuelle : si on g\u00e8re un service public, on accepte de diffuser les donn\u00e9es correspondantes.", 
            "date": "2015-09-26T18:47:00+0200", 
            "link": "http://www.republique-numerique.fr/projects/projet-de-loi-numerique/consultation/consultation/opinions/section-3-donnees-d-interet-general/article-5-ouverture-des-donnees-par-defaut-dans-les-contrats-de-dsp/versions/ne-pas-autoriser-de-derogation-contractuelle-si-on-gere-un-service-public-on-accepte-de-diffuser-les-donnees-correspondantes", 
            "id": "2201", 
            "opinion": "1"
        }, 
        {
            "article_title": "Article 6 - Ouverture des donn\u00e9es des subventions publiques", 
            "date": "2015-09-26T18:48:00+0200", 
            "link": "http://www.republique-numerique.fr/projects/projet-de-loi-numerique/consultation/consultation/opinions/section-3-donnees-d-interet-general/article-6-ouverture-des-donnees-dans-les-conventions-de-subventions", 
            "id": "2206", 
            "opinion": "1"
        }, 
        {
            "article_title": "Transformer la facult\u00e9 pour le b\u00e9n\u00e9ficaire de la subvention de rendre accessible les donn\u00e9es de l'action en obligation", 
            "date": "2015-09-26T18:48:00+0200", 
            "link": "http://www.republique-numerique.fr/projects/projet-de-loi-numerique/consultation/consultation/opinions/section-3-donnees-d-interet-general/article-6-ouverture-des-donnees-dans-les-conventions-de-subventions/versions/transformer-la-faculte-pour-le-beneficaire-de-la-subvention-de-rendre-accessible-les-donnees-de-l-action-en-obligation", 
            "id": "2209", 
            "opinion": "1"
        }, 
        {
            "article_title": "Article 7 - Acc\u00e8s de la statistique publique \u00e0 certaines bases de donn\u00e9es priv\u00e9es", 
            "date": "2015-09-26T18:50:00+0200", 
            "link": "http://www.republique-numerique.fr/projects/projet-de-loi-numerique/consultation/consultation/opinions/section-3-donnees-d-interet-general/article-7-acces-de-la-statistique-publique-aux-bases-de-donnees-privees", 
            "id": "2223", 
            "opinion": "1"
        }, 
        {
            "article_title": "Acc\u00e9s aux donn\u00e9es de sant\u00e9 (de type PMSI) dans le cadre des enqu\u00eates de l'INSEE", 
            "date": "2015-09-26T18:52:00+0200", 
            "link": "http://www.republique-numerique.fr/projects/projet-de-loi-numerique/consultation/consultation/opinions/section-3-donnees-d-interet-general/article-7-acces-de-la-statistique-publique-aux-bases-de-donnees-privees/versions/acces-aux-donnees-de-sante-de-type-pmsi-dans-le-cadre-des-enquetes-de-l-insee", 
            "id": "2235", 
            "opinion": "1"
        }, 
        {
            "article_title": "Qui envoie des alertes, dans quel but ? Tous les e...", 
            "date": "2015-09-26T18:53:00+0200", 
            "link": "http://www.republique-numerique.fr/projects/projet-de-loi-numerique/consultation/consultation/opinions/section-3-donnees-d-interet-general/protection-recompense-et-indemnisation-des-lanceurs-d-alertes#arg-188", 
            "id": "2240", 
            "opinion": "1"
        }, 
        {
            "article_title": "Protection du statut de lanceurs d'alertes et precisions sur les moyens d'obtenir ce statut", 
            "date": "2015-09-26T18:54:00+0200", 
            "link": "http://www.republique-numerique.fr/projects/projet-de-loi-numerique/consultation/consultation/opinions/section-3-donnees-d-interet-general/protection-recompense-et-indemnisation-des-lanceurs-d-alertes/versions/protection-du-statut-de-lanceurs-d-alertes-et-precisions-sur-les-moyens-d-obtenir-ce-statut", 
            "id": "2249", 
            "opinion": "-1"
        }, 
        {
            "article_title": "Protection, r\u00e9compense et ind\u00e9mnisation des lanceurs d'alertes", 
            "date": "2015-09-26T18:55:00+0200", 
            "link": "http://www.republique-numerique.fr/projects/projet-de-loi-numerique/consultation/consultation/opinions/section-3-donnees-d-interet-general/protection-recompense-et-indemnisation-des-lanceurs-d-alertes", 
            "id": "2254", 
            "opinion": "-1"
        }, 
        {
            "article_title": "Utilisation de GNU/Linux dans l'administration", 
            "date": "2015-09-26T18:55:00+0200", 
            "link": "http://www.republique-numerique.fr/projects/projet-de-loi-numerique/consultation/consultation/opinions/section-3-donnees-d-interet-general/utilisation-de-gnu-linux-dans-l-administration", 
            "id": "2260", 
            "opinion": "-1"
        }, 
        {
            "article_title": "Article 4 - Cr\u00e9ation d\u2019un service public de la donn\u00e9e (garantie de qualit\u00e9 des donn\u00e9es publiques de r\u00e9f\u00e9rence)", 
            "date": "2015-09-26T18:57:00+0200", 
            "link": "http://www.republique-numerique.fr/projects/projet-de-loi-numerique/consultation/consultation/opinions/section-2-service-public-de-la-donnee-1/article-4-creation-d-un-service-public-de-la-donnee", 
            "id": "2265", 
            "opinion": "1"
        }, 
        {
            "article_title": "Ne pas oublier la r\u00e9f\u00e9rence \u00e0 la CNIL et inform...", 
            "date": "2015-09-26T18:58:00+0200", 
            "link": "http://www.republique-numerique.fr/projects/projet-de-loi-numerique/consultation/consultation/opinions/section-2-service-public-de-la-donnee-1/article-4-creation-d-un-service-public-de-la-donnee#arg-181", 
            "id": "2278", 
            "opinion": "1"
        }, 
        {
            "article_title": "D'accord sur le principe sous r\u00e9serve du respect ...", 
            "date": "2015-09-26T18:58:00+0200", 
            "link": "http://www.republique-numerique.fr/projects/projet-de-loi-numerique/consultation/consultation/opinions/section-2-service-public-de-la-donnee-1/article-4-creation-d-un-service-public-de-la-donnee#arg-109", 
            "id": "2279", 
            "opinion": "1"
        }, 
        {
            "article_title": "(Argument \u00ab mitig\u00e9 \u00bb, en fait.)L'intention es...", 
            "date": "2015-09-26T18:59:00+0200", 
            "link": "http://www.republique-numerique.fr/projects/projet-de-loi-numerique/consultation/consultation/opinions/section-2-service-public-de-la-donnee-1/article-4-creation-d-un-service-public-de-la-donnee#arg-42", 
            "id": "2284", 
            "opinion": "1"
        }, 
        {
            "article_title": "Article 3 - Droit d\u2019acc\u00e8s des organismes publics aux donn\u00e9es publiques & de r\u00e9utilisation d\u2019informations comportant des donn\u00e9es personnelles d\u00e9j\u00e0 publi\u00e9es", 
            "date": "2015-09-26T19:00:00+0200", 
            "link": "http://www.republique-numerique.fr/projects/projet-de-loi-numerique/consultation/consultation/opinions/section-1-ouverture-des-donnees-publiques-1/article-3-dispositions-diverses", 
            "id": "2295", 
            "opinion": "1"
        }, 
        {
            "article_title": "Article 2 - Libre r\u00e9utilisation des donn\u00e9es des services publics industriels et commerciaux", 
            "date": "2015-09-26T19:02:00+0200", 
            "link": "http://www.republique-numerique.fr/projects/projet-de-loi-numerique/consultation/consultation/opinions/section-1-ouverture-des-donnees-publiques-1/article-2-principe-de-libre-reutilisation-des-donnees-pour-les-spic", 
            "id": "2310", 
            "opinion": "1"
        }, 
        {
            "article_title": "Article 1 - Open data par d\u00e9faut (obligation de diffuser en ligne les principaux documents et donn\u00e9es des organismes publics)", 
            "date": "2015-09-26T19:02:00+0200", 
            "link": "http://www.republique-numerique.fr/projects/projet-de-loi-numerique/consultation/consultation/opinions/section-1-ouverture-des-donnees-publiques-1/article-1-elargissement-du-champ-de-diffusion-par-l-administration", 
            "id": "2315", 
            "opinion": "1"
        }
    ], 
    "sources": [], 
    "votes_count": 93, 
    "arguments": [], 
    "arguments_count": 0, 
    "propositions_count": 0, 
    "contributions_count": 0
}