{
    "modifications": [], 
    "modifications_count": 0, 
    "sources_count": 0, 
    "propositions": [], 
    "votes": [
        {
            "article_title": "Interdiction de la vente li\u00e9e ordinateur/syst\u00e8me d'exploitation", 
            "date": "2015-09-28T15:10:00+0200", 
            "link": "http://www.republique-numerique.fr/projects/projet-de-loi-numerique/consultation/consultation/opinions/section-3-loyaute-des-plateformes/interdiction-de-la-vente-liee-ordinateur-systeme-d-exploitation", 
            "id": "10344", 
            "opinion": "1"
        }, 
        {
            "article_title": "Pr\u00e9cision : je suis prestataire du secteur, je di...", 
            "date": "2015-09-28T15:18:00+0200", 
            "link": "http://www.republique-numerique.fr/projects/projet-de-loi-numerique/consultation/consultation/opinions/section-2-accessibilite-des-personnes-handicapees-aux-sites-internet-publics/article-29-accessibilite-numerique-des-services-publics#arg-31", 
            "id": "10416", 
            "opinion": "1"
        }, 
        {
            "article_title": "Hebergement des services de l'\u00e9tat", 
            "date": "2015-10-11T20:01:00+0200", 
            "link": "http://www.republique-numerique.fr/projects/projet-de-loi-numerique/consultation/consultation/opinions/section-1-ouverture-des-donnees-publiques-1/hebergement-des-services-de-l-etat", 
            "id": "49800", 
            "opinion": "0"
        }, 
        {
            "article_title": "Instaurer la libert\u00e9 de panorama en France", 
            "date": "2015-10-14T17:46:00+0200", 
            "link": "http://www.republique-numerique.fr/projects/projet-de-loi-numerique/consultation/consultation/opinions/section-1-les-communs/instaurer-la-liberte-de-panorama-en-france", 
            "id": "86745", 
            "opinion": "1"
        }, 
        {
            "article_title": "Le domaine public doit \u00eatre la r\u00e8gle et le priv\ufffd...", 
            "date": "2015-10-15T09:45:00+0200", 
            "link": "http://www.republique-numerique.fr/projects/projet-de-loi-numerique/consultation/consultation/opinions/section-1-les-communs/instaurer-la-liberte-de-panorama-en-france#arg-3832", 
            "id": "92504", 
            "opinion": "1"
        }, 
        {
            "article_title": "Article additionnel : Les comp\u00e9titions de jeux vid\u00e9o \u00ab e-sport \u00bb", 
            "date": "2015-10-16T20:27:00+0200", 
            "link": "http://www.republique-numerique.fr/projects/projet-de-loi-numerique/consultation/consultation/opinions/section-2-travaux-de-recherche-et-de-statistique/les-competitions-de-jeux-video-e-sport", 
            "id": "124514", 
            "opinion": "-1"
        }, 
        {
            "article_title": "Le Vote par internet", 
            "date": "2015-10-17T12:59:00+0200", 
            "link": "http://www.republique-numerique.fr/projects/projet-de-loi-numerique/consultation/consultation/opinions/section-1-ouverture-des-donnees-publiques-1/le-vote-par-internet", 
            "id": "10300", 
            "opinion": "1"
        }, 
        {
            "article_title": "Format non propri\u00e9taire", 
            "date": "2015-10-18T11:35:00+0200", 
            "link": "http://www.republique-numerique.fr/projects/projet-de-loi-numerique/consultation/consultation/opinions/section-2-couverture-numerique/article-24-publicite-de-la-qualite-des-services-numeriques/versions/format-non-proprietaire", 
            "id": "150406", 
            "opinion": "1"
        }, 
        {
            "article_title": "Article 1 - Open data par d\u00e9faut (obligation de diffuser en ligne les principaux documents et donn\u00e9es des organismes publics)", 
            "date": "2015-10-18T11:35:00+0200", 
            "link": "http://www.republique-numerique.fr/projects/projet-de-loi-numerique/consultation/consultation/opinions/section-1-ouverture-des-donnees-publiques-1/article-1-elargissement-du-champ-de-diffusion-par-l-administration", 
            "id": "150411", 
            "opinion": "1"
        }, 
        {
            "article_title": "Article 26bis - Portage de la plateforme contribuez.republique-numerique.fr \u00e0 d'autre projet de loi", 
            "date": "2015-10-18T11:37:00+0200", 
            "link": "http://www.republique-numerique.fr/projects/projet-de-loi-numerique/consultation/consultation/opinions/section-1-recommande-electronique/article-26bis-portage-de-la-plateforme-contribuez-republique-numerique-fr-a-d-autre-projet-de-loi", 
            "id": "150466", 
            "opinion": "1"
        }, 
        {
            "article_title": "Il est d\u00e9j\u00e0 possible de publier ces images : EN PAYANT L'AUTEUR !!!", 
            "date": "2015-10-18T13:53:00+0200", 
            "link": "http://www.republique-numerique.fr/projects/projet-de-loi-numerique/consultation/consultation/opinions/section-1-les-communs/instaurer-la-liberte-de-panorama-en-france/versions/il-est-deja-possible-de-publier-ces-images-en-payant-l-auteur", 
            "id": "152723", 
            "opinion": "-1"
        }, 
        {
            "article_title": "Retirer l'exception de panorama", 
            "date": "2015-10-18T13:54:00+0200", 
            "link": "http://www.republique-numerique.fr/projects/projet-de-loi-numerique/consultation/consultation/opinions/section-1-les-communs/instaurer-la-liberte-de-panorama-en-france/versions/les-auteurs-ne-sont-pas-fous-ou-stupides-ils-sont-les-premiers-a-autoriser-la-reproduction-et-la-circulation-de-leurs-oeuvres-gracieusement-en-faveur-de-demarches-non-commerciales", 
            "id": "152732", 
            "opinion": "-1"
        }, 
        {
            "article_title": "Un architecte ou autre est pay\u00e9 lors du projet, i...", 
            "date": "2015-10-18T13:54:00+0200", 
            "link": "http://www.republique-numerique.fr/projects/projet-de-loi-numerique/consultation/consultation/opinions/section-1-les-communs/instaurer-la-liberte-de-panorama-en-france#arg-5791", 
            "id": "152737", 
            "opinion": "1"
        }, 
        {
            "article_title": "\u00c9viter la l\u00e9galisation du copyfraud", 
            "date": "2015-10-18T13:57:00+0200", 
            "link": "http://www.republique-numerique.fr/projects/projet-de-loi-numerique/consultation/consultation/opinions/section-1-les-communs/article-8-definition-du-domaine-commun-informationnel/versions/eviter-la-legalisation-du-copyfraud", 
            "id": "152789", 
            "opinion": "1"
        }, 
        {
            "article_title": "Moteur de recherche public", 
            "date": "2015-10-18T14:39:00+0200", 
            "link": "http://www.republique-numerique.fr/projects/projet-de-loi-numerique/consultation/consultation/opinions/section-1-ouverture-des-donnees-publiques-1/moteur-de-recherche-public", 
            "id": "153269", 
            "opinion": "-1"
        }, 
        {
            "article_title": "Nouvelle version de l'article 29 : Accessibilit\u00e9 aux services et contenus num\u00e9riques par les personnes en situation de handicap", 
            "date": "2015-10-18T14:41:00+0200", 
            "link": "http://www.republique-numerique.fr/projects/projet-de-loi-numerique/consultation/consultation/opinions/section-2-accessibilite-des-personnes-handicapees-aux-sites-internet-publics/article-29-accessibilite-numerique-des-services-publics/versions/nouvelle-version-de-l-article-29-accessibilite-aux-services-et-contenus-numeriques-par-les-personnes-en-situation-de-handicap", 
            "id": "153296", 
            "opinion": "-1"
        }, 
        {
            "article_title": "Article 4 - Cr\u00e9ation d\u2019un service public de la donn\u00e9e (garantie de qualit\u00e9 des donn\u00e9es publiques de r\u00e9f\u00e9rence)", 
            "date": "2015-10-18T22:49:00+0200", 
            "link": "http://www.republique-numerique.fr/projects/projet-de-loi-numerique/consultation/consultation/opinions/section-2-service-public-de-la-donnee-1/article-4-creation-d-un-service-public-de-la-donnee", 
            "id": "164554", 
            "opinion": "0"
        }
    ], 
    "sources": [], 
    "votes_count": 17, 
    "arguments": [], 
    "arguments_count": 0, 
    "propositions_count": 0, 
    "contributions_count": 0
}