{
    "modifications": [], 
    "modifications_count": 0, 
    "sources_count": 0, 
    "propositions": [], 
    "votes": [
        {
            "article_title": "Ecole entreprise R\u00e9union", 
            "date": "2015-09-28T15:24:00+0200", 
            "link": "http://www.republique-numerique.fr/projects/projet-de-loi-numerique/consultation/consultation/opinions/section-1-ouverture-des-donnees-publiques-1/ecole-entreprise-reunion", 
            "id": "10462", 
            "opinion": "1"
        }, 
        {
            "article_title": "SANCTUAIRE PUBLIQUE DE LA DONNEE", 
            "date": "2015-09-28T15:28:00+0200", 
            "link": "http://www.republique-numerique.fr/projects/projet-de-loi-numerique/consultation/consultation/opinions/section-2-service-public-de-la-donnee-1/sanctuaire-publique-de-la-donnee", 
            "id": "10499", 
            "opinion": "0"
        }, 
        {
            "article_title": "Le Vote par internet", 
            "date": "2015-09-28T15:29:00+0200", 
            "link": "http://www.republique-numerique.fr/projects/projet-de-loi-numerique/consultation/consultation/opinions/section-1-ouverture-des-donnees-publiques-1/le-vote-par-internet", 
            "id": "10511", 
            "opinion": "1"
        }
    ], 
    "sources": [], 
    "votes_count": 3, 
    "arguments": [], 
    "arguments_count": 0, 
    "propositions_count": 0, 
    "contributions_count": 0
}