{
    "modifications": [], 
    "modifications_count": 0, 
    "sources_count": 0, 
    "propositions": [
        {
            "article_title": "Simplifier l'exercice des droits des consommateurs par l'utilisation des moyens de communication \u00e9lectroniques", 
            "votes": {
                "data-ok": "9", 
                "data-mitige": "0", 
                "data-nok": "0"
            }, 
            "stats": {
                "modification": "0", 
                "source": "0", 
                "votes": "9", 
                "argument": "0"
            }, 
            "id": "535", 
            "article_link": "/projects/projet-de-loi-numerique/consultation/consultation/opinions/section-4-information-des-consommateurs/simplifier-l-exercice-des-droits-des-consommateurs-par-l-utilisation-des-moyens-de-communication-electroniques"
        }
    ], 
    "votes": [
        {
            "article_title": "Utiliser les logiciels libres & GNU/Linux dans les \u00e9coles et les universit\u00e9s", 
            "date": "2015-10-11T13:10:00+0200", 
            "link": "http://www.republique-numerique.fr/projects/projet-de-loi-numerique/consultation/consultation/opinions/section-2-service-public-de-la-donnee-1/utiliser-les-logiciels-libres-gnu-linux-dans-les-ecoles-et-les-universites", 
            "id": "48571", 
            "opinion": "1"
        }, 
        {
            "article_title": "Simplifier l'exercice des droits des consommateurs par l'utilisation des moyens de communication \u00e9lectroniques", 
            "date": "2015-10-11T13:54:00+0200", 
            "link": "http://www.republique-numerique.fr/projects/projet-de-loi-numerique/consultation/consultation/opinions/section-4-information-des-consommateurs/simplifier-l-exercice-des-droits-des-consommateurs-par-l-utilisation-des-moyens-de-communication-electroniques", 
            "id": "48701", 
            "opinion": "1"
        }
    ], 
    "sources": [], 
    "votes_count": 2, 
    "arguments": [], 
    "arguments_count": 0, 
    "propositions_count": 1, 
    "contributions_count": 1
}