{
    "modifications": [], 
    "modifications_count": 0, 
    "sources_count": 0, 
    "propositions": [], 
    "votes": [
        {
            "article_title": "Apprentissage de la programmation", 
            "date": "2015-09-28T18:11:00+0200", 
            "link": "http://www.republique-numerique.fr/projects/projet-de-loi-numerique/consultation/consultation/opinions/section-1-competences-et-organisation/apprentissage-de-la-programmation", 
            "id": "11385", 
            "opinion": "-1"
        }, 
        {
            "article_title": "Article 26bis - Portage de la plateforme contribuez.republique-numerique.fr \u00e0 d'autre projet de loi", 
            "date": "2015-09-28T18:13:00+0200", 
            "link": "http://www.republique-numerique.fr/projects/projet-de-loi-numerique/consultation/consultation/opinions/section-1-recommande-electronique/article-26bis-portage-de-la-plateforme-contribuez-republique-numerique-fr-a-d-autre-projet-de-loi", 
            "id": "11388", 
            "opinion": "1"
        }, 
        {
            "article_title": "identit\u00e9 num\u00e9rique", 
            "date": "2015-09-28T18:14:00+0200", 
            "link": "http://www.republique-numerique.fr/projects/projet-de-loi-numerique/consultation/consultation/opinions/section-1-recommande-electronique/identite-numerique", 
            "id": "11395", 
            "opinion": "1"
        }, 
        {
            "article_title": "Article 27 - Paiement par SMS", 
            "date": "2015-09-28T18:14:00+0200", 
            "link": "http://www.republique-numerique.fr/projects/projet-de-loi-numerique/consultation/consultation/opinions/section-2-paiement-par-sms/article-27-paiement-par-sms", 
            "id": "11397", 
            "opinion": "-1"
        }, 
        {
            "article_title": "Article 27: Paiement par Mobilepay", 
            "date": "2015-09-28T18:15:00+0200", 
            "link": "http://www.republique-numerique.fr/projects/projet-de-loi-numerique/consultation/consultation/opinions/section-2-paiement-par-sms/paiement-par-mobilepay", 
            "id": "11399", 
            "opinion": "-1"
        }, 
        {
            "article_title": "Encadrer les moyens de paiement par le biais de la facture Internet de mani\u00e8re \u00e0 garantir les droits du consommateur", 
            "date": "2015-09-28T18:16:00+0200", 
            "link": "http://www.republique-numerique.fr/projects/projet-de-loi-numerique/consultation/consultation/opinions/section-2-paiement-par-sms/encadrer-les-moyens-de-paiement-par-le-biais-de-la-facture-internet-de-maniere-a-garantir-les-droits-du-consommateur", 
            "id": "11405", 
            "opinion": "1"
        }
    ], 
    "sources": [], 
    "votes_count": 6, 
    "arguments": [
        {
            "article_title": "Signaler", 
            "votes": 3, 
            "article_link": "http://www.republique-numerique.fr/consultations/projet-de-loi-numerique/consultation/consultation/opinions/section-3-loyaute-des-plateformes/interdiction-de-la-vente-liee-ordinateur-systeme-d-exploitation/arguments/980/report", 
            "link": "http://www.republique-numerique.fr/consultations/projet-de-loi-numerique/consultation/consultation/opinions/section-3-loyaute-des-plateformes/interdiction-de-la-vente-liee-ordinateur-systeme-d-exploitation/arguments/980/report#arg-980", 
            "date": "2015-09-28T18:05:00+0200", 
            "id": "980"
        }
    ], 
    "arguments_count": 1, 
    "propositions_count": 0, 
    "contributions_count": 1
}