{
    "modifications": [], 
    "modifications_count": 0, 
    "sources_count": 0, 
    "propositions": [], 
    "votes": [
        {
            "article_title": "Amendement de la Loi Renseignement pour ajout du juge judiciaire", 
            "date": "2015-09-26T13:57:00+0200", 
            "link": "http://www.republique-numerique.fr/projects/projet-de-loi-numerique/consultation/consultation/opinions/section-2-confidentialite-des-correspondances-privees/amendement-de-la-loi-renseignement-pour-ajout-du-juge-judiciaire", 
            "id": "648", 
            "opinion": "1"
        }, 
        {
            "article_title": "Instaurer la libert\u00e9 de panorama en France", 
            "date": "2015-09-28T20:57:00+0200", 
            "link": "http://www.republique-numerique.fr/projects/projet-de-loi-numerique/consultation/consultation/opinions/section-1-les-communs/instaurer-la-liberte-de-panorama-en-france", 
            "id": "12469", 
            "opinion": "1"
        }, 
        {
            "article_title": "Article additionnel : Les comp\u00e9titions de jeux vid\u00e9o \u00ab e-sport \u00bb", 
            "date": "2015-10-18T18:34:00+0200", 
            "link": "http://www.republique-numerique.fr/projects/projet-de-loi-numerique/consultation/consultation/opinions/section-2-travaux-de-recherche-et-de-statistique/les-competitions-de-jeux-video-e-sport", 
            "id": "158659", 
            "opinion": "1"
        }, 
        {
            "article_title": "article 8 bis \u00ab\u00a0D\u00e9finition des communs volontaires\u00a0\u00bb", 
            "date": "2015-10-18T18:50:00+0200", 
            "link": "http://www.republique-numerique.fr/projects/projet-de-loi-numerique/consultation/consultation/opinions/section-1-les-communs/article-8-bis-definition-des-communs-volontaires", 
            "id": "159017", 
            "opinion": "1"
        }, 
        {
            "article_title": "23 : Autoriser les actions de groupe notamment en mati\u00e8re d'atteinte au droit sur les donn\u00e9es personnelles et la neutralit\u00e9 du Net", 
            "date": "2015-10-18T18:51:00+0200", 
            "link": "http://www.republique-numerique.fr/projects/projet-de-loi-numerique/consultation/consultation/opinions/section-2-confidentialite-des-correspondances-privees/23-autoriser-les-actions-de-groupe-notamment-en-matiere-d-atteinte-au-droit-sur-les-donnees-personnelles-et-la-neutralite-du-net", 
            "id": "159032", 
            "opinion": "1"
        }, 
        {
            "article_title": "22 bis : affirmer et encourager le droit au chiffrement des communications", 
            "date": "2015-10-18T18:51:00+0200", 
            "link": "http://www.republique-numerique.fr/projects/projet-de-loi-numerique/consultation/consultation/opinions/section-2-confidentialite-des-correspondances-privees/22-bis-affirmer-et-encourager-le-droit-au-chiffrement-des-communications", 
            "id": "159049", 
            "opinion": "1"
        }, 
        {
            "article_title": "\u00c9viter la l\u00e9galisation du copyfraud", 
            "date": "2015-10-18T18:53:00+0200", 
            "link": "http://www.republique-numerique.fr/projects/projet-de-loi-numerique/consultation/consultation/opinions/section-1-les-communs/article-8-definition-du-domaine-commun-informationnel/versions/eviter-la-legalisation-du-copyfraud", 
            "id": "159086", 
            "opinion": "1"
        }, 
        {
            "article_title": "\u00c9largir les possibilit\u00e9s d'action contre les atteintes au domaine commun informationnel", 
            "date": "2015-10-18T18:54:00+0200", 
            "link": "http://www.republique-numerique.fr/projects/projet-de-loi-numerique/consultation/consultation/opinions/section-1-les-communs/article-8-definition-du-domaine-commun-informationnel/versions/elargir-les-possibilites-d-action-contre-les-atteintes-au-domaine-commun-informationnel", 
            "id": "159150", 
            "opinion": "1"
        }, 
        {
            "article_title": "Libert\u00e9 de panorama", 
            "date": "2015-10-18T19:12:00+0200", 
            "link": "http://www.republique-numerique.fr/projects/projet-de-loi-numerique/consultation/consultation/opinions/section-1-les-communs/instaurer-la-liberte-de-panorama-en-france#source-201", 
            "id": "159590", 
            "opinion": "1"
        }, 
        {
            "article_title": "Un architecte ou autre est pay\u00e9 lors du projet, i...", 
            "date": "2015-10-18T19:18:00+0200", 
            "link": "http://www.republique-numerique.fr/projects/projet-de-loi-numerique/consultation/consultation/opinions/section-1-les-communs/instaurer-la-liberte-de-panorama-en-france#arg-5791", 
            "id": "159728", 
            "opinion": "1"
        }, 
        {
            "article_title": "Il est regrettable que la France est encore derri\ufffd...", 
            "date": "2015-10-18T19:19:00+0200", 
            "link": "http://www.republique-numerique.fr/projects/projet-de-loi-numerique/consultation/consultation/opinions/section-1-les-communs/instaurer-la-liberte-de-panorama-en-france#arg-5261", 
            "id": "159732", 
            "opinion": "1"
        }, 
        {
            "article_title": "A partir du moment o\u00f9 une \u0153uvre est dans le doma...", 
            "date": "2015-10-18T19:19:00+0200", 
            "link": "http://www.republique-numerique.fr/projects/projet-de-loi-numerique/consultation/consultation/opinions/section-1-les-communs/instaurer-la-liberte-de-panorama-en-france#arg-5082", 
            "id": "159752", 
            "opinion": "1"
        }, 
        {
            "article_title": "Quand on cr\u00e9\u00e9 un b\u00e2timent public on le fait pou...", 
            "date": "2015-10-18T19:19:00+0200", 
            "link": "http://www.republique-numerique.fr/projects/projet-de-loi-numerique/consultation/consultation/opinions/section-1-les-communs/instaurer-la-liberte-de-panorama-en-france#arg-4774", 
            "id": "159760", 
            "opinion": "1"
        }, 
        {
            "article_title": "Pr\u00e9ciser le p\u00e9rim\u00e8tre d'application de la Neutralit\u00e9 du Net", 
            "date": "2015-10-18T19:22:00+0200", 
            "link": "http://www.republique-numerique.fr/projects/projet-de-loi-numerique/consultation/consultation/opinions/section-1-neutralite-de-l-internet/article-11-neutralite-de-l-internet/versions/preciser-le-perimetre-d-application-de-la-neutralite-du-net", 
            "id": "159807", 
            "opinion": "1"
        }, 
        {
            "article_title": "Ajouter la promotion du chiffrement des communications dans les missions de la CNIL", 
            "date": "2015-10-18T19:22:00+0200", 
            "link": "http://www.republique-numerique.fr/projects/projet-de-loi-numerique/consultation/consultation/opinions/section-1-protection-des-donnees-a-caractere-personnel/article-17-missions-de-la-cnil/versions/ajouter-la-promotion-du-chiffrement-des-communications-dans-les-missions-de-la-cnil", 
            "id": "159820", 
            "opinion": "1"
        }, 
        {
            "article_title": "Services sp\u00e9cialis\u00e9s et discrimination tarifaire", 
            "date": "2015-10-18T19:24:00+0200", 
            "link": "http://www.republique-numerique.fr/projects/projet-de-loi-numerique/consultation/consultation/opinions/section-1-neutralite-de-l-internet/article-11-neutralite-de-l-internet/versions/services-specialises-et-discrimination-tarifaire", 
            "id": "159853", 
            "opinion": "1"
        }, 
        {
            "article_title": "Consacrer un droit d'information sur les modalit\u00e9s du stockage des fichiers et donn\u00e9es-utilisateur", 
            "date": "2015-10-18T19:26:00+0200", 
            "link": "http://www.republique-numerique.fr/projects/projet-de-loi-numerique/consultation/consultation/opinions/section-2-portabilite-des-donnees/article-12-portabilite-des-donnees/versions/consacrer-un-droit-d-information-sur-les-modalites-du-stockage-des-fichiers-et-donnees-utilisateur", 
            "id": "159893", 
            "opinion": "1"
        }, 
        {
            "article_title": "Promouvoir la mise \u00e0 disposition de livres num\u00e9riques dans les biblioth\u00e8ques publiques", 
            "date": "2015-10-18T19:27:00+0200", 
            "link": "http://www.republique-numerique.fr/projects/projet-de-loi-numerique/consultation/consultation/opinions/section-1-ouverture-des-donnees-publiques-1/promouvoir-la-mise-a-disposition-de-livres-numeriques-dans-les-bibliotheques-publiques", 
            "id": "159922", 
            "opinion": "1"
        }, 
        {
            "article_title": "Cr\u00e9er un droit de citation audiovisuelle", 
            "date": "2015-10-18T19:28:00+0200", 
            "link": "http://www.republique-numerique.fr/projects/projet-de-loi-numerique/consultation/consultation/opinions/section-1-ouverture-des-donnees-publiques-1/creer-un-droit-de-citation-audiovisuelle", 
            "id": "159934", 
            "opinion": "1"
        }, 
        {
            "article_title": "Article 8 quater - Faciliter la r\u00e9utilisation des donn\u00e9es de la recherche", 
            "date": "2015-10-18T19:33:00+0200", 
            "link": "http://www.republique-numerique.fr/projects/projet-de-loi-numerique/consultation/consultation/opinions/section-1-les-communs/article-8-quater-faciliter-la-reutilisation-des-donnees-de-la-recherche", 
            "id": "160104", 
            "opinion": "1"
        }, 
        {
            "article_title": "Article 8ter - Sp\u00e9cifier les crit\u00e8res de qualit\u00e9 des donn\u00e9es lib\u00e9r\u00e9es", 
            "date": "2015-10-18T19:39:00+0200", 
            "link": "http://www.republique-numerique.fr/projects/projet-de-loi-numerique/consultation/consultation/opinions/section-1-les-communs/article-8ter-specifier-les-criteres-de-qualite-des-donnees-liberees", 
            "id": "160245", 
            "opinion": "1"
        }, 
        {
            "article_title": "Article 8 bis - Cr\u00e9er un Registre National du Domaine public", 
            "date": "2015-10-18T19:39:00+0200", 
            "link": "http://www.republique-numerique.fr/projects/projet-de-loi-numerique/consultation/consultation/opinions/section-1-les-communs/article-8-bis-creer-un-registre-national-du-domaine-public", 
            "id": "160259", 
            "opinion": "1"
        }, 
        {
            "article_title": "Article 8 bis - Gratuit\u00e9 des droits de participation des acteurs de la recherche publique aux travaux de normalisation internationaux", 
            "date": "2015-10-18T19:43:00+0200", 
            "link": "http://www.republique-numerique.fr/projects/projet-de-loi-numerique/consultation/consultation/opinions/section-1-les-communs/article-8-bis-gratuite-des-droits-de-participation-des-acteurs-de-la-recherche-publique-aux-travaux-de-normalisation-internationaux", 
            "id": "160354", 
            "opinion": "1"
        }, 
        {
            "article_title": "Article 11 - Volet num\u00e9rique du Cr\u00e9dit Imp\u00f4t Recherche (CIR) : suivi des recherches et diffusion des r\u00e9sultats", 
            "date": "2015-10-18T19:44:00+0200", 
            "link": "http://www.republique-numerique.fr/projects/projet-de-loi-numerique/consultation/consultation/opinions/section-2-travaux-de-recherche-et-de-statistique/article-11-volet-numerique-du-credit-impot-recherche-cir-suivi-des-recherches-et-diffusion-des-resultats", 
            "id": "160365", 
            "opinion": "1"
        }, 
        {
            "article_title": "Pour une obligation de d\u00e9p\u00f4t et le libre acc\u00e8s assorti de la libre r\u00e9utilisation des r\u00e9sultats de la recherche", 
            "date": "2015-10-18T20:07:00+0200", 
            "link": "http://www.republique-numerique.fr/projects/projet-de-loi-numerique/consultation/consultation/opinions/section-2-travaux-de-recherche-et-de-statistique/article-9-acces-aux-travaux-de-la-recherche-financee-par-des-fonds-publics/versions/pour-une-obligation-de-depot-et-le-libre-acces-assorti-de-la-libre-reutilisation-des-resultats-de-la-recherche", 
            "id": "160846", 
            "opinion": "1"
        }, 
        {
            "article_title": "Obligation de d\u00e9p\u00f4t des publications scientifiques dans une archive ouverte", 
            "date": "2015-10-18T20:09:00+0200", 
            "link": "http://www.republique-numerique.fr/projects/projet-de-loi-numerique/consultation/consultation/opinions/section-2-travaux-de-recherche-et-de-statistique/pour-une-obligation-de-depot-des-publications-scientifiques-dans-une-archive-ouverte", 
            "id": "160862", 
            "opinion": "1"
        }, 
        {
            "article_title": "Nous partageons ce point de vue, \u00e0 condition cepe...", 
            "date": "2015-10-18T20:09:00+0200", 
            "link": "http://www.republique-numerique.fr/projects/projet-de-loi-numerique/consultation/consultation/opinions/section-2-travaux-de-recherche-et-de-statistique/pour-une-obligation-de-depot-des-publications-scientifiques-dans-une-archive-ouverte#arg-2281", 
            "id": "160868", 
            "opinion": "1"
        }, 
        {
            "article_title": "Int\u00e9grer les reproductions fid\u00e8les d'oeuvres en deux dimensions \u00e0 la d\u00e9finition du domaine commun informationnel", 
            "date": "2015-10-18T20:10:00+0200", 
            "link": "http://www.republique-numerique.fr/projects/projet-de-loi-numerique/consultation/consultation/opinions/section-1-les-communs/article-8-definition-du-domaine-commun-informationnel/versions/integrer-les-reproductions-fideles-d-oeuvres-en-deux-dimensions-a-la-definition-du-domaine-commun-informationnel", 
            "id": "160876", 
            "opinion": "1"
        }, 
        {
            "article_title": "Instaurer des sanctions p\u00e9nales pour les atteintes au domaine commun informationnel", 
            "date": "2015-10-18T20:10:00+0200", 
            "link": "http://www.republique-numerique.fr/projects/projet-de-loi-numerique/consultation/consultation/opinions/section-1-les-communs/article-8-definition-du-domaine-commun-informationnel/versions/instaurer-des-sanctions-penales-pour-les-atteintes-au-domaine-commun-informationnel", 
            "id": "160879", 
            "opinion": "1"
        }, 
        {
            "article_title": "Doter la France d'une repr\u00e9sentation structur\u00e9e et officielle dans la gouvernance de l'Internet", 
            "date": "2015-10-18T20:18:00+0200", 
            "link": "http://www.republique-numerique.fr/projects/projet-de-loi-numerique/consultation/consultation/opinions/section-1-neutralite-de-l-internet/doter-la-france-d-une-representation-structuree-et-officielle-dans-la-gouvernance-de-l-internet", 
            "id": "161026", 
            "opinion": "0"
        }, 
        {
            "article_title": "Confier la r\u00e9flexion \u00e9thique sur les impacts du num\u00e9rique \u00e0 une instance sp\u00e9cifique", 
            "date": "2015-10-18T20:19:00+0200", 
            "link": "http://www.republique-numerique.fr/projects/projet-de-loi-numerique/consultation/consultation/opinions/section-1-protection-des-donnees-a-caractere-personnel/confier-la-reflexion-ethique-sur-les-impacts-du-numerique-a-une-instance-specifique", 
            "id": "161039", 
            "opinion": "0"
        }, 
        {
            "article_title": "Prot\u00e9ger le droit des auteurs d'articles scientifiques, pour permettre le libre acc\u00e8s \u00e0 la recherche scientifique", 
            "date": "2015-10-18T20:21:00+0200", 
            "link": "http://www.republique-numerique.fr/projects/projet-de-loi-numerique/consultation/consultation/opinions/section-2-travaux-de-recherche-et-de-statistique/article-9-acces-aux-travaux-de-la-recherche-financee-par-des-fonds-publics/versions/proteger-le-droit-des-auteurs-d-articles-scientifiques-pour-permettre-le-libre-acces-a-la-recherche-scientifique", 
            "id": "161073", 
            "opinion": "1"
        }, 
        {
            "article_title": "Je pense que cette position est faible: il faut en...", 
            "date": "2015-10-18T20:25:00+0200", 
            "link": "http://www.republique-numerique.fr/projects/projet-de-loi-numerique/consultation/consultation/opinions/section-2-travaux-de-recherche-et-de-statistique/article-9-acces-aux-travaux-de-la-recherche-financee-par-des-fonds-publics/versions/garantir-l-autorisation-du-depot-immediat-de-la-version-auteur-dans-une-archive-ouverte#arg-3853", 
            "id": "161175", 
            "opinion": "1"
        }, 
        {
            "article_title": "Garantir l'autorisation du d\u00e9p\u00f4t imm\u00e9diat de la version \"auteur\" dans une archive ouverte", 
            "date": "2015-10-18T20:33:00+0200", 
            "link": "http://www.republique-numerique.fr/projects/projet-de-loi-numerique/consultation/consultation/opinions/section-2-travaux-de-recherche-et-de-statistique/article-9-acces-aux-travaux-de-la-recherche-financee-par-des-fonds-publics/versions/garantir-l-autorisation-du-depot-immediat-de-la-version-auteur-dans-une-archive-ouverte", 
            "id": "161048", 
            "opinion": "0"
        }, 
        {
            "article_title": "Utiliser les logiciels libres & GNU/Linux dans les \u00e9coles et les universit\u00e9s", 
            "date": "2015-10-18T20:36:00+0200", 
            "link": "http://www.republique-numerique.fr/projects/projet-de-loi-numerique/consultation/consultation/opinions/section-2-service-public-de-la-donnee-1/utiliser-les-logiciels-libres-gnu-linux-dans-les-ecoles-et-les-universites", 
            "id": "161433", 
            "opinion": "1"
        }, 
        {
            "article_title": "Donner la priorit\u00e9 aux logiciels libres et aux formats ouverts dans le service public national et local", 
            "date": "2015-10-18T20:36:00+0200", 
            "link": "http://www.republique-numerique.fr/projects/projet-de-loi-numerique/consultation/consultation/opinions/section-3-loyaute-des-plateformes/donner-la-priorite-aux-logiciels-libres-et-aux-formats-ouverts-dans-le-service-public-national-et-local", 
            "id": "161438", 
            "opinion": "1"
        }, 
        {
            "article_title": "Priorit\u00e9 au logiciel libre", 
            "date": "2015-10-18T20:39:00+0200", 
            "link": "http://www.republique-numerique.fr/projects/projet-de-loi-numerique/consultation/consultation/opinions/section-1-competences-et-organisation/l-enseignement-de-l-informatique-pour-tous/versions/priorite", 
            "id": "161480", 
            "opinion": "1"
        }, 
        {
            "article_title": "Le code source d'un logiciel est un document administratif communicable", 
            "date": "2015-10-18T20:40:00+0200", 
            "link": "http://www.republique-numerique.fr/projects/projet-de-loi-numerique/consultation/consultation/opinions/section-1-ouverture-des-donnees-publiques-1/le-code-source-d-un-logiciel-est-un-document-administratif-communicable", 
            "id": "161503", 
            "opinion": "1"
        }, 
        {
            "article_title": "Le hasard n'a pas sa place dans l'e-sport. Cela re...", 
            "date": "2015-10-18T20:49:00+0200", 
            "link": "http://www.republique-numerique.fr/projects/projet-de-loi-numerique/consultation/consultation/opinions/section-2-travaux-de-recherche-et-de-statistique/les-competitions-de-jeux-video-e-sport#arg-5497", 
            "id": "161739", 
            "opinion": "1"
        }, 
        {
            "article_title": "Utilisation de GNU/Linux dans l'administration", 
            "date": "2015-10-18T20:53:00+0200", 
            "link": "http://www.republique-numerique.fr/projects/projet-de-loi-numerique/consultation/consultation/opinions/section-3-donnees-d-interet-general/utilisation-de-gnu-linux-dans-l-administration", 
            "id": "161840", 
            "opinion": "1"
        }, 
        {
            "article_title": "Ouvrir les donn\u00e9es ayant servi \u00e0 la r\u00e9daction d'un rapport publique", 
            "date": "2015-10-18T20:55:00+0200", 
            "link": "http://www.republique-numerique.fr/projects/projet-de-loi-numerique/consultation/consultation/opinions/section-1-ouverture-des-donnees-publiques-1/ouvrir-les-donnees-ayant-servi-a-la-redaction-d-un-rapport-publique", 
            "id": "161869", 
            "opinion": "1"
        }, 
        {
            "article_title": "ouverture du code des algorithmes publics", 
            "date": "2015-10-18T21:03:00+0200", 
            "link": "http://www.republique-numerique.fr/projects/projet-de-loi-numerique/consultation/consultation/opinions/section-1-ouverture-des-donnees-publiques-1/ouverture-du-code-des-algorithmes-publics", 
            "id": "162102", 
            "opinion": "1"
        }, 
        {
            "article_title": "Protection, r\u00e9compense et ind\u00e9mnisation des lanceurs d'alertes", 
            "date": "2015-10-18T21:04:00+0200", 
            "link": "http://www.republique-numerique.fr/projects/projet-de-loi-numerique/consultation/consultation/opinions/section-3-donnees-d-interet-general/protection-recompense-et-indemnisation-des-lanceurs-d-alertes", 
            "id": "162122", 
            "opinion": "1"
        }, 
        {
            "article_title": "Clarification sur le statut des drones de combats et de reconnaissances", 
            "date": "2015-10-18T21:06:00+0200", 
            "link": "http://www.republique-numerique.fr/projects/projet-de-loi-numerique/consultation/consultation/opinions/section-1-ouverture-des-donnees-publiques-1/clarification-sur-le-statut-des-drones-de-combats-et-de-reconnaissances", 
            "id": "162184", 
            "opinion": "1"
        }, 
        {
            "article_title": "Cr\u00e9ation d'un plate-forme de r\u00e9vision de la consitution", 
            "date": "2015-10-18T21:11:00+0200", 
            "link": "http://www.republique-numerique.fr/projects/projet-de-loi-numerique/consultation/consultation/opinions/section-1-recommande-electronique/creation-d-un-plate-forme-de-revision-de-la-consitution", 
            "id": "162302", 
            "opinion": "1"
        }, 
        {
            "article_title": "Ouverture des d\u00e9penses et recettes d\u00e9taill\u00e9es", 
            "date": "2015-10-18T21:16:00+0200", 
            "link": "http://www.republique-numerique.fr/projects/projet-de-loi-numerique/consultation/consultation/opinions/section-3-donnees-d-interet-general/ouverture-des-depenses-et-recettes-detaillees-de-l-etat", 
            "id": "162374", 
            "opinion": "1"
        }, 
        {
            "article_title": "Publication en temps r\u00e9el des donn\u00e9es sur l'environnement", 
            "date": "2015-10-18T21:16:00+0200", 
            "link": "http://www.republique-numerique.fr/projects/projet-de-loi-numerique/consultation/consultation/opinions/section-1-ouverture-des-donnees-publiques-1/article-1-elargissement-du-champ-de-diffusion-par-l-administration/versions/publication-en-temps-reel-des-donnees-sur-l-environnement", 
            "id": "162386", 
            "opinion": "1"
        }, 
        {
            "article_title": "Mettre les m\u00e9dias produits par de l'argent public dans les communs", 
            "date": "2015-10-18T21:18:00+0200", 
            "link": "http://www.republique-numerique.fr/projects/projet-de-loi-numerique/consultation/consultation/opinions/section-1-les-communs/article-8-definition-du-domaine-commun-informationnel/versions/mettre-les-medias-produit-par-de-l-argent-public-dans-les-communs", 
            "id": "162407", 
            "opinion": "1"
        }, 
        {
            "article_title": "Inscrire dans la loi le d\u00e9lit de non respect de la neutralit\u00e9 du net", 
            "date": "2015-10-18T21:19:00+0200", 
            "link": "http://www.republique-numerique.fr/projects/projet-de-loi-numerique/consultation/consultation/opinions/section-1-neutralite-de-l-internet/inscrire-dans-la-loi-le-delit-de-non-respect-de-la-neutralite-du-net", 
            "id": "162445", 
            "opinion": "1"
        }, 
        {
            "article_title": "Article 26bis - Portage de la plateforme contribuez.republique-numerique.fr \u00e0 d'autre projet de loi", 
            "date": "2015-10-18T21:27:00+0200", 
            "link": "http://www.republique-numerique.fr/projects/projet-de-loi-numerique/consultation/consultation/opinions/section-1-recommande-electronique/article-26bis-portage-de-la-plateforme-contribuez-republique-numerique-fr-a-d-autre-projet-de-loi", 
            "id": "162632", 
            "opinion": "1"
        }, 
        {
            "article_title": "Diffusion sous licence libre des \u0153uvres num\u00e9riques cr\u00e9\u00e9es avec un financement public", 
            "date": "2015-10-18T21:28:00+0200", 
            "link": "http://www.republique-numerique.fr/projects/projet-de-loi-numerique/consultation/consultation/opinions/section-1-ouverture-des-donnees-publiques-1/diffusion-sous-licence-libre-des-oeuvres-numeriques-creees-avec-un-financement-public", 
            "id": "162679", 
            "opinion": "1"
        }, 
        {
            "article_title": "Implication des citoyens dans la r\u00e9daction et l'\u00e9laboration des lois via le net", 
            "date": "2015-10-18T21:29:00+0200", 
            "link": "http://www.republique-numerique.fr/projects/projet-de-loi-numerique/consultation/consultation/opinions/section-1-competences-et-organisation/implication-des-citoyens-dans-la-redaction-et-l-elaboration-des-lois-via-le-net", 
            "id": "162693", 
            "opinion": "1"
        }, 
        {
            "article_title": "Article 8 bis - Libert\u00e9 de panorama", 
            "date": "2015-10-18T21:31:00+0200", 
            "link": "http://www.republique-numerique.fr/projects/projet-de-loi-numerique/consultation/consultation/opinions/section-1-les-communs/liberte-de-panorama", 
            "id": "162763", 
            "opinion": "1"
        }, 
        {
            "article_title": "Acc\u00e8s des personnes d\u00e9tenues au num\u00e9rique", 
            "date": "2015-10-18T21:32:00+0200", 
            "link": "http://www.republique-numerique.fr/projects/projet-de-loi-numerique/consultation/consultation/opinions/section-3-maintien-de-la-connexion-internet/acces-des-personnes-detenues-au-numerique", 
            "id": "162779", 
            "opinion": "1"
        }, 
        {
            "article_title": "L'enseignement de l'informatique pour tous", 
            "date": "2015-10-18T21:32:00+0200", 
            "link": "http://www.republique-numerique.fr/projects/projet-de-loi-numerique/consultation/consultation/opinions/section-1-competences-et-organisation/l-enseignement-de-l-informatique-pour-tous", 
            "id": "162784", 
            "opinion": "1"
        }, 
        {
            "article_title": "Article (num\u00e9ro \u00e0 incr\u00e9menter) - De l'acc\u00e8s au code source", 
            "date": "2015-10-18T21:33:00+0200", 
            "link": "http://www.republique-numerique.fr/projects/projet-de-loi-numerique/consultation/consultation/opinions/section-1-ouverture-des-donnees-publiques-1/article-numero-a-incrementer-de-l-acces-au-code-source", 
            "id": "162799", 
            "opinion": "1"
        }, 
        {
            "article_title": "@Tan\u00e9l\u00e9o :D\u00e9j\u00e0 dit par ailleurs, la s\u00e9curit\ufffd...", 
            "date": "2015-10-18T21:33:00+0200", 
            "link": "http://www.republique-numerique.fr/projects/projet-de-loi-numerique/consultation/consultation/opinions/section-1-ouverture-des-donnees-publiques-1/article-numero-a-incrementer-de-l-acces-au-code-source#arg-5876", 
            "id": "162817", 
            "opinion": "1"
        }, 
        {
            "article_title": "Le logiciel libre, c'est bien souvent plus de s\u00e9c...", 
            "date": "2015-10-18T21:34:00+0200", 
            "link": "http://www.republique-numerique.fr/projects/projet-de-loi-numerique/consultation/consultation/opinions/section-1-ouverture-des-donnees-publiques-1/article-numero-a-incrementer-de-l-acces-au-code-source#arg-3571", 
            "id": "162828", 
            "opinion": "1"
        }, 
        {
            "article_title": "La publication des codes sources va de pair avec l...", 
            "date": "2015-10-18T21:34:00+0200", 
            "link": "http://www.republique-numerique.fr/projects/projet-de-loi-numerique/consultation/consultation/opinions/section-1-ouverture-des-donnees-publiques-1/article-numero-a-incrementer-de-l-acces-au-code-source#arg-192", 
            "id": "162839", 
            "opinion": "1"
        }, 
        {
            "article_title": "Article 11bis - Transparence des algorithmes utilis\u00e9s par les services publiques et renforcement de la s\u00e9curit\u00e9 en ligne", 
            "date": "2015-10-18T21:35:00+0200", 
            "link": "http://www.republique-numerique.fr/projects/projet-de-loi-numerique/consultation/consultation/opinions/section-1-neutralite-de-l-internet/article-11bis-transparence-des-algorithmes-utilises-par-les-services-publiques", 
            "id": "162867", 
            "opinion": "1"
        }, 
        {
            "article_title": "On peut penser que les \u00e9diteurs ne servent \u00e0 rie...", 
            "date": "2015-10-18T22:05:00+0200", 
            "link": "http://www.republique-numerique.fr/projects/projet-de-loi-numerique/consultation/consultation/opinions/section-2-travaux-de-recherche-et-de-statistique/article-9-acces-aux-travaux-de-la-recherche-financee-par-des-fonds-publics/versions/favoriser-le-libre-acces-sans-mettre-en-peril-les-revues-shs-imaginer-de-nouveaux-modeles-de-diffusion-de-la-science#arg-5189", 
            "id": "163555", 
            "opinion": "1"
        }, 
        {
            "article_title": "Consacrer un droit effectif \u00e0 la portabilit\u00e9", 
            "date": "2015-10-18T22:08:00+0200", 
            "link": "http://www.republique-numerique.fr/projects/projet-de-loi-numerique/consultation/consultation/opinions/section-2-portabilite-des-donnees/article-12-portabilite-des-donnees/versions/consacrer-un-droit-effectif-a-la-portabilite", 
            "id": "163634", 
            "opinion": "1"
        }, 
        {
            "article_title": "Ayant particip\u00e9 ce vendredi \u00e0 la conf\u00e9rence \u00ab\ufffd...", 
            "date": "2015-10-18T22:11:00+0200", 
            "link": "http://www.republique-numerique.fr/projects/projet-de-loi-numerique/consultation/consultation/opinions/section-1-les-communs/instaurer-la-liberte-de-panorama-en-france#arg-3018", 
            "id": "163716", 
            "opinion": "1"
        }, 
        {
            "article_title": "L'achitecte/l'artiste ne peut ignorer que son oeuv...", 
            "date": "2015-10-18T22:11:00+0200", 
            "link": "http://www.republique-numerique.fr/projects/projet-de-loi-numerique/consultation/consultation/opinions/section-1-les-communs/instaurer-la-liberte-de-panorama-en-france#arg-2997", 
            "id": "163721", 
            "opinion": "1"
        }, 
        {
            "article_title": "Soumettre le responsable de traitement \u00e0 une obligation de r\u00e9sultat quant \u00e0 la s\u00e9curit\u00e9 des donn\u00e9es", 
            "date": "2015-10-18T22:14:00+0200", 
            "link": "http://www.republique-numerique.fr/projects/projet-de-loi-numerique/consultation/consultation/opinions/section-1-protection-des-donnees-a-caractere-personnel/article-16-libre-disposition-de-ses-donnees-a-caractere-personnel/versions/soumettre-le-responsable-de-traitement-a-une-obligation-de-resultat-quant-a-la-securite-des-donnees", 
            "id": "163782", 
            "opinion": "1"
        }
    ], 
    "sources": [], 
    "votes_count": 65, 
    "arguments": [], 
    "arguments_count": 0, 
    "propositions_count": 0, 
    "contributions_count": 0
}