{
    "modifications": [], 
    "modifications_count": 0, 
    "sources_count": 0, 
    "propositions": [], 
    "votes": [
        {
            "article_title": "Instaurer la libert\u00e9 de panorama en France", 
            "date": "2015-10-18T13:19:00+0200", 
            "link": "http://www.republique-numerique.fr/projects/projet-de-loi-numerique/consultation/consultation/opinions/section-1-les-communs/instaurer-la-liberte-de-panorama-en-france", 
            "id": "151981", 
            "opinion": "-1"
        }, 
        {
            "article_title": "La description de l'article est tr\u00e8s orient\u00e9e af...", 
            "date": "2015-10-18T13:20:00+0200", 
            "link": "http://www.republique-numerique.fr/projects/projet-de-loi-numerique/consultation/consultation/opinions/section-1-les-communs/instaurer-la-liberte-de-panorama-en-france#arg-5683", 
            "id": "151995", 
            "opinion": "1"
        }, 
        {
            "article_title": "On ne peut pas opposer les cr\u00e9ateurs au public : ...", 
            "date": "2015-10-18T13:20:00+0200", 
            "link": "http://www.republique-numerique.fr/projects/projet-de-loi-numerique/consultation/consultation/opinions/section-1-les-communs/instaurer-la-liberte-de-panorama-en-france#arg-5771", 
            "id": "151998", 
            "opinion": "1"
        }, 
        {
            "article_title": "L'auteur de la photographie d'une sculpture ou d'u...", 
            "date": "2015-10-18T13:20:00+0200", 
            "link": "http://www.republique-numerique.fr/projects/projet-de-loi-numerique/consultation/consultation/opinions/section-1-les-communs/instaurer-la-liberte-de-panorama-en-france#arg-5669", 
            "id": "151999", 
            "opinion": "1"
        }, 
        {
            "article_title": "Cette proposition est totalement \u00e0 c\u00f4t\u00e9 de la p...", 
            "date": "2015-10-18T13:20:00+0200", 
            "link": "http://www.republique-numerique.fr/projects/projet-de-loi-numerique/consultation/consultation/opinions/section-1-les-communs/instaurer-la-liberte-de-panorama-en-france#arg-5537", 
            "id": "152000", 
            "opinion": "1"
        }, 
        {
            "article_title": "Attention \u00e0 ne pas confondre avec Wikimedia et Wi...", 
            "date": "2015-10-18T13:20:00+0200", 
            "link": "http://www.republique-numerique.fr/projects/projet-de-loi-numerique/consultation/consultation/opinions/section-1-les-communs/instaurer-la-liberte-de-panorama-en-france#arg-5186", 
            "id": "152001", 
            "opinion": "1"
        }
    ], 
    "sources": [], 
    "votes_count": 6, 
    "arguments": [], 
    "arguments_count": 0, 
    "propositions_count": 0, 
    "contributions_count": 0
}