{
    "_id": 155, 
    "versions": [
        {
            "comment": "Il est important de pr\u00e9voir une application de ce principe m\u00eame dans le cas o\u00f9 la charte nationale commune ne voit pas le jour.", 
            "votes_nok": 0, 
            "votes": [
                {
                    "user": {
                        "username": "Nicolas Dumoulin", 
                        "displayName": "Nicolas Dumoulin", 
                        "media": null, 
                        "vip": false, 
                        "isAdmin": false, 
                        "_links": {
                            "profile": "http://www.republique-numerique.fr/profile/nicolasdumoulin", 
                            "settings": "http://www.republique-numerique.fr/profile/edit-profile"
                        }, 
                        "uniqueId": "nicolasdumoulin"
                    }, 
                    "value": 1
                }, 
                {
                    "user": {
                        "username": "Isabelle Dutailly", 
                        "displayName": "Isabelle Dutailly", 
                        "media": null, 
                        "vip": false, 
                        "isAdmin": false, 
                        "_links": {
                            "profile": "http://www.republique-numerique.fr/profile/isabelledutailly", 
                            "settings": "http://www.republique-numerique.fr/profile/edit-profile"
                        }, 
                        "uniqueId": "isabelledutailly"
                    }, 
                    "value": 1
                }, 
                {
                    "user": {
                        "username": "Denis Chenu", 
                        "displayName": "Denis Chenu", 
                        "media": null, 
                        "vip": false, 
                        "isAdmin": false, 
                        "_links": {
                            "profile": "http://www.republique-numerique.fr/profile/denischenu", 
                            "settings": "http://www.republique-numerique.fr/profile/edit-profile"
                        }, 
                        "uniqueId": "denischenu"
                    }, 
                    "value": 1
                }, 
                {
                    "user": {
                        "username": "Maury Fabien", 
                        "displayName": "Maury Fabien", 
                        "media": null, 
                        "vip": false, 
                        "isAdmin": false, 
                        "_links": {
                            "profile": "http://www.republique-numerique.fr/profile/mauryfabien", 
                            "settings": "http://www.republique-numerique.fr/profile/edit-profile"
                        }, 
                        "uniqueId": "mauryfabien"
                    }, 
                    "value": 1
                }, 
                {
                    "user": {
                        "username": "Fr\u00e9dric Toutain", 
                        "displayName": "Fr\u00e9dric Toutain", 
                        "media": null, 
                        "vip": false, 
                        "isAdmin": false, 
                        "_links": {
                            "profile": "http://www.republique-numerique.fr/profile/fredrictoutain1", 
                            "settings": "http://www.republique-numerique.fr/profile/edit-profile"
                        }, 
                        "uniqueId": "fredrictoutain1"
                    }, 
                    "value": 1
                }
            ], 
            "after": "", 
            "title": "Et en cas de non application", 
            "created_at": "2015-10-12T12:01:16+0200", 
            "author": {
                "username": "D\u00e9put\u00e9e Isabelle Attard", 
                "displayName": "D\u00e9put\u00e9e Isabelle Attard", 
                "media": {
                    "url": "/media/cache/default_avatar/default/0001/01/537_default_avatar.jpg"
                }, 
                "vip": false, 
                "isAdmin": false, 
                "_links": {
                    "profile": "http://www.republique-numerique.fr/profile/deputeeisabelleattard", 
                    "settings": "http://www.republique-numerique.fr/profile/edit-profile"
                }, 
                "uniqueId": "deputeeisabelleattard"
            }, 
            "updated_at": "2015-10-12T12:01:16+0200", 
            "slug": "et-en-cas-de-non-application", 
            "sources": [], 
            "arguments_yes_count": 0, 
            "votes_total": 10, 
            "arguments": [], 
            "votes_mitige": 0, 
            "arguments_count": 0, 
            "_id": 155, 
            "arguments_no_count": 0, 
            "id": 820, 
            "before": ""
        }, 
        {
            "comment": "A ma connaissance, la t\u00e9l\u00e9vision, les journaux papiers, le cin\u00e9ma etc... ne suivent pas une charte graphique nationale pour signaler la publicit\u00e9.\u00a0\nQue la distinction soit faite oui, que le design soit impos\u00e9 non. La libert\u00e9 d'expression (graphique) serait atteinte.\u00a0\nProposer un outil simple pour signaler une confusion entre pub/article me semble plus adapt\u00e9.\u00a0", 
            "votes_nok": 2, 
            "votes": [
                {
                    "user": {
                        "username": "Gauvrit Gaylord", 
                        "displayName": "Gauvrit Gaylord", 
                        "media": null, 
                        "vip": false, 
                        "isAdmin": false, 
                        "_links": {
                            "profile": "http://www.republique-numerique.fr/profile/gauvritgaylord", 
                            "settings": "http://www.republique-numerique.fr/profile/edit-profile"
                        }, 
                        "uniqueId": "gauvritgaylord"
                    }, 
                    "value": 1
                }, 
                {
                    "user": {
                        "username": "Jesse Robert", 
                        "displayName": "Jesse Robert", 
                        "media": {
                            "url": "/media/cache/default_avatar/default/0001/01/315_default_avatar.png"
                        }, 
                        "vip": false, 
                        "isAdmin": false, 
                        "_links": {
                            "profile": "http://www.republique-numerique.fr/profile/jesserobert", 
                            "settings": "http://www.republique-numerique.fr/profile/edit-profile"
                        }, 
                        "uniqueId": "jesserobert"
                    }, 
                    "value": -1
                }, 
                {
                    "user": {
                        "username": "Charles Boisvert", 
                        "displayName": "Charles Boisvert", 
                        "media": null, 
                        "vip": false, 
                        "isAdmin": false, 
                        "_links": {
                            "profile": "http://www.republique-numerique.fr/profile/charlesboisvert", 
                            "settings": "http://www.republique-numerique.fr/profile/edit-profile"
                        }, 
                        "uniqueId": "charlesboisvert"
                    }, 
                    "value": -1
                }, 
                {
                    "user": {
                        "username": "Pierre", 
                        "displayName": "Pierre", 
                        "media": {
                            "url": "/media/cache/default_avatar/default/0001/01/199_default_avatar.png"
                        }, 
                        "vip": false, 
                        "isAdmin": false, 
                        "_links": {
                            "profile": "http://www.republique-numerique.fr/profile/pierre1", 
                            "settings": "http://www.republique-numerique.fr/profile/edit-profile"
                        }, 
                        "uniqueId": "pierre1"
                    }, 
                    "value": 0
                }, 
                {
                    "user": {
                        "username": "Vincent Reverdy", 
                        "displayName": "Vincent Reverdy", 
                        "media": {
                            "url": "/media/cache/default_avatar/default/0001/01/268_default_avatar.jpg"
                        }, 
                        "vip": false, 
                        "isAdmin": false, 
                        "_links": {
                            "profile": "http://www.republique-numerique.fr/profile/vincentreverdy", 
                            "settings": "http://www.republique-numerique.fr/profile/edit-profile"
                        }, 
                        "uniqueId": "vincentreverdy"
                    }, 
                    "value": 1
                }
            ], 
            "after": "", 
            "title": "Ne pas imposer de charte nationale", 
            "created_at": "2015-09-28T10:55:09+0200", 
            "author": {
                "username": "Gauvrit Gaylord", 
                "displayName": "Gauvrit Gaylord", 
                "media": null, 
                "vip": false, 
                "isAdmin": false, 
                "_links": {
                    "profile": "http://www.republique-numerique.fr/profile/gauvritgaylord", 
                    "settings": "http://www.republique-numerique.fr/profile/edit-profile"
                }, 
                "uniqueId": "gauvritgaylord"
            }, 
            "updated_at": "2015-09-28T10:55:09+0200", 
            "slug": "ne-pas-imposer-de-charte-nationale", 
            "sources": [], 
            "arguments_yes_count": 0, 
            "votes_total": 7, 
            "arguments": [
                {
                    "body": "Bien sur que si c'est tres clair a la t\u00e9l\u00e9, dans le journal et au cin\u00e9ma !\nLa diff\u00e9rence est pourtant evidente...", 
                    "is_enabled": true, 
                    "isContribuable": false, 
                    "author": {
                        "username": "Jesse Robert", 
                        "displayName": "Jesse Robert", 
                        "media": {
                            "url": "/media/cache/default_avatar/default/0001/01/315_default_avatar.png"
                        }, 
                        "vip": false, 
                        "isAdmin": false, 
                        "_links": {
                            "profile": "http://www.republique-numerique.fr/profile/jesserobert", 
                            "settings": "http://www.republique-numerique.fr/profile/edit-profile"
                        }, 
                        "uniqueId": "jesserobert"
                    }, 
                    "created_at": "2015-09-28T13:37:34+0200", 
                    "updated_at": "2015-09-28T13:37:34+0200", 
                    "has_user_reported": false, 
                    "votes_count": 0, 
                    "has_user_voted": false, 
                    "_links": {
                        "edit": "http://www.republique-numerique.fr/projects/projet-de-loi-numerique/consultation/consultation/opinions/section-4-information-des-consommateurs/article-15-0-permettre-une-meilleure-distinction-des-publicites-deguisees-sur-les-supports-mediatiques/arguments/853/edit", 
                        "report": "http://www.republique-numerique.fr/consultations/projet-de-loi-numerique/consultation/consultation/opinions/section-4-information-des-consommateurs/article-15-0-permettre-une-meilleure-distinction-des-publicites-deguisees-sur-les-supports-mediatiques/arguments/853/report", 
                        "show": "http://www.republique-numerique.fr/projects/projet-de-loi-numerique/consultation/consultation/opinions/section-4-information-des-consommateurs/article-15-0-permettre-une-meilleure-distinction-des-publicites-deguisees-sur-les-supports-mediatiques/versions/ne-pas-imposer-de-charte-nationale#arg-853"
                    }, 
                    "type": 0, 
                    "id": 853, 
                    "is_trashed": false
                }, 
                {
                    "body": "@Jesse, pas tant que \u00e7a.. rappelle toi la pub pour du dentifrice sur M6 qui imitait le look de l\u2019\u00e9mission E=m6 pour nous faire croire mont et merveilles", 
                    "is_enabled": true, 
                    "isContribuable": false, 
                    "author": {
                        "username": "Pierre", 
                        "displayName": "Pierre", 
                        "media": {
                            "url": "/media/cache/default_avatar/default/0001/01/199_default_avatar.png"
                        }, 
                        "vip": false, 
                        "isAdmin": false, 
                        "_links": {
                            "profile": "http://www.republique-numerique.fr/profile/pierre1", 
                            "settings": "http://www.republique-numerique.fr/profile/edit-profile"
                        }, 
                        "uniqueId": "pierre1"
                    }, 
                    "created_at": "2015-10-02T15:27:35+0200", 
                    "updated_at": "2015-10-02T15:27:35+0200", 
                    "has_user_reported": false, 
                    "votes_count": 0, 
                    "has_user_voted": false, 
                    "_links": {
                        "edit": "http://www.republique-numerique.fr/projects/projet-de-loi-numerique/consultation/consultation/opinions/section-4-information-des-consommateurs/article-15-0-permettre-une-meilleure-distinction-des-publicites-deguisees-sur-les-supports-mediatiques/arguments/2010/edit", 
                        "report": "http://www.republique-numerique.fr/consultations/projet-de-loi-numerique/consultation/consultation/opinions/section-4-information-des-consommateurs/article-15-0-permettre-une-meilleure-distinction-des-publicites-deguisees-sur-les-supports-mediatiques/arguments/2010/report", 
                        "show": "http://www.republique-numerique.fr/projects/projet-de-loi-numerique/consultation/consultation/opinions/section-4-information-des-consommateurs/article-15-0-permettre-une-meilleure-distinction-des-publicites-deguisees-sur-les-supports-mediatiques/versions/ne-pas-imposer-de-charte-nationale#arg-2010"
                    }, 
                    "type": 0, 
                    "id": 2010, 
                    "is_trashed": false
                }
            ], 
            "votes_mitige": 1, 
            "arguments_count": 2, 
            "_id": 155, 
            "arguments_no_count": 2, 
            "id": 292, 
            "before": ""
        }, 
        {
            "comment": "Les r\u00e8gles g\u00e9n\u00e9rales applicables \u00e0 la publicit\u00e9 existent et devraient s'appliquer \u00e0 internet, m\u00e9dia au m\u00eame titre que les autres. Il suffirait, nous semble-t-il d'appliquer les textes. Par ailleurs une charte graphique sp\u00e9cifique parait bien utopique.", 
            "votes_nok": 1, 
            "votes": [
                {
                    "user": {
                        "username": "Jesse Robert", 
                        "displayName": "Jesse Robert", 
                        "media": {
                            "url": "/media/cache/default_avatar/default/0001/01/315_default_avatar.png"
                        }, 
                        "vip": false, 
                        "isAdmin": false, 
                        "_links": {
                            "profile": "http://www.republique-numerique.fr/profile/jesserobert", 
                            "settings": "http://www.republique-numerique.fr/profile/edit-profile"
                        }, 
                        "uniqueId": "jesserobert"
                    }, 
                    "value": 0
                }, 
                {
                    "user": {
                        "username": "Pierre", 
                        "displayName": "Pierre", 
                        "media": {
                            "url": "/media/cache/default_avatar/default/0001/01/199_default_avatar.png"
                        }, 
                        "vip": false, 
                        "isAdmin": false, 
                        "_links": {
                            "profile": "http://www.republique-numerique.fr/profile/pierre1", 
                            "settings": "http://www.republique-numerique.fr/profile/edit-profile"
                        }, 
                        "uniqueId": "pierre1"
                    }, 
                    "value": -1
                }, 
                {
                    "user": {
                        "username": "Vincent Reverdy", 
                        "displayName": "Vincent Reverdy", 
                        "media": {
                            "url": "/media/cache/default_avatar/default/0001/01/268_default_avatar.jpg"
                        }, 
                        "vip": false, 
                        "isAdmin": false, 
                        "_links": {
                            "profile": "http://www.republique-numerique.fr/profile/vincentreverdy", 
                            "settings": "http://www.republique-numerique.fr/profile/edit-profile"
                        }, 
                        "uniqueId": "vincentreverdy"
                    }, 
                    "value": 0
                }, 
                {
                    "user": {
                        "username": "Maltese Nadine", 
                        "displayName": "Maltese Nadine", 
                        "media": {
                            "url": "/media/cache/default_avatar/default/0001/01/113_default_avatar.png"
                        }, 
                        "vip": false, 
                        "isAdmin": false, 
                        "_links": {
                            "profile": "http://www.republique-numerique.fr/profile/maltesenadine", 
                            "settings": "http://www.republique-numerique.fr/profile/edit-profile"
                        }, 
                        "uniqueId": "maltesenadine"
                    }, 
                    "value": 0
                }
            ], 
            "after": "", 
            "title": "publicit\u00e9s d\u00e9guis\u00e9es", 
            "created_at": "2015-09-27T19:33:27+0200", 
            "author": {
                "username": "Henri Rivollier", 
                "displayName": "Henri Rivollier", 
                "media": null, 
                "vip": false, 
                "isAdmin": false, 
                "_links": {
                    "profile": "http://www.republique-numerique.fr/profile/henririvollier", 
                    "settings": "http://www.republique-numerique.fr/profile/edit-profile"
                }, 
                "uniqueId": "henririvollier"
            }, 
            "updated_at": "2015-09-27T19:33:27+0200", 
            "slug": "publicites-deguisees", 
            "sources": [], 
            "arguments_yes_count": 0, 
            "votes_total": 4, 
            "arguments": [
                {
                    "body": "Je ne pense pas qu'il est utopiste d'appliqu\u00e9 une charte universel.\nM\u00eame si ce n'est pas les circonstances, nous arrivons bien a faire appliquer un paquet de tabac neutre avec une charte graphique commune.\nCe n'est pas pour les m\u00eames raisons, mais l'argument de \"l'utopie\" n'est pas vraiment recevable lorsque l'on r\u00e9dige un texte de loi qui se veut repr\u00e9senter ce que les citoyens veulent.", 
                    "is_enabled": true, 
                    "isContribuable": false, 
                    "author": {
                        "username": "Jesse Robert", 
                        "displayName": "Jesse Robert", 
                        "media": {
                            "url": "/media/cache/default_avatar/default/0001/01/315_default_avatar.png"
                        }, 
                        "vip": false, 
                        "isAdmin": false, 
                        "_links": {
                            "profile": "http://www.republique-numerique.fr/profile/jesserobert", 
                            "settings": "http://www.republique-numerique.fr/profile/edit-profile"
                        }, 
                        "uniqueId": "jesserobert"
                    }, 
                    "created_at": "2015-09-27T20:04:40+0200", 
                    "updated_at": "2015-09-27T20:04:40+0200", 
                    "has_user_reported": false, 
                    "votes_count": 2, 
                    "has_user_voted": false, 
                    "_links": {
                        "edit": "http://www.republique-numerique.fr/projects/projet-de-loi-numerique/consultation/consultation/opinions/section-4-information-des-consommateurs/article-15-0-permettre-une-meilleure-distinction-des-publicites-deguisees-sur-les-supports-mediatiques/arguments/662/edit", 
                        "report": "http://www.republique-numerique.fr/consultations/projet-de-loi-numerique/consultation/consultation/opinions/section-4-information-des-consommateurs/article-15-0-permettre-une-meilleure-distinction-des-publicites-deguisees-sur-les-supports-mediatiques/arguments/662/report", 
                        "show": "http://www.republique-numerique.fr/projects/projet-de-loi-numerique/consultation/consultation/opinions/section-4-information-des-consommateurs/article-15-0-permettre-une-meilleure-distinction-des-publicites-deguisees-sur-les-supports-mediatiques/versions/publicites-deguisees#arg-662"
                    }, 
                    "type": 0, 
                    "id": 662, 
                    "is_trashed": false
                }, 
                {
                    "body": "internet est un canal de diffusion diff\u00e9rents des canaux physiques existants, il m\u00e9rite une l\u00e9gislation sp\u00e9cifique ", 
                    "is_enabled": true, 
                    "isContribuable": false, 
                    "author": {
                        "username": "Pierre", 
                        "displayName": "Pierre", 
                        "media": {
                            "url": "/media/cache/default_avatar/default/0001/01/199_default_avatar.png"
                        }, 
                        "vip": false, 
                        "isAdmin": false, 
                        "_links": {
                            "profile": "http://www.republique-numerique.fr/profile/pierre1", 
                            "settings": "http://www.republique-numerique.fr/profile/edit-profile"
                        }, 
                        "uniqueId": "pierre1"
                    }, 
                    "created_at": "2015-10-02T15:18:49+0200", 
                    "updated_at": "2015-10-02T15:18:49+0200", 
                    "has_user_reported": false, 
                    "votes_count": 0, 
                    "has_user_voted": false, 
                    "_links": {
                        "edit": "http://www.republique-numerique.fr/projects/projet-de-loi-numerique/consultation/consultation/opinions/section-4-information-des-consommateurs/article-15-0-permettre-une-meilleure-distinction-des-publicites-deguisees-sur-les-supports-mediatiques/arguments/2006/edit", 
                        "report": "http://www.republique-numerique.fr/consultations/projet-de-loi-numerique/consultation/consultation/opinions/section-4-information-des-consommateurs/article-15-0-permettre-une-meilleure-distinction-des-publicites-deguisees-sur-les-supports-mediatiques/arguments/2006/report", 
                        "show": "http://www.republique-numerique.fr/projects/projet-de-loi-numerique/consultation/consultation/opinions/section-4-information-des-consommateurs/article-15-0-permettre-une-meilleure-distinction-des-publicites-deguisees-sur-les-supports-mediatiques/versions/publicites-deguisees#arg-2006"
                    }, 
                    "type": 0, 
                    "id": 2006, 
                    "is_trashed": false
                }
            ], 
            "votes_mitige": 3, 
            "arguments_count": 2, 
            "_id": 155, 
            "arguments_no_count": 2, 
            "id": 247, 
            "before": ""
        }
    ]
}