{
    "_id": 226, 
    "versions": [
        {
            "comment": null, 
            "votes_nok": 0, 
            "votes": [
                {
                    "user": {
                        "username": "Glenn", 
                        "displayName": "Glenn", 
                        "media": null, 
                        "vip": false, 
                        "isAdmin": false, 
                        "_links": {
                            "profile": "http://www.republique-numerique.fr/profile/glenn", 
                            "settings": "http://www.republique-numerique.fr/profile/edit-profile"
                        }, 
                        "uniqueId": "glenn"
                    }, 
                    "value": 1
                }, 
                {
                    "user": {
                        "username": "Vincent Reverdy", 
                        "displayName": "Vincent Reverdy", 
                        "media": {
                            "url": "/media/cache/default_avatar/default/0001/01/268_default_avatar.jpg"
                        }, 
                        "vip": false, 
                        "isAdmin": false, 
                        "_links": {
                            "profile": "http://www.republique-numerique.fr/profile/vincentreverdy", 
                            "settings": "http://www.republique-numerique.fr/profile/edit-profile"
                        }, 
                        "uniqueId": "vincentreverdy"
                    }, 
                    "value": 1
                }, 
                {
                    "user": {
                        "username": "Emmanuel D", 
                        "displayName": "Emmanuel D", 
                        "media": null, 
                        "vip": false, 
                        "isAdmin": false, 
                        "_links": {
                            "profile": "http://www.republique-numerique.fr/profile/emmanueld", 
                            "settings": "http://www.republique-numerique.fr/profile/edit-profile"
                        }, 
                        "uniqueId": "emmanueld"
                    }, 
                    "value": 1
                }, 
                {
                    "user": {
                        "username": "Emmanuel Haguet", 
                        "displayName": "Emmanuel Haguet", 
                        "media": null, 
                        "vip": false, 
                        "isAdmin": false, 
                        "_links": {
                            "profile": "http://www.republique-numerique.fr/profile/emmanuelhaguet", 
                            "settings": "http://www.republique-numerique.fr/profile/edit-profile"
                        }, 
                        "uniqueId": "emmanuelhaguet"
                    }, 
                    "value": 1
                }, 
                {
                    "user": {
                        "username": "Maltese Nadine", 
                        "displayName": "Maltese Nadine", 
                        "media": {
                            "url": "/media/cache/default_avatar/default/0001/01/113_default_avatar.png"
                        }, 
                        "vip": false, 
                        "isAdmin": false, 
                        "_links": {
                            "profile": "http://www.republique-numerique.fr/profile/maltesenadine", 
                            "settings": "http://www.republique-numerique.fr/profile/edit-profile"
                        }, 
                        "uniqueId": "maltesenadine"
                    }, 
                    "value": 1
                }
            ], 
            "after": "", 
            "title": "note de frais et justificatif scann\u00e9s", 
            "created_at": "2015-09-29T09:03:16+0200", 
            "author": {
                "username": "Liard", 
                "displayName": "Liard", 
                "media": null, 
                "vip": false, 
                "isAdmin": false, 
                "_links": {
                    "profile": "http://www.republique-numerique.fr/profile/liard", 
                    "settings": "http://www.republique-numerique.fr/profile/edit-profile"
                }, 
                "uniqueId": "liard"
            }, 
            "updated_at": "2015-09-29T09:03:16+0200", 
            "slug": "note-de-frais-et-justificatif-scannes", 
            "sources": [], 
            "arguments_yes_count": 0, 
            "votes_total": 6, 
            "arguments": [], 
            "votes_mitige": 0, 
            "arguments_count": 0, 
            "_id": 226, 
            "arguments_no_count": 0, 
            "id": 383, 
            "before": ""
        }, 
        {
            "comment": "Il s'agit ici de num\u00e9rique. Ne pas oublier les d\u00e9penses en logiciels, de chacune des entit\u00e9s (minist\u00e8res, administrations, etc.... enfin toutes).", 
            "votes_nok": 0, 
            "votes": [
                {
                    "user": {
                        "username": "Jeanne Varasco", 
                        "displayName": "Jeanne Varasco", 
                        "media": {
                            "url": "/media/cache/default_avatar/default/0001/01/139_default_avatar.jpg"
                        }, 
                        "vip": false, 
                        "isAdmin": false, 
                        "_links": {
                            "profile": "http://www.republique-numerique.fr/profile/jeannevarasco", 
                            "settings": "http://www.republique-numerique.fr/profile/edit-profile"
                        }, 
                        "uniqueId": "jeannevarasco"
                    }, 
                    "value": 1
                }, 
                {
                    "user": {
                        "username": "Glenn", 
                        "displayName": "Glenn", 
                        "media": null, 
                        "vip": false, 
                        "isAdmin": false, 
                        "_links": {
                            "profile": "http://www.republique-numerique.fr/profile/glenn", 
                            "settings": "http://www.republique-numerique.fr/profile/edit-profile"
                        }, 
                        "uniqueId": "glenn"
                    }, 
                    "value": 1
                }, 
                {
                    "user": {
                        "username": "Vincent Reverdy", 
                        "displayName": "Vincent Reverdy", 
                        "media": {
                            "url": "/media/cache/default_avatar/default/0001/01/268_default_avatar.jpg"
                        }, 
                        "vip": false, 
                        "isAdmin": false, 
                        "_links": {
                            "profile": "http://www.republique-numerique.fr/profile/vincentreverdy", 
                            "settings": "http://www.republique-numerique.fr/profile/edit-profile"
                        }, 
                        "uniqueId": "vincentreverdy"
                    }, 
                    "value": 1
                }, 
                {
                    "user": {
                        "username": "Jeanne Tadeusz", 
                        "displayName": "Jeanne Tadeusz", 
                        "media": null, 
                        "vip": false, 
                        "isAdmin": false, 
                        "_links": {
                            "profile": "http://www.republique-numerique.fr/profile/jeannetadeusz", 
                            "settings": "http://www.republique-numerique.fr/profile/edit-profile"
                        }, 
                        "uniqueId": "jeannetadeusz"
                    }, 
                    "value": 1
                }, 
                {
                    "user": {
                        "username": "Pierre Lavayssi\u00e8re", 
                        "displayName": "Pierre Lavayssi\u00e8re", 
                        "media": null, 
                        "vip": false, 
                        "isAdmin": false, 
                        "_links": {
                            "profile": "http://www.republique-numerique.fr/profile/pierrelavayssiere", 
                            "settings": "http://www.republique-numerique.fr/profile/edit-profile"
                        }, 
                        "uniqueId": "pierrelavayssiere"
                    }, 
                    "value": 1
                }
            ], 
            "after": "", 
            "title": "D\u00e9penses en logiciels", 
            "created_at": "2015-09-28T10:49:35+0200", 
            "author": {
                "username": "momb", 
                "displayName": "momb", 
                "media": null, 
                "vip": false, 
                "isAdmin": false, 
                "_links": {
                    "profile": "http://www.republique-numerique.fr/profile/momb", 
                    "settings": "http://www.republique-numerique.fr/profile/edit-profile"
                }, 
                "uniqueId": "momb"
            }, 
            "updated_at": "2015-09-28T10:49:35+0200", 
            "slug": "depenses-en-logiciels", 
            "sources": [], 
            "arguments_yes_count": 0, 
            "votes_total": 8, 
            "arguments": [], 
            "votes_mitige": 0, 
            "arguments_count": 0, 
            "_id": 226, 
            "arguments_no_count": 0, 
            "id": 289, 
            "before": ""
        }
    ]
}