{
    "_id": 316, 
    "versions": [
        {
            "comment": "Reprise du texte propos\u00e9 en \"explication\", puisque c'est une explication. Tentative de passer cela en phrase 'juridique' : quelles obligations exactes ? Peut on citer unr\u00e9f\u00e9rentiel pr\u00e9cis ?\nLe R\u00e9f\u00e9rentiel G\u00e9n\u00e9ral d'Interop\u00e9rabilit\u00e9 (RGI) d\u00e9finit les normes et standards \u00e0 respecter afin de garantir une utilisation des documents sur plusieurs supports. Or dans l'administration (mairies et services municipaux, services publics et sociaux, enseignement ...) on re\u00e7oit souvent des fichiers ne respectant pas le rgi (documents PDF \"sp\u00e9ciaux\" difficilement lisibles, .docx dot\u00e9s de macros illisibles selon les versions de Microsoft Office, Google Docs ou Libreoffice, textes o\u00f9 les \"\u00e9\" deviennent des &eacute ou des \u00c3\u00a9...).\nIl faudrait que toutes ces entit\u00e9s utilisent de fa\u00e7on efficace le RGI, cela \u00e9viterait de nombreux probl\u00e8mes, d'autant que les personnes ayant des difficult\u00e9s avec l'informatique seront les moins \u00e0 m\u00eame de contourner les probl\u00e8mes.\nLes objectifs d'accessibilit\u00e9 sont d\u00e9j\u00e0 dans le RGII http://references.modernisation.gouv.fr/accessibilite-numerique\u00a0 . Pas besoin des les reprendre directement.", 
            "votes_nok": 0, 
            "votes": [
                {
                    "user": {
                        "username": "Denis Chenu", 
                        "displayName": "Denis Chenu", 
                        "media": null, 
                        "vip": false, 
                        "isAdmin": false, 
                        "_links": {
                            "profile": "http://www.republique-numerique.fr/profile/denischenu", 
                            "settings": "http://www.republique-numerique.fr/profile/edit-profile"
                        }, 
                        "uniqueId": "denischenu"
                    }, 
                    "value": 1
                }, 
                {
                    "user": {
                        "username": "Vincent Reverdy", 
                        "displayName": "Vincent Reverdy", 
                        "media": {
                            "url": "/media/cache/default_avatar/default/0001/01/268_default_avatar.jpg"
                        }, 
                        "vip": false, 
                        "isAdmin": false, 
                        "_links": {
                            "profile": "http://www.republique-numerique.fr/profile/vincentreverdy", 
                            "settings": "http://www.republique-numerique.fr/profile/edit-profile"
                        }, 
                        "uniqueId": "vincentreverdy"
                    }, 
                    "value": 1
                }, 
                {
                    "user": {
                        "username": "Jeanne Varasco", 
                        "displayName": "Jeanne Varasco", 
                        "media": {
                            "url": "/media/cache/default_avatar/default/0001/01/139_default_avatar.jpg"
                        }, 
                        "vip": false, 
                        "isAdmin": false, 
                        "_links": {
                            "profile": "http://www.republique-numerique.fr/profile/jeannevarasco", 
                            "settings": "http://www.republique-numerique.fr/profile/edit-profile"
                        }, 
                        "uniqueId": "jeannevarasco"
                    }, 
                    "value": 1
                }
            ], 
            "after": "", 
            "title": "Int\u00e9grer un r\u00e9f\u00e9rentiel d'accessibilit\u00e9 aux sites institutionnels", 
            "created_at": "2015-10-14T08:28:53+0200", 
            "author": {
                "username": "Denis Chenu", 
                "displayName": "Denis Chenu", 
                "media": null, 
                "vip": false, 
                "isAdmin": false, 
                "_links": {
                    "profile": "http://www.republique-numerique.fr/profile/denischenu", 
                    "settings": "http://www.republique-numerique.fr/profile/edit-profile"
                }, 
                "uniqueId": "denischenu"
            }, 
            "updated_at": "2015-10-14T08:28:53+0200", 
            "slug": "integrer-un-referentiel-d-accessibilite-aux-sites-institutionnels", 
            "sources": [], 
            "arguments_yes_count": 1, 
            "votes_total": 3, 
            "arguments": [
                {
                    "body": "il y a aussi les exigences du W3C, plus technique mais tout aussi importante pour que les choses soient bien claires.", 
                    "is_enabled": true, 
                    "isContribuable": false, 
                    "author": {
                        "username": "Jeanne Varasco", 
                        "displayName": "Jeanne Varasco", 
                        "media": {
                            "url": "/media/cache/default_avatar/default/0001/01/139_default_avatar.jpg"
                        }, 
                        "vip": false, 
                        "isAdmin": false, 
                        "_links": {
                            "profile": "http://www.republique-numerique.fr/profile/jeannevarasco", 
                            "settings": "http://www.republique-numerique.fr/profile/edit-profile"
                        }, 
                        "uniqueId": "jeannevarasco"
                    }, 
                    "created_at": "2015-10-16T19:40:24+0200", 
                    "updated_at": "2015-10-16T19:40:24+0200", 
                    "has_user_reported": false, 
                    "votes_count": 2, 
                    "has_user_voted": false, 
                    "_links": {
                        "edit": "http://www.republique-numerique.fr/projects/projet-de-loi-numerique/consultation/consultation/opinions/section-1-accessibilite-des-personnes-handicapees-aux-services-telephoniques/respect-du-referentiel-general-d-interoperabilite-rgi-dans-les-administrations/arguments/4986/edit", 
                        "report": "http://www.republique-numerique.fr/consultations/projet-de-loi-numerique/consultation/consultation/opinions/section-1-accessibilite-des-personnes-handicapees-aux-services-telephoniques/respect-du-referentiel-general-d-interoperabilite-rgi-dans-les-administrations/arguments/4986/report", 
                        "show": "http://www.republique-numerique.fr/projects/projet-de-loi-numerique/consultation/consultation/opinions/section-1-accessibilite-des-personnes-handicapees-aux-services-telephoniques/respect-du-referentiel-general-d-interoperabilite-rgi-dans-les-administrations/versions/integrer-un-referentiel-d-accessibilite-aux-sites-institutionnels#arg-4986"
                    }, 
                    "type": 1, 
                    "id": 4986, 
                    "is_trashed": false
                }
            ], 
            "votes_mitige": 0, 
            "arguments_count": 1, 
            "_id": 316, 
            "arguments_no_count": 0, 
            "id": 947, 
            "before": ""
        }
    ]
}