{
    "_id": 393, 
    "versions": [
        {
            "comment": null, 
            "votes_nok": 1, 
            "votes": [
                {
                    "user": {
                        "username": "Vincent Reverdy", 
                        "displayName": "Vincent Reverdy", 
                        "media": {
                            "url": "/media/cache/default_avatar/default/0001/01/268_default_avatar.jpg"
                        }, 
                        "vip": false, 
                        "isAdmin": false, 
                        "_links": {
                            "profile": "http://www.republique-numerique.fr/profile/vincentreverdy", 
                            "settings": "http://www.republique-numerique.fr/profile/edit-profile"
                        }, 
                        "uniqueId": "vincentreverdy"
                    }, 
                    "value": 0
                }, 
                {
                    "user": {
                        "username": "Daniel Tournay", 
                        "displayName": "Daniel Tournay", 
                        "media": null, 
                        "vip": false, 
                        "isAdmin": false, 
                        "_links": {
                            "profile": "http://www.republique-numerique.fr/profile/danieltournay", 
                            "settings": "http://www.republique-numerique.fr/profile/edit-profile"
                        }, 
                        "uniqueId": "danieltournay"
                    }, 
                    "value": 1
                }, 
                {
                    "user": {
                        "username": "ESS_Clem", 
                        "displayName": "ESS_Clem", 
                        "media": null, 
                        "vip": false, 
                        "isAdmin": false, 
                        "_links": {
                            "profile": "http://www.republique-numerique.fr/profile/essclem", 
                            "settings": "http://www.republique-numerique.fr/profile/edit-profile"
                        }, 
                        "uniqueId": "essclem"
                    }, 
                    "value": -1
                }, 
                {
                    "user": {
                        "username": "Bruno IZAUTE", 
                        "displayName": "Bruno IZAUTE", 
                        "media": null, 
                        "vip": false, 
                        "isAdmin": false, 
                        "_links": {
                            "profile": "http://www.republique-numerique.fr/profile/brunoizaute", 
                            "settings": "http://www.republique-numerique.fr/profile/edit-profile"
                        }, 
                        "uniqueId": "brunoizaute"
                    }, 
                    "value": 1
                }
            ], 
            "after": "", 
            "title": "modification de l'article L423-1", 
            "created_at": "2015-10-09T11:14:57+0200", 
            "author": {
                "username": "zohra", 
                "displayName": "zohra", 
                "media": null, 
                "vip": false, 
                "isAdmin": false, 
                "_links": {
                    "profile": "http://www.republique-numerique.fr/profile/zohra", 
                    "settings": "http://www.republique-numerique.fr/profile/edit-profile"
                }, 
                "uniqueId": "zohra"
            }, 
            "updated_at": "2015-10-09T11:17:29+0200", 
            "slug": "modification-de-l-article-l423-1", 
            "sources": [], 
            "arguments_yes_count": 0, 
            "votes_total": 4, 
            "arguments": [], 
            "votes_mitige": 1, 
            "arguments_count": 0, 
            "_id": 393, 
            "arguments_no_count": 0, 
            "id": 739, 
            "before": ""
        }
    ]
}