{
    "_id": 540, 
    "versions": [
        {
            "comment": "Il faudrait interdire les sondages, dans un premier temps sur internet.", 
            "votes_nok": 1, 
            "votes": [
                {
                    "user": {
                        "username": "Vincent Reverdy", 
                        "displayName": "Vincent Reverdy", 
                        "media": {
                            "url": "/media/cache/default_avatar/default/0001/01/268_default_avatar.jpg"
                        }, 
                        "vip": false, 
                        "isAdmin": false, 
                        "_links": {
                            "profile": "http://www.republique-numerique.fr/profile/vincentreverdy", 
                            "settings": "http://www.republique-numerique.fr/profile/edit-profile"
                        }, 
                        "uniqueId": "vincentreverdy"
                    }, 
                    "value": -1
                }
            ], 
            "after": "", 
            "title": "Sondages", 
            "created_at": "2015-10-12T20:52:31+0200", 
            "author": {
                "username": "Pr\u00e9mi\u00e9", 
                "displayName": "Pr\u00e9mi\u00e9", 
                "media": null, 
                "vip": false, 
                "isAdmin": false, 
                "_links": {
                    "profile": "http://www.republique-numerique.fr/profile/premie", 
                    "settings": "http://www.republique-numerique.fr/profile/edit-profile"
                }, 
                "uniqueId": "premie"
            }, 
            "updated_at": "2015-10-12T20:52:31+0200", 
            "slug": "sondages", 
            "sources": [], 
            "arguments_yes_count": 0, 
            "votes_total": 1, 
            "arguments": [
                {
                    "body": "Interdire les sondages, sur internet dans un premier temps.", 
                    "is_enabled": true, 
                    "isContribuable": false, 
                    "author": {
                        "username": "Pr\u00e9mi\u00e9", 
                        "displayName": "Pr\u00e9mi\u00e9", 
                        "media": null, 
                        "vip": false, 
                        "isAdmin": false, 
                        "_links": {
                            "profile": "http://www.republique-numerique.fr/profile/premie", 
                            "settings": "http://www.republique-numerique.fr/profile/edit-profile"
                        }, 
                        "uniqueId": "premie"
                    }, 
                    "created_at": "2015-10-12T20:54:05+0200", 
                    "updated_at": "2015-10-12T20:54:05+0200", 
                    "has_user_reported": false, 
                    "votes_count": 1, 
                    "has_user_voted": false, 
                    "_links": {
                        "edit": "http://www.republique-numerique.fr/projects/projet-de-loi-numerique/consultation/consultation/opinions/section-1-ouverture-des-donnees-publiques-1/choix-de-reponses-dans-les-sondages-enquetes-et-petitions/arguments/3382/edit", 
                        "report": "http://www.republique-numerique.fr/consultations/projet-de-loi-numerique/consultation/consultation/opinions/section-1-ouverture-des-donnees-publiques-1/choix-de-reponses-dans-les-sondages-enquetes-et-petitions/arguments/3382/report", 
                        "show": "http://www.republique-numerique.fr/projects/projet-de-loi-numerique/consultation/consultation/opinions/section-1-ouverture-des-donnees-publiques-1/choix-de-reponses-dans-les-sondages-enquetes-et-petitions/versions/sondages#arg-3382"
                    }, 
                    "type": 0, 
                    "id": 3382, 
                    "is_trashed": false
                }
            ], 
            "votes_mitige": 0, 
            "arguments_count": 1, 
            "_id": 540, 
            "arguments_no_count": 1, 
            "id": 859, 
            "before": ""
        }
    ]
}