{
    "_id": 97, 
    "versions": [
        {
            "comment": null, 
            "votes_nok": 2, 
            "votes": [
                {
                    "user": {
                        "username": "Michel Marsault", 
                        "displayName": "Michel Marsault", 
                        "media": null, 
                        "vip": false, 
                        "isAdmin": false, 
                        "_links": {
                            "profile": "http://www.republique-numerique.fr/profile/michelmarsault", 
                            "settings": "http://www.republique-numerique.fr/profile/edit-profile"
                        }, 
                        "uniqueId": "michelmarsault"
                    }, 
                    "value": 1
                }, 
                {
                    "user": {
                        "username": "Emmanuel Haguet", 
                        "displayName": "Emmanuel Haguet", 
                        "media": null, 
                        "vip": false, 
                        "isAdmin": false, 
                        "_links": {
                            "profile": "http://www.republique-numerique.fr/profile/emmanuelhaguet", 
                            "settings": "http://www.republique-numerique.fr/profile/edit-profile"
                        }, 
                        "uniqueId": "emmanuelhaguet"
                    }, 
                    "value": -1
                }, 
                {
                    "user": {
                        "username": "BOURSIN", 
                        "displayName": "BOURSIN", 
                        "media": null, 
                        "vip": false, 
                        "isAdmin": false, 
                        "_links": {
                            "profile": "http://www.republique-numerique.fr/profile/boursin", 
                            "settings": "http://www.republique-numerique.fr/profile/edit-profile"
                        }, 
                        "uniqueId": "boursin"
                    }, 
                    "value": 1
                }, 
                {
                    "user": {
                        "username": "Gladieux Dominique", 
                        "displayName": "Gladieux Dominique", 
                        "media": null, 
                        "vip": false, 
                        "isAdmin": false, 
                        "_links": {
                            "profile": "http://www.republique-numerique.fr/profile/gladieuxdominique", 
                            "settings": "http://www.republique-numerique.fr/profile/edit-profile"
                        }, 
                        "uniqueId": "gladieuxdominique"
                    }, 
                    "value": 1
                }, 
                {
                    "user": {
                        "username": "Martine MARICHAL", 
                        "displayName": "Martine MARICHAL", 
                        "media": null, 
                        "vip": false, 
                        "isAdmin": false, 
                        "_links": {
                            "profile": "http://www.republique-numerique.fr/profile/martinemarichal", 
                            "settings": "http://www.republique-numerique.fr/profile/edit-profile"
                        }, 
                        "uniqueId": "martinemarichal"
                    }, 
                    "value": 1
                }
            ], 
            "after": "", 
            "title": "WIFI OBLIGATOIRE EN MAISON DE RETRAITE DANS CAHIER DES CHARGES.", 
            "created_at": "2015-10-04T17:55:27+0200", 
            "author": {
                "username": "BERNARD", 
                "displayName": "BERNARD", 
                "media": null, 
                "vip": false, 
                "isAdmin": false, 
                "_links": {
                    "profile": "http://www.republique-numerique.fr/profile/bernard", 
                    "settings": "http://www.republique-numerique.fr/profile/edit-profile"
                }, 
                "uniqueId": "bernard"
            }, 
            "updated_at": "2015-10-04T17:55:27+0200", 
            "slug": "wifi-obligatoire-en-maison-de-retraite-dans-cahier-des-charges", 
            "sources": [], 
            "arguments_yes_count": 0, 
            "votes_total": 9, 
            "arguments": [
                {
                    "body": "C'est moins grave que dans les maternelles mais le principe de pr\u00e9caution nous interdit de d\u00e9cr\u00e9ter le wifi partout ! En quoi est-ce un immense service ? un r\u00e9seau filaire n'est-il pas suffisant pour le moment ? Ca fait moins \"branch\u00e9\" (Miterrand aurait dit \"cabl\u00e9\") mais \u00e7a fonctionne.", 
                    "is_enabled": true, 
                    "isContribuable": false, 
                    "author": {
                        "username": "BASTIDE", 
                        "displayName": "BASTIDE", 
                        "media": null, 
                        "vip": false, 
                        "isAdmin": false, 
                        "_links": {
                            "profile": "http://www.republique-numerique.fr/profile/bastide", 
                            "settings": "http://www.republique-numerique.fr/profile/edit-profile"
                        }, 
                        "uniqueId": "bastide"
                    }, 
                    "created_at": "2015-10-18T15:09:47+0200", 
                    "updated_at": "2015-10-18T15:09:47+0200", 
                    "has_user_reported": false, 
                    "votes_count": 0, 
                    "has_user_voted": false, 
                    "_links": {
                        "edit": "http://www.republique-numerique.fr/projects/projet-de-loi-numerique/consultation/consultation/opinions/section-1-accessibilite-des-personnes-handicapees-aux-services-telephoniques/acces-aux-personnes-isolees-et-agees/arguments/5854/edit", 
                        "report": "http://www.republique-numerique.fr/consultations/projet-de-loi-numerique/consultation/consultation/opinions/section-1-accessibilite-des-personnes-handicapees-aux-services-telephoniques/acces-aux-personnes-isolees-et-agees/arguments/5854/report", 
                        "show": "http://www.republique-numerique.fr/projects/projet-de-loi-numerique/consultation/consultation/opinions/section-1-accessibilite-des-personnes-handicapees-aux-services-telephoniques/acces-aux-personnes-isolees-et-agees/versions/wifi-obligatoire-en-maison-de-retraite-dans-cahier-des-charges#arg-5854"
                    }, 
                    "type": 0, 
                    "id": 5854, 
                    "is_trashed": false
                }
            ], 
            "votes_mitige": 2, 
            "arguments_count": 1, 
            "_id": 97, 
            "arguments_no_count": 1, 
            "id": 605, 
            "before": ""
        }
    ]
}