{
    "subtitle": "Ouverture des donn\u00e9es publiques", 
    "cat_id": 86, 
    "updated_at": "2015-10-15T16:04:58+0200", 
    "body_anchors": [], 
    "sources": [], 
    "arguments_count": 3, 
    "versions_count": 0, 
    "votes_total": 26, 
    "author": "gillesroussi", 
    "article_link": "http://www.republique-numerique.fr/projects/projet-de-loi-numerique/consultation/consultation/opinions/section-1-ouverture-des-donnees-publiques-1/pour-l-emploi-systematique-du-libre-dans-l-enseignement", 
    "arguments": [
        {
            "body": "Utiliser les logiciels libres pour les lyc\u00e9ens et \u00e9tudiants c'est bien , il faut savoir qu' il n'y a pas que l'administration, dans le domaine priv\u00e9 \u00e0 90% les logiciels utilis\u00e9s sont des logiciels prioritaires, que va faire un jeune dipl\u00f4m\u00e9 qui va se pr\u00e9senter lors d'un entretien,\" euh excusez moi mais je ne connais que les logiciels libres \" et bien on est pas pr\u00eat de r\u00e9soudre le probl\u00e8me du ch\u00f4mage....", 
            "author": "lioneldemigne", 
            "created_at": "2015-10-18T10:26:35+0200", 
            "updated_at": "2015-10-18T10:26:35+0200", 
            "votes_count": "1", 
            "link": "http://www.republique-numerique.fr/projects/projet-de-loi-numerique/consultation/consultation/opinions/section-1-ouverture-des-donnees-publiques-1/pour-l-emploi-systematique-du-libre-dans-l-enseignement#arg-5703#arg-5703", 
            "article_id": 643, 
            "id": "5703"
        }, 
        {
            "body": "Atteinte \u00e0 la libre concurrence. De plus l'objet de consultation publique n'est pas de promouvoir le logiciel libre.", 
            "author": "taneleo", 
            "created_at": "2015-10-17T14:10:45+0200", 
            "updated_at": "2015-10-17T14:10:45+0200", 
            "votes_count": "1", 
            "link": "http://www.republique-numerique.fr/projects/projet-de-loi-numerique/consultation/consultation/opinions/section-1-ouverture-des-donnees-publiques-1/pour-l-emploi-systematique-du-libre-dans-l-enseignement#arg-5213#arg-5213", 
            "article_id": 643, 
            "id": "5213"
        }, 
        {
            "body": "Un point inscrit dans la loi mettra l'\u00e9ducation nationale \u00e0 l'abri des sympathiques pressions insistantes des \u00e9diteurs de syst\u00e8mes d'exploitation et de logiciels qui surfent sur les modes p\u00e9dagogiques successives. Donc pour faire simple, oui, l'id\u00e9e est bonne.", 
            "author": "diazfrederic", 
            "created_at": "2015-10-17T14:10:19+0200", 
            "updated_at": "2015-10-17T14:10:19+0200", 
            "votes_count": "0", 
            "link": "http://www.republique-numerique.fr/projects/projet-de-loi-numerique/consultation/consultation/opinions/section-1-ouverture-des-donnees-publiques-1/pour-l-emploi-systematique-du-libre-dans-l-enseignement#arg-5212#arg-5212", 
            "article_id": 643, 
            "id": "5212"
        }
    ], 
    "answer": {}, 
    "body": "Il me semblerait n\u00e9cessaire qu'aujourd'hui l'emploi du logiciel libre soit syst\u00e9matiquement utilis\u00e9 dans tous les cadres administratifs notamment dans le cadre de l'enseignement. Que notre r\u00e9publique ne soit pas \u00e0 la soldes de groupes de pression, il y a, me semble-t-il une \u00e9conomie sensible \u00e0 r\u00e9aliser dans ce domaine pr\u00e9cis .Le co\u00fbt souvent exorbitant de licences dans le service public ne me semble pas justifi\u00e9 .la r\u00e9ponse \u00e0 l'emploi de syst\u00e8mes d'exploitations ferm\u00e9s semble r\u00e9pondre \u00e0 une volont\u00e9 commerciale qui n'a rien \u00e0 voir avec un enseignement libre et gratuit; les enseignants \u00e9tant r\u00e9mun\u00e9r\u00e9s par l'\u00e9tat .", 
    "ranking": 200, 
    "sources_count": 0, 
    "votes_ok": 24, 
    "article_id": 643, 
    "versions": [], 
    "created_at": "2015-10-15T16:04:58+0200", 
    "title": "Section 1", 
    "votes_mitige": 0, 
    "body_links": [], 
    "votes_nok": 2
}