{
    "subtitle": "Neutralit\u00e9 de l\u2019internet", 
    "cat_id": 94, 
    "updated_at": "2015-10-07T11:23:47+0200", 
    "body_anchors": [], 
    "sources": [], 
    "arguments_count": 6, 
    "versions_count": 1, 
    "votes_total": 69, 
    "author": "leonzitroll", 
    "article_link": "http://www.republique-numerique.fr/projects/projet-de-loi-numerique/consultation/consultation/opinions/section-1-neutralite-de-l-internet/loyaute-du-dns", 
    "arguments": [
        {
            "body": "Troll! Et c'est bien dommage! La transparence du service de routage par le DNS permettrait d'\u00e9viter la censure partielle et inefficace et les techniques de propagandes via les sites miroirs", 
            "author": "constancedequatrebarbes", 
            "created_at": "2015-10-18T16:48:11+0200", 
            "updated_at": "2015-10-18T16:48:11+0200", 
            "votes_count": "0", 
            "link": "http://www.republique-numerique.fr/projects/projet-de-loi-numerique/consultation/consultation/opinions/section-1-neutralite-de-l-internet/loyaute-du-dns#arg-5906#arg-5906", 
            "article_id": 127, 
            "id": "5906"
        }, 
        {
            "body": "Vu la fond de la proposition, on se demande si l'utilisateur ne cherche simplement pas \u00e0 s'amuser en publiant tout et n'importe quoi ici. C'est d'autant plus dommage que le sujet, et la probl\u00e9matique li\u00e9e, sont int\u00e9ressants.", 
            "author": "taneleo", 
            "created_at": "2015-10-17T16:29:32+0200", 
            "updated_at": "2015-10-17T16:30:24+0200", 
            "votes_count": "0", 
            "link": "http://www.republique-numerique.fr/projects/projet-de-loi-numerique/consultation/consultation/opinions/section-1-neutralite-de-l-internet/loyaute-du-dns#arg-5358#arg-5358", 
            "article_id": 127, 
            "id": "5358"
        }, 
        {
            "body": "Idem m\u00eame si cela ressemble \u00e0 un Troll dont les 7Md\u20ac et l'obligation de soin, le fond y est et devrait me^me \u00eatre s\u00e9rieusement pris en compte et interdire les DNS menteurs.", 
            "author": "maujoel", 
            "created_at": "2015-10-17T16:26:16+0200", 
            "updated_at": "2015-10-17T16:26:16+0200", 
            "votes_count": "2", 
            "link": "http://www.republique-numerique.fr/projects/projet-de-loi-numerique/consultation/consultation/opinions/section-1-neutralite-de-l-internet/loyaute-du-dns#arg-5354#arg-5354", 
            "article_id": 127, 
            "id": "5354"
        }, 
        {
            "body": "Bonne id\u00e9e sur le fond mais \u00e7a doit rentrer dans le principe g\u00e9n\u00e9ral de la neutralit\u00e9 du net qui correspond \u00e0 tous les protocoles pr\u00e9sent et \u00e0 venir. Il ne faut pas cr\u00e9er de faille dans la loi en essayant en vain de lister de fa\u00e7on exhaustive toutes les atteintes \u00e0 la neutralit\u00e9.", 
            "author": "bernardmartinez", 
            "created_at": "2015-10-10T15:14:50+0200", 
            "updated_at": "2015-10-10T15:14:50+0200", 
            "votes_count": "2", 
            "link": "http://www.republique-numerique.fr/projects/projet-de-loi-numerique/consultation/consultation/opinions/section-1-neutralite-de-l-internet/loyaute-du-dns#arg-2949#arg-2949", 
            "article_id": 127, 
            "id": "2949"
        }, 
        {
            "body": "\u00c9nhaurme donc d'autant plus n\u00e9cessaire!", 
            "author": "natmakarevitch", 
            "created_at": "2015-09-28T13:46:34+0200", 
            "updated_at": "2015-09-28T13:46:34+0200", 
            "votes_count": "2", 
            "link": "http://www.republique-numerique.fr/projects/projet-de-loi-numerique/consultation/consultation/opinions/section-1-neutralite-de-l-internet/loyaute-du-dns#arg-856#arg-856", 
            "article_id": 127, 
            "id": "856"
        }, 
        {
            "body": "M\u00eame si la forme n'y est pas j\u2019adh\u00e8re sur le fond gentil troll.", 
            "author": "djangicquel", 
            "created_at": "2015-09-26T18:24:25+0200", 
            "updated_at": "2015-09-26T18:24:25+0200", 
            "votes_count": "7", 
            "link": "http://www.republique-numerique.fr/projects/projet-de-loi-numerique/consultation/consultation/opinions/section-1-neutralite-de-l-internet/loyaute-du-dns#arg-187#arg-187", 
            "article_id": 127, 
            "id": "187"
        }
    ], 
    "answer": {
        "body": "L\u00e9on Zitroll souhaite la cr\u00e9ation d'une sanction p\u00e9nale pour garantir la loyaut\u00e9 du DNS. La responsabilit\u00e9 du DNS rel\u00e8ve in fine de l\u2019office d\u2019enregistrement en charge du domaine concern\u00e9. Pour les domaines internet de pays rattach\u00e9s au territoire fran\u00e7ais (comme le .fr), les articles L45 et suivants du code des postes et des communications \u00e9lectroniques d\u00e9finissent d\u00e9j\u00e0 les r\u00e8gles applicables. Pour les noms de domaines des autres pays (comme le .de), la supervision du DNS rel\u00e8ve de la responsabilit\u00e9 du pays concern\u00e9. Pour les noms de domaine g\u00e9n\u00e9rique (comme le .com), elle rel\u00e8ve de la responsabilit\u00e9 de l\u2019ICANN.", 
        "answer_refs": [
            "/consultations/projet-de-loi-numerique/consultation/consultation/opinions/section-1-neutralite-de-l-internet/loyaute-du-dns"
        ], 
        "author": "gouvernement", 
        "article_id": 127, 
        "cited_users": []
    }, 
    "body": "Article 11.11.11.111\u00b0 \u00e0 l'alin\u00e9a 3 de n'importe quel texte de n'importe quel code, ajouter un record A '11.11.11.11'2\u00b0 Le fait pour un service de communication de r\u00e9pondre \u00e0 une requ\u00eate de r\u00e9solution de nom par un r\u00e9sultat volontairement falsifi\u00e9 est passible d'une contravention de 7 milliards d'euros assortie d'une obligation de soins.", 
    "ranking": 146, 
    "sources_count": 0, 
    "votes_ok": 50, 
    "article_id": 127, 
    "versions": [
        {
            "comment": null, 
            "after": null, 
            "title": null, 
            "arguments_no_count": 1, 
            "created_at": "2015-10-14T17:01:33+0200", 
            "author": "mouille", 
            "updated_at": "2015-10-14T17:01:33+0200", 
            "id": 981, 
            "votes_mitige": 0, 
            "arguments_yes_count": 0, 
            "link": "http://www.republique-numerique.fr/projects/projet-de-loi-numerique/consultation/consultation/opinions/section-1-neutralite-de-l-internet/loyaute-du-dns/versions/creation-d-une-dns-racine-souveraine", 
            "arguments_count": 1, 
            "before": null, 
            "votes_total": 5, 
            "article_id": 127, 
            "slug": "creation-d-une-dns-racine-souveraine", 
            "votes_nok": 5
        }
    ], 
    "created_at": "2015-09-26T17:59:13+0200", 
    "title": "Section 1", 
    "votes_mitige": 3, 
    "body_links": [], 
    "votes_nok": 16
}