{
    "subtitle": "Information des consommateurs", 
    "cat_id": 97, 
    "updated_at": "2015-09-26T13:43:14+0200", 
    "body_anchors": [], 
    "sources": [
        {
            "body": "L\u2019\u00e9conomie du partage constitue un vecteur majeur d\u2019innovation et de croissance \u2013 au coeur de l\u2019actualit\u00e9 suite aux r\u00e9centes p\u00e9rip\u00e9ties autour de Uber. Sous des apparences souvent sympathiques, tous les mod\u00e8les \u00e9conomiques des start-up collaboratives ne se valent pas.", 
            "category": "Articles de presse", 
            "title": "Pour la cr\u00e9ation d\u2019un statut d\u2019acteur collaboratif", 
            "source_link": "http://www.lemonde.fr/idees/article/2015/09/25/pour-la-creation-d-un-statut-d-acteur-collaboratif_4771790_3232.html", 
            "created_at": "2015-09-28T19:32:10+0200", 
            "author": "maximegierczaketmichaelvincent", 
            "updated_at": "2015-09-28T19:32:10+0200", 
            "link": "http://www.lemonde.fr/idees/article/2015/09/25/pour-la-creation-d-un-statut-d-acteur-collaboratif_4771790_3232.html#source-53", 
            "votes_count": "3", 
            "article_id": 99, 
            "id": "53"
        }, 
        {
            "body": "Au-del\u00e0 du ph\u00e9nom\u00e8ne de soci\u00e9t\u00e9, l'\u00e9conomie collaborative est une r\u00e9alit\u00e9 \u00e9conomique : si la plupart des particuliers n'y trouvent qu'un modeste compl\u00e9ment de revenu, certains en ont fait une v\u00e9ritable activit\u00e9 commerciale ou quasi-commerciale. Or, actuellement, les revenus gagn\u00e9s par des particuliers sur des plateformes collaboratives ne sont souvent pas d\u00e9clar\u00e9s, faute de r\u00e8gles fiscales claires et de syst\u00e8me de recouvrement efficace.Le groupe de travail de la commission des finances du S\u00e9nat sur le recouvrement de l'imp\u00f4t \u00e0 l'heure de l'\u00e9conomie num\u00e9rique fait deux propositions :1) Organiser la d\u00e9claration automatique des revenus gr\u00e2ce aux plateformes : lorsqu'un particulier gagne de l'argent sur une ou plusieurs plateformes, celles-ci transmettent automatiquement le montant de ces revenus \u00e0 une plateforme tierce ind\u00e9pendante. Elle calcule ensuite le revenu agr\u00e9g\u00e9 de chaque particulier, et transmet une fois par an ce revenu \u00e0 l'administration fiscale, afin d'\u00e9tablir une d\u00e9claration pr\u00e9-remplie.2) Instituer une franchise g\u00e9n\u00e9rale unique de 5 000 euros par an. Sous ce seuil, les revenus seraient totalement exon\u00e9r\u00e9s : cette franchise correspond peu ou prou au \u00ab partage de frais \u00bb du logement, du v\u00e9hicule etc. Au-dessus de ce seuil, le droit commun s'applique : imp\u00f4t sur le revenu, pr\u00e9l\u00e8vements sociaux etc., le cas \u00e9ch\u00e9ant sous le statut d'auto-entrepreneur. Les revenus aujourd'hui exon\u00e9r\u00e9s (ex : ventes d'occasion) demeurent exon\u00e9r\u00e9s.Le seuil propos\u00e9 permet de \u00ab laisser vivre \u00bb l'\u00e9conomie du partage tout en imposant justement ceux qui en font une v\u00e9ritable activit\u00e9 commerciale. En bref, le groupe de travail propose un imp\u00f4t moins \u00e9lev\u00e9, mais plus s\u00fbrement collect\u00e9.Le groupe de travail est compos\u00e9 de sept s\u00e9nateurs : Michel Bouvard, Thierry Carcenac, Jacques Chiron, Philippe Dallier, Jacques Genest, Bernard Lalande, et Alb\u00e9ric de Montgolfier, rapporteur g\u00e9n\u00e9ral de la commission des finances. Son deuxi\u00e8me rapport s'intitule : \u00ab Le e-commerce : propositions pour une TVA pay\u00e9e \u00e0 la source \u00bb.", 
            "category": "Rapport / \u00c9tude", 
            "title": "L\u2019\u00c9CONOMIE COLLABORATIVE : PROPOSITIONS POUR UNE FISCALIT\u00c9 SIMPLE, JUSTE ET EFFICACE", 
            "source_link": "http://www.senat.fr/fileadmin/Fichiers/Images/redaction_multimedia/2015/2015-Documents_pdf/economie_collaborative_pour_une_fiscalite_simple_juste_et_efficace_.pdf", 
            "created_at": "2015-09-28T19:31:14+0200", 
            "author": "maximegierczaketmichaelvincent", 
            "updated_at": "2015-09-28T19:31:14+0200", 
            "link": "http://www.senat.fr/fileadmin/Fichiers/Images/redaction_multimedia/2015/2015-Documents_pdf/economie_collaborative_pour_une_fiscalite_simple_juste_et_efficace_.pdf#source-51", 
            "votes_count": "3", 
            "article_id": 99, 
            "id": "51"
        }
    ], 
    "arguments_count": 13, 
    "versions_count": 1, 
    "votes_total": 112, 
    "author": "maximegierczaketmichaelvincent", 
    "article_link": "http://www.republique-numerique.fr/projects/projet-de-loi-numerique/consultation/consultation/opinions/section-4-information-des-consommateurs/creation-d-un-statut-de-l-acteur-collaboratif", 
    "arguments": [
        {
            "body": "In\u00e9vitablement le travail de contributeur deviendra du travail au noir.", 
            "author": "taneleo", 
            "created_at": "2015-10-17T17:01:49+0200", 
            "updated_at": "2015-10-17T17:01:49+0200", 
            "votes_count": "0", 
            "link": "http://www.republique-numerique.fr/projects/projet-de-loi-numerique/consultation/consultation/opinions/section-4-information-des-consommateurs/creation-d-un-statut-de-l-acteur-collaboratif#arg-5388#arg-5388", 
            "article_id": 99, 
            "id": "5388"
        }, 
        {
            "body": "A voir \u00e0 sa r\u00e9elle mise en place. Il faut tester je dirais.", 
            "author": "peronnard", 
            "created_at": "2015-10-16T15:27:21+0200", 
            "updated_at": "2015-10-16T15:27:21+0200", 
            "votes_count": "0", 
            "link": "http://www.republique-numerique.fr/projects/projet-de-loi-numerique/consultation/consultation/opinions/section-4-information-des-consommateurs/creation-d-un-statut-de-l-acteur-collaboratif#arg-4775#arg-4775", 
            "article_id": 99, 
            "id": "4775"
        }, 
        {
            "body": "Dans le cas o\u00f9 l'activit\u00e9 d\u00e9gage des b\u00e9n\u00e9fices, le statut d'auto-entrepreneur et les dispositifs types ch\u00e8ques emplois-services me paraissent suffisamment adapt\u00e9s. Ils sont d\u00e9j\u00e0 souvent d\u00e9tourn\u00e9s par des employeurs pour \u00e9viter le paiement de charges sociales et le statut propos\u00e9 dans cet article me para\u00eet \u00eatre la porte ouverte \u00e0 d'autres d\u00e9tournements au d\u00e9triment de la s\u00e9curit\u00e9 financi\u00e8re du travailleur. Je pense que ce statut doit donc \u00eatre plus strictement encadr\u00e9, et notamment les b\u00e9n\u00e9fices interdits (cf. modification propos\u00e9e par Christian Moyon).", 
            "author": "charlotterecapet", 
            "created_at": "2015-10-16T14:34:35+0200", 
            "updated_at": "2015-10-16T14:34:35+0200", 
            "votes_count": "3", 
            "link": "http://www.republique-numerique.fr/projects/projet-de-loi-numerique/consultation/consultation/opinions/section-4-information-des-consommateurs/creation-d-un-statut-de-l-acteur-collaboratif#arg-4727#arg-4727", 
            "article_id": 99, 
            "id": "4727"
        }, 
        {
            "body": "Attention tout de m\u00eame \u00e0 l'action en concurrence d\u00e9loyale, toute somme quelle soit une amende, un seuil ou autre, devrait \u00eatre calcul\u00e9e en \u00e9quivalent SMIC. 10K\u20ac aujourd'hui n'auront pas la m\u00eame valeur dans 10ans...", 
            "author": "stephanerobin", 
            "created_at": "2015-10-08T16:29:45+0200", 
            "updated_at": "2015-10-08T16:29:45+0200", 
            "votes_count": "0", 
            "link": "http://www.republique-numerique.fr/projects/projet-de-loi-numerique/consultation/consultation/opinions/section-4-information-des-consommateurs/creation-d-un-statut-de-l-acteur-collaboratif#arg-2681#arg-2681", 
            "article_id": 99, 
            "id": "2681"
        }, 
        {
            "body": "Si l'activit\u00e9 consiste \u00e0 pouvoir d\u00e9duire fiscalement des d\u00e9penses, vous pouvez contribuer \u00e0 une association reconnue d'utilit\u00e9 publique. S'il s'agit de d\u00e9clarer simplement des revenus annexes, il y a le statut d'auto-entrepreneur.", 
            "author": "adriencordonnier", 
            "created_at": "2015-10-08T00:25:41+0200", 
            "updated_at": "2015-10-08T00:25:41+0200", 
            "votes_count": "0", 
            "link": "http://www.republique-numerique.fr/projects/projet-de-loi-numerique/consultation/consultation/opinions/section-4-information-des-consommateurs/creation-d-un-statut-de-l-acteur-collaboratif#arg-2590#arg-2590", 
            "article_id": 99, 
            "id": "2590"
        }, 
        {
            "body": "Cette proposition est int\u00e9ressante dans le cas o\u00f9 elle va de paire avec une fiscalisation des utilisateurs de l'\u00e9conomie collaborative \"pour arrondir leur fin de mois\", tels que les chauffeurs d'Uber Pop. S'il n'y a pas taxation et l\u00e9gislation sur ces revenus, cette mesure pourrait \u00eatre un frein pour l'autre public concern\u00e9 ici (acteurs de l'\u00e9conomie collaborative pour partage de frais (coivoitureurs)).La puissance des plateformes de covoiturages r\u00e9side dans la facilit\u00e9 d'utilisation : au del\u00e0 de trois clics c'est trop de temps. Garder donc la simplicit\u00e9 d'utilisation, tout en couvrant les acteurs en cas de probl\u00e8me par la cr\u00e9ation d'un statut : je dit oui !", 
            "author": "raphaelponthieu", 
            "created_at": "2015-10-01T15:24:07+0200", 
            "updated_at": "2015-10-01T15:24:07+0200", 
            "votes_count": "1", 
            "link": "http://www.republique-numerique.fr/projects/projet-de-loi-numerique/consultation/consultation/opinions/section-4-information-des-consommateurs/creation-d-un-statut-de-l-acteur-collaboratif#arg-1895#arg-1895", 
            "article_id": 99, 
            "id": "1895"
        }, 
        {
            "body": "Cette proposition est int\u00e9ressante dans le cas o\u00f9 elle va de paire avec une fiscalisation des utilisateurs de l'\u00e9conomie collaborative \"pour arrondir leur fin de mois\", tels que les chauffeurs d'Uber Pop. S'il n'y a pas taxation et l\u00e9gislation sur ces revenus, cette mesure pourrait \u00eatre un frein pour l'autre public concern\u00e9 ici (acteurs de l'\u00e9conomie collaborative pour partage de frais (coivoitureurs)).La puissance des plateformes de covoiturages r\u00e9side dans la facilit\u00e9 d'utilisation : au del\u00e0 de trois clics c'est trop de temps. Garder donc la simplicit\u00e9 d'utilisation, tout en couvrant les acteurs en cas de probl\u00e8me par la cr\u00e9ation d'un statut : je dit oui !", 
            "author": "raphaelponthieu", 
            "created_at": "2015-10-01T15:23:47+0200", 
            "updated_at": "2015-10-01T15:23:47+0200", 
            "votes_count": "0", 
            "link": "http://www.republique-numerique.fr/projects/projet-de-loi-numerique/consultation/consultation/opinions/section-4-information-des-consommateurs/creation-d-un-statut-de-l-acteur-collaboratif#arg-1893#arg-1893", 
            "article_id": 99, 
            "id": "1893"
        }, 
        {
            "body": "Cette proposition est int\u00e9ressante dans le cas o\u00f9 elle va de paire avec une fiscalisation des utilisateurs de l'\u00e9conomie collaborative \"pour arrondir leur fin de mois\", tels que les chauffeurs d'Uber Pop. S'il n'y a pas taxation et l\u00e9gislation sur ces revenus, cette mesure pourrait \u00eatre un frein pour l'autre public concern\u00e9 ici (acteurs de l'\u00e9conomie collaborative pour partage de frais (coivoitureurs)).La puissance des plateformes de covoiturages r\u00e9side dans la facilit\u00e9 d'utilisation : au del\u00e0 de trois clics c'est trop de temps. Garder donc la simplicit\u00e9 d'utilisation, tout en couvrant les acteurs en cas de probl\u00e8me par la cr\u00e9ation d'un statut : je dit oui !", 
            "author": "raphaelponthieu", 
            "created_at": "2015-10-01T15:23:34+0200", 
            "updated_at": "2015-10-01T15:23:34+0200", 
            "votes_count": "0", 
            "link": "http://www.republique-numerique.fr/projects/projet-de-loi-numerique/consultation/consultation/opinions/section-4-information-des-consommateurs/creation-d-un-statut-de-l-acteur-collaboratif#arg-1892#arg-1892", 
            "article_id": 99, 
            "id": "1892"
        }, 
        {
            "body": "@Jeanne Varasco : le servage peut appara\u00eetre si ce qui est \u00e0 la base con\u00e7u comme une activit\u00e9 compl\u00e9mentaire (c'est le cas dans cette proposition) devient une activit\u00e9 principale (par exemple, vous faites des trajets UberPop toute la journ\u00e9e).", 
            "author": "superchaton", 
            "created_at": "2015-09-30T20:39:53+0200", 
            "updated_at": "2015-09-30T20:39:53+0200", 
            "votes_count": "2", 
            "link": "http://www.republique-numerique.fr/projects/projet-de-loi-numerique/consultation/consultation/opinions/section-4-information-des-consommateurs/creation-d-un-statut-de-l-acteur-collaboratif#arg-1694#arg-1694", 
            "article_id": 99, 
            "id": "1694"
        }, 
        {
            "body": "Petit ajout en passant : le but final d'Uber est de pouvoir se passer des conducteurs, ils travaillent \u00e0 ma connaissance aux Etats-Unis sur des projets de voiture sans conducteur.", 
            "author": "superchaton", 
            "created_at": "2015-09-30T20:36:28+0200", 
            "updated_at": "2015-09-30T20:36:28+0200", 
            "votes_count": "0", 
            "link": "http://www.republique-numerique.fr/projects/projet-de-loi-numerique/consultation/consultation/opinions/section-4-information-des-consommateurs/creation-d-un-statut-de-l-acteur-collaboratif#arg-1692#arg-1692", 
            "article_id": 99, 
            "id": "1692"
        }, 
        {
            "body": "L'argumentation de Mme Varasco nous \u00e9tonne - l'id\u00e9e se cantonne \u00e0 donner de la visibilit\u00e9 du point de vue de la responsabilit\u00e9, de la fiscalit\u00e9 et de l'assurance, aux personnes qui participent \u00e0 l'\u00e9conomie collaborative, c'est \u00e0 dire en faisant quelques covoiturages dans l'ann\u00e9e par exemple. Ce afin que ces activit\u00e9s puissent s'installer durablement dans le paysage \u00e9conomique fran\u00e7ais, plut\u00f4t que de subir de plein fouet la concurrence des mastondontes tel Uber dont les moyens permettraient, \u00e0 terme, d'\u00e9liminer simplement la vraie mise en relation des particuliers entre eux. Pas question d'amener les gens au sevrage, comme le fait Uber avec les autoentrepreneurs, c'est justement tout l'inverse ! Les r\u00e9f\u00e9rences historiques sont biens belles mais n'appuient en rien le propos.", 
            "author": "maximegierczaketmichaelvincent", 
            "created_at": "2015-09-27T13:22:17+0200", 
            "updated_at": "2015-09-27T13:22:17+0200", 
            "votes_count": "8", 
            "link": "http://www.republique-numerique.fr/projects/projet-de-loi-numerique/consultation/consultation/opinions/section-4-information-des-consommateurs/creation-d-un-statut-de-l-acteur-collaboratif#arg-508#arg-508", 
            "article_id": 99, 
            "id": "508"
        }, 
        {
            "body": "Concept int\u00e9ressant qui permet d'introduire un troisi\u00e8me type entre client et fournisseur.Mais il n'est peut \u00eatre pas besoin de tout inventer et donc de prendre appui ou d'\u00e9tendre les statuts issus du monde de l'\u00e9conomie sociale et solidaire (associations, mutuelles, coop\u00e9ratives).", 
            "author": "truffetjeanmarc", 
            "created_at": "2015-09-27T11:03:17+0200", 
            "updated_at": "2015-09-27T11:03:17+0200", 
            "votes_count": "5", 
            "link": "http://www.republique-numerique.fr/projects/projet-de-loi-numerique/consultation/consultation/opinions/section-4-information-des-consommateurs/creation-d-un-statut-de-l-acteur-collaboratif#arg-457#arg-457", 
            "article_id": 99, 
            "id": "457"
        }, 
        {
            "body": "C'est la voie ouverte pour un retour au moyen-\u00e2ge. Utopiquement, c'est une belle id\u00e9e, mais cela sera forc\u00e9ment r\u00e9cup\u00e9r\u00e9 pour amener les gens au servage (paye ridiculement basse, d\u00e9pendance totale de l'\u00eatre humain d'une entreprise, d'une communaut\u00e9 ou d'un seigneur), voire \u00e0 l'esclavage (n\u00e9gation de l'humanit\u00e9). L'autonomie financi\u00e8re est quand m\u00eame une des avanc\u00e9es majeures des derniers si\u00e8cles. 1350 abolition du servage, 1848 abolition de l'esclavage, 1936 front populaire. Tout cela a permis que nous vivions tous bien.", 
            "author": "jeannevarasco", 
            "created_at": "2015-09-26T22:50:16+0200", 
            "updated_at": "2015-09-26T22:50:16+0200", 
            "votes_count": "2", 
            "link": "http://www.republique-numerique.fr/projects/projet-de-loi-numerique/consultation/consultation/opinions/section-4-information-des-consommateurs/creation-d-un-statut-de-l-acteur-collaboratif#arg-275#arg-275", 
            "article_id": 99, 
            "id": "275"
        }
    ], 
    "answer": {
        "body": "La proposition de MM. Maxime Gierczak et Michael Vincent a pour objectif d\u2019instituer un statut de l\u2019activit\u00e9 collaborative. En effet, si aujourd\u2019hui le droit existant peut appara\u00eetre inadapt\u00e9 ou pas suffisamment efficace pour permettre \u00e0 la fois le d\u00e9veloppement des activit\u00e9s innovantes de l\u2019\u00e9conomie collaborative et \u00e0 la demande, tout en respectant le droit des salari\u00e9s et des entreprises, la cr\u00e9ation d'un statut de l'acteur collaboratif n\u00e9cessite une analyse compl\u00e8te des difficult\u00e9s rencontr\u00e9es notamment au regard du droit fiscal et du droit social. Cr\u00e9er un statut d\u00e8s \u00e0 pr\u00e9sent risquerait de figer cette \u00e9conomie et d'en limiter les innovations alors que la France est l'un des leaders du march\u00e9 mondial.Le Premier ministre a confi\u00e9 \u00e0 Pascal Terrasse, d\u00e9put\u00e9 de l'Ard\u00e8che, une mission sur ce sujet, dont le rapport sera rendu en d\u00e9cembre 2015. Par ailleurs, la r\u00e9flexion existe \u00e9galement au niveau europ\u00e9en, la Commission ayant dans le cadre de sa strat\u00e9gie num\u00e9rique fait de cette th\u00e9matique une priorit\u00e9.", 
        "answer_refs": [
            "/consultations/projet-de-loi-numerique/consultation/consultation/opinions/section-4-information-des-consommateurs/creation-d-un-statut-de-l-acteur-collaboratif"
        ], 
        "author": "gouvernement", 
        "article_id": 99, 
        "cited_users": []
    }, 
    "body": "1. D\u00e9finition\u00a0\u00a0\u00a0\u00a0\u00a0\u00a0\u00a0\u00a0\u00a0\u00a0 \u00a0L'acteur collaboratif est un individu qui, du fait de son activit\u00e9 particuli\u00e8re, se doit d'\u00eatre prot\u00e9g\u00e9 et distingu\u00e9 du professionnel mais peut pour autant, de par sa participation active \u00e0 des activit\u00e9s commerciales, se voir imposer des obligations et prendre sa part de responsabilit\u00e9s n\u00e9es de son activit\u00e9. De mani\u00e8re g\u00e9n\u00e9rale, nous pouvons le d\u00e9finir comme : une personne physique contractant avec une ou plusieurs autres en cr\u00e9ant un rapport d'obligations d'ordre \u00e9conomique en dehors de toute activit\u00e9 commerciale et salariale, par le biais d'une plateforme num\u00e9rique de mise en relation.\u00a0Sa caract\u00e9ristique de personne physique exclut donc toute personne morale \u00e0 quelques titres que ce soit, association, soci\u00e9t\u00e9 ou autres.\u00a0Il s'agit ensuite de d\u00e9finir son activit\u00e9. L'activit\u00e9 de l'acteur collaboratif est une activit\u00e9 non professionnelle et accessoire de fourniture de biens et de services \u00e0 titre gratuit ou on\u00e9reux.\u00a0Il est entendu par \u00ab non professionnelle \u00bb que cette derni\u00e8re s'exerce hors de quelques cadres commerciaux. De la m\u00eame fa\u00e7on, il est entendu par \u00ab accessoire \u00bb que cette derni\u00e8re ne s'inscrit qu'en compl\u00e9ment d'un autre revenu et ne peut \u00eatre source principale de revenus.\u00a0Le fait d'entrer dans le cadre de ce statut exclut donc de facto la possibilit\u00e9 d'\u00eatre qualifi\u00e9 pour cette m\u00eame activit\u00e9 de consommateur ou de professionnel.\u00a02. Distinction avec le professionnel\u00a0Du fait de son activit\u00e9, l'acteur collaboratif peut notamment \u00eatre amen\u00e9 \u00e0 faire des actes de commerces, sans pour autant se voir qualifi\u00e9 de commer\u00e7ant. Ainsi, il s'agit dans un premier temps de d\u00e9finir les actes de commerces qui pourraient relever de l'activit\u00e9 de l'acteur collaboratif et ceux n'entrant pas dans le champ contractuel de son activit\u00e9.\u00a0Les actes r\u00e9put\u00e9s de commerce par la loi sont d\u00e9finis \u00e0 l'article L.110-1 du Code de commerce.\u00a0L'acteur collaboratif peut \u00e0 travers son activit\u00e9, louer, vendre et partager des biens ou des services.\u00a0Ainsi peut-on estimer que rel\u00e8ve de son activit\u00e9 \u00ab Toute entreprise de location de meuble \u00bb, pr\u00e9vu \u00e0 l'alin\u00e9a 4 de l'article L.110-1. De m\u00eame, s'apparente \u00e0 une activit\u00e9 de l'acteur collaboratif, \u00ab Toute entreprise [\u2026] de transport par terre ou par eau \u00bb pr\u00e9vu \u00e0 l'alin\u00e9a 5 du m\u00eame article.L'usage r\u00e9p\u00e9t\u00e9 de ces actes de la part de l'acteur collaboratif n\u2019entra\u00eenerait donc pas de requalification en commer\u00e7ant de fait.\u00a0De plus, il est important de distinguer les r\u00e9mun\u00e9rations pour avoir une s\u00e9paration avec le milieu professionnel.\u00a03. Distinction parmi les r\u00e9mun\u00e9rations\u00a0L'acteur collaboratif en tant que non-professionnel peut obtenir 3 formes de r\u00e9mun\u00e9ration :\u00a0r\u00e9mun\u00e9ration correspondant \u00e0 une participation aux frais ;r\u00e9mun\u00e9ration correspondant \u00e0 un b\u00e9n\u00e9fice ;r\u00e9mun\u00e9ration en nature ou par un \u00e9change de service.\u00a0L'int\u00e9r\u00eat de cette distinction est d'encadrer les revenus et la fiscalit\u00e9 issus de ces derniers.\u00a0Le principe est l'imposition d'un revenu net. Il ne peut y avoir de revenus imposables lorsque le produit compense une charge non d\u00e9ductible. Ainsi, lorsque la r\u00e9mun\u00e9ration ne correspond qu'\u00e0 une participation aux frais telle que dans le cas du covoiturage, aucun revenu n'est r\u00e9alis\u00e9 : le droit fiscal ne s'applique pas.\u00a0En revanche, le droit fiscal peut s'appliquer lorsque des b\u00e9n\u00e9fices sont tir\u00e9s d'une activit\u00e9 exerc\u00e9e dans le cadre de l'\u00e9conomie collaborative et participative. Pour autant, l'objectif \u00e9tant de garantir la p\u00e9rennit\u00e9 de ce nouveau mod\u00e8le \u00e9conomique, nous ne souhaitons pas voir une taxation s'appliquer \u00e0 tous les revenus. Ainsi, nous souhaiterions la mise en place d'un seuil au-del\u00e0 duquel les b\u00e9n\u00e9fices tir\u00e9s de l'activit\u00e9 de l'acteur collaboratif doivent \u00eatre d\u00e9clar\u00e9s, sur le mod\u00e8le du syst\u00e8me de l'autoentrepreneur.\u00a0Pour rappel, l'autoentrepreneur peut opter pour un r\u00e9gime de pr\u00e9l\u00e8vement obligatoire qui lui permet de payer l\u2019imp\u00f4t sur le revenu au fur et \u00e0 mesure de ses encaissements. Le montant de l\u2019imp\u00f4t ne pouvant alors \u00eatre d\u00e9termin\u00e9 sur un chiffre net annuel, il est alors d\u00e9termin\u00e9 par application d'un certain pourcentage sur le montant du chiffre d'affaire r\u00e9alis\u00e9 sur la p\u00e9riode.\u00a0Dans le cas de l'acteur collaboratif, nous proposons de pr\u00e9voir un r\u00e9gime de pr\u00e9l\u00e8vement obligatoire par application d'un pourcentage sur le montant du chiffre d'affaire r\u00e9alis\u00e9 au cours d'une ann\u00e9e d\u00e8s lors qu'il est sup\u00e9rieur \u00e0 5000 \u20ac (seuil propos\u00e9 par le groupe de travail du S\u00e9nat dans le rapport \u00ab L\u2019\u00c9CONOMIE COLLABORATIVE : PROPOSITIONS POUR UNE FISCALIT\u00c9 SIMPLE, JUSTE ET EFFICACE \u00bb). Autrement dit, nous proposons d'exon\u00e9rer l'acteur collaboratif jusqu'\u00e0 5000 \u20ac.\u00a0Encourager les \u00e9changes en nature et de services\u00a0Enfin, nous souhaitons encadrer et non interdire les r\u00e9mun\u00e9rations en nature et par des \u00e9changes de services puisque ces derni\u00e8res correspondent \u00e0 l'esprit m\u00eame de partage qui anime l'\u00e9conomie collaborative.\u00a0Afin de permettre \u00e0 ces r\u00e9mun\u00e9rations d'exister tout en \u00e9vitant le risque de donations d\u00e9guis\u00e9es, nous proposons deux mesures :Une interdiction du paiement en nature par tout bien autre que consomptibles par le premier usage ;L\u2019interdiction d'un paiement par un bien ou un service ayant une valeur excessivement d\u00e9raisonnable. Notion \u00e0 rapprocher de celle de \u00ab raisonnable \u00bb telle qu'employ\u00e9e par le Code civil notamment aux articles 601 et 1728.\u00a04. Concurrence d\u00e9loyale\u00a0La distinction entre r\u00e9mun\u00e9ration correspondant \u00e0 une participation aux frais et r\u00e9mun\u00e9ration correspondant \u00e0 un b\u00e9n\u00e9fice trouve aussi sa justification dans le cadre du droit de la concurrence.\u00a0En effet, la cour de cassation a consid\u00e9r\u00e9 dans un arr\u00eat du 12 mars 2013 que le covoiturage ne constituait pas une pratique d\u00e9loyale d\u00e8s lors que le transport se faisait \u00e0 titre b\u00e9n\u00e9vole et que l'indemnisation n'\u00e9tait pas sup\u00e9rieure aux frais induits par l'utilisation du v\u00e9hicule et du transport.\u00a0Par un raisonnement analogue, nous estimons que le caract\u00e8re de concurrence d\u00e9loyale ne peut \u00eatre retenu pour toute activit\u00e9 de l'acteur collaboratif d\u00e8s lors que cette derni\u00e8re est \u00e0 titre b\u00e9n\u00e9vole et que l'indemnisation n'est pas sup\u00e9rieure aux frais qu'induit l'activit\u00e9.\u00a0Afin de prot\u00e9ger l'acteur collaboratif d'une action en concurrence d\u00e9loyale, nous plaidons aussi pour un am\u00e9nagement du droit \u00e0 cet \u00e9gard, en instaurant un seuil de revenus (nous sugg\u00e9rons 10 000 \u20ac) annuels au-del\u00e0 duquel l'activit\u00e9 ne peut plus correspondre \u00e0 une simple activit\u00e9 accessoire. Sous ce seuil, le statut d\u2019acteur collaboratif s\u2019applique pleinement et le contributeur est prot\u00e9g\u00e9 des actions en concurrence d\u00e9loyale dans les conditions d\u00e9crites ci-dessus. Au-del\u00e0, l\u2019activit\u00e9 n\u2019est plus consid\u00e9r\u00e9e comme secondaire.\u00a05. Protections face aux risques induits par l'activit\u00e9\u00a0De par son activit\u00e9, l\u2019acteur collaboratif s\u2019expose \u00e0 diff\u00e9rents risques. Nous en d\u00e9gageons 3 principaux qui doivent \u00eatre pris en compte :\u00a0le risque li\u00e9 \u00e0 son activit\u00e9 face \u00e0 la plateforme ;le risque li\u00e9 \u00e0 son activit\u00e9 face \u00e0 un autre acteur collaboratif ;le risque li\u00e9 \u00e0 son activit\u00e9 face aux assureurs.\u00a0Quelles r\u00e9ponses peuvent \u00eatre apport\u00e9es du point de vue l\u00e9gal ?\u00a0Les plateformes num\u00e9riques sont indispensables \u00e0 l'\u00e9conomie num\u00e9rique. Agissant comme des professionnels, il nous semble n\u00e9cessaire de prot\u00e9ger l'acteur collaboratif en imposant \u00e0 ces derni\u00e8res un devoir d'information.\u00a0Le droit doit non seulement imposer aux plateformes une r\u00e9daction claire, concise et facilement accessible de ses conditions d'utilisation mais aussi attirer l'attention par une obligation de conseil sur les risques li\u00e9s \u00e0 l'activit\u00e9, \u00e0 la responsabilit\u00e9 de la plateforme dans ces activit\u00e9s et aux recours possibles ainsi que le droit applicable \u00e0 ces derni\u00e8res.\u00a0Concernant les risques li\u00e9s \u00e0 l'activit\u00e9 face \u00e0 un autre acteur collaboratif, nous consid\u00e9rons que le droit commun \u00e0 travers les responsabilit\u00e9s contractuelles et d\u00e9lictuelles joue parfaitement son r\u00f4le et qu'il n'est pas opportun de cr\u00e9er un nouveau r\u00e9gime de responsabilit\u00e9. L\u2019acteur collaboratif n\u2019\u00e9tant pas un commer\u00e7ant, il prend de ce fait sa part de responsabilit\u00e9 comme pr\u00e9vu par le droit en cas d\u2019inex\u00e9cution ou mauvaise ex\u00e9cution de son obligation contractuelle.\u00a0Enfin, concernant les assurances, nous proposons de ne pas sp\u00e9cialement modifier les r\u00e8gles en vigueur mais rappeler et souligner les responsabilit\u00e9s incombant \u00e0 l'acteur collaboratif comme \u00e0 l'assureur.\u00a0L'assureur \u00e9tant un professionnel qui propose des contrats d'adh\u00e9sion, il nous semble important de maintenir les obligations \u00e0 la charge de ce dernier. Ainsi, nous pensons que l'assureur doit demander de mani\u00e8re explicite \u00e0 son assur\u00e9 s\u2019il pratique une activit\u00e9 collaborative dans le cadre de l'assurance propos\u00e9e. L'assureur ne pourra en aucun cas reprocher \u00e0 l'acteur collaboratif l'absence d'information \u00e0 ce sujet. En revanche, dans le cas o\u00f9 l'assureur en a express\u00e9ment fait la demande et que le particulier a r\u00e9pondu par la n\u00e9gative, la charge de l'information p\u00e8se alors sur ce dernier en cas de modification de son statut ; c'est-\u00e0-dire s\u2019il vient \u00e0 \u00e9voluer en passant du statut de consommateur \u00e0 celui d'acteur collaboratif.", 
    "ranking": 110, 
    "sources_count": 2, 
    "votes_ok": 80, 
    "article_id": 99, 
    "versions": [
        {
            "comment": "Je propose d'interdire purement et simplement les b\u00e9n\u00e9fices pour ce type d'activit\u00e9, seuls les participations aux frais seraient autoris\u00e9es. Lorsque quelqu'un se livre \u00e0 ce type d'activit\u00e9 dans un but d'en faire un revenu, f\u00fbt-il secondaire, cela me para\u00eet une d\u00e9rive, une d\u00e9tournement du statut.", 
            "after": null, 
            "title": null, 
            "arguments_no_count": 0, 
            "created_at": "2015-10-13T19:40:13+0200", 
            "author": "christianmoyon", 
            "updated_at": "2015-10-13T19:40:13+0200", 
            "id": 931, 
            "votes_mitige": 0, 
            "arguments_yes_count": 1, 
            "link": "http://www.republique-numerique.fr/projects/projet-de-loi-numerique/consultation/consultation/opinions/section-4-information-des-consommateurs/creation-d-un-statut-de-l-acteur-collaboratif/versions/benefice-interdit-pour-ce-type-d-activite", 
            "arguments_count": 1, 
            "before": null, 
            "votes_total": 1, 
            "article_id": 99, 
            "slug": "benefice-interdit-pour-ce-type-d-activite", 
            "votes_nok": 0
        }
    ], 
    "created_at": "2015-09-26T13:43:14+0200", 
    "title": "Section 4", 
    "votes_mitige": 13, 
    "body_links": [], 
    "votes_nok": 19
}