{
    "subtitle": "Confidentialit\u00e9 des correspondances priv\u00e9es", 
    "cat_id": 100, 
    "updated_at": "2015-10-09T17:52:49+0200", 
    "body_anchors": [], 
    "sources": [], 
    "arguments_count": 0, 
    "versions_count": 0, 
    "votes_total": 22, 
    "author": "knuthjacques", 
    "article_link": "http://www.republique-numerique.fr/projects/projet-de-loi-numerique/consultation/consultation/opinions/section-2-confidentialite-des-correspondances-privees/supprimer-l-alinea-interdisant-l-analyse-des-mail-par-des-robots", 
    "arguments": [], 
    "answer": {}, 
    "body": "Dans l'article 22, il faut supprimer l'alin\u00e9a interdisant l'analyse des mail par des robots.\u00a0Il \u00a0a des motivations compr\u00e9hensibles, mais risque d'avoir plus d'inconv\u00e9nients que d'avantages \u00a0pour les internautes fran\u00e7ais :L'analyse de nos mails par des robots peut aider \u00e0 d\u00e9tecter des terroristes, \u00a0des p\u00e9dophiles et tr\u00e8s souvent \u00a0\u00e0 \u00e9viter les spam.Par ailleurs, quitte \u00e0 recevoir de la pub, je pr\u00e9f\u00e8re qu'elle soit cibl\u00e9e sur ce qui peut m'int\u00e9resser.Si la France cherche \u00e0 brider la pub sur Internet, alors il faudra que les internautes fran\u00e7ais acceptent de payer pour des services qui sont actuellement en acc\u00e8s gratuits (Google, You Tube, Bing, Yahoo, ...)", 
    "ranking": 506, 
    "sources_count": 0, 
    "votes_ok": 3, 
    "article_id": 501, 
    "versions": [], 
    "created_at": "2015-10-09T17:52:49+0200", 
    "title": "Section 2", 
    "votes_mitige": 1, 
    "body_links": [], 
    "votes_nok": 18
}