{
    "subtitle": "Accessibilit\u00e9 des personnes handicap\u00e9es aux services t\u00e9l\u00e9phoniques", 
    "cat_id": 109, 
    "updated_at": "2015-10-12T15:07:22+0200", 
    "body_anchors": [], 
    "sources": [], 
    "arguments_count": 0, 
    "versions_count": 1, 
    "votes_total": 407, 
    "author": "federationnationaledessourdsdefrance", 
    "article_link": "http://www.republique-numerique.fr/projects/projet-de-loi-numerique/consultation/consultation/opinions/section-1-accessibilite-des-personnes-handicapees-aux-services-telephoniques/prix-du-service-d-accessibilite", 
    "arguments": [], 
    "answer": {
        "body": "La F\u00e9d\u00e9ration nationale des sourds de France propose que seul le prix des communications soit factur\u00e9 \u00e0 l\u2019abonn\u00e9 d\u00e9ficient auditif, \u00e0 l\u2019instar d\u2019un client entendant, et qu\u2019il n\u2019ait pas \u00e0 participer \u00e0 la prise en charge financi\u00e8re de la prestation de traduction/transcription. Le projet de texte pr\u00e9voit que le forfait accessible (c'est-\u00e0-dire comportant un service de traduction/transcription) que les op\u00e9rateurs ont l\u2019obligation de commercialiser est propos\u00e9 \u00e0 la client\u00e8le \u00ab \u00e0 un tarif abordable \u00bb, ce qui signifie que le prix du forfait doit \u00eatre orient\u00e9 vers/refl\u00e9ter les co\u00fbts support\u00e9s par l\u2019op\u00e9rateur pour \u00e9laborer et assurer la fourniture de l\u2019offre. Or, le co\u00fbt d\u2019une minute de communication b\u00e9n\u00e9ficiant d\u2019un service de traduction/transcription s\u2019\u00e9l\u00e8ve \u00e0 plusieurs euros par minute ; le Gouvernement ne souhaite pas faire porter aux op\u00e9rateurs de communications \u00e9lectroniques seuls cette charge. Par ailleurs, cet article pr\u00e9voit \u00e9galement que les services d\u2019accueil et de r\u00e9clamation des administrations, des associations et entreprises soient accessibles aux personnes sourdes et malentendantes\u00a0: dans ces cas, le co\u00fbt de la communication ne sera pas support\u00e9 par l\u2019appelant.", 
        "answer_refs": [
            "/projects/projet-de-loi-numerique/consultation/consultation/opinions/section-1-accessibilite-des-personnes-handicapees-aux-services-telephoniques/prix-du-service-d-accessibilite"
        ], 
        "author": "gouvernement", 
        "article_id": 557, 
        "cited_users": []
    }, 
    "body": "Le dispositif d\u2019accessibilit\u00e9 t\u00e9l\u00e9phonique ne doit pas \u00eatre support\u00e9 par l\u2019usager sourd ou malentendant car le besoin de communication peut \u00eatre universelle (dans les deux sens). Seul le prix des communications doit lui \u00eatre factur\u00e9, comme pour n\u2019importe quel autre usager.", 
    "ranking": 22, 
    "sources_count": 0, 
    "votes_ok": 403, 
    "article_id": 557, 
    "versions": [
        {
            "comment": null, 
            "after": null, 
            "title": null, 
            "arguments_no_count": 0, 
            "created_at": "2015-10-16T14:29:29+0200", 
            "author": "corinneribot", 
            "updated_at": "2015-10-16T14:29:29+0200", 
            "id": 1185, 
            "votes_mitige": 1, 
            "arguments_yes_count": 0, 
            "link": "http://www.republique-numerique.fr/projects/projet-de-loi-numerique/consultation/consultation/opinions/section-1-accessibilite-des-personnes-handicapees-aux-services-telephoniques/prix-du-service-d-accessibilite/versions/partenaire-a-proposer-aux-operateurs-sfr-orange-bouygues-etc", 
            "arguments_count": 0, 
            "before": null, 
            "votes_total": 1, 
            "article_id": 557, 
            "slug": "partenaire-a-proposer-aux-operateurs-sfr-orange-bouygues-etc", 
            "votes_nok": 0
        }
    ], 
    "created_at": "2015-10-12T15:07:22+0200", 
    "title": "Section 1", 
    "votes_mitige": 4, 
    "body_links": [], 
    "votes_nok": 0
}