{
    "subtitle": "Ouverture des donn\u00e9es publiques", 
    "cat_id": 86, 
    "updated_at": "2015-10-18T17:12:42+0200", 
    "body_anchors": [], 
    "sources": [], 
    "arguments_count": 0, 
    "versions_count": 0, 
    "votes_total": 4, 
    "author": "armellegilliardlareinemerlin", 
    "article_link": "http://www.republique-numerique.fr/projects/projet-de-loi-numerique/consultation/consultation/opinions/section-1-ouverture-des-donnees-publiques-1/continuer-d-accompagner-le-mouvement-open-data-et-la-montee-en-competences-de-tous-sur-ces-sujets", 
    "arguments": [], 
    "answer": {}, 
    "body": "En absence de sanction, les collectivit\u00e9s risquent de ne pas se mobiliser pour apporter les ressources n\u00e9cessaires pour effectuer la mise en ligne des donn\u00e9es.Le d\u00e9nis par bon nombre de collectivit\u00e9s des bonnes lois telles que le RGA, le RGS... sont \u00e0 \u00e9viter.\u00a0Pour l'instant seules les communes et les EPCI de plus de 3500 habitants sont concern\u00e9es par la loi Notre. Il serait raisonnable, dors et d\u00e9j\u00e0 de pr\u00e9voir dans le temps la baisse de ce seuil. Je recommande de baisser de 500 habitants par an ce seuil, de sorte \u00e0 atteindre \u00e0 terme l'exhaustivit\u00e9 des communes.Les communes, leurs EPCI, et leurs DSP ne sont pas les seules \u00e0 \u00eatre charg\u00e9es d'une mission de service publique. Il serait bien que tous les \u00e9tablissements concern\u00e9s prennent conscience de\u00a0leurs missions de services publics et soient incit\u00e9s \u00e0 ouvrir leurs donn\u00e9es.Gr\u00e2ce \u00e0 la feuille de route Etalab, certains secteurs comme la sant\u00e9 ou l'habitat sont peu \u00e0 peu sensibilis\u00e9s. Les acteurs du tourisme semblent \u00e9galement se pr\u00e9occuper du sujet via le projet\u00a0datatourisme. On peut noter quelques initiatives dans le transport via la plateforme http://www.chouette.mobi/; n\u00e9anmois, \u00e0 ma connaissance, il reste beaucoup de champs du services publics\u00a0qui ne sont pas couverts : le social, la justice, la monnaie, les affaires \u00e9trang\u00e8res, l'enfance, l'enseignement, l'orientation, l'audiovisuel, la gestion des r\u00e9seaux,...\u00a0Pour faciliter l'ouverture des donn\u00e9es, je pense qui si l'Etat proposait une th\u00e9matique par an cela apportait un plus dans les dynamiques actuelles.Pour les collectivit\u00e9s, il pourrait s'agir d'une th\u00e9matique g\u00e9n\u00e9rale. Une ann\u00e9e l'incitation pourrait inciter \u00e0 ouvrir des donn\u00e9es sur l'eau, une autre sur les donn\u00e9es sociales, une autre sur\u00a0le logement, les donn\u00e9es d'archives...Pour les acteurs th\u00e9matiques tels que Datatourisme, c'est peut \u00eatre \u00e0 eux de trouver une th\u00e9matique annuelle comme les randonn\u00e9es ou les h\u00e9bergements touristiques, mais si cette th\u00e9matique est renforc\u00e9e des messages de l'Etat qui vont dans le m\u00eame sens, les efforts pourraient se diffuser au-del\u00e0 des interlocuteurs naturels de Datatourisme (essentiellement les professionnels du tourisme) et certainement convaincre les autres interlocuteurs concern\u00e9s par le service public.Admettons qu'une rencontre open data port\u00e9e par Etalab fasse un \u00e9tat des lieux des avanc\u00e9es de l'ann\u00e9e sur la/les th\u00e9matiques de l'ann\u00e9e, cela serait l'occasion de valoriser les bonnes\u00a0pratiques, et d'aider les plus timides \u00e0 l'ouverture de donn\u00e9es \u00e0 aller plus loin.\u00a0Cette rencontre open data viendrait s'inscrire dans un des \u00e9v\u00e9nements open data de l'un des acteurs publics.\u00a0Pour aller vers une d\u00e9marche des plus abouties, cela pourrait venir compl\u00e9ter des \u00e9v\u00e9nements majeurs et internationaux tel que la Coop 21 pour l'ann\u00e9e 2015.\u00a0Enfin, la m\u00e9diation \u00e0 la donn\u00e9e, est une forme de m\u00e9diation num\u00e9rique qui doit se d\u00e9velopper aupr\u00e8s de tous les publics : enfants comme adultes, priv\u00e9s comme public. Elle est pour tous une opportunit\u00e9s de s'\u00e9loigner de la fracture num\u00e9rique.\u00a0Il serait interessant qu'un niveau de collectivit\u00e9 territoriale soit officiellement charg\u00e9 de cette mission de service public pour la m\u00e9diation num\u00e9rique et la m\u00e9diation num\u00e9rique \u00e0 la donn\u00e9e aux fins de s'assurer que les citoyens soient en capacit\u00e9s d'agir en toutes connaissances de cause lorsqu'ils partagent et diffusent leurs donn\u00e9es, mais aussi se retrouvent en toutes capacit\u00e9s de mener des actions pour eux-m\u00eames, leurs projets, leurs territoires. En somme, aider le citoyen a un \u00e9panouissement certain dans la R\u00e9publique num\u00e9rique.", 
    "ranking": 473, 
    "sources_count": 0, 
    "votes_ok": 4, 
    "article_id": 753, 
    "versions": [], 
    "created_at": "2015-10-18T17:12:42+0200", 
    "title": "Section 1", 
    "votes_mitige": 0, 
    "body_links": [], 
    "votes_nok": 0
}