{
    "subtitle": "Paiement par SMS", 
    "cat_id": 107, 
    "updated_at": "2015-09-28T14:18:57+0200", 
    "body_anchors": [], 
    "sources": [
        {
            "body": "De tr\u00e8s nombreuses personnes assurent que des sites proposant des sonneries ou des logos les ont fait payer \u00e0 leur insu...", 
            "category": "Articles de presse", 
            "title": "Le grand myst\u00e8re des abonnements Internet involontaires", 
            "source_link": "http://www.20minutes.fr/societe/1570515-20150324-grand-mystere-abonnements-internet-involontaires", 
            "created_at": "2015-09-28T14:27:44+0200", 
            "author": "nvram", 
            "updated_at": "2015-09-28T14:27:44+0200", 
            "link": "http://www.20minutes.fr/societe/1570515-20150324-grand-mystere-abonnements-internet-involontaires#source-45", 
            "votes_count": "0", 
            "article_id": 243, 
            "id": "45"
        }, 
        {
            "body": "Le fant\u00f4me du Minitel continue de hanter la Toile. En s'inspirant du mod\u00e8le kiosque, plusieurs acteurs du Net, France T\u00e9l\u00e9com en t\u00eate, se sont regroup\u00e9s au sein de l'association Internet Plus pour proposer une solution de micropaiements en deux clics.", 
            "category": "Articles de presse", 
            "title": "Internet Plus copie le Minitel pour simplifier les achats sur la Toile", 
            "source_link": "http://www.lesechos.fr/22/06/2005/LesEchos/19440-167-ECH_internet-plus-copie-le-minitel-pour-simplifier-les-achats-sur-la-toile.htm", 
            "created_at": "2015-09-28T14:23:35+0200", 
            "author": "nvram", 
            "updated_at": "2015-09-28T14:23:35+0200", 
            "link": "http://www.lesechos.fr/22/06/2005/LesEchos/19440-167-ECH_internet-plus-copie-le-minitel-pour-simplifier-les-achats-sur-la-toile.htm#source-44", 
            "votes_count": "0", 
            "article_id": 243, 
            "id": "44"
        }, 
        {
            "body": "Apr\u00e8s un changement d'abonnement, l'une de nos lectrices s'est \u00e9tonn\u00e9e de recevoir une facture de non pas 39 \u20ac mensuel, mais de 54 \u20ac. En cause : un abonnement souscrit \u00e0 son insu, manifestement par un enfant via un jeu gratuit. Et ce depuis un an.", 
            "category": "Articles de presse", 
            "title": "KKO Jeux : vos enfants ne doivent plus jouer avec votre smartphone", 
            "source_link": "http://www.lesnumeriques.com/telephone-portable/kko-jeux-vos-enfants-ne-doivent-plus-jouer-avec-votre-smartphone-a1595.html", 
            "created_at": "2015-09-28T14:22:33+0200", 
            "author": "nvram", 
            "updated_at": "2015-09-28T14:22:33+0200", 
            "link": "http://www.lesnumeriques.com/telephone-portable/kko-jeux-vos-enfants-ne-doivent-plus-jouer-avec-votre-smartphone-a1595.html#source-43", 
            "votes_count": "0", 
            "article_id": 243, 
            "id": "43"
        }, 
        {
            "body": "Des centaines de clients se plaignent d'avoir \u00e9t\u00e9 abonn\u00e9s \u00e0 leur insu \u00e0 un site vendant des logos, des jeux et des sonneries.", 
            "category": "Articles de presse", 
            "title": "Abonn\u00e9s \u00e0 leur insu \u00e0 un site de t\u00e9l\u00e9chargement de sonneries", 
            "source_link": "http://www.leparisien.fr/societe/abonnes-a-leur-insu-a-un-site-de-telechargement-de-sonneries-19-11-2011-1728643.php", 
            "created_at": "2015-09-28T14:20:56+0200", 
            "author": "nvram", 
            "updated_at": "2015-09-28T14:20:56+0200", 
            "link": "http://www.leparisien.fr/societe/abonnes-a-leur-insu-a-un-site-de-telechargement-de-sonneries-19-11-2011-1728643.php#source-42", 
            "votes_count": "0", 
            "article_id": 243, 
            "id": "42"
        }
    ], 
    "arguments_count": 7, 
    "versions_count": 0, 
    "votes_total": 83, 
    "author": "nvram", 
    "article_link": "http://www.republique-numerique.fr/projects/projet-de-loi-numerique/consultation/consultation/opinions/section-2-paiement-par-sms/encadrer-les-moyens-de-paiement-par-le-biais-de-la-facture-internet-de-maniere-a-garantir-les-droits-du-consommateur", 
    "arguments": [
        {
            "body": "Parlez-en \u00e0 votre banquier.", 
            "author": "taneleo", 
            "created_at": "2015-10-17T18:48:21+0200", 
            "updated_at": "2015-10-17T18:48:21+0200", 
            "votes_count": "0", 
            "link": "http://www.republique-numerique.fr/projects/projet-de-loi-numerique/consultation/consultation/opinions/section-2-paiement-par-sms/encadrer-les-moyens-de-paiement-par-le-biais-de-la-facture-internet-de-maniere-a-garantir-les-droits-du-consommateur#arg-5476#arg-5476", 
            "article_id": 243, 
            "id": "5476"
        }, 
        {
            "body": "Je suis d'accord avec Bernard, chacun son m\u00e9tier.", 
            "author": "oree", 
            "created_at": "2015-10-15T17:03:45+0200", 
            "updated_at": "2015-10-15T17:03:45+0200", 
            "votes_count": "1", 
            "link": "http://www.republique-numerique.fr/projects/projet-de-loi-numerique/consultation/consultation/opinions/section-2-paiement-par-sms/encadrer-les-moyens-de-paiement-par-le-biais-de-la-facture-internet-de-maniere-a-garantir-les-droits-du-consommateur#arg-4306#arg-4306", 
            "article_id": 243, 
            "id": "4306"
        }, 
        {
            "body": "Le FAI n'est pas un interm\u00e9diaire de paiement. Chacun son m\u00e9tier. Tous ces services sont de l'arnaque, c'est de la vente dissimul\u00e9e qu'il faudrait interdire autant que possible. Il existe un tas de syst\u00e8mes s\u00e9curis\u00e9s pour payer en ligne (de la carte bancaire virtuelle \u00e0 paypal et bient\u00f4t bitcoin).", 
            "author": "bernardmartinez", 
            "created_at": "2015-10-10T20:40:03+0200", 
            "updated_at": "2015-10-10T20:40:03+0200", 
            "votes_count": "1", 
            "link": "http://www.republique-numerique.fr/projects/projet-de-loi-numerique/consultation/consultation/opinions/section-2-paiement-par-sms/encadrer-les-moyens-de-paiement-par-le-biais-de-la-facture-internet-de-maniere-a-garantir-les-droits-du-consommateur#arg-3049#arg-3049", 
            "article_id": 243, 
            "id": "3049"
        }, 
        {
            "body": "Je me permets de proposer encore plus simple : mettre les services Internet+ ou similaire en \"opt-in\" (d\u00e9sactiv\u00e9 par d\u00e9faut) alors qu'actuellement ils sont g\u00e9n\u00e9ralement activ\u00e9s par d\u00e9faut d\u00e8s la souscription d'un abonnement \u00e0 Internet.", 
            "author": "superchaton", 
            "created_at": "2015-09-30T20:58:08+0200", 
            "updated_at": "2015-09-30T20:58:08+0200", 
            "votes_count": "1", 
            "link": "http://www.republique-numerique.fr/projects/projet-de-loi-numerique/consultation/consultation/opinions/section-2-paiement-par-sms/encadrer-les-moyens-de-paiement-par-le-biais-de-la-facture-internet-de-maniere-a-garantir-les-droits-du-consommateur#arg-1697#arg-1697", 
            "article_id": 243, 
            "id": "1697"
        }, 
        {
            "body": "Si \u00e7a tenais qu'a moi j'interdirais tout paiement au travers de factures t\u00e9l\u00e9coms, Internet. Je pense qu'une carte bancaire est suffisant et le moyen le plus sure (j'ai pas dis qu'il \u00e9tait infalsifiable).Car \u00e7a commence a faire beaucoup d'acteur qui se propose de garantir mes paiement tous en me proposant de la vente. Exemple orange me propose de d\u00e9biter sur ma facture le paiement d'un service d'achat de film. Serte c'est plus simple, mais j'ai rien signer lors de l'achat (acte de vente pas claire) , je n'\u00e9crit met pas le code de mani\u00e8re confidentiel (une t\u00e9l\u00e9commande t\u00e9l\u00e9) et c'est encore un code a savoir (donc il est \u00e9crit, donc mes enfant ou autre doivent pouvoir le trouver facilement, moi le premier ;-).Je vous rappelle que connaitre plus de 7 codes (mot de passe) n'est pas pour tout le monde.", 
            "author": "lacombe", 
            "created_at": "2015-09-29T17:03:45+0200", 
            "updated_at": "2015-09-29T17:03:45+0200", 
            "votes_count": "0", 
            "link": "http://www.republique-numerique.fr/projects/projet-de-loi-numerique/consultation/consultation/opinions/section-2-paiement-par-sms/encadrer-les-moyens-de-paiement-par-le-biais-de-la-facture-internet-de-maniere-a-garantir-les-droits-du-consommateur#arg-1300#arg-1300", 
            "article_id": 243, 
            "id": "1300"
        }, 
        {
            "body": "Il n'est m\u00eame pas forc\u00e9ment n\u00e9cessaire de demander les identifiants de l'utilisateur pour garantir son consentement. Il suffit d'un syst\u00e8me proche d'un captcha simplifi\u00e9 pour \u00eatre s\u00fbr qu'il ne fait pas d'achat par erreur.", 
            "author": "bernarddesmyter", 
            "created_at": "2015-09-29T10:39:39+0200", 
            "updated_at": "2015-09-29T10:39:39+0200", 
            "votes_count": "2", 
            "link": "http://www.republique-numerique.fr/projects/projet-de-loi-numerique/consultation/consultation/opinions/section-2-paiement-par-sms/encadrer-les-moyens-de-paiement-par-le-biais-de-la-facture-internet-de-maniere-a-garantir-les-droits-du-consommateur#arg-1168#arg-1168", 
            "article_id": 243, 
            "id": "1168"
        }, 
        {
            "body": "Et puis attention que les enfants ne puissent pas acheter accidentellement des choses via la facture.", 
            "author": "jeannevarasco", 
            "created_at": "2015-09-29T01:10:29+0200", 
            "updated_at": "2015-09-29T01:10:29+0200", 
            "votes_count": "4", 
            "link": "http://www.republique-numerique.fr/projects/projet-de-loi-numerique/consultation/consultation/opinions/section-2-paiement-par-sms/encadrer-les-moyens-de-paiement-par-le-biais-de-la-facture-internet-de-maniere-a-garantir-les-droits-du-consommateur#arg-1112#arg-1112", 
            "article_id": 243, 
            "id": "1112"
        }
    ], 
    "answer": {}, 
    "body": "Les op\u00e9rateurs proposant l'acc\u00e8s \u00e0 un r\u00e9seau ouvert de communications en ligne, et permettant \u00e9galement le paiement, la souscription ou l'abonnement \u00e0 des services payants suppl\u00e9mentaires propos\u00e9s par des soci\u00e9t\u00e9s tierces par le biais d'un syst\u00e8me de traitement automatis\u00e9 des donn\u00e9es s'interposant entre le consommateur et ledit r\u00e9seau ouvert de communications en ligne, et dont la facturation se fait conjointement \u00e0 celle de la prestation d'acc\u00e8s audit r\u00e9seau ouvert de communications en ligne, doivent rechercher le consentement du consommateur lors de l'op\u00e9ration de paiement, de souscription ou d'abonnement pr\u00e9cit\u00e9e en requ\u00e9ant \u00e0 minima la saisie obligatoire et syst\u00e9matique d'identifiants textuels de valeur non nulle conventionn\u00e9s pr\u00e9alablement comme pouvant permettre notamment la modification de l'offre \u00e0 laquelle souscrit le consommateur. Il doit, en outre, pouvoir \u00eatre consid\u00e9r\u00e9 que l'op\u00e9rateur recherche et met en place de bonne foi les disposition n\u00e9cessaires \u00e0 ce que le consommateur ne puisse ignorer l'objet du paiement, la souscription ou l'abonnement auquel il va \u00eatre proc\u00e9d\u00e9 dans le cadre du processus mentionn\u00e9 au pr\u00e9sent paragraphe.La non conformation par un op\u00e9rateur \u00e0 ces conditions dans un d\u00e9lai fix\u00e9 \u00e0 partir de la promulgation de la loi les rendra sujets \u00e0 un risque d'amende forfaitaire.", 
    "ranking": 112, 
    "sources_count": 4, 
    "votes_ok": 78, 
    "article_id": 243, 
    "versions": [], 
    "created_at": "2015-09-28T14:18:57+0200", 
    "title": "Section 2", 
    "votes_mitige": 0, 
    "body_links": [], 
    "votes_nok": 5
}