{
    "subtitle": "Comp\u00e9tences et organisation", 
    "cat_id": 103, 
    "updated_at": "2015-10-17T11:50:50+0200", 
    "body_anchors": [], 
    "sources": [], 
    "arguments_count": 1, 
    "versions_count": 0, 
    "votes_total": 3, 
    "author": "amrf", 
    "article_link": "http://www.republique-numerique.fr/projects/projet-de-loi-numerique/consultation/consultation/opinions/section-1-competences-et-organisation/la-mairie-numerique-7-10", 
    "arguments": [
        {
            "body": "Le probl\u00e8me de la comp\u00e9tence num\u00e9rique est un probl\u00e8me \u00e0 l'\u00e9chelle de la nation et non circonscrit aux secr\u00e9taires de mairies.", 
            "author": "danielazuelos", 
            "created_at": "2015-10-17T15:12:38+0200", 
            "updated_at": "2015-10-17T15:12:38+0200", 
            "votes_count": "1", 
            "link": "http://www.republique-numerique.fr/projects/projet-de-loi-numerique/consultation/consultation/opinions/section-1-competences-et-organisation/la-mairie-numerique-7-10#arg-5279#arg-5279", 
            "article_id": 701, 
            "id": "5279"
        }
    ], 
    "answer": {}, 
    "body": "7. D\u00e9velopper les comp\u00e9tences num\u00e9riques des secr\u00e9taires de mairies gr\u00e2ce \u00e0 un MOOC pour ma\u00eetriser les outils num\u00e9riques indispensables\u00e0 suivre...", 
    "ranking": 577, 
    "sources_count": 0, 
    "votes_ok": 1, 
    "article_id": 701, 
    "versions": [], 
    "created_at": "2015-10-17T11:50:50+0200", 
    "title": "Section 1", 
    "votes_mitige": 1, 
    "body_links": [], 
    "votes_nok": 1
}