{
    "subtitle": "Comp\u00e9tences et organisation", 
    "cat_id": 103, 
    "updated_at": "2015-09-28T16:14:24+0200", 
    "body_anchors": [], 
    "sources": [], 
    "arguments_count": 0, 
    "versions_count": 3, 
    "votes_total": 20, 
    "author": "rouziesbertrand", 
    "article_link": "http://www.republique-numerique.fr/projects/projet-de-loi-numerique/consultation/consultation/opinions/section-1-competences-et-organisation/droit-a-la-deconnexion-sans-marginalisation-civique", 
    "arguments": [], 
    "answer": {}, 
    "body": "L'am\u00e9lioration de l'interconnectivit\u00e9 virtuelle ne se fera pas au d\u00e9triment des services publics physiques, notamment en\u00a0ce qui concerne\u00a0les d\u00e9marches administratives. Tout(e) citoyen(ne) volontairement non connect\u00e9(e) ne doit pas \u00eatre sanctionn\u00e9 scolairement ni professionnellement, sauf n\u00e9cessit\u00e9 propre au dipl\u00f4me vis\u00e9 ou au m\u00e9tier exerc\u00e9, et doit pouvoir se tenir et \u00eatre inform\u00e9(e) de ses droits et de ses obligations civiques par les canaux postaux et t\u00e9l\u00e9phoniques, sans qu'il y soit mis d'entraves d'aucune sorte.\u00a0La sensibilit\u00e9 \u00e9lectro-magn\u00e9tique peut \u00eatre \u00e0 l'origine d'un besoin vital de d\u00e9connexion. Elle\u00a0ne doit pas\u00a0conduire \u00e0 une marginalisation des personnes qui en souffrent. La cr\u00e9ation sur le territoire national\u00a0de\u00a0zones refuges \u00e0 peu pr\u00e8s vierges\u00a0d'ondes ne peut \u00eatre qu'une solution provisoire \u00e0 ce probl\u00e8me. Nos concitoyen(ne)s \u00e9lectro-sensibles ne doivent pas s'y trouver bloqu\u00e9(e)s.\u00a0Principe de pr\u00e9caution oblige,\u00a0plut\u00f4t que d'encourager le Wi-Fi, les collectivit\u00e9s\u00a0d\u00e9velopperont\u00a0le r\u00e9seau de c\u00e2bles \u00e0 fibre optique, de mani\u00e8re \u00e0 ne pas saturer plus que de raison le cadre de vie commun.", 
    "ranking": 243, 
    "sources_count": 0, 
    "votes_ok": 17, 
    "article_id": 253, 
    "versions": [
        {
            "comment": "Il convient d'\u00e9largir cet article au del\u00e0 de la r\u00e9elle probl\u00e9matique de l'hypersensibilit\u00e9 \u00e9lectro-magn\u00e9tique et de la num\u00e9risation du service public.\nLes entreprises commerciales s'engouffrent dans la course \u00e0 la donn\u00e9es via les objets connect\u00e9s (r\u00e9frig\u00e9rateur, montre, v\u00e9los, etc.) et je pense qu'il est essentiel de mettre en place des garanties concernant l'\u00e9quit\u00e9 de traitement commercial entre les citoyens connect\u00e9s et ceux qui ont choisi ou qui sont contraints d'\u00eatre\u00a0d\u00e9connect\u00e9s.\nIllustration : imaginez que comme vous n'avez pas de r\u00e9frig\u00e9rateur connect\u00e9 ou de montre connect\u00e9 qui renseigne votre assureur sur votre alimentation ou votre niveau d'activit\u00e9 physique, celui-ci vous applique par d\u00e9faut une sur-prime \"dans le doute\"... imaginez simplement :)", 
            "after": null, 
            "title": null, 
            "arguments_no_count": 0, 
            "created_at": "2015-10-03T11:51:55+0200", 
            "author": "antoineanglade", 
            "updated_at": "2015-10-03T11:51:55+0200", 
            "id": 584, 
            "votes_mitige": 1, 
            "arguments_yes_count": 0, 
            "link": "http://www.republique-numerique.fr/projects/projet-de-loi-numerique/consultation/consultation/opinions/section-1-competences-et-organisation/droit-a-la-deconnexion-sans-marginalisation-civique/versions/liberte-fondamentale-de-deconnexion", 
            "arguments_count": 0, 
            "before": null, 
            "votes_total": 7, 
            "article_id": 253, 
            "slug": "liberte-fondamentale-de-deconnexion", 
            "votes_nok": 0
        }, 
        {
            "comment": "Nous ne connaissons encore pas tous les effets des ondes \u00e9l\u00e9ctromagn\u00e9tiques a\u00e9riennes. Inutile d'en saturer l'environnement plus que de raison, surtout lorsqu'on commence \u00e0 voir des cas de maladies li\u00e9es av\u00e9r\u00e9es. Je pense que ce n'est que le d\u00e9but. On ne doit donc pas se limiter aux diagnostics d'aujourd'hui.", 
            "after": null, 
            "title": null, 
            "arguments_no_count": 0, 
            "created_at": "2015-09-30T16:11:56+0200", 
            "author": "jeannevarasco", 
            "updated_at": "2015-09-30T16:11:56+0200", 
            "id": 485, 
            "votes_mitige": 1, 
            "arguments_yes_count": 0, 
            "link": "http://www.republique-numerique.fr/projects/projet-de-loi-numerique/consultation/consultation/opinions/section-1-competences-et-organisation/droit-a-la-deconnexion-sans-marginalisation-civique/versions/modification-du-paragaphe-sur-l-electrosensibilite", 
            "arguments_count": 0, 
            "before": null, 
            "votes_total": 7, 
            "article_id": 253, 
            "slug": "modification-du-paragaphe-sur-l-electrosensibilite", 
            "votes_nok": 0
        }, 
        {
            "comment": "Retrait du paragraphe sur l'\u00e9lectro-sensibilit\u00e9. Le droit \u00e0 la d\u00e9connexion n'a pas \u00e0 \u00eatre justifi\u00e9.", 
            "after": null, 
            "title": null, 
            "arguments_no_count": 0, 
            "created_at": "2015-09-30T02:50:44+0200", 
            "author": "vincentreverdy", 
            "updated_at": "2015-09-30T02:50:44+0200", 
            "id": 436, 
            "votes_mitige": 1, 
            "arguments_yes_count": 0, 
            "link": "http://www.republique-numerique.fr/projects/projet-de-loi-numerique/consultation/consultation/opinions/section-1-competences-et-organisation/droit-a-la-deconnexion-sans-marginalisation-civique/versions/retrait-du-paragraphe-sur-l-electro-sensibilite", 
            "arguments_count": 0, 
            "before": null, 
            "votes_total": 17, 
            "article_id": 253, 
            "slug": "retrait-du-paragraphe-sur-l-electro-sensibilite", 
            "votes_nok": 3
        }
    ], 
    "created_at": "2015-09-28T16:14:24+0200", 
    "title": "Section 1", 
    "votes_mitige": 3, 
    "body_links": [], 
    "votes_nok": 0
}