{
    "subtitle": "Ouverture des donn\u00e9es publiques", 
    "cat_id": 86, 
    "updated_at": "2015-10-18T22:07:28+0200", 
    "body_anchors": [], 
    "sources": [], 
    "arguments_count": 1, 
    "versions_count": 0, 
    "votes_total": 1, 
    "author": "classebtsmuc2blyceeperier", 
    "article_link": "http://www.republique-numerique.fr/projects/projet-de-loi-numerique/consultation/consultation/opinions/section-1-ouverture-des-donnees-publiques-1/insertion-d-un-alinea-2-a-l-article-1-de-la-loi-de-1978", 
    "arguments": [
        {
            "body": "Ancienne eleve, bravo au lyc\u00e9e Perier pour vos propositions, ici particulierement importante , la prevention (y)", 
            "author": "maltesenadine", 
            "created_at": "2015-10-18T22:28:00+0200", 
            "updated_at": "2015-10-18T22:28:00+0200", 
            "votes_count": "0", 
            "link": "http://www.republique-numerique.fr/projects/projet-de-loi-numerique/consultation/consultation/opinions/section-1-ouverture-des-donnees-publiques-1/insertion-d-un-alinea-2-a-l-article-1-de-la-loi-de-1978#arg-6140#arg-6140", 
            "article_id": 772, 
            "id": "6140"
        }
    ], 
    "answer": {}, 
    "body": "Alin\u00e9a 2 : Au sens de la pr\u00e9sente loi, et des articles 9 du Code civil et 226-1 du Code p\u00e9nal, les usages li\u00e9s aux \u00e9l\u00e9ments de la vie priv\u00e9e au sein de l\u2019espace num\u00e9rique, s\u2019entendent de tout ce qui a trait aux contenus divulgu\u00e9s, tels que\u00a0 les photos, les vid\u00e9os, les textes et plus g\u00e9n\u00e9ralement tout ce qui se rapporte a l\u2019identit\u00e9 propre de l\u2019individu.", 
    "ranking": 577, 
    "sources_count": 0, 
    "votes_ok": 1, 
    "article_id": 772, 
    "versions": [], 
    "created_at": "2015-10-18T22:07:28+0200", 
    "title": "Section 1", 
    "votes_mitige": 0, 
    "body_links": [], 
    "votes_nok": 0
}