{
    "subtitle": "Ouverture des donn\u00e9es publiques", 
    "cat_id": 86, 
    "updated_at": "2015-09-29T14:13:09+0200", 
    "body_anchors": [], 
    "sources": [], 
    "arguments_count": 2, 
    "versions_count": 0, 
    "votes_total": 34, 
    "author": "serayamaouche", 
    "article_link": "http://www.republique-numerique.fr/projects/projet-de-loi-numerique/consultation/consultation/opinions/section-1-ouverture-des-donnees-publiques-1/faciliter-l-exploitation-des-donnees-a-caractere-personnel-deja-publiees", 
    "arguments": [
        {
            "body": "C'est le site qui bugge, ou il manque une proposition d'article apr\u00e8s l'explication des motifs ?", 
            "author": "lertsenem", 
            "created_at": "2015-10-01T17:43:35+0200", 
            "updated_at": "2015-10-01T17:43:35+0200", 
            "votes_count": "0", 
            "link": "http://www.republique-numerique.fr/projects/projet-de-loi-numerique/consultation/consultation/opinions/section-1-ouverture-des-donnees-publiques-1/faciliter-l-exploitation-des-donnees-a-caractere-personnel-deja-publiees#arg-1908#arg-1908", 
            "article_id": 299, 
            "id": "1908"
        }, 
        {
            "body": "D'accord seulement avec l'autorisation de la CNIL, la meilleure des institutions fran\u00e7aises \u00e0 mon gout !", 
            "author": "jeannevarasco", 
            "created_at": "2015-09-30T16:47:11+0200", 
            "updated_at": "2015-09-30T16:47:11+0200", 
            "votes_count": "0", 
            "link": "http://www.republique-numerique.fr/projects/projet-de-loi-numerique/consultation/consultation/opinions/section-1-ouverture-des-donnees-publiques-1/faciliter-l-exploitation-des-donnees-a-caractere-personnel-deja-publiees#arg-1610#arg-1610", 
            "article_id": 299, 
            "id": "1610"
        }
    ], 
    "answer": {}, 
    "body": "Aujourd'hui il existent dans des bases de donn\u00e9es publiques, notamment \u00e0 l'\u00e9tranger des donn\u00e9es issues de la recherche qui sont\u00a0tr\u00e8s int\u00e9ressantes pour les acteurs du Big Data en France. Ces jeux de donn\u00e9es anonymes r\u00e9sultent de l'application des technologies haut d\u00e9bit de s\u00e9quen\u00e7age de l'ADN ou des puces \u00e0 ADN \u00e0 des \u00e9chantillions de patients ou des sujets sains qui ont donn\u00e9 leur consentement lors de l'\u00e9tablissement du projet de recherche. Ces jeux de donn\u00e9es comportent une partie d\u00e9mographique, ce qui rend leur exploitation en France impossible sans passer par les autorisations de la CNIL.Je pense qu'en France nous avons besoin de simplifier l'exploitation de ces donn\u00e9es, notamment qu'elles sont\u00a0d\u00e9j\u00e0 publi\u00e9es.", 
    "ranking": 473, 
    "sources_count": 0, 
    "votes_ok": 4, 
    "article_id": 299, 
    "versions": [], 
    "created_at": "2015-09-29T14:12:44+0200", 
    "title": "Section 1", 
    "votes_mitige": 5, 
    "body_links": [], 
    "votes_nok": 25
}