{
    "subtitle": "Protection des donn\u00e9es \u00e0 caract\u00e8re personnel", 
    "cat_id": 99, 
    "updated_at": "2015-09-26T16:28:04+0200", 
    "body_anchors": [], 
    "sources": [], 
    "arguments_count": 16, 
    "versions_count": 3, 
    "votes_total": 192, 
    "author": "lepoissonlibre", 
    "article_link": "http://www.republique-numerique.fr/projects/projet-de-loi-numerique/consultation/consultation/opinions/section-1-protection-des-donnees-a-caractere-personnel/la-reconnaissance-du-droit-au-chiffrement", 
    "arguments": [
        {
            "body": "Oui, nous devons pouvoir continuer \u00e0 chiffrer comme bon nous semble, et il faut en plus que le chiffrement soit accessible \u00e0 tous. Il faut en plus\u00e9duquer, vulgariser, et proposer des outils faciles d'acc\u00e8s. On nous dit que demain il y aura un foss\u00e9 entre ceux qui savent coder et les autres. Le premier foss\u00e9 sera peut-\u00eatre celui entre ceux qui savent prot\u00e9ger leur vie priv\u00e9e et les autres...", 
            "author": "willylafran", 
            "created_at": "2015-10-18T22:27:13+0200", 
            "updated_at": "2015-10-18T22:27:13+0200", 
            "votes_count": "0", 
            "link": "http://www.republique-numerique.fr/projects/projet-de-loi-numerique/consultation/consultation/opinions/section-1-protection-des-donnees-a-caractere-personnel/la-reconnaissance-du-droit-au-chiffrement#arg-6136#arg-6136", 
            "article_id": 118, 
            "id": "6136"
        }, 
        {
            "body": "@Fr\u00e9d\u00e9ric Boutinc'est exactement sur ce principe de s\u00e9curit\u00e9 nationale qu'on avait cr\u00e9\u00e9 les cabinets noirs, charg\u00e9s de lire les lettres des citoyens. C'est \u00e0 la r\u00e9volution qu'on les a supprim\u00e9s en \u00e9rigeant le principe du secret de la correspondance.2 si\u00e8cles plus tard, nos gouvernements demandent de pouvoir lire nos messages. La boucle est boucl\u00e9e.A l'\u00e8re du num\u00e9rique, un message chiffr\u00e9 n'est rien d'autre qu'une lettre cachet\u00e9e. Le gouvernement n'a pas \u00e0 mettre son nez dedans.La lutte contre le terrorisme est un leurre : ils trouveront toujours moyen de contourner les \u00e9coutes, ne serait qu'en utilisant la st\u00e9ganographie (on ne sait m\u00eame pas qu'il y a un message crypt\u00e9 : cela est possible par exemple, un codant le message dans des pixels invisibles d'une image).En r\u00e9sum\u00e9, limiter le chiffrement pour les citoyens est un \u00e9norme pr\u00e9judice pour la vie priv\u00e9e qui n'est m\u00eame pas efficace sur ce qu'il est suppos\u00e9 combattre.", 
            "author": "ericbienfait", 
            "created_at": "2015-10-18T21:24:12+0200", 
            "updated_at": "2015-10-18T21:27:20+0200", 
            "votes_count": "0", 
            "link": "http://www.republique-numerique.fr/projects/projet-de-loi-numerique/consultation/consultation/opinions/section-1-protection-des-donnees-a-caractere-personnel/la-reconnaissance-du-droit-au-chiffrement#arg-6095#arg-6095", 
            "article_id": 118, 
            "id": "6095"
        }, 
        {
            "body": "Ce droit existe d\u00e9j\u00e0.", 
            "author": "taneleo", 
            "created_at": "2015-10-17T17:15:48+0200", 
            "updated_at": "2015-10-17T17:15:48+0200", 
            "votes_count": "0", 
            "link": "http://www.republique-numerique.fr/projects/projet-de-loi-numerique/consultation/consultation/opinions/section-1-protection-des-donnees-a-caractere-personnel/la-reconnaissance-du-droit-au-chiffrement#arg-5394#arg-5394", 
            "article_id": 118, 
            "id": "5394"
        }, 
        {
            "body": "Comme pour le droit au silence d'une personne physique avec ces pens\u00e9es, le chiffrement n'est que l'application de ce droit au silence au num\u00e9rique.", 
            "author": "darbaumont", 
            "created_at": "2015-10-14T14:49:13+0200", 
            "updated_at": "2015-10-14T14:49:13+0200", 
            "votes_count": "4", 
            "link": "http://www.republique-numerique.fr/projects/projet-de-loi-numerique/consultation/consultation/opinions/section-1-protection-des-donnees-a-caractere-personnel/la-reconnaissance-du-droit-au-chiffrement#arg-3908#arg-3908", 
            "article_id": 118, 
            "id": "3908"
        }, 
        {
            "body": "Le chiffrage, selon l\u2019algorithme et la longueur de la cl\u00e9, c'est l'\u00e9quivalent num\u00e9rique de l'enveloppe (chiffrage faible), et du coffre fort (chiffrage fort).Or il n'est pas interdit de poss\u00e9der un coffre-fort.Il devrait donc \u00eatre utiliser de chiffrer a souhait.N\u00e9anmoins, les cl\u00e9s devraient pouvoir \u00eatre exig\u00e9es sur requ\u00eate d'un magistrat (comme pour le coffre-fort aujourd'hui d\u00e9j\u00e0).", 
            "author": "christophethierry", 
            "created_at": "2015-10-10T18:22:59+0200", 
            "updated_at": "2015-10-10T18:22:59+0200", 
            "votes_count": "3", 
            "link": "http://www.republique-numerique.fr/projects/projet-de-loi-numerique/consultation/consultation/opinions/section-1-protection-des-donnees-a-caractere-personnel/la-reconnaissance-du-droit-au-chiffrement#arg-3007#arg-3007", 
            "article_id": 118, 
            "id": "3007"
        }, 
        {
            "body": "Mitig\u00e9:d'accord sur le fond, mais ce ne devrait pas \u00eatre un probl\u00e8me de remettre ses cl\u00e9s, si c'est encadr\u00e9 par un magistrat/juge. Il y a quand m\u00eame des criminels qui se servent du chiffrage et qu'il faut pouvoir confondre !!", 
            "author": "christophethierry", 
            "created_at": "2015-10-10T18:19:09+0200", 
            "updated_at": "2015-10-10T18:19:09+0200", 
            "votes_count": "4", 
            "link": "http://www.republique-numerique.fr/projects/projet-de-loi-numerique/consultation/consultation/opinions/section-1-protection-des-donnees-a-caractere-personnel/la-reconnaissance-du-droit-au-chiffrement#arg-3005#arg-3005", 
            "article_id": 118, 
            "id": "3005"
        }, 
        {
            "body": "Droit de r\u00e9clamer les cl\u00e9s de chiffrement dans le cas d'une enqu\u00eate, avec un mandat comme pour une perquisition, n\u00e9cessaire. La non communication des cl\u00e9s apr\u00e8 demande ci-dessus n'\u00e9quivaut pas \u00e0 la culpabilit\u00e9 mais est sanctionnable au m\u00eame titre qu'un refus de coop\u00e9ration sur une injonction judiciaire.", 
            "author": "chevalierthierry", 
            "created_at": "2015-10-06T22:48:46+0200", 
            "updated_at": "2015-10-06T22:48:46+0200", 
            "votes_count": "6", 
            "link": "http://www.republique-numerique.fr/projects/projet-de-loi-numerique/consultation/consultation/opinions/section-1-protection-des-donnees-a-caractere-personnel/la-reconnaissance-du-droit-au-chiffrement#arg-2443#arg-2443", 
            "article_id": 118, 
            "id": "2443"
        }, 
        {
            "body": "Droit au chiffrement et avec les techniques de son choix, oui", 
            "author": "chevalierthierry", 
            "created_at": "2015-10-06T22:45:57+0200", 
            "updated_at": "2015-10-06T22:45:57+0200", 
            "votes_count": "5", 
            "link": "http://www.republique-numerique.fr/projects/projet-de-loi-numerique/consultation/consultation/opinions/section-1-protection-des-donnees-a-caractere-personnel/la-reconnaissance-du-droit-au-chiffrement#arg-2442#arg-2442", 
            "article_id": 118, 
            "id": "2442"
        }, 
        {
            "body": "et la position des eurod\u00e9put\u00e9s va \u00e9galement dans ce sens : adoption d\u00e9but septembre par le parlement europ\u00e9en du droit au chiffrement syst\u00e9matis\u00e9 de bout en bout : http://www.numerama.com/magazine/34138-les-eurodeputes-demandent-le-chiffrement-systematise-de-bout-en-bout.htmlDonc la loi fran\u00e7aise doit \u00eatre conforme au droit europ\u00e9en.M\u00eame l\u2019ONU a publi\u00e9 un rapport dans ce senshttp://www.numerama.com/magazine/34287-un-rapport-de-l-onu-demande-a-nouveau-de-garantir-le-droit-au-chiffrement.html", 
            "author": "launay", 
            "created_at": "2015-10-05T10:54:35+0200", 
            "updated_at": "2015-10-05T11:30:27+0200", 
            "votes_count": "4", 
            "link": "http://www.republique-numerique.fr/projects/projet-de-loi-numerique/consultation/consultation/opinions/section-1-protection-des-donnees-a-caractere-personnel/la-reconnaissance-du-droit-au-chiffrement#arg-2256#arg-2256", 
            "article_id": 118, 
            "id": "2256"
        }, 
        {
            "body": "Cet article est-il utile ? Dans les faits, je peux chiffrer ce que je veux comme je veux.", 
            "author": "laurentmartin", 
            "created_at": "2015-09-30T15:34:07+0200", 
            "updated_at": "2015-09-30T15:34:07+0200", 
            "votes_count": "0", 
            "link": "http://www.republique-numerique.fr/projects/projet-de-loi-numerique/consultation/consultation/opinions/section-1-protection-des-donnees-a-caractere-personnel/la-reconnaissance-du-droit-au-chiffrement#arg-1570#arg-1570", 
            "article_id": 118, 
            "id": "1570"
        }, 
        {
            "body": "@Fr\u00e9d\u00e9ric Boutin : si le chiffrement est cassable, il ne sert \u00e0 rien. Un chiffrement doit garantir la protection des donn\u00e9es et ne doit pas \u00eatre cassable (du moins pas facilement) (GPG/PGP). Le fait est que s'il est question de s\u00e9curit\u00e9 nationale, au mieux une injonction doit \u00eatre prononc\u00e9e pour obliger le propri\u00e9taire des donn\u00e9es \u00e0 fournir les dites donn\u00e9es en claires aux autorit\u00e9s comp\u00e9tentes (donc arrestation etc.. mais \u00e7a implique la pr\u00e9somption de culpabilit\u00e9 et donc remet en cause la pr\u00e9somption d'innocence.).", 
            "author": "jcf", 
            "created_at": "2015-09-30T11:54:01+0200", 
            "updated_at": "2015-09-30T11:54:01+0200", 
            "votes_count": "8", 
            "link": "http://www.republique-numerique.fr/projects/projet-de-loi-numerique/consultation/consultation/opinions/section-1-protection-des-donnees-a-caractere-personnel/la-reconnaissance-du-droit-au-chiffrement#arg-1501#arg-1501", 
            "article_id": 118, 
            "id": "1501"
        }, 
        {
            "body": "@dattaz : de ce que je comprends, la loi en question ne permet pas l'utilisation de moyen de \"cryptologie\" pour s\u00e9curiser une connexion ou des documents, mais seulement pour authentifier et faire un contr\u00f4le d'int\u00e9grit\u00e9 des donn\u00e9es. Pour r\u00e9aliser cela, il suffit d'attacher aux donn\u00e9es un hash sign\u00e9 par une cl\u00e9 publique. En aucun cas il est n\u00e9cessaire de chiffrer les donn\u00e9es en questions. Donc techniquement, sauf autorisation du premier ministre, l'utilisation du protocole https est interdite...", 
            "author": "bernarddesmyter", 
            "created_at": "2015-09-29T21:51:27+0200", 
            "updated_at": "2015-09-29T21:51:27+0200", 
            "votes_count": "0", 
            "link": "http://www.republique-numerique.fr/projects/projet-de-loi-numerique/consultation/consultation/opinions/section-1-protection-des-donnees-a-caractere-personnel/la-reconnaissance-du-droit-au-chiffrement#arg-1386#arg-1386", 
            "article_id": 118, 
            "id": "1386"
        }, 
        {
            "body": "Il me semble que c'est d\u00e9j\u00e0 le cas, \u00e0 l'exception du refus de fournir ses cl\u00e9s priv\u00e9s, n\u00e9anmoins je vote pour.Aucun algorithme ne doit \u00eatre interdit, si il est fiable il se doit d'\u00eatre utilis\u00e9.Aucune limite de longueur de cl\u00e9 ne doit \u00eatre d\u00e9finis, car ces longueurs fournisse une s\u00e9curit\u00e9 pour des p\u00e9riodes d\u00e9finis dans le temps, d\u00fb \u00e0 l'am\u00e9lioration rapide des performances de nos machines, capable \u00e0 la fois d'\u00eatre rapide sur des cl\u00e9s plus longue, mais \u00e9galement de brute-forcer des cl\u00e9s plus courte en un temps exploitable, et si autrefois une cl\u00e9 de 1024bits suffisait, il faut aujourd'hui commencer \u00e0 viser au moins 4096bits.Le refus de fournir ces cl\u00e9s est n\u00e9anmoins utile, il faut savoir de que des protocoles existent et permettent de chiffrer deux contenu avec du bruit permettant d'emp\u00eacher l'identification de la pr\u00e9sence de ces deux contenus, par cons\u00e9quent il devient possible de fournir la cl\u00e9 du contenu qui ne cherche pas \u00e0 \u00eatre cach\u00e9, et je pense par cons\u00e9quent qu'il ne faut pas compter sur l'obligation de d\u00e9voiler sa cl\u00e9 de chiffrement.Sans compter qu'une cl\u00e9 peut-\u00eatre utilis\u00e9 \u00e0 plus d'un usage, et que fournir sa cl\u00e9 peut compromettre des services n'ayant rien \u00e0 voir avec celui d\u00e9finis par la requ\u00eate initiale.Je vais n\u00e9anmoins proposer une modification sur des \u00e9l\u00e9ments plus nouveau \u00e0 ce sujet.", 
            "author": "olivierserordroin", 
            "created_at": "2015-09-27T14:29:20+0200", 
            "updated_at": "2015-09-27T14:29:20+0200", 
            "votes_count": "7", 
            "link": "http://www.republique-numerique.fr/projects/projet-de-loi-numerique/consultation/consultation/opinions/section-1-protection-des-donnees-a-caractere-personnel/la-reconnaissance-du-droit-au-chiffrement#arg-539#arg-539", 
            "article_id": 118, 
            "id": "539"
        }, 
        {
            "body": "Domaine r\u00e9galien. Le chiffrement ne peut \u00eatre accept\u00e9 que s'il est cassable ou les clefs fournies \u00e0 l'\u00e9tat. Principe de s\u00e9curit\u00e9 nationale", 
            "author": "fredericboutin", 
            "created_at": "2015-09-27T01:19:32+0200", 
            "updated_at": "2015-09-27T01:19:32+0200", 
            "votes_count": "1", 
            "link": "http://www.republique-numerique.fr/projects/projet-de-loi-numerique/consultation/consultation/opinions/section-1-protection-des-donnees-a-caractere-personnel/la-reconnaissance-du-droit-au-chiffrement#arg-348#arg-348", 
            "article_id": 118, 
            "id": "348"
        }, 
        {
            "body": "C'est le b-a ba du respect de la vie priv\u00e9e et des \u00e9changes sensibles (m\u00e9dical, etc...)", 
            "author": "jeannevarasco", 
            "created_at": "2015-09-26T19:37:58+0200", 
            "updated_at": "2015-09-26T19:37:58+0200", 
            "votes_count": "9", 
            "link": "http://www.republique-numerique.fr/projects/projet-de-loi-numerique/consultation/consultation/opinions/section-1-protection-des-donnees-a-caractere-personnel/la-reconnaissance-du-droit-au-chiffrement#arg-228#arg-228", 
            "article_id": 118, 
            "id": "228"
        }, 
        {
            "body": "Existe d\u00e9j\u00e0 : article 30 de la loi n\u00b0 2004-575 du 21 juin 2004 pour la confiance dans l'\u00e9conomie num\u00e9rique", 
            "author": "dattaz", 
            "created_at": "2015-09-26T18:19:18+0200", 
            "updated_at": "2015-09-26T18:19:18+0200", 
            "votes_count": "6", 
            "link": "http://www.republique-numerique.fr/projects/projet-de-loi-numerique/consultation/consultation/opinions/section-1-protection-des-donnees-a-caractere-personnel/la-reconnaissance-du-droit-au-chiffrement#arg-183#arg-183", 
            "article_id": 118, 
            "id": "183"
        }
    ], 
    "answer": {
        "body": "Le Poisson Libre propose de reconna\u00eetre dans la loi un droit au chiffrement, sans restriction en mati\u00e8re d\u2019algorithme ou de taille de cl\u00e9 cryptographique utilis\u00e9. Il propose en outre de cr\u00e9er un droit \u00e0 refuser la transmission de ses cl\u00e9s de chiffrement aux autorit\u00e9s en cas de r\u00e9quisition. En application de l\u2019article 30 de la loi n\u00b0 2004-575 du 21 juin 2004 pour la confiance dans l'\u00e9conomie num\u00e9rique, l'utilisation des moyens de cryptologie est libre. Cette disposition permet donc d\u2019ores et d\u00e9j\u00e0 \u00e0 chaque citoyen de mettre en \u0153uvre des moyens de cryptographie pour prot\u00e9ger ses correspondances sur le territoire national. Par ailleurs, depuis cette m\u00eame loi, aucune restriction n\u2019existe plus en mati\u00e8re de tailles de cl\u00e9 ou d\u2019algorithmes utilis\u00e9s.En revanche, la cr\u00e9ation d\u2019un droit absolu de refuser la transmission de ses cl\u00e9s de chiffrement aux autorit\u00e9s en cas de r\u00e9quisition semble disproportionn\u00e9, car il permettrait notamment d\u2019entraver les enqu\u00eates judiciaires.\u00a0 L\u2019acc\u00e8s aux cl\u00e9s de chiffrement par les autorit\u00e9s est n\u00e9anmoins l\u00e9galement encadr\u00e9.", 
        "answer_refs": [
            "http://www.legifrance.gouv.fr/affichTexte.do?cidTexte=JORFTEXT000000801164"
        ], 
        "author": "gouvernement", 
        "article_id": 118, 
        "cited_users": [
            "lepoissonlibre"
        ]
    }, 
    "body": "De r\u00e9centes lois adopt\u00e9s \u00e0 l'\u00e9tranger remettent en cause le droit au chiffrement. C'est \u00e0 dire le doit d'utiliser de la cryptologie pour s\u00e9curiser ses communications ou ses fichiers. Certains pays r\u00e9fl\u00e9chissent \u00e0 interdire les algorithmes qui ne poss\u00e9deraient pas de porte d\u00e9rob\u00e9es.Chiffrer doit \u00eatre un droit pour prot\u00e9ger ses donn\u00e9es. Aucun algorithme ne doit \u00eatre interdit parce qu'il n'est pas d\u00e9chiffrable par les autori\u00e9t\u00e9s par c'est sur la vie priv\u00e9e que repose notre d\u00e9mocratie.", 
    "ranking": 58, 
    "sources_count": 0, 
    "votes_ok": 179, 
    "article_id": 118, 
    "versions": [
        {
            "comment": "La justice doit avoir acc\u00e8s aux cl\u00e9s de chiffrement, mais de mani\u00e8re encadr\u00e9e. Sans cela elle ne pourrait plus assumer ses fonctions, dans l'int\u00e9r\u00eat de tous.", 
            "after": null, 
            "title": null, 
            "arguments_no_count": 0, 
            "created_at": "2015-10-17T11:35:28+0200", 
            "author": "guillaudbacheterwan", 
            "updated_at": "2015-10-17T11:35:28+0200", 
            "id": 1281, 
            "votes_mitige": 0, 
            "arguments_yes_count": 0, 
            "link": "http://www.republique-numerique.fr/projects/projet-de-loi-numerique/consultation/consultation/opinions/section-1-protection-des-donnees-a-caractere-personnel/la-reconnaissance-du-droit-au-chiffrement/versions/retrait-du-quatrieme-point", 
            "arguments_count": 0, 
            "before": null, 
            "votes_total": 6, 
            "article_id": 118, 
            "slug": "retrait-du-quatrieme-point", 
            "votes_nok": 4
        }, 
        {
            "comment": "Ajout de l'autorisation pour des \u00e9diteurs de syst\u00e8mes automatis\u00e9s \u00e0 base de cl\u00e9 al\u00e9atoires, afin de garantir au mieux le secret des correspondances, comme certaines soci\u00e9t\u00e9s am\u00e9ricaines ont commenc\u00e9s \u00e0 appliquer dans l'int\u00e9r\u00eat de leurs utilisateurs et/ou clients.\nAjout de m\u00eame pr\u00e9cis\u00e9ment la pratique du chiffrement de bout-\u00e0-bout, comme chiffrement pouvant \u00eatre mis en place de diff\u00e9rente fa\u00e7on.\nEnfin ajout d'autorisation \u00e0 la cr\u00e9ation de nouveaux algorithmes, qui pourrait si leur efficacit\u00e9 est prouv\u00e9 peut-\u00eatre remplacer les algorithmes actuellement mondialement utilis\u00e9 comme les RSA/DSA/... (il s'agit de lib\u00e9r\u00e9 d'avantage ce domaine pour laisser une place plus importante \u00e0 l'arriv\u00e9 d'\u00e9ventuel protocole de chiffrement libre et efficace).", 
            "after": null, 
            "title": null, 
            "arguments_no_count": 1, 
            "created_at": "2015-09-27T14:50:28+0200", 
            "author": "olivierserordroin", 
            "updated_at": "2015-09-27T14:50:28+0200", 
            "id": 225, 
            "votes_mitige": 0, 
            "arguments_yes_count": 1, 
            "link": "http://www.republique-numerique.fr/projects/projet-de-loi-numerique/consultation/consultation/opinions/section-1-protection-des-donnees-a-caractere-personnel/la-reconnaissance-du-droit-au-chiffrement/versions/ajouts-de-3-lignes-supplementaires", 
            "arguments_count": 2, 
            "before": null, 
            "votes_total": 14, 
            "article_id": 118, 
            "slug": "ajouts-de-3-lignes-supplementaires", 
            "votes_nok": 0
        }, 
        {
            "comment": "De r\u00e9centes lois adopt\u00e9s \u00e0 l'\u00e9tranger remettent en cause le droit au chiffrement. C'est \u00e0 dire le doit d'utiliser de la cryptologie pour s\u00e9curiser ses communications ou ses fichiers. Certains pays r\u00e9fl\u00e9chissent \u00e0 interdire les algorithmes qui ne poss\u00e9deraient pas de porte d\u00e9rob\u00e9es.\nChiffrer doit \u00eatre un droit pour prot\u00e9ger ses donn\u00e9es. Aucun algorithme ne doit \u00eatre interdit parce qu'il n'est pas d\u00e9chiffrable par les autori\u00e9t\u00e9s par c'est sur la vie priv\u00e9e que repose notre d\u00e9mocratie.", 
            "after": null, 
            "title": null, 
            "arguments_no_count": 0, 
            "created_at": "2015-09-26T19:25:09+0200", 
            "author": "timothelucius", 
            "updated_at": "2015-09-26T19:25:09+0200", 
            "id": 157, 
            "votes_mitige": 0, 
            "arguments_yes_count": 0, 
            "link": "http://www.republique-numerique.fr/projects/projet-de-loi-numerique/consultation/consultation/opinions/section-1-protection-des-donnees-a-caractere-personnel/la-reconnaissance-du-droit-au-chiffrement/versions/le-droit-au-chiffrement", 
            "arguments_count": 0, 
            "before": null, 
            "votes_total": 11, 
            "article_id": 118, 
            "slug": "le-droit-au-chiffrement", 
            "votes_nok": 0
        }
    ], 
    "created_at": "2015-09-26T16:28:04+0200", 
    "title": "Section 1", 
    "votes_mitige": 9, 
    "body_links": [], 
    "votes_nok": 4
}