{
    "subtitle": "Ouverture des donn\u00e9es publiques", 
    "cat_id": 86, 
    "updated_at": "2015-12-02T16:47:35+0100", 
    "body_anchors": [], 
    "sources": [], 
    "arguments_count": 11, 
    "versions_count": 5, 
    "votes_total": 190, 
    "author": "ohnito", 
    "article_link": "http://www.republique-numerique.fr/projects/projet-de-loi-numerique/consultation/consultation/opinions/section-1-ouverture-des-donnees-publiques-1/transparence-securite", 
    "arguments": [
        {
            "body": "Je ne vois pas le rapport avec l'objectif de cette section : \u00ab Ouverture des donn\u00e9es publiques \u00bb.", 
            "author": "danielazuelos", 
            "created_at": "2015-10-18T10:30:29+0200", 
            "updated_at": "2015-10-18T10:30:29+0200", 
            "votes_count": "0", 
            "link": "http://www.republique-numerique.fr/projects/projet-de-loi-numerique/consultation/consultation/opinions/section-1-ouverture-des-donnees-publiques-1/transparence-securite#arg-5705#arg-5705", 
            "article_id": 111, 
            "id": "5705"
        }, 
        {
            "body": "\u00ab La gratuit\u00e9 des frais de mise en service pour un b\u00e9n\u00e9ficiaire du Rsa. \u00bb. Non, ce n'est pas \u00e0 l'op\u00e9rateur de supporter ce cout, c'est plut\u00f4t au fond de solidarit\u00e9 de prendre en charge ces frais \u00e0 la demande du b\u00e9n\u00e9ficiaire (voir article \u00ab Maintien de la connexion \u00bb)", 
            "author": "bernardmartinez", 
            "created_at": "2015-10-10T21:07:46+0200", 
            "updated_at": "2015-10-10T21:07:46+0200", 
            "votes_count": "1", 
            "link": "http://www.republique-numerique.fr/projects/projet-de-loi-numerique/consultation/consultation/opinions/section-1-ouverture-des-donnees-publiques-1/transparence-securite#arg-3052#arg-3052", 
            "article_id": 111, 
            "id": "3052"
        }, 
        {
            "body": "Cet article n'a pas sa place dans cette loi, car la plupart des \u00e9l\u00e9ments sont communs \u00e0 d'autres modes de communication ou d'information. Il faut revoir ces points dans cette optique plus g\u00e9n\u00e9rale.", 
            "author": "deuxchlafont", 
            "created_at": "2015-10-06T19:55:27+0200", 
            "updated_at": "2015-10-06T19:55:27+0200", 
            "votes_count": "0", 
            "link": "http://www.republique-numerique.fr/projects/projet-de-loi-numerique/consultation/consultation/opinions/section-1-ouverture-des-donnees-publiques-1/transparence-securite#arg-2415#arg-2415", 
            "article_id": 111, 
            "id": "2415"
        }, 
        {
            "body": "Mitiger, car contre 2 points :\"Interdiction des op\u00e9rateurs de connecter le client automatiquement \u00e0 son compte client (ex : orange.fr...) sans une connexion s\u00e9curis\u00e9e par identifiant et mot de passe au pr\u00e9alable et donner la possibilit\u00e9 au client de se d\u00e9connecter automatiquement pour que le client soit prot\u00e9g\u00e9 des 1/3 qui pourraient souscrire \u00e0 des services ou options \u00e0 l'insu du client.\"Je sugg\u00e8re plut\u00f4t que soit redemander \u00e0 nouveau le mot de passe avant toute souscription \u00e0 des services ou options, un peu comme quand un site bancaire redemande un code d'acc\u00e8s avant d'effectuer un virement.\"Pourquoi pas, la cr\u00e9ation d'une plateforme internet supervis\u00e9e par l'\u00e9tat sur laquelle tous les op\u00e9rateurs priv\u00e9s devront s'inscrire et proposer tous les services et options que l'usager/client ...\"Je ne suis pas favorable \u00e0 une telle centralisation.", 
            "author": "olivierserordroin", 
            "created_at": "2015-10-04T17:55:16+0200", 
            "updated_at": "2015-10-04T17:55:16+0200", 
            "votes_count": "0", 
            "link": "http://www.republique-numerique.fr/projects/projet-de-loi-numerique/consultation/consultation/opinions/section-1-ouverture-des-donnees-publiques-1/transparence-securite#arg-2188#arg-2188", 
            "article_id": 111, 
            "id": "2188"
        }, 
        {
            "body": "Peut \u00eatre mais pas dans le cadre de cette loi num\u00e9rique.", 
            "author": "laurentmartin", 
            "created_at": "2015-09-30T15:52:29+0200", 
            "updated_at": "2015-09-30T15:52:29+0200", 
            "votes_count": "1", 
            "link": "http://www.republique-numerique.fr/projects/projet-de-loi-numerique/consultation/consultation/opinions/section-1-ouverture-des-donnees-publiques-1/transparence-securite#arg-1585#arg-1585", 
            "article_id": 111, 
            "id": "1585"
        }, 
        {
            "body": "Je pense qu'il faudrait aller plus loing, de fa\u00e7on a ce qu'un individu ne soit pas oblig\u00e9 d\u2019accepter une charte, une r\u00e8gle de l\u2019op\u00e9rateur, du vendeur ou d'un fournisseur de service avec laquelle on ne serait pas d'accord si on ne l'avait su auparavant. Combien de gens lisent ces r\u00e8glements de site web/commerce? A mon avis moins de 1%. Est-ce normal ? O\u00f9 doit-on de par la loi oblig\u00e9e \u00e0 un minimum ? A titre d'exmple si vous installer Windows 10ou Mac OS, ou android, dans touts les cas l'op\u00e9rateur, l'editeur essay de vous forcer \u00e0 lui donner au moins votre email. Si vous ne le faite pas certaine op\u00e9rations vous seront interdite. Par exemple sous mac impossible de faire des mises \u00e0 jour.sous les autre impossible d'installer les application de leur store, alors que lors tu processus de vente rien ne vous pr\u00e9pare \u00e0 cella !!!", 
            "author": "lacombe", 
            "created_at": "2015-09-29T15:40:03+0200", 
            "updated_at": "2015-09-29T15:40:03+0200", 
            "votes_count": "2", 
            "link": "http://www.republique-numerique.fr/projects/projet-de-loi-numerique/consultation/consultation/opinions/section-1-ouverture-des-donnees-publiques-1/transparence-securite#arg-1265#arg-1265", 
            "article_id": 111, 
            "id": "1265"
        }, 
        {
            "body": "Je suis d'accord, sauf pour la plateforme centralis\u00e9e. De plus, \u00e7a n'a pas de rapport avec l'ouverture des donn\u00e9es publiques.", 
            "author": "emmanuelhadoux", 
            "created_at": "2015-09-27T13:31:56+0200", 
            "updated_at": "2015-09-27T13:31:56+0200", 
            "votes_count": "3", 
            "link": "http://www.republique-numerique.fr/projects/projet-de-loi-numerique/consultation/consultation/opinions/section-1-ouverture-des-donnees-publiques-1/transparence-securite#arg-515#arg-515", 
            "article_id": 111, 
            "id": "515"
        }, 
        {
            "body": "\"Pourquoi pas, la cr\u00e9ation d'une plateforme internet supervis\u00e9e par l'\u00e9tat\". Non, non, non. D\u00e9j\u00e0 \"Etat\" doit \u00eatre capitalis\u00e9. Sinon, c'est je suis dans tous mes \u00e9tats. Deuxio, la supervision de ce genre de choses n'incombe absolument pas \u00e0 l'Etat, mais \u00e0 un organisme ind\u00e9pendant, par exemple un intitut de consommateur ou une association, SUBVENTIONNE par l'Etat. Nuance. Marre de l'Etat qui supervise tout. Surtout quand on connait l'efficacit\u00e9 de la fonction publique en France vs. les pays nordiques. Ouch! Je sais \u00e7a fait mal...", 
            "author": "jeanfleurquin", 
            "created_at": "2015-09-27T09:14:32+0200", 
            "updated_at": "2015-09-27T09:14:32+0200", 
            "votes_count": "2", 
            "link": "http://www.republique-numerique.fr/projects/projet-de-loi-numerique/consultation/consultation/opinions/section-1-ouverture-des-donnees-publiques-1/transparence-securite#arg-406#arg-406", 
            "article_id": 111, 
            "id": "406"
        }, 
        {
            "body": "En centralisant tout, on sort de la libert\u00e9 d'action. Pourquoi serais-je par ce biais forc\u00e9 de prendre un op\u00e9rateur fran\u00e7ais quand je peux prendre un op\u00e9rateur \u00e9tranger (si je suis frontalier) Et quid du compte \u00e0 vie si je pars travailler en administration fran\u00e7aise \u00e0 l'\u00e9tranger?", 
            "author": "fredericboutin", 
            "created_at": "2015-09-27T00:32:40+0200", 
            "updated_at": "2015-09-27T00:32:40+0200", 
            "votes_count": "0", 
            "link": "http://www.republique-numerique.fr/projects/projet-de-loi-numerique/consultation/consultation/opinions/section-1-ouverture-des-donnees-publiques-1/transparence-securite#arg-329#arg-329", 
            "article_id": 111, 
            "id": "329"
        }, 
        {
            "body": "Je suis d\u00e9sol\u00e9, j'ai mis mes id\u00e9es en vrac peut-\u00eatre au mauvais endroit.", 
            "author": "ohnito", 
            "created_at": "2015-09-26T19:54:09+0200", 
            "updated_at": "2015-09-26T19:54:09+0200", 
            "votes_count": "2", 
            "link": "http://www.republique-numerique.fr/projects/projet-de-loi-numerique/consultation/consultation/opinions/section-1-ouverture-des-donnees-publiques-1/transparence-securite#arg-233#arg-233", 
            "article_id": 111, 
            "id": "233"
        }, 
        {
            "body": "Je suis d'accord dans l'ensemble sauf pour la plateforme supervis\u00e9e par l'\u00e9tat \u00e0 cocher.", 
            "author": "jeannevarasco", 
            "created_at": "2015-09-26T17:44:24+0200", 
            "updated_at": "2015-09-26T17:44:24+0200", 
            "votes_count": "6", 
            "link": "http://www.republique-numerique.fr/projects/projet-de-loi-numerique/consultation/consultation/opinions/section-1-ouverture-des-donnees-publiques-1/transparence-securite#arg-169#arg-169", 
            "article_id": 111, 
            "id": "169"
        }
    ], 
    "answer": {
        "body": "La contribution d\u2019Ohnito comprend de multiples propositions dont les champs d\u2019application sont tr\u00e8s divers (op\u00e9rateurs de communication \u00e9lectronique, fournisseurs de service de messagerie) et qui porte \u00e0 la fois sur des questions de protection des donn\u00e9es, de r\u00e9gulation, de concurrence.Cette proposition requiert donc une analyse plus pouss\u00e9e et ne peut donc \u00eatre int\u00e9gr\u00e9e en l\u2019\u00e9tat.", 
        "answer_refs": [], 
        "author": "gouvernement", 
        "article_id": 111, 
        "cited_users": [
            "ohnito"
        ]
    }, 
    "body": "Une transparence totale des op\u00e9rateurs sur les services et options propos\u00e9s et souscrisQu'aucun service ou option ne soient souscris automatiquement par simple consultation d'un site tiers (exemple\u00a0: annuaire invers\u00e9...)Que les services et options soient valid\u00e9s par une d\u00e9marche claire et s\u00e9curis\u00e9e adopt\u00e9e de la m\u00eame mani\u00e8re par tous les op\u00e9rateursInterdiction des op\u00e9rateurs de connecter le client automatiquement \u00e0 son compte client (ex\u00a0: orange.fr...) sans une connexion s\u00e9curis\u00e9e par identifiant et mot de passe au pr\u00e9alable et donner la possibilit\u00e9 au client de se d\u00e9connecter automatiquement pour que le client soit prot\u00e9g\u00e9 des 1/3 qui pourraient souscrire \u00e0 des services ou options \u00e0 l'insu du client.Interdiction de l'op\u00e9rateur d'attribuer une adresse mail automatiquement si elle n'est pas souhait\u00e9e par le client qui peut d\u00e9j\u00e0 disposer d'une adresse mail.Obligation de l'op\u00e9rateur de permettre \u00e0 un ancien client de conserver son adresse mail.Que le tarif social d'internet soit g\u00e9r\u00e9 par tous les op\u00e9rateurs existants (et pas seulement par orange.fr) ou que \u00e7a fonctionne comme le tarif de premi\u00e8re n\u00e9cessit\u00e9 du gaz.La gratuit\u00e9 des frais de mise en service pour un b\u00e9n\u00e9ficiaire du Rsa.Gratuit\u00e9 d'un appel \u00e0 son op\u00e9rateur internet aussi depuis les mobiles (ex. 09)Pourquoi pas, la cr\u00e9ation d'une plateforme internet supervis\u00e9e par l'\u00e9tat sur laquelle tous les op\u00e9rateurs priv\u00e9s devront s'inscrire et proposer tous les services et options que l'usager/client (\u00e0 travers un compte unique \u00ab\u00a0\u00e0 vie\u00a0\u00bb) pourrait souscrire en cochant des cases (avec validation s\u00e9curis\u00e9e et certificat de confirmation), et obliger les op\u00e9rateurs \u00e0 une transparence totale des tarifs et faciliter aussi la possibilit\u00e9 des clients \u00e0 changer d'op\u00e9rateur tout en conservant son compte unique.Que l'\u00e9tat demande aux op\u00e9rateurs de r\u00e9agir rapidement \u00e0 un probl\u00e8me signal\u00e9 par un grand nombre de clients (cr\u00e9ation d'un num\u00e9ro vert?)", 
    "ranking": 72, 
    "sources_count": 0, 
    "votes_ok": 144, 
    "article_id": 111, 
    "versions": [
        {
            "comment": null, 
            "after": null, 
            "title": null, 
            "arguments_no_count": 0, 
            "created_at": "2015-10-15T16:20:34+0200", 
            "author": "aseibel", 
            "updated_at": "2015-10-15T16:20:34+0200", 
            "id": 1071, 
            "votes_mitige": 1, 
            "arguments_yes_count": 0, 
            "link": "http://www.republique-numerique.fr/projects/projet-de-loi-numerique/consultation/consultation/opinions/section-1-ouverture-des-donnees-publiques-1/transparence-securite/versions/oui-a-l-universalite-du-compte-mail-mais-ce-n-est-pas-aux-operateurs-prives-de-garantir-la-gratuite-des-frais-de-mise-en-service-pour-un-beneficiare-du-rsa", 
            "arguments_count": 0, 
            "before": null, 
            "votes_total": 2, 
            "article_id": 111, 
            "slug": "oui-a-l-universalite-du-compte-mail-mais-ce-n-est-pas-aux-operateurs-prives-de-garantir-la-gratuite-des-frais-de-mise-en-service-pour-un-beneficiare-du-rsa", 
            "votes_nok": 0
        }, 
        {
            "comment": "Qu'apparaisse sous forme de condition d'acceptation de type : \"\u00eates vous d'accord sur le tarif de 1 euro / mn\" pour utilisation d'un site payant (exemple annuaire invers\u00e9)\nFaire appara\u00eetre cette modification car la plupart du temps les gens vont sur des sites payants sans le savoir, ce qui engendre des contentieux.", 
            "after": null, 
            "title": null, 
            "arguments_no_count": 0, 
            "created_at": "2015-10-14T18:22:42+0200", 
            "author": "latrillejeanmarie", 
            "updated_at": "2015-10-14T18:22:42+0200", 
            "id": 984, 
            "votes_mitige": 0, 
            "arguments_yes_count": 0, 
            "link": "http://www.republique-numerique.fr/projects/projet-de-loi-numerique/consultation/consultation/opinions/section-1-ouverture-des-donnees-publiques-1/transparence-securite/versions/transparence-securite", 
            "arguments_count": 0, 
            "before": null, 
            "votes_total": 2, 
            "article_id": 111, 
            "slug": "transparence-securite", 
            "votes_nok": 0
        }, 
        {
            "comment": "Pourquoi toujours les personnes b\u00e9n\u00e9ficiaire du RSA? Les \u00e9tudiants aussi ont besoin d'aide puisqu'ils n'ont que la bourse.", 
            "after": null, 
            "title": null, 
            "arguments_no_count": 0, 
            "created_at": "2015-10-11T20:32:52+0200", 
            "author": "guillaumegosselin", 
            "updated_at": "2015-10-11T20:32:52+0200", 
            "id": 798, 
            "votes_mitige": 2, 
            "arguments_yes_count": 0, 
            "link": "http://www.republique-numerique.fr/projects/projet-de-loi-numerique/consultation/consultation/opinions/section-1-ouverture-des-donnees-publiques-1/transparence-securite/versions/la-gratuite-des-frais-de-mise-en-service-pour-un-beneficiaire-du-rsa", 
            "arguments_count": 0, 
            "before": null, 
            "votes_total": 2, 
            "article_id": 111, 
            "slug": "la-gratuite-des-frais-de-mise-en-service-pour-un-beneficiaire-du-rsa", 
            "votes_nok": 0
        }, 
        {
            "comment": "Certains op\u00e9rateurs proposent d\u00e9j\u00e0 cette gratuit\u00e9 mais ils font payer les r\u00e9siliations. Cette ligne est donc inutile ou \u00e0 modifier.\nLes num\u00e9ros verts sont-ils utiles ? Je n'ai pas la r\u00e9ponse mais cette id\u00e9e me semble incongrue.", 
            "after": null, 
            "title": null, 
            "arguments_no_count": 0, 
            "created_at": "2015-09-29T16:24:23+0200", 
            "author": "francoisbriat", 
            "updated_at": "2015-09-29T16:24:23+0200", 
            "id": 411, 
            "votes_mitige": 0, 
            "arguments_yes_count": 0, 
            "link": "http://www.republique-numerique.fr/projects/projet-de-loi-numerique/consultation/consultation/opinions/section-1-ouverture-des-donnees-publiques-1/transparence-securite/versions/inutile", 
            "arguments_count": 0, 
            "before": null, 
            "votes_total": 2, 
            "article_id": 111, 
            "slug": "inutile", 
            "votes_nok": 0
        }, 
        {
            "comment": "Nos bo\u00eetes \u00e0 lettres sont envahies par de pourriels, m\u00eame avec toute l'attention port\u00e9e \u00e0 bien cocher que nous ne souhaitons pas des sollicitations par les partenaires de sites consult\u00e9s.", 
            "after": null, 
            "title": null, 
            "arguments_no_count": 0, 
            "created_at": "2015-09-27T18:12:29+0200", 
            "author": "henrigedeon", 
            "updated_at": "2015-09-27T18:12:29+0200", 
            "id": 240, 
            "votes_mitige": 1, 
            "arguments_yes_count": 1, 
            "link": "http://www.republique-numerique.fr/projects/projet-de-loi-numerique/consultation/consultation/opinions/section-1-ouverture-des-donnees-publiques-1/transparence-securite/versions/pourriels-a-contrer", 
            "arguments_count": 1, 
            "before": null, 
            "votes_total": 3, 
            "article_id": 111, 
            "slug": "pourriels-a-contrer", 
            "votes_nok": 0
        }
    ], 
    "created_at": "2015-09-26T15:12:21+0200", 
    "title": "Section 1", 
    "votes_mitige": 32, 
    "body_links": [], 
    "votes_nok": 14
}