{
    "subtitle": "Les Communs", 
    "cat_id": 90, 
    "updated_at": "2015-10-15T16:29:07+0200", 
    "body_anchors": [], 
    "sources": [], 
    "arguments_count": 3, 
    "versions_count": 0, 
    "votes_total": 10, 
    "author": "burgaudpierreyves", 
    "article_link": "http://www.republique-numerique.fr/projects/projet-de-loi-numerique/consultation/consultation/opinions/section-1-les-communs/redevance-audiovisuelle-elargie-permettant-un-libre-acces-total-a-tous-types-de-media", 
    "arguments": [
        {
            "body": "Oui pour la licence globale, mais les modalit\u00e9s sont ici compliqu\u00e9es. Par exemple v\u00e9rifier qui est \u00e0 jour de redevance audiovisuelle : plut\u00f4t un financement plus large et un droit d'acc\u00e8s automatique.Je ne sais pas non plus pourquoi l'\u00c9tat devrait acheter des licences / droits d'auteur : une modification du mode de collecte (qui existe d\u00e9j\u00e0 pour les radios et autres par exemple) et de redistribution de l'argent (\u00e9ventuellement via la SACEM) serait pr\u00e9f\u00e9rable.Les modalit\u00e9s devraient \u00eatre pr\u00e9cis\u00e9es, par exemple le seuil \u00e0 partir duquel des droits sont per\u00e7us, les \u00e9ventuelles redistributions entre artistes / fonds de soutien (la SACEM fait sans doute d\u00e9j\u00e0 ce genre de choses), la possibilit\u00e9 \u00e9ventuelle pour chacun de redistribuer tout ou partie de son \"versement\" aux artistes de son choix, ...", 
            "author": "syll", 
            "created_at": "2015-10-18T00:34:23+0200", 
            "updated_at": "2015-10-18T00:34:23+0200", 
            "votes_count": "2", 
            "link": "http://www.republique-numerique.fr/projects/projet-de-loi-numerique/consultation/consultation/opinions/section-1-les-communs/redevance-audiovisuelle-elargie-permettant-un-libre-acces-total-a-tous-types-de-media#arg-5638#arg-5638", 
            "article_id": 644, 
            "id": "5638"
        }, 
        {
            "body": "???????Je ne sais pas si vous vous rendez compte de ce qui est d\u00e9j\u00e0 pomper sur tout les support de stockage juste sur un HDD c'est quasiment 40% du prix.Alors augmenter le prix sur tout en g\u00e9n\u00e9rale, non je dit non de toutes fa\u00e7on la sacem et compagnie ils ne partagerons jamais dans ce syst\u00e8me ils considerent que une copie non payer c'est une copie qui nira pas dans leur fouille point a la ligne il ne changeront jamais de sens , tout ce qu'il veule c'est de l'argent.http://www.nextinpact.com/news/90543-copie-privee-timides-revendications-jean-noel-tronc-sacem.htm", 
            "author": "bernardloic", 
            "created_at": "2015-10-15T22:11:31+0200", 
            "updated_at": "2015-10-15T22:11:31+0200", 
            "votes_count": "2", 
            "link": "http://www.republique-numerique.fr/projects/projet-de-loi-numerique/consultation/consultation/opinions/section-1-les-communs/redevance-audiovisuelle-elargie-permettant-un-libre-acces-total-a-tous-types-de-media#arg-4435#arg-4435", 
            "article_id": 644, 
            "id": "4435"
        }, 
        {
            "body": "Utopie ...", 
            "author": "guiochettom", 
            "created_at": "2015-10-15T16:55:39+0200", 
            "updated_at": "2015-10-15T16:55:39+0200", 
            "votes_count": "0", 
            "link": "http://www.republique-numerique.fr/projects/projet-de-loi-numerique/consultation/consultation/opinions/section-1-les-communs/redevance-audiovisuelle-elargie-permettant-un-libre-acces-total-a-tous-types-de-media#arg-4298#arg-4298", 
            "article_id": 644, 
            "id": "4298"
        }
    ], 
    "answer": {}, 
    "body": "Augmentation de la redevance audio-visuelle annuelle, en contre-partie du\u00a0libre acc\u00e8s \u00e0 toutes les oeuvres (domaine publique ou priv\u00e9e, nationales ou internationales) audio, video en streaming ou en t\u00e9l\u00e9chargement.", 
    "ranking": 633, 
    "sources_count": 0, 
    "votes_ok": 0, 
    "article_id": 644, 
    "versions": [], 
    "created_at": "2015-10-15T16:29:07+0200", 
    "title": "Section 1", 
    "votes_mitige": 5, 
    "body_links": [], 
    "votes_nok": 5
}