{
    "subtitle": "Comp\u00e9tences et organisation", 
    "cat_id": 103, 
    "updated_at": "2015-10-06T14:06:11+0200", 
    "body_anchors": [], 
    "sources": [], 
    "arguments_count": 2, 
    "versions_count": 0, 
    "votes_total": 7, 
    "author": "doulmetaurelie", 
    "article_link": "http://www.republique-numerique.fr/projects/projet-de-loi-numerique/consultation/consultation/opinions/section-1-competences-et-organisation/formation-aux-enjeux-du-numerique-du-futur-citoyen", 
    "arguments": [
        {
            "body": "Face aux multiples enjeux de monde contemporain, en quoi l'enjeu num\u00e9rique est-il plus important que les autres ?", 
            "author": "taneleo", 
            "created_at": "2015-10-17T18:04:35+0200", 
            "updated_at": "2015-10-17T18:04:35+0200", 
            "votes_count": "0", 
            "link": "http://www.republique-numerique.fr/projects/projet-de-loi-numerique/consultation/consultation/opinions/section-1-competences-et-organisation/formation-aux-enjeux-du-numerique-du-futur-citoyen#arg-5438#arg-5438", 
            "article_id": 443, 
            "id": "5438"
        }, 
        {
            "body": "C'est gentil, mais un peu trop. C'est la comp\u00e9tence num\u00e9rique de la nation qui est en p\u00e9ril.Cf. ma proposition.", 
            "author": "danielazuelos", 
            "created_at": "2015-10-17T15:36:22+0200", 
            "updated_at": "2015-10-17T15:38:19+0200", 
            "votes_count": "0", 
            "link": "http://www.republique-numerique.fr/projects/projet-de-loi-numerique/consultation/consultation/opinions/section-1-competences-et-organisation/formation-aux-enjeux-du-numerique-du-futur-citoyen#arg-5303#arg-5303", 
            "article_id": 443, 
            "id": "5303"
        }
    ], 
    "answer": {}, 
    "body": "En terminale et \u00e0 l\u2019universit\u00e9\u00a0:Histoire de l\u2019internet pour comprendre les enjeux du num\u00e9rique aujourd\u2019huiPanorama des acteurs en pr\u00e9senceImpacts du num\u00e9rique sur les usagesLe num\u00e9rique et l\u2019\u00e9conomieEnjeux politiques du num\u00e9rique", 
    "ranking": 542, 
    "sources_count": 0, 
    "votes_ok": 2, 
    "article_id": 443, 
    "versions": [], 
    "created_at": "2015-10-06T14:06:11+0200", 
    "title": "Section 1", 
    "votes_mitige": 2, 
    "body_links": [], 
    "votes_nok": 3
}