{
    "subtitle": "Loyaut\u00e9 des plateformes", 
    "cat_id": 96, 
    "updated_at": "2015-09-30T02:48:16+0200", 
    "body_anchors": [], 
    "sources": [
        {
            "body": "Existe-t-il une GARANTIE LIMIT\u00c9E pour le logiciel ? Oui. Microsoft garantit qu\u2019un logicielsous licence appropri\u00e9e fonctionnera, pour l\u2019essentiel, tel que d\u00e9crit dans la documentation deMicrosoft qui accompagne le logiciel. Cette garantie limit\u00e9e ne couvre pas les probl\u00e8mes quevous provoquez, qui surviennent si vous ne respectez pas nos instructions ou qui sont le r\u00e9sultatde tout autre \u00e9v\u00e9nement \u00e9chappant au contr\u00f4le raisonnable de Microsoft. La garantie limit\u00e9ed\u00e9bute lorsque le premier utilisateur de votre copie du logiciel ach\u00e8te cette copie et a une unedur\u00e9e d\u2019un an. Les suppl\u00e9ments, mises \u00e0 jour ou logiciel de remplacement que vous \u00eatessusceptibles de recevoir de Microsoft au cours de cette ann\u00e9e sont \u00e9galement couverts, maisuniquement pendant la dur\u00e9e de la garantie restant \u00e0 courir de cette p\u00e9riode d\u2019une ann\u00e9e oupendant trente (30) jours, la p\u00e9riode la plus longue \u00e9tant applicable. Le transfert du logiciel neprolongera pas la dur\u00e9e de la garantie limit\u00e9e. Microsoft n\u2019accorde aucune autre garantieexpresse. Microsoft exclut toutes les garanties implicites, y compris de qualit\u00e9,d\u2019ad\u00e9quation \u00e0 un usage particulier et d\u2019absence de violation. Si la l\u00e9gislation de votrepays n\u2019autorise pas l\u2019exclusion de garanties implicites, toutes les garanties implicites nedurent que jusqu\u2019au terme de la pr\u00e9sente garantie limit\u00e9e et sont limit\u00e9es dans la mesureautoris\u00e9e par la l\u00e9gislation locale. Si votre l\u00e9gislation locale exige une dur\u00e9e de garantielimit\u00e9e plus longue, en d\u00e9pit du pr\u00e9sent contrat, cette dur\u00e9e plus longue sera applicable,mais vous n\u2019aurez pour seuls recours que ceux d\u00e9crits dans le pr\u00e9sent contrat. Un article\u00e0 la fin du pr\u00e9sent accord explique comment introduire une r\u00e9clamation dans le cadre de lapr\u00e9sente garantie limit\u00e9e.", 
            "category": "Manuel / Guide", 
            "title": "Conditions d'utilisation de Windows 8.1 -- Garantie", 
            "source_link": "http://download.microsoft.com/download/7/2/1/72103B1C-DE58-478C-BECF-4D846C2B4A15/UseTerms_Retail_Windows_8.1_update_(to_Windows_8_which_was_acquired_from_retail_or_Microsoft)_French.pdf", 
            "created_at": "2015-10-12T14:50:14+0200", 
            "author": "david", 
            "updated_at": "2015-10-12T14:50:14+0200", 
            "link": "http://download.microsoft.com/download/7/2/1/72103B1C-DE58-478C-BECF-4D846C2B4A15/UseTerms_Retail_Windows_8.1_update_(to_Windows_8_which_was_acquired_from_retail_or_Microsoft)_French.pdf#source-291", 
            "votes_count": "0", 
            "article_id": 333, 
            "id": "291"
        }
    ], 
    "arguments_count": 6, 
    "versions_count": 1, 
    "votes_total": 61, 
    "author": "matthieuarnold", 
    "article_link": "http://www.republique-numerique.fr/projects/projet-de-loi-numerique/consultation/consultation/opinions/section-3-loyaute-des-plateformes/deverrouillage-des-acces-logiciels-sur-le-materiel-numerique", 
    "arguments": [
        {
            "body": "@Tan\u00e9l\u00e9o: encore faudrait-il que ce choix soit possible pour une majorit\u00e9 de citoyens: au moins dans le milieu de gamme - si possible dans le bas de gamme aussi, et pr\u00e9sent chez au moins un op\u00e9rateur mobile.D\u00e8s que ce choix sera effectivement possible, je serais enchant\u00e9 que tu m'en avertisse.", 
            "author": "gami", 
            "created_at": "2015-10-18T15:29:00+0200", 
            "updated_at": "2015-10-18T15:29:00+0200", 
            "votes_count": "0", 
            "link": "http://www.republique-numerique.fr/projects/projet-de-loi-numerique/consultation/consultation/opinions/section-3-loyaute-des-plateformes/deverrouillage-des-acces-logiciels-sur-le-materiel-numerique#arg-5862#arg-5862", 
            "article_id": 333, 
            "id": "5862"
        }, 
        {
            "body": "Si le bien propos\u00e9 \u00e0 la vente ne vous plait pas, choisissez-en un autre.", 
            "author": "taneleo", 
            "created_at": "2015-10-17T16:54:13+0200", 
            "updated_at": "2015-10-17T16:54:13+0200", 
            "votes_count": "0", 
            "link": "http://www.republique-numerique.fr/projects/projet-de-loi-numerique/consultation/consultation/opinions/section-3-loyaute-des-plateformes/deverrouillage-des-acces-logiciels-sur-le-materiel-numerique#arg-5382#arg-5382", 
            "article_id": 333, 
            "id": "5382"
        }, 
        {
            "body": "@jeannevarasco : le constructeur assure la garantie mat\u00e9rielle. Logiciel si tu garde le logiciel que lui livre. Si tu fait installer un logiciel par un tiers, c'est le tiers qui en assure la garantie. Il existe de tr\u00e8s bon tiers, ou tu peux aussi le faire toi m\u00eame.", 
            "author": "denischenu", 
            "created_at": "2015-10-12T15:49:51+0200", 
            "updated_at": "2015-10-12T15:49:51+0200", 
            "votes_count": "0", 
            "link": "http://www.republique-numerique.fr/projects/projet-de-loi-numerique/consultation/consultation/opinions/section-3-loyaute-des-plateformes/deverrouillage-des-acces-logiciels-sur-le-materiel-numerique#arg-3314#arg-3314", 
            "article_id": 333, 
            "id": "3314"
        }, 
        {
            "body": "Selon Microsoft, \u00e0 propos de la garantie limit\u00e9e de son logiciel Windows 8.1, la garantie s'applique si le logiciel dysfonctionne dans son \"essentiel\".Cela pose une fois de plus le probl\u00e8me de s\u00e9paration entre mat\u00e9riel et logiciel. Ce sont deux aspects d'utilisation distincts qui sont inter-excluant. La garantie mat\u00e9rielle est assum\u00e9e par le fabricant dus-dit mat\u00e9riel, le logiciel par l'\u00e9diteur.", 
            "author": "david", 
            "created_at": "2015-10-12T14:55:15+0200", 
            "updated_at": "2015-10-12T14:55:15+0200", 
            "votes_count": "0", 
            "link": "http://www.republique-numerique.fr/projects/projet-de-loi-numerique/consultation/consultation/opinions/section-3-loyaute-des-plateformes/deverrouillage-des-acces-logiciels-sur-le-materiel-numerique#arg-3301#arg-3301", 
            "article_id": 333, 
            "id": "3301"
        }, 
        {
            "body": "@Jeanne Varasco : C'est mon avis personnel, mais la peur de \"pillage\" me semble compl\u00e8tement infond\u00e9e. Plus un code source est repris, r\u00e9utilis\u00e9, et partag\u00e9 plus il devient robuste et gagne en visibilit\u00e9. De plus il s'agit ici de la question du mat\u00e9riel et du logiciel. Cet article rejoint la question de la s\u00e9paration hardware/software, qui est une question importante. Toutefois la question de la garantie que vous soulevez m\u00e9rite effectivement d'\u00eatre \u00e9claircie.", 
            "author": "vincentreverdy", 
            "created_at": "2015-10-11T01:28:34+0200", 
            "updated_at": "2015-10-11T01:28:34+0200", 
            "votes_count": "3", 
            "link": "http://www.republique-numerique.fr/projects/projet-de-loi-numerique/consultation/consultation/opinions/section-3-loyaute-des-plateformes/deverrouillage-des-acces-logiciels-sur-le-materiel-numerique#arg-3074#arg-3074", 
            "article_id": 333, 
            "id": "3074"
        }, 
        {
            "body": "Comment exercer des garanties sur un logiciel bidouill\u00e9 par des personnes incomp\u00e9tentes ? Comment exercer la concurrence, si les logiciels fran\u00e7ais sont ouverts et pill\u00e9s par les cor\u00e9ens ou les am\u00e9ricains qui ne fonctionnent pas ainsi ?", 
            "author": "jeannevarasco", 
            "created_at": "2015-10-02T14:57:23+0200", 
            "updated_at": "2015-10-02T14:57:23+0200", 
            "votes_count": "1", 
            "link": "http://www.republique-numerique.fr/projects/projet-de-loi-numerique/consultation/consultation/opinions/section-3-loyaute-des-plateformes/deverrouillage-des-acces-logiciels-sur-le-materiel-numerique#arg-2000#arg-2000", 
            "article_id": 333, 
            "id": "2000"
        }
    ], 
    "answer": {
        "body": "La proposition formul\u00e9e par Matthieu Arnold consiste en un d\u00e9verrouillage des acc\u00e8s logiciels sur le mat\u00e9riel num\u00e9rique, afin de permettre le transfert sur un autre syst\u00e8me et de pouvoir installer d\u2019autres outils num\u00e9riques.Cette question se pose essentiellement pour les utilisateurs, qui en raison de leur connaissance techniques, pourraient modifier les logiciels des smartphones ou des tablettes.En raison de l\u2019impact que pourrait avoir cette mesure sur l\u2019\u00e9conomie des entreprises, il appara\u00eet en l\u2019\u00e9tat n\u00e9cessaire de mettre en \u0153uvre une concertation et proc\u00e9der \u00e0 une \u00e9tude d\u2019impact. Cette mesure pourrait en outre s\u2019inscrire dans le d\u00e9bat des ventes li\u00e9es existantes en mati\u00e8re informatique qui conduit aujourd\u2019hui les fabricants et vendeurs \u00e0 proposer aux consommateurs des produits int\u00e9gr\u00e9s (ordinateurs avec logiciels install\u00e9s). Or, en l\u2019\u00e9tat de la r\u00e9glementation europ\u00e9enne, il n\u2019est pas possible d\u2019interdire ce type de vente.En effet, les r\u00e8gles en mati\u00e8re de vente li\u00e9es, issues de l\u2019article L.122-1 du code de la consommation, soumettent l\u2019interdiction de ces ventes au caract\u00e8re d\u00e9loyal de la pratique. Il n\u2019est donc pas possible de les interdire de mani\u00e8re g\u00e9n\u00e9rale. Il s\u2019agit de r\u00e8gles fix\u00e9es par la directive europ\u00e9enne 2005/29/CE relatives aux pratiques commerciales d\u00e9loyales, qui interdit aux Etats membres de prendre des mesures plus strictes.", 
        "answer_refs": [
            "/projects/projet-de-loi-numerique/consultation/consultation/opinions/section-3-loyaute-des-plateformes/deverrouillage-des-acces-logiciels-sur-le-materiel-numerique", 
            "http://www.legifrance.gouv.fr/affichCodeArticle.do?idArticle=LEGIARTI000020869785&cidTexte=LEGITEXT000006069565&dateTexte=20100628", 
            "http://eur-lex.europa.eu/legal-content/FR/TXT/HTML/?uri=CELEX:32005L0029&from=FR"
        ], 
        "author": "gouvernement", 
        "article_id": 333, 
        "cited_users": [
            "matthieuarnold"
        ]
    }, 
    "body": "Pour que le consommateur puisse pleinement exercer sa propri\u00e9t\u00e9 sur le support num\u00e9rique (Smartphone, Tablette, liseuse...) qu'il a achet\u00e9, le revendeur doit avoir l'obligation de supprimer le verrouillage logiciel de modification du syst\u00e8me d'exploitation.", 
    "ranking": 141, 
    "sources_count": 1, 
    "votes_ok": 55, 
    "article_id": 333, 
    "versions": [
        {
            "comment": "Ceci est un copier coller du poste (https://www.republique-numerique.fr/consultations/projet-de-loi-numerique/consultation/consultation/opinions/section-3-donnees-d-interet-general/utilisation-de-gnu-linux-dans-l-administration/versions/ajouter-le-faite-d-utiliser-du-materiel-ouvert-libre)\nIl y a peu de mondes qui soient au courant de cela mais en dehors de l'os et des divers logiciels qui orbite autour de celui-ci, il y a la couche inf\u00e9rieure \u00e9lectronique dont la totalit\u00e9 du code des puces qui la compose (firmwares/BIOS etc.) sont fermer/sous licence propri\u00e9taires donc non libre.\nC'est un vrai fl\u00e9o dans la compatibilit\u00e9, securiter du mat\u00e9riel vendu dans le monde du logiciel libre.\nIl y a d'ailleurs divers preuvent indiquant des interceptions de donner voir le contr\u00f4le total d'un appareil \u00e0 distance a cause de cela, voici un exemple: (je suis navr\u00e9 pour l'article en anglais mais je ne connais aucun article en fran\u00e7ais de ce genre)\nhttp://www.dailykos.com/story/2015/02/17/1364910/-Breaking-Kaspersky-Exposes-NSA-s-Worldwide-Backdoor-Hacking-of-Virtually-All-Hard-Drive-Firmware\n\u00a0\nIl n'y a que deux ordinateurs modern au monde qui on \u00e9tait enti\u00e8rement R\u00e9tro-ingegneurier pour le monde du libre le librebootx200 et le x60.\nLe fait que nous ne pouvont pas \u00e9tudier ou modifier du code mat\u00e9riel est une aberration en soi tant au niveau \u00e9thique tant niveau technique.\nCela permettrait aussi de lutter contre l'obsolescence programm\u00e9e. \u00c9tant donn\u00e9 que le firmware/Bios etc. est en soi un programme il est normale qu'il soit libre.\nRappel de Qu'est-ce que le logiciel libre (voir: https://www.gnu.org/)\u00a0 pour plus d'info\nla libert\u00e9 d'ex\u00e9cuter le programme comme il le souhaite, pour n'importe quel usage (libert\u00e9\u00a00)\u00a0;\nla libert\u00e9 d'\u00e9tudier le fonctionnement du programme et de l'adapter \u00e0 ses besoins (libert\u00e9\u00a01) \u2013\u00a0une condition pr\u00e9alable est d'acc\u00e9der au code source\u00a0;\nla libert\u00e9 d'en redistribuer des copies pour aider les autres (libert\u00e9\u00a02)\u00a0;\nla libert\u00e9 d'am\u00e9liorer le programme et de rendre publiques ses am\u00e9liorations pour que toute la communaut\u00e9 en b\u00e9n\u00e9ficie (libert\u00e9\u00a03) \u2013\u00a0une condition pr\u00e9alable est d'acc\u00e9der au code source.\n\n\n", 
            "after": null, 
            "title": null, 
            "arguments_no_count": 0, 
            "created_at": "2015-10-16T02:57:09+0200", 
            "author": "bernardloic", 
            "updated_at": "2015-10-16T03:00:43+0200", 
            "id": 1141, 
            "votes_mitige": 0, 
            "arguments_yes_count": 0, 
            "link": "http://www.republique-numerique.fr/projects/projet-de-loi-numerique/consultation/consultation/opinions/section-3-loyaute-des-plateformes/deverrouillage-des-acces-logiciels-sur-le-materiel-numerique/versions/compatibilite-universelle-du-materiel", 
            "arguments_count": 0, 
            "before": null, 
            "votes_total": 1, 
            "article_id": 333, 
            "slug": "compatibilite-universelle-du-materiel", 
            "votes_nok": 0
        }
    ], 
    "created_at": "2015-09-30T02:48:16+0200", 
    "title": "Section 3", 
    "votes_mitige": 3, 
    "body_links": [], 
    "votes_nok": 3
}