{
    "subtitle": "Ouverture des donn\u00e9es publiques", 
    "cat_id": 86, 
    "updated_at": "2015-10-13T21:45:43+0200", 
    "body_anchors": [], 
    "sources": [], 
    "arguments_count": 3, 
    "versions_count": 1, 
    "votes_total": 15, 
    "author": "audicstephane", 
    "article_link": "http://www.republique-numerique.fr/projects/projet-de-loi-numerique/consultation/consultation/opinions/section-1-ouverture-des-donnees-publiques-1/accessibilite-des-enregistrement-videos-des-assemblees-deliberantes", 
    "arguments": [
        {
            "body": "C'est par exemple le cas pour la ville de Saint-M\u00e9dard en Jalles qui a rendu public sur internet les conseils municipaux (en direct et diff\u00e9r\u00e9) : http://saint-medard-en-jalles.fr/645-videos.html", 
            "author": "thierryleblond", 
            "created_at": "2015-10-15T09:16:43+0200", 
            "updated_at": "2015-10-15T09:16:43+0200", 
            "votes_count": "1", 
            "link": "http://www.republique-numerique.fr/projects/projet-de-loi-numerique/consultation/consultation/opinions/section-1-ouverture-des-donnees-publiques-1/accessibilite-des-enregistrement-videos-des-assemblees-deliberantes#arg-4112#arg-4112", 
            "article_id": 591, 
            "id": "4112"
        }, 
        {
            "body": "L'argument du prix n'est plus valable. Des cameras qui permettent d'enregistrer plusieurs heures se trouvent \u00e0 quelques centaines d'euros.", 
            "author": "audicstephane", 
            "created_at": "2015-10-14T21:46:11+0200", 
            "updated_at": "2015-10-14T21:46:11+0200", 
            "votes_count": "1", 
            "link": "http://www.republique-numerique.fr/projects/projet-de-loi-numerique/consultation/consultation/opinions/section-1-ouverture-des-donnees-publiques-1/accessibilite-des-enregistrement-videos-des-assemblees-deliberantes#arg-4058#arg-4058", 
            "article_id": 591, 
            "id": "4058"
        }, 
        {
            "body": "Il serait tr\u00e8s bien, en effet que les personnes qui le veulent puissent participer \u00e0 un \"\u00e9v\u00e8nement\" avec webcam et micros. Mais ce dispositif est malheureusement extr\u00eamement cher, est-ce la priorit\u00e9 \u00e0 l'heure des baisses de budgets aux collectivit\u00e9s locales ?", 
            "author": "jeannevarasco", 
            "created_at": "2015-10-14T16:57:54+0200", 
            "updated_at": "2015-10-14T16:57:54+0200", 
            "votes_count": "1", 
            "link": "http://www.republique-numerique.fr/projects/projet-de-loi-numerique/consultation/consultation/opinions/section-1-ouverture-des-donnees-publiques-1/accessibilite-des-enregistrement-videos-des-assemblees-deliberantes#arg-3953#arg-3953", 
            "article_id": 591, 
            "id": "3953"
        }
    ], 
    "answer": {}, 
    "body": "Des enregistrements vid\u00e9o des s\u00e9ances publiques des assembl\u00e9e d\u00e9lib\u00e9rantes (conseils municipaux, conseils communautaires, conseils d\u00e9partementaux, conseils r\u00e9gionaux) sont r\u00e9alis\u00e9s et mise \u00e0 disposition du public dans les meilleurs d\u00e9lais, sur le site internet de l'institution, et sur le portail OpenData https://www.data.gouv.fr/fr.", 
    "ranking": 270, 
    "sources_count": 0, 
    "votes_ok": 14, 
    "article_id": 591, 
    "versions": [
        {
            "comment": "Difficult\u00e9 de mise en oeuvre pratique pour les toutes petites communes.", 
            "after": null, 
            "title": null, 
            "arguments_no_count": 0, 
            "created_at": "2015-10-17T17:24:30+0200", 
            "author": "michelbarreau", 
            "updated_at": "2015-10-17T17:24:30+0200", 
            "id": 1308, 
            "votes_mitige": 0, 
            "arguments_yes_count": 0, 
            "link": "http://www.republique-numerique.fr/projects/projet-de-loi-numerique/consultation/consultation/opinions/section-1-ouverture-des-donnees-publiques-1/accessibilite-des-enregistrement-videos-des-assemblees-deliberantes/versions/seuil-de-3500-habitants", 
            "arguments_count": 0, 
            "before": null, 
            "votes_total": 1, 
            "article_id": 591, 
            "slug": "seuil-de-3500-habitants", 
            "votes_nok": 0
        }
    ], 
    "created_at": "2015-10-13T21:42:59+0200", 
    "title": "Section 1", 
    "votes_mitige": 1, 
    "body_links": [], 
    "votes_nok": 0
}