{
    "subtitle": "Ouverture des donn\u00e9es publiques", 
    "cat_id": 86, 
    "updated_at": "2015-10-16T16:50:44+0200", 
    "body_anchors": [
        "donn\u00e9es les plus r\u00e9centes publi\u00e9es par le minist\u00e8re de l'Economie concernant l'imp\u00f4t sur le revenu"
    ], 
    "sources": [], 
    "arguments_count": 0, 
    "versions_count": 0, 
    "votes_total": 10, 
    "author": "ccmbenchmark1", 
    "article_link": "http://www.republique-numerique.fr/projects/projet-de-loi-numerique/consultation/consultation/opinions/section-1-ouverture-des-donnees-publiques-1/reduction-des-delais-de-mises-a-disposition-des-donnees-publiques", 
    "arguments": [], 
    "answer": {}, 
    "body": "La richesse des donn\u00e9es publiques repose en grande partie sur la \"fra\u00eecheur\" des donn\u00e9es propos\u00e9es et la r\u00e9gularit\u00e9 de l'actualisation de ces jeux de donn\u00e9es. Or certains jeux de donn\u00e9es sont mis \u00e0 disposition dans des d\u00e9lais qui nous semblent anormalement longs au regard du traitement informatique qu'ils peuvent n\u00e9cessiter. Ainsi sur le portail Data.gouv.fr, les\u00a0donn\u00e9es les plus r\u00e9centes publi\u00e9es par le minist\u00e8re de l'Economie concernant l'imp\u00f4t sur le revenu\u00a0portent sur l'imp\u00f4t sur le revenu 2013 (concernant les revenus de l'ann\u00e9e 2012). Il nous appara\u00eet essentiel que le d\u00e9lai de mise \u00e0 disposition des documents et donn\u00e9es publiques aux citoyens soit le plus proche possible des d\u00e9lais r\u00e9els de production de ces documents et donn\u00e9es.", 
    "ranking": 328, 
    "sources_count": 0, 
    "votes_ok": 10, 
    "article_id": 674, 
    "versions": [], 
    "created_at": "2015-10-16T16:00:09+0200", 
    "title": "Section 1", 
    "votes_mitige": 0, 
    "body_links": [
        "https://www.data.gouv.fr/fr/datasets/l-impot-sur-le-revenu-par-collectivite-territoriale/"
    ], 
    "votes_nok": 0
}