{
    "subtitle": "Protection des donn\u00e9es \u00e0 caract\u00e8re personnel", 
    "cat_id": 99, 
    "updated_at": "2015-09-28T10:54:09+0200", 
    "body_anchors": [], 
    "sources": [], 
    "arguments_count": 2, 
    "versions_count": 0, 
    "votes_total": 30, 
    "author": "alexistoyane", 
    "article_link": "http://www.republique-numerique.fr/projects/projet-de-loi-numerique/consultation/consultation/opinions/section-1-protection-des-donnees-a-caractere-personnel/renforcement-du-pouvoir-de-sanction-de-la-cnil", 
    "arguments": [
        {
            "body": "Je suis pour des sanctions dissuasives donc plut\u00f4t qu'un montant fixe quel qu'il soit, un plafond fix\u00e9 en pourcentage du chiffre d'affaire mondial consolid\u00e9 semble plus pertinent, et la r\u00e9cidive sous 5 ans doublerait ce plafond.", 
            "author": "maujoel", 
            "created_at": "2015-10-18T22:43:11+0200", 
            "updated_at": "2015-10-18T22:43:11+0200", 
            "votes_count": "0", 
            "link": "http://www.republique-numerique.fr/projects/projet-de-loi-numerique/consultation/consultation/opinions/section-1-protection-des-donnees-a-caractere-personnel/renforcement-du-pouvoir-de-sanction-de-la-cnil#arg-6156#arg-6156", 
            "article_id": 228, 
            "id": "6156"
        }, 
        {
            "body": "Les sanctions doivent \u00eatre donn\u00e9es par un juge, pas par une autorit\u00e9 administrative ind\u00e9pendante.", 
            "author": "taneleo", 
            "created_at": "2015-10-17T17:24:56+0200", 
            "updated_at": "2015-10-17T17:24:56+0200", 
            "votes_count": "0", 
            "link": "http://www.republique-numerique.fr/projects/projet-de-loi-numerique/consultation/consultation/opinions/section-1-protection-des-donnees-a-caractere-personnel/renforcement-du-pouvoir-de-sanction-de-la-cnil#arg-5399#arg-5399", 
            "article_id": 228, 
            "id": "5399"
        }
    ], 
    "answer": {}, 
    "body": "Modification de l'article 47\u00a0modifi\u00e9 par la\u00a0loi n\u00b0 2011-334 du 29-03/2011 art.8Le montant de la sanction p\u00e9cuniaire pr\u00e9vue au I de l\u2019article 45 est proportionn\u00e9 \u00e0 la gravit\u00e9 des manquements commis et aux avantages tir\u00e9s de ce manquement.Lors du premier manquement, il ne peut exc\u00e9der 3 000 000\u20ac. En cas de manquement r\u00e9it\u00e9r\u00e9 dans les cinq ann\u00e9es \u00e0 compter de la date \u00e0 laquelle la sanction p\u00e9cuniaire pr\u00e9c\u00e9demment prononc\u00e9e est devenue d\u00e9finitive, il ne peut exc\u00e9der 3 000 000 \u20ac ou, s\u2019agissant d\u2019une entreprise, 5 % du chiffre d\u2019affaires hors taxes du dernier exercice clos.Lorsque la formation restreinte a prononc\u00e9 une sanction p\u00e9cuniaire devenue d\u00e9finitive avant que le juge p\u00e9nal ait statu\u00e9 d\u00e9finitivement sur les m\u00eames faits ou des faits connexes, celui-ci peut ordonner que la sanction p\u00e9cuniaire s\u2019impute sur l\u2019amende qu\u2019il prononce.Les sanctions p\u00e9cuniaires sont recouvr\u00e9es comme les cr\u00e9ances de l\u2019\u00c9tat \u00e9trang\u00e8res \u00e0 l\u2019imp\u00f4t et au domaine.", 
    "ranking": 182, 
    "sources_count": 0, 
    "votes_ok": 28, 
    "article_id": 228, 
    "versions": [], 
    "created_at": "2015-09-28T10:54:09+0200", 
    "title": "Section 1", 
    "votes_mitige": 1, 
    "body_links": [], 
    "votes_nok": 1
}