{
    "subtitle": "Les Communs", 
    "cat_id": 90, 
    "updated_at": "2015-10-18T16:01:41+0200", 
    "body_anchors": [], 
    "sources": [], 
    "arguments_count": 0, 
    "versions_count": 0, 
    "votes_total": 2, 
    "author": "cinovitpresident", 
    "article_link": "http://www.republique-numerique.fr/projects/projet-de-loi-numerique/consultation/consultation/opinions/section-1-les-communs/commantaire-general", 
    "arguments": [], 
    "answer": {}, 
    "body": "Le poids relatif de l\u2019\u00e9conomie du savoir et de l\u2019immat\u00e9riel ne cesse de cro\u00eetre. Cette derni\u00e8re n\u00e9cessite un acc\u00e8s \u00e0 de nombreuses informations. De nombreux professionnels, notamment dans le secteur des \u00e9tudes ont besoin d\u2019analyser de nombreuses informations (flux de populations, les niveaux de richesses, les mobilit\u00e9s etc.). Aujourd\u2019hui, trop souvent ces donn\u00e9es peuvent \u00eatre mises \u00e0 disposition par de nombreux acteurs (Etat, Collectivit\u00e9s territoriales, CCI\u2026.), selon leur nature. Un acc\u00e8s organis\u00e9 facilit\u00e9 et centralis\u00e9\u00a0 \u00e0 ces donn\u00e9es serait de nature \u00e0 cr\u00e9er de r\u00e9elles plus-values et \u00e0 d\u00e9velopper une \u00e9conomie du savoir, source de croissance et d\u2019efficacit\u00e9 pour de nombreux secteurs d\u2019activit\u00e9s. Cela serait aussi de nature \u00e0 accro\u00eetre la qualit\u00e9 de nombreux ouvrages en pr\u00e9venant des nuisances et en param\u00e9trant au mieux les besoins", 
    "ranking": 542, 
    "sources_count": 0, 
    "votes_ok": 2, 
    "article_id": 751, 
    "versions": [], 
    "created_at": "2015-10-18T15:58:04+0200", 
    "title": "Section 1", 
    "votes_mitige": 0, 
    "body_links": [], 
    "votes_nok": 0
}