{
    "subtitle": "Service public de la donn\u00e9e", 
    "cat_id": 87, 
    "updated_at": "2015-09-30T00:45:42+0200", 
    "body_anchors": [], 
    "sources": [], 
    "arguments_count": 0, 
    "versions_count": 0, 
    "votes_total": 31, 
    "author": "jeannasjeanyves", 
    "article_link": "http://www.republique-numerique.fr/projects/projet-de-loi-numerique/consultation/consultation/opinions/section-2-service-public-de-la-donnee-1/participation-a-la-normalisation-internationale-des-formats-de-donnees", 
    "arguments": [], 
    "answer": {}, 
    "body": "L'\u00c9tat prend en charge le fonctionnement de la commission des Formats de Documents R\u00e9visables de l'AFNOR.Les associations sp\u00e9cialis\u00e9es dans la d\u00e9fense et la promotion des formats ouverts sont membre de droit gratuitement.", 
    "ranking": 182, 
    "sources_count": 0, 
    "votes_ok": 28, 
    "article_id": 329, 
    "versions": [], 
    "created_at": "2015-09-30T00:45:42+0200", 
    "title": "Section 2", 
    "votes_mitige": 2, 
    "body_links": [], 
    "votes_nok": 1
}