{
    "subtitle": "Comp\u00e9tences et organisation", 
    "cat_id": 103, 
    "updated_at": "2015-10-03T18:32:11+0200", 
    "body_anchors": [], 
    "sources": [], 
    "arguments_count": 1, 
    "versions_count": 0, 
    "votes_total": 6, 
    "author": "horizonmultimedia", 
    "article_link": "http://www.republique-numerique.fr/projects/projet-de-loi-numerique/consultation/consultation/opinions/section-1-competences-et-organisation/renforcer-les-competences-numeriques-des-parents-pour-une-meilleure-education-au-numerique-1", 
    "arguments": [
        {
            "body": "Cette proposition ne serait-elle pas un doublon accidentel ?", 
            "author": "danielazuelos", 
            "created_at": "2015-10-17T15:42:14+0200", 
            "updated_at": "2015-10-17T15:42:14+0200", 
            "votes_count": "0", 
            "link": "http://www.republique-numerique.fr/projects/projet-de-loi-numerique/consultation/consultation/opinions/section-1-competences-et-organisation/renforcer-les-competences-numeriques-des-parents-pour-une-meilleure-education-au-numerique-1#arg-5308#arg-5308", 
            "article_id": 406, 
            "id": "5308"
        }
    ], 
    "answer": {}, 
    "body": "Soutenir la fonction parentale pour favoriser, maintenir ou am\u00e9liorer les liens entre parents/enfantsLes parents ont un r\u00f4le \u00e9ducatif vis-\u00e0-vis de leurs enfants dans les usages m\u00e9diatiques et num\u00e9riques de ces derniers. La question des m\u00e9dias et du num\u00e9rique occupe une place importante, si l\u2019on regarde celle qu\u2019elle prend dans les pratiques m\u00e9diatiques, cultuelles ou de loisirs des enfants et des jeunes. D\u2019autant plus que les pratiques m\u00e9diatiques et num\u00e9riques se font pour une grande partie dans l\u2019espace familial. Il faut donc poursuivre le travail d\u2019information vers les parents sur les enjeux culturels, \u00e9ducatifs qui se jouent dans la relation enfants/jeunes et m\u00e9dias /num\u00e9rique. Il appara\u00eet que ces usages entrent souvent en \u00ab concurrence \u00bb avec le projet de transmission de valeurs des lieux \u00e9ducatifs que sont la famille et l\u2019\u00e9cole.Or, si les enfants ou les jeunes peuvent para\u00eetre plus comp\u00e9tents sur la ma\u00eetrise des interfaces techniques, ils ont cependant besoin d\u2019adultes pour leur donner des rep\u00e8res dans les contenus et jouer un r\u00f4le de \u00ab passeur \u00bb interg\u00e9n\u00e9rationnel sur la base d\u2019un dialogue permanent. Les parents ont tous cette \u00ab autorit\u00e9 \u00bb et comp\u00e9tence parentale. Cette socialisation invers\u00e9e (des enfants vers les parents) et le caract\u00e8re \u00ab mouvant \u00bb de ces technologies peuvent d\u00e9router les parents. C\u2019est l\u00e0 qu\u2019il faut r\u00e9pondre en termes d\u2019accompagnement et de soutien \u00e0 la fonction parentale dans les environnements num\u00e9riques. Dans\u00a0une logique de soutien \u00e0 la parentalit\u00e9", 
    "ranking": 633, 
    "sources_count": 0, 
    "votes_ok": 0, 
    "article_id": 406, 
    "versions": [], 
    "created_at": "2015-10-03T18:32:11+0200", 
    "title": "Section 1", 
    "votes_mitige": 0, 
    "body_links": [], 
    "votes_nok": 6
}