{
    "subtitle": "Couverture num\u00e9rique", 
    "cat_id": 104, 
    "updated_at": "2015-10-08T12:24:22+0200", 
    "body_anchors": [], 
    "sources": [], 
    "arguments_count": 7, 
    "versions_count": 0, 
    "votes_total": 22, 
    "author": "websdugevaudan", 
    "article_link": "http://www.republique-numerique.fr/projects/projet-de-loi-numerique/consultation/consultation/opinions/section-2-couverture-numerique/droit-a-la-fibre-pour-les-hyper-ruraux", 
    "arguments": [
        {
            "body": "@Bernard Martinez qui \u00e9crit \"Une approche par le r\u00e9seau satellitaire / laser ou autre technologie d'avenir peut \u00eatre un meilleur rapport qualit\u00e9/co\u00fbt\" je r\u00e9ponds \"oui\" .. en attendant la fibre pour r\u00e9gler des urgencesmais pas \u00e0 la place de la fibre , seul support capable de s'adapter \u00e0 toutes les \u00e9volutions de contenus et Dieu sait s'il y en aura !!", 
            "author": "websdugevaudan", 
            "created_at": "2015-10-18T15:55:23+0200", 
            "updated_at": "2015-10-18T15:55:23+0200", 
            "votes_count": "0", 
            "link": "http://www.republique-numerique.fr/projects/projet-de-loi-numerique/consultation/consultation/opinions/section-2-couverture-numerique/droit-a-la-fibre-pour-les-hyper-ruraux#arg-5881#arg-5881", 
            "article_id": 475, 
            "id": "5881"
        }, 
        {
            "body": "Face \u00e0 toutes les d\u00e9sinformations dont sur la non rentabilit\u00e9 et non pertinence de la fibre pour les ruraux il est bon de rappeler que des mod\u00e8les techniques et \u00e9conomiques rentables permettant de couvrir en fibre optique jusqu'aux derniers m\u00e8tres vite tout le territoire national (\u00e0 plus de 99%), yc les plus ruraux ou insulaires ou DOM. Voir une lsite de contributions ici : http://www.collectif-rfc.net/index.php?option=com_content&view=article&id=66&catid=20&lang=frNotamment des sc\u00e9narios efficaces dont pour les finances publiques et la concurrence de migration des services du cuivre vers la fibre ont \u00e9t\u00e9 d\u00e9taill\u00e9s ici : http://goo.gl/JZn8kll'article sur les zones fibr\u00e9es dans la loi dite Macron 1 est un premier pas vers la r\u00e9alisation de tels sc\u00e9narios.", 
            "author": "maujoel", 
            "created_at": "2015-10-18T10:55:58+0200", 
            "updated_at": "2015-10-18T10:55:58+0200", 
            "votes_count": "0", 
            "link": "http://www.republique-numerique.fr/projects/projet-de-loi-numerique/consultation/consultation/opinions/section-2-couverture-numerique/droit-a-la-fibre-pour-les-hyper-ruraux#arg-5716#arg-5716", 
            "article_id": 475, 
            "id": "5716"
        }, 
        {
            "body": "Pourquoi simplement pour les ruraux ? Et pourquoi seulement la fibre ?", 
            "author": "taneleo", 
            "created_at": "2015-10-17T18:30:10+0200", 
            "updated_at": "2015-10-17T18:30:10+0200", 
            "votes_count": "0", 
            "link": "http://www.republique-numerique.fr/projects/projet-de-loi-numerique/consultation/consultation/opinions/section-2-couverture-numerique/droit-a-la-fibre-pour-les-hyper-ruraux#arg-5460#arg-5460", 
            "article_id": 475, 
            "id": "5460"
        }, 
        {
            "body": "A l'aube d'une \u00e9ni\u00e8me technologie mobile (5G) de nombreux territoires peinent \u00e0 avoir de la \"simple\" 2G soit une qualit\u00e9 de r\u00e9seau aujourd'hui totalement d\u00e9pass\u00e9e.Pr\u00f4nons l'\u00e9galit\u00e9 d'acc\u00e8s \u00e0 Internet pour tous !", 
            "author": "pierreandre", 
            "created_at": "2015-10-16T15:46:12+0200", 
            "updated_at": "2015-10-16T15:46:12+0200", 
            "votes_count": "0", 
            "link": "http://www.republique-numerique.fr/projects/projet-de-loi-numerique/consultation/consultation/opinions/section-2-couverture-numerique/droit-a-la-fibre-pour-les-hyper-ruraux#arg-4796#arg-4796", 
            "article_id": 475, 
            "id": "4796"
        }, 
        {
            "body": "Je suis contre parce que si je pense qu'il peut exister un droit au raccordement (faut pas abuser non plus, il y a en qui font tout pour \u00eatre loin de tout...) : la fibre n'est pas forc\u00e9ment la solution id\u00e9ale. Une approche par le r\u00e9seau satellitaire / laser ou autre technologie d'avenir peut \u00eatre un meilleur rapport qualit\u00e9/co\u00fbt.", 
            "author": "bernardmartinez", 
            "created_at": "2015-10-10T20:13:40+0200", 
            "updated_at": "2015-10-10T20:13:40+0200", 
            "votes_count": "0", 
            "link": "http://www.republique-numerique.fr/projects/projet-de-loi-numerique/consultation/consultation/opinions/section-2-couverture-numerique/droit-a-la-fibre-pour-les-hyper-ruraux#arg-3044#arg-3044", 
            "article_id": 475, 
            "id": "3044"
        }, 
        {
            "body": "Doublon", 
            "author": "jeannevarasco", 
            "created_at": "2015-10-10T15:24:01+0200", 
            "updated_at": "2015-10-10T15:24:01+0200", 
            "votes_count": "0", 
            "link": "http://www.republique-numerique.fr/projects/projet-de-loi-numerique/consultation/consultation/opinions/section-2-couverture-numerique/droit-a-la-fibre-pour-les-hyper-ruraux#arg-2953#arg-2953", 
            "article_id": 475, 
            "id": "2953"
        }, 
        {
            "body": "La fibre optique est absolument indispensable pour les ruraux.On ne peut imaginer que les zones rurales soient d\u00e9laiss\u00e9es, il est indispensable que l'\u00e9tat prenne en compte en tout premier la distribution d'un internet de fa\u00e7on \u00e9quitable pour tout le monde, citadins et ruraux.Seule la fibre optique permet de r\u00e9aliser cela! la technique est maintenant au point depuis des ann\u00e9es.Il faut absolument lancer un plan fibre pour tous on a d\u00e9j\u00e0 trop de retard.Les zones rurales doivent avoir absolument acc\u00e8s au services internet actuel et futurs.Tout \u00e0 fait d'accord avec la proposition des Webs du G\u00e9vaudan.Michel12", 
            "author": "michel12", 
            "created_at": "2015-10-09T22:20:25+0200", 
            "updated_at": "2015-10-09T22:20:25+0200", 
            "votes_count": "1", 
            "link": "http://www.republique-numerique.fr/projects/projet-de-loi-numerique/consultation/consultation/opinions/section-2-couverture-numerique/droit-a-la-fibre-pour-les-hyper-ruraux#arg-2856#arg-2856", 
            "article_id": 475, 
            "id": "2856"
        }
    ], 
    "answer": {}, 
    "body": "Article 1:\u00a01-La pr\u00e9sente loi institue un \u00ab\u00a0droit \u00e0 la fibre\u00a0\u00bb pour tous. La fibre optique \u00e9tant le seul support permettant \u00e0 chaque citoyen de disposer d'un \u00ab\u00a0compteur d'\u00e9nergie num\u00e9rique\u00a0\u00bb pour faire \u00e9voluer son \u00ab\u00a0abonnement num\u00e9rique\u00a0\u00bben fonction de ses besoins, il convient de \u00ab\u00a0mettre de la fibre partout o\u00f9 il y a du cuivre\u00a0\u00bb\u00a0. Le r\u00e9seau de cuivre actuel sera donc remplac\u00e9 par un r\u00e9seau optique.2-Pour pr\u00e9parer \u00e0 terme la couverture optique int\u00e9grale du territoire une exp\u00e9rimentation sera faite dans le d\u00e9partement le moins peupl\u00e9 de France, la Loz\u00e8re, territoire symbole de la ruralit\u00e9. Une telle exp\u00e9rimentation n'\u00e9tant pas possible dans le cadre de la l\u00e9gislation actuelle une solution originale\u00a0,en d\u00e9rogation avec les r\u00e8gles actuelles, devra etre recherch\u00e9e avec l'op\u00e9rateur historique dont l'Etat est le principal actionnaire.", 
    "ranking": 230, 
    "sources_count": 0, 
    "votes_ok": 19, 
    "article_id": 475, 
    "versions": [], 
    "created_at": "2015-10-08T12:24:22+0200", 
    "title": "Section 2", 
    "votes_mitige": 1, 
    "body_links": [], 
    "votes_nok": 2
}