{
    "subtitle": "Ouverture des donn\u00e9es publiques", 
    "cat_id": 86, 
    "updated_at": "2015-10-05T16:18:37+0200", 
    "body_anchors": [], 
    "sources": [], 
    "arguments_count": 0, 
    "versions_count": 0, 
    "votes_total": 9, 
    "author": "laurentmercey", 
    "article_link": "http://www.republique-numerique.fr/projects/projet-de-loi-numerique/consultation/consultation/opinions/section-1-ouverture-des-donnees-publiques-1/vers-une-demarche-d-innovation-et-d-ouverture-continue", 
    "arguments": [], 
    "answer": {}, 
    "body": "L'ouverture des donn\u00e9es permet d'innover et d'am\u00e9liorer les services publics et pr\u00e9sente donc un int\u00e9r\u00eat fort. Il reste n\u00e9anmoins limit\u00e9 car il ne permet pas d'innover sur la base de donn\u00e9es \"potentielles\" mais non disponibles.\u00a0Ainsi, en parall\u00e8le de l'ouverture des donn\u00e9es publiques disponibles, il me semble utile de mettre en place une d\u00e9marche d'innovation continue pour am\u00e9liorer les services publics (voir plus largement au-del\u00e0 des seuls services publics).\u00a0Cela pourrait se traduire, domaine par domaine (par exemple la Sant\u00e9, l'Emploi, ...) par la mise en place d'une r\u00e9flexion ouverte regroupant un maximum d'acteurs du domaine (producteurs et utilisateurs de donn\u00e9es). Cette r\u00e9flexion aurait pour but d'imaginer les am\u00e9liorations et/ou innovations de service public possibles (utiles, prioriaitaires, ....) et d'\u00e9tudier pour chacune d'elles les donn\u00e9es n\u00e9cessaires pour la mettre en oeuvre et la faisabilit\u00e9 de production et de mise \u00e0 disposition de ces donn\u00e9e.\u00a0Les minist\u00e8res pourraient se voir attribuer la mission d'organisation et d'animation de ces r\u00e9flexions ouvertures.", 
    "ranking": 455, 
    "sources_count": 0, 
    "votes_ok": 5, 
    "article_id": 429, 
    "versions": [], 
    "created_at": "2015-10-05T16:18:37+0200", 
    "title": "Section 1", 
    "votes_mitige": 4, 
    "body_links": [], 
    "votes_nok": 0
}