{
    "subtitle": "Donn\u00e9es d\u2019int\u00e9r\u00eat g\u00e9n\u00e9ral", 
    "cat_id": 88, 
    "updated_at": "2015-10-08T15:30:03+0200", 
    "body_anchors": [], 
    "sources": [], 
    "arguments_count": 0, 
    "versions_count": 0, 
    "votes_total": 3, 
    "author": "olivierbabeau", 
    "article_link": "http://www.republique-numerique.fr/projects/projet-de-loi-numerique/consultation/consultation/opinions/section-3-donnees-d-interet-general/article-13-definition-des-plateformes-pas-adaptee", 
    "arguments": [], 
    "answer": {}, 
    "body": "Je sugg\u00e8re de supprimer la section 3 \u00ab\u00a0Loyaut\u00e9 des plateformes\u00a0\u00bb", 
    "ranking": 633, 
    "sources_count": 0, 
    "votes_ok": 0, 
    "article_id": 478, 
    "versions": [], 
    "created_at": "2015-10-08T15:30:03+0200", 
    "title": "Section 3", 
    "votes_mitige": 1, 
    "body_links": [], 
    "votes_nok": 2
}