{
    "subtitle": "Ouverture des donn\u00e9es publiques", 
    "cat_id": 86, 
    "updated_at": "2015-12-02T16:49:57+0100", 
    "body_anchors": [], 
    "sources": [], 
    "arguments_count": 16, 
    "versions_count": 4, 
    "votes_total": 200, 
    "author": "francoisdavid", 
    "article_link": "http://www.republique-numerique.fr/projects/projet-de-loi-numerique/consultation/consultation/opinions/section-1-ouverture-des-donnees-publiques-1/clarification-sur-le-statut-des-drones-de-combats-et-de-reconnaissances", 
    "arguments": [
        {
            "body": "C'est un peu trop \u00e0 cheval sur plusieurs domaines o\u00f9 il serait utile (urgent ?) de l\u00e9gif\u00e9rer.Il faudrait \u00e0 mon sens commencer par d\u00e9finir des lois r\u00e9gissant l'ensemble de toute forme de robotique :- qu'est-il l\u00e9gal de faire avec un robot ;- qui est responsable de ce qui est fait par un robot ;- qu'est-ce qu'une d\u00e9cision \u00ab\u00a0propre \u00bb\u00a0d'un robot (I.A.) ;- limite d'autonomie de ce que peut faire un robot sur la base de d\u00e9cisions \u00ab propres \u00bb.", 
            "author": "danielazuelos", 
            "created_at": "2015-10-18T10:58:55+0200", 
            "updated_at": "2015-10-18T11:00:17+0200", 
            "votes_count": "0", 
            "link": "http://www.republique-numerique.fr/projects/projet-de-loi-numerique/consultation/consultation/opinions/section-1-ouverture-des-donnees-publiques-1/clarification-sur-le-statut-des-drones-de-combats-et-de-reconnaissances#arg-5718#arg-5718", 
            "article_id": 112, 
            "id": "5718"
        }, 
        {
            "body": "L'utilisation des drones par les forces arm\u00e9es comme la police doit faire l'objet de discussions. Un livre pose une s\u00e9rie de questionnement : \"La th\u00e9orie du drone, de Gr\u00e9goire Chamayou\". Cet ouvrage permet de voir les diff\u00e9rents aspects de l'utilisation de ces syst\u00e8mes, avec le risque de perdre une partie de nos rep\u00e8res, de nos exigences vis \u00e0 vis de la fa\u00e7on dont la force doit / peut \u00eatre utilis\u00e9 contre des cibles / des civiles. Ce livre justement r\u00e9clame un d\u00e9bat citoyen, pas que ces questions soient occult\u00e9es et laiss\u00e9es aux gouvernants et aux militaires.", 
            "author": "franckgandi", 
            "created_at": "2015-10-16T18:59:16+0200", 
            "updated_at": "2015-10-16T18:59:16+0200", 
            "votes_count": "0", 
            "link": "http://www.republique-numerique.fr/projects/projet-de-loi-numerique/consultation/consultation/opinions/section-1-ouverture-des-donnees-publiques-1/clarification-sur-le-statut-des-drones-de-combats-et-de-reconnaissances#arg-4953#arg-4953", 
            "article_id": 112, 
            "id": "4953"
        }, 
        {
            "body": "M\u00e9lange de plusieurs choses : l\u00e9gislation des drones, recueil de donn\u00e9es en g\u00e9n\u00e9ral, recueil de donn\u00e9es par les forces de police, autonomie des robots...", 
            "author": "aymericpoulainmaubant", 
            "created_at": "2015-10-13T14:46:22+0200", 
            "updated_at": "2015-10-13T14:46:22+0200", 
            "votes_count": "3", 
            "link": "http://www.republique-numerique.fr/projects/projet-de-loi-numerique/consultation/consultation/opinions/section-1-ouverture-des-donnees-publiques-1/clarification-sur-le-statut-des-drones-de-combats-et-de-reconnaissances#arg-3588#arg-3588", 
            "article_id": 112, 
            "id": "3588"
        }, 
        {
            "body": "\u00e7a n'est pas suffisant. L'utilisation d'une arme non l\u00e9tale (et pourtant potentiellement dangereuse) par une intelligence artificielle ne vaut pas forc\u00e9ment mieux que l'utilisation d'une arme l\u00e9tale.En attendant d'avoir des IA suffisament \"lucides\" pour discerner ce qui rel\u00e8ve des 3 lois de la robotique (inspir\u00e9es par la litt\u00e9rature d'Asimov), peut \u00eatre devrions nous tout simplement interdire l'usage d'IA \u00e0 des fins militaires... Un dr\u00f4ne de combat n'est pour le moment pas n\u00e9cessairement muni d'une IA, il est plus souvent \"t\u00e9l\u00e9command\u00e9\"... peut \u00eatre est-ce d\u00e9j\u00e0 une limite \u00e0 ne pas franchir.Si on voulait vraiment prendre les choses dans l'ordre, l'intelligence relative d'une machine m\u00e9riterait sans doute tout simplement d'\u00eatre quantifi\u00e9e, et \u00e9valu\u00e9e avant de se poser ce genre de question. On pourrait d\u00e9j\u00e0 classer ce qui rel\u00e8ve d'une sorte d'assistance robotique sur des engins militaires (avec une commande n\u00e9anmoins 100% humaine), d'un dispositif autonome qui agirait aveugl\u00e9ment selon sa programmation.De toutes mani\u00e8res, on aura beau d\u00e9blat\u00e9rer sur la question, il finira t\u00f4t ou tard par y avoir un imb\u00e9cile \u00e0 franchir la ligne rouge du dr\u00f4ne autonome de combat (par pur int\u00e9r\u00eat), avec un degr\u00e9 de perfectionnement qui nous obligera \u00e0 nous aligner sur ces technologies, en d\u00e9pit de toute r\u00e8gle d'\u00e9thique... au nom de la s\u00e9curit\u00e9 nationale, on a d\u00e9j\u00e0 constat\u00e9 de nombreux pi\u00e9tinement de l'\u00e9thique me semble-t-il...C'est un d\u00e9bat qui d\u00e9passe tr\u00e8s largement la concertation nationale, je crois...", 
            "author": "nicolasjoly", 
            "created_at": "2015-10-08T19:10:31+0200", 
            "updated_at": "2015-10-08T19:11:20+0200", 
            "votes_count": "1", 
            "link": "http://www.republique-numerique.fr/projects/projet-de-loi-numerique/consultation/consultation/opinions/section-1-ouverture-des-donnees-publiques-1/clarification-sur-le-statut-des-drones-de-combats-et-de-reconnaissances#arg-2696#arg-2696", 
            "article_id": 112, 
            "id": "2696"
        }, 
        {
            "body": "Il ne s'agit pas d'un probl\u00e8me num\u00e9rique propre, mais d'un sujet de protection nationale et/ou personnelle. A voir donc dans un cadre \u00e9largi.", 
            "author": "deuxchlafont", 
            "created_at": "2015-10-06T19:57:21+0200", 
            "updated_at": "2015-10-06T19:57:21+0200", 
            "votes_count": "1", 
            "link": "http://www.republique-numerique.fr/projects/projet-de-loi-numerique/consultation/consultation/opinions/section-1-ouverture-des-donnees-publiques-1/clarification-sur-le-statut-des-drones-de-combats-et-de-reconnaissances#arg-2416#arg-2416", 
            "article_id": 112, 
            "id": "2416"
        }, 
        {
            "body": "http://www.leparisien.fr/automobile/securite-routiere/securite-routiere-valls-annonce-plus-de-radars-des-leurres-et-des-drones-02-10-2015-5148023.php", 
            "author": "francoisdavid", 
            "created_at": "2015-10-02T13:10:49+0200", 
            "updated_at": "2015-10-02T13:10:49+0200", 
            "votes_count": "0", 
            "link": "http://www.republique-numerique.fr/projects/projet-de-loi-numerique/consultation/consultation/opinions/section-1-ouverture-des-donnees-publiques-1/clarification-sur-le-statut-des-drones-de-combats-et-de-reconnaissances#arg-1992#arg-1992", 
            "article_id": 112, 
            "id": "1992"
        }, 
        {
            "body": "Je suis partag\u00e9 : d'un c\u00f4t\u00e9, on peut consid\u00e9rer que TERMINATOR, dans le premier film, est une arme de guerre extr\u00eamement dangereuse, et qu'interdire \u00e0 priori les drones de combat \u00e9viterait d'aboutir \u00e0 sa conception.Cependant, en prenant en compte le second film, on constate que TERMINATOR permet une protection accrue de John Connor, conduisant ainsi \u00e0 la victoire finale de l'humanit\u00e9. Vous comprendrez donc ma r\u00e9serve...", 
            "author": "micheldenisot", 
            "created_at": "2015-09-30T16:40:10+0200", 
            "updated_at": "2015-09-30T16:40:10+0200", 
            "votes_count": "3", 
            "link": "http://www.republique-numerique.fr/projects/projet-de-loi-numerique/consultation/consultation/opinions/section-1-ouverture-des-donnees-publiques-1/clarification-sur-le-statut-des-drones-de-combats-et-de-reconnaissances#arg-1604#arg-1604", 
            "article_id": 112, 
            "id": "1604"
        }, 
        {
            "body": "Il y a des lois d\u00e9j\u00e0 tr\u00e8s drastiques pour les drones civils mais pas de solution pour les faire respecter. Un survol de drone prend 5 mn et la police en voiture ne peut pas les suivre...Sur les zones sensibles (Centrale nucl\u00e9aire...) il faudrait des drones anti drones.", 
            "author": "sandrinewlg", 
            "created_at": "2015-09-30T10:02:26+0200", 
            "updated_at": "2015-09-30T10:02:26+0200", 
            "votes_count": "0", 
            "link": "http://www.republique-numerique.fr/projects/projet-de-loi-numerique/consultation/consultation/opinions/section-1-ouverture-des-donnees-publiques-1/clarification-sur-le-statut-des-drones-de-combats-et-de-reconnaissances#arg-1461#arg-1461", 
            "article_id": 112, 
            "id": "1461"
        }, 
        {
            "body": "Ne vaut-il pas mieux ce concentre sur des drone anti-drone ? Car dans tous les cas les autre \u00e9tat ne feront ce qu'il voudrons chez eux, \u00e0 nos fronti\u00e8re, en espionage, en temps de guerre ...", 
            "author": "lacombe", 
            "created_at": "2015-09-29T15:46:53+0200", 
            "updated_at": "2015-09-29T15:46:53+0200", 
            "votes_count": "0", 
            "link": "http://www.republique-numerique.fr/projects/projet-de-loi-numerique/consultation/consultation/opinions/section-1-ouverture-des-donnees-publiques-1/clarification-sur-le-statut-des-drones-de-combats-et-de-reconnaissances#arg-1271#arg-1271", 
            "article_id": 112, 
            "id": "1271"
        }, 
        {
            "body": "Pour rappel sous Petain heuresement que la police n'avait pas ces drone et le droit d'en faire ce qu'elle voullait", 
            "author": "lacombe", 
            "created_at": "2015-09-29T15:43:41+0200", 
            "updated_at": "2015-09-29T15:43:41+0200", 
            "votes_count": "0", 
            "link": "http://www.republique-numerique.fr/projects/projet-de-loi-numerique/consultation/consultation/opinions/section-1-ouverture-des-donnees-publiques-1/clarification-sur-le-statut-des-drones-de-combats-et-de-reconnaissances#arg-1269#arg-1269", 
            "article_id": 112, 
            "id": "1269"
        }, 
        {
            "body": "Qui surveille la police ?", 
            "author": "lacombe", 
            "created_at": "2015-09-29T15:41:55+0200", 
            "updated_at": "2015-09-29T15:41:55+0200", 
            "votes_count": "1", 
            "link": "http://www.republique-numerique.fr/projects/projet-de-loi-numerique/consultation/consultation/opinions/section-1-ouverture-des-donnees-publiques-1/clarification-sur-le-statut-des-drones-de-combats-et-de-reconnaissances#arg-1267#arg-1267", 
            "article_id": 112, 
            "id": "1267"
        }, 
        {
            "body": "Sur les drones en g\u00e9n\u00e9ral, leur utilisation peut \u00eatre d\u00e9tourn\u00e9e pour tout et n'importe quoi. Besoin de classer ces appareils dans une cat\u00e9gorie surveill\u00e9e. Un drone \"civil\" peut m\u00eame \u00eatre d\u00e9tourn\u00e9 pour larguer une grenade..", 
            "author": "fredclooney", 
            "created_at": "2015-09-28T14:21:53+0200", 
            "updated_at": "2015-09-28T14:21:53+0200", 
            "votes_count": "4", 
            "link": "http://www.republique-numerique.fr/projects/projet-de-loi-numerique/consultation/consultation/opinions/section-1-ouverture-des-donnees-publiques-1/clarification-sur-le-statut-des-drones-de-combats-et-de-reconnaissances#arg-875#arg-875", 
            "article_id": 112, 
            "id": "875"
        }, 
        {
            "body": "cela reste du registre r\u00e9galien et n'a pas \u00e0 \u00eatre mis en loi surtout pour les drones de reco ou les drones de combat. Leur emploi est \u00e0 r\u00e9server aux forces de l'ordre et \u00e7a n'a pas \u00e0 \u00eatre encadr\u00e9!.", 
            "author": "fredericboutin", 
            "created_at": "2015-09-27T00:28:19+0200", 
            "updated_at": "2015-09-27T00:28:19+0200", 
            "votes_count": "0", 
            "link": "http://www.republique-numerique.fr/projects/projet-de-loi-numerique/consultation/consultation/opinions/section-1-ouverture-des-donnees-publiques-1/clarification-sur-le-statut-des-drones-de-combats-et-de-reconnaissances#arg-328#arg-328", 
            "article_id": 112, 
            "id": "328"
        }, 
        {
            "body": "Clarification sur le statut des drones de combats et de reconnaissancesLes drones peuvent \u00eatre autoris\u00e9s \u00e0 usage personnel sans filmer ou prendre des photos sur des territoires publics ou priv\u00e9s comme le voisinage.Pour des raisons de s\u00e9curit\u00e9 d\u2019\u00e9tat interdire l\u2019utilisation quand le plan Vigipirate est renforc\u00e9 en France sous peine d'amende.", 
            "author": "delinardfranck", 
            "created_at": "2015-09-26T21:55:54+0200", 
            "updated_at": "2015-09-26T21:55:54+0200", 
            "votes_count": "1", 
            "link": "http://www.republique-numerique.fr/projects/projet-de-loi-numerique/consultation/consultation/opinions/section-1-ouverture-des-donnees-publiques-1/clarification-sur-le-statut-des-drones-de-combats-et-de-reconnaissances#arg-260#arg-260", 
            "article_id": 112, 
            "id": "260"
        }, 
        {
            "body": "Les drones et l'utilisation de leurs donn\u00e9es doivent s'inscrire dans un ensemble. Quid des donn\u00e9es survolant une centrale nucl\u00e9aire ou une propri\u00e9t\u00e9 priv\u00e9e. Quelles limites ? etc. Mais je suis d'accord avec Damien Boucet. Ceci est hors sujet.", 
            "author": "jeannevarasco", 
            "created_at": "2015-09-26T17:47:56+0200", 
            "updated_at": "2015-09-26T17:47:56+0200", 
            "votes_count": "3", 
            "link": "http://www.republique-numerique.fr/projects/projet-de-loi-numerique/consultation/consultation/opinions/section-1-ouverture-des-donnees-publiques-1/clarification-sur-le-statut-des-drones-de-combats-et-de-reconnaissances#arg-172#arg-172", 
            "article_id": 112, 
            "id": "172"
        }, 
        {
            "body": "Je ne pense pas que cet article ait sa place dans ce texte de loi.Une clarification du r\u00f4le des drones est utile et n\u00e9cessaire, mais essayons de rester sur le sujet principal.", 
            "author": "damienboucet", 
            "created_at": "2015-09-26T16:47:25+0200", 
            "updated_at": "2015-09-26T16:47:25+0200", 
            "votes_count": "15", 
            "link": "http://www.republique-numerique.fr/projects/projet-de-loi-numerique/consultation/consultation/opinions/section-1-ouverture-des-donnees-publiques-1/clarification-sur-le-statut-des-drones-de-combats-et-de-reconnaissances#arg-136#arg-136", 
            "article_id": 112, 
            "id": "136"
        }
    ], 
    "answer": {
        "body": "La proposition formul\u00e9e par Fran\u00e7ois David est relative \u00e0 l\u2019encadrement des drones de reconnaissance. Cette proposition sort du champ pr\u00e9vu par le Projet de loi pour une r\u00e9publique num\u00e9rique et ne peut donc \u00eatre \u00e9tudi\u00e9e dans ce cadre. Pour autant, un travail interminist\u00e9riel pilot\u00e9 par le Secr\u00e9tariat g\u00e9n\u00e9ral de la d\u00e9fense et de la s\u00e9curit\u00e9 nationale a \u00e9t\u00e9 engag\u00e9 depuis plusieurs mois sur la question des drones et un rapport du Gouvernement a \u00e9t\u00e9 remis au Parlement le 20 octobre dernier.", 
        "answer_refs": [
            "http://www.sgdsn.gouv.fr/IMG/pdf/151016_Rapport_du_gouvernement_au_parlement_sur_les_drones.pdf"
        ], 
        "author": "gouvernement", 
        "article_id": 112, 
        "cited_users": [
            "francoisdavid"
        ]
    }, 
    "body": "A r\u00e9diger", 
    "ranking": 95, 
    "sources_count": 0, 
    "votes_ok": 101, 
    "article_id": 112, 
    "versions": [
        {
            "comment": "Utilis\u00e9 pour rechercher des preuves d'un crime, les drones doivent \u00eatre consid\u00e9r\u00e9s comme n'importe quel autre \u00e9l\u00e9ment technologique d'un usage similaire. On ne peut s'en servir pour une enqu\u00eate de routine et un juge d'instruction doit donner une garantie l\u00e9gale \u00e0 leur utilisation.\nLes drones peuvent \u00eatre aussi utilis\u00e9es pour couvrir rapidement un vaste terrain, \u00e0 la recherche (par exemple) d'un criminel en fuite ou d'un enfant perdu. Cette utilisation n'est pas soumise au restriction du cas pr\u00e9c\u00e9dent. Les drones pouvant \u00eatre d\u00e9ploy\u00e9s rapidement et avec des moyens l\u00e9gers, ils sont parfaits dans cet usage.\u00a0\nDes questions \u00e9thiques \u00e9videntes devraient interdire l'usage des drones en tant qu'arme. Cependant des aspects pratiques devraient aussi restreindre fortement une telle utilisation. En effet, seul un individu responsable, agissant sur le terrain peut avoir la pleine compr\u00e9hension des cons\u00e9quences d'un acte l\u00e9thal. Confier cette t\u00e2che \u00e0 un op\u00e9rateur distant risquerait de rendre un\u00a0tel acte facile, le transformant en une sorte de \"jeu vid\u00e9o\" et lui \u00f4tant tout caract\u00e8re humain. Confier une \u00e9limination physique \u00e0 une intelligence artificielle serait encore pire. Nous ne pouvons confier \u00e0 des machines des missions de ce genre, c'est irresponsable et dangereux; Les cons\u00e9quences - surtout en tenant compte des progr\u00e8s des IA- pourraient \u00eatre catastrophiques. D\u00e9tailler l'\u00e9volution possible d'IA meutri\u00e8res et de plus en plus sophistiqu\u00e9es relev\u00e8re du roman d'anticipation. Il revient aux politiques qu'elle reste dans le domaine de la science fiction.\u00a0", 
            "after": null, 
            "title": null, 
            "arguments_no_count": 0, 
            "created_at": "2015-10-13T11:18:03+0200", 
            "author": "celiancogitore", 
            "updated_at": "2015-10-13T11:18:03+0200", 
            "id": 876, 
            "votes_mitige": 0, 
            "arguments_yes_count": 0, 
            "link": "http://www.republique-numerique.fr/projects/projet-de-loi-numerique/consultation/consultation/opinions/section-1-ouverture-des-donnees-publiques-1/clarification-sur-le-statut-des-drones-de-combats-et-de-reconnaissances/versions/usage-legal-des-drones", 
            "arguments_count": 0, 
            "before": null, 
            "votes_total": 0, 
            "article_id": 112, 
            "slug": "usage-legal-des-drones", 
            "votes_nok": 0
        }, 
        {
            "comment": null, 
            "after": null, 
            "title": null, 
            "arguments_no_count": 1, 
            "created_at": "2015-09-28T10:22:50+0200", 
            "author": "damienjobard", 
            "updated_at": "2015-09-28T10:22:50+0200", 
            "id": 284, 
            "votes_mitige": 4, 
            "arguments_yes_count": 1, 
            "link": "http://www.republique-numerique.fr/projects/projet-de-loi-numerique/consultation/consultation/opinions/section-1-ouverture-des-donnees-publiques-1/clarification-sur-le-statut-des-drones-de-combats-et-de-reconnaissances/versions/aucun-rapport", 
            "arguments_count": 2, 
            "before": null, 
            "votes_total": 7, 
            "article_id": 112, 
            "slug": "aucun-rapport", 
            "votes_nok": 1
        }, 
        {
            "comment": null, 
            "after": null, 
            "title": null, 
            "arguments_no_count": 1, 
            "created_at": "2015-09-26T21:57:26+0200", 
            "author": "delinardfranck", 
            "updated_at": "2015-09-26T21:57:26+0200", 
            "id": 173, 
            "votes_mitige": 3, 
            "arguments_yes_count": 0, 
            "link": "http://www.republique-numerique.fr/projects/projet-de-loi-numerique/consultation/consultation/opinions/section-1-ouverture-des-donnees-publiques-1/clarification-sur-le-statut-des-drones-de-combats-et-de-reconnaissances/versions/clarification-sur-le-statut-des-drones-de-combats-et-de-reconnaissances", 
            "arguments_count": 1, 
            "before": null, 
            "votes_total": 6, 
            "article_id": 112, 
            "slug": "clarification-sur-le-statut-des-drones-de-combats-et-de-reconnaissances", 
            "votes_nok": 3
        }, 
        {
            "comment": "C'est un cavalier.", 
            "after": null, 
            "title": null, 
            "arguments_no_count": 2, 
            "created_at": "2015-09-26T15:26:52+0200", 
            "author": "cellular1988", 
            "updated_at": "2015-09-26T15:26:52+0200", 
            "id": 124, 
            "votes_mitige": 0, 
            "arguments_yes_count": 0, 
            "link": "http://www.republique-numerique.fr/projects/projet-de-loi-numerique/consultation/consultation/opinions/section-1-ouverture-des-donnees-publiques-1/clarification-sur-le-statut-des-drones-de-combats-et-de-reconnaissances/versions/suppression", 
            "arguments_count": 2, 
            "before": null, 
            "votes_total": 9, 
            "article_id": 112, 
            "slug": "suppression", 
            "votes_nok": 7
        }
    ], 
    "created_at": "2015-09-26T15:16:08+0200", 
    "title": "Section 1", 
    "votes_mitige": 35, 
    "body_links": [], 
    "votes_nok": 64
}