{
    "subtitle": "Maintien de la connexion internet", 
    "cat_id": 111, 
    "updated_at": "2015-10-16T01:02:04+0200", 
    "body_anchors": [], 
    "sources": [], 
    "arguments_count": 4, 
    "versions_count": 0, 
    "votes_total": 27, 
    "author": "prieur", 
    "article_link": "http://www.republique-numerique.fr/projects/projet-de-loi-numerique/consultation/consultation/opinions/section-3-maintien-de-la-connexion-internet/maintien-des-cabines-de-t2l2phone-publiques", 
    "arguments": [
        {
            "body": "important pour ceux qui n'ont pas de portables, les SDF, si un jour le r\u00e9seau GSM ne fonctionne plus. Important dans les zones o\u00f9 le r\u00e9seau GSM passe mal. Il faut \u00e0 tout prix garder ce r\u00e9seau t\u00e9l\u00e9phonique actif.", 
            "author": "dominiquesassistringfellow", 
            "created_at": "2015-10-18T11:09:23+0200", 
            "updated_at": "2015-10-18T11:09:23+0200", 
            "votes_count": "1", 
            "link": "http://www.republique-numerique.fr/projects/projet-de-loi-numerique/consultation/consultation/opinions/section-3-maintien-de-la-connexion-internet/maintien-des-cabines-de-t2l2phone-publiques#arg-5727#arg-5727", 
            "article_id": 657, 
            "id": "5727"
        }, 
        {
            "body": "Dans le cadre du developpement des bornes numeriques , les cabines telephoniques pourraient etre reabiliter : leur servir d'abris, offrir des prises pour charger son telephone, ou si oubli\u00e9, cass\u00e9, pas les moyens, trop jeune, permettre de telephoner, contacter les secours gratuitement etc..", 
            "author": "maltesenadine", 
            "created_at": "2015-10-18T02:24:16+0200", 
            "updated_at": "2015-10-18T02:24:16+0200", 
            "votes_count": "1", 
            "link": "http://www.republique-numerique.fr/projects/projet-de-loi-numerique/consultation/consultation/opinions/section-3-maintien-de-la-connexion-internet/maintien-des-cabines-de-t2l2phone-publiques#arg-5665#arg-5665", 
            "article_id": 657, 
            "id": "5665"
        }, 
        {
            "body": "Maintenir des cabines publiques pour les secours un peu partout alors qu'il suffit de demander \u00e0 un habitant ou un passant, je ne vois pas l'int\u00e9r\u00eat.Pour les acc\u00e8s \u00e0 internet des acc\u00e8s publiques dans les mairies et/ou les biblioth\u00e8ques me paraissent pr\u00e9f\u00e9rables.", 
            "author": "syll", 
            "created_at": "2015-10-18T01:04:17+0200", 
            "updated_at": "2015-10-18T01:04:17+0200", 
            "votes_count": "0", 
            "link": "http://www.republique-numerique.fr/projects/projet-de-loi-numerique/consultation/consultation/opinions/section-3-maintien-de-la-connexion-internet/maintien-des-cabines-de-t2l2phone-publiques#arg-5653#arg-5653", 
            "article_id": 657, 
            "id": "5653"
        }, 
        {
            "body": "Que vient faire cette proposition dans une loi sur le num\u00e9rique ?", 
            "author": "pascalrigaud", 
            "created_at": "2015-10-17T10:12:13+0200", 
            "updated_at": "2015-10-17T10:12:13+0200", 
            "votes_count": "2", 
            "link": "http://www.republique-numerique.fr/projects/projet-de-loi-numerique/consultation/consultation/opinions/section-3-maintien-de-la-connexion-internet/maintien-des-cabines-de-t2l2phone-publiques#arg-5140#arg-5140", 
            "article_id": 657, 
            "id": "5140"
        }
    ], 
    "answer": {}, 
    "body": "Maintien du service public assur\u00e9 par les cabines t\u00e9l\u00e9phoniques.", 
    "ranking": 200, 
    "sources_count": 0, 
    "votes_ok": 24, 
    "article_id": 657, 
    "versions": [], 
    "created_at": "2015-10-16T01:02:04+0200", 
    "title": "Section 3", 
    "votes_mitige": 0, 
    "body_links": [], 
    "votes_nok": 3
}