{
    "subtitle": "Service public de la donn\u00e9e", 
    "cat_id": 87, 
    "updated_at": "2015-12-02T17:27:49+0100", 
    "body_anchors": [], 
    "sources": [], 
    "arguments_count": 15, 
    "versions_count": 5, 
    "votes_total": 216, 
    "author": "al", 
    "article_link": "http://www.republique-numerique.fr/projects/projet-de-loi-numerique/consultation/consultation/opinions/section-2-service-public-de-la-donnee-1/securite-confidentialite-et-integrite-des-donnees-publiques", 
    "arguments": [
        {
            "body": "La s\u00e9curisation des donn\u00e9es publiques passera d'abord par la s\u00e9curisation des ordinateurs qui les stoquent et y donnent acc\u00e8s.Pour m\u00e9moire : un VPN (Virtual Private Network, terme assez mal choisi en anglais = tunnel chiffr\u00e9 en fran\u00e7ais) n'emp\u00eache pas une attaque directe et frontale d'une vuln\u00e9rabilit\u00e9 Windows\u00ae de passer. Elle sera simplement ind\u00e9chiffrable :(.", 
            "author": "danielazuelos", 
            "created_at": "2015-10-17T16:29:14+0200", 
            "updated_at": "2015-10-17T16:29:14+0200", 
            "votes_count": "0", 
            "link": "http://www.republique-numerique.fr/projects/projet-de-loi-numerique/consultation/consultation/opinions/section-2-service-public-de-la-donnee-1/securite-confidentialite-et-integrite-des-donnees-publiques#arg-5357#arg-5357", 
            "article_id": 196, 
            "id": "5357"
        }, 
        {
            "body": "Envisagez de passer au correcteur orthographique de Word\u00ae ou Google\u00ae \u00e7a ne devrait pas \u00eatre pire.", 
            "author": "danielazuelos", 
            "created_at": "2015-10-17T16:23:39+0200", 
            "updated_at": "2015-10-17T16:26:52+0200", 
            "votes_count": "0", 
            "link": "http://www.republique-numerique.fr/projects/projet-de-loi-numerique/consultation/consultation/opinions/section-2-service-public-de-la-donnee-1/securite-confidentialite-et-integrite-des-donnees-publiques#arg-5350#arg-5350", 
            "article_id": 196, 
            "id": "5350"
        }, 
        {
            "body": "Si l'on pouvait augmenter la s\u00e9curit\u00e9 sur le web, avoir une sorte de police du web. Ca serait le top !", 
            "author": "jlsimmobilier", 
            "created_at": "2015-10-15T12:39:34+0200", 
            "updated_at": "2015-10-15T12:39:34+0200", 
            "votes_count": "0", 
            "link": "http://www.republique-numerique.fr/projects/projet-de-loi-numerique/consultation/consultation/opinions/section-2-service-public-de-la-donnee-1/securite-confidentialite-et-integrite-des-donnees-publiques#arg-4176#arg-4176", 
            "article_id": 196, 
            "id": "4176"
        }, 
        {
            "body": "Comme je le mentionne dans mon argumentaire contre, la r\u00e9daction actuelle de l'article me pose probl\u00e8me, mais certains aspects mentionn\u00e9s dans le texte, commela signature num\u00e9rique des mails de l'administration, et les audits de s\u00e9curit\u00e9 r\u00e9guliers, me semblent tout de m\u00eame \u00eatre des principes suffisemment g\u00e9n\u00e9raux, solides et p\u00e9rennes pour \u00eatre inscrits dans une loi.", 
            "author": "alexandreconinx", 
            "created_at": "2015-10-13T12:15:18+0200", 
            "updated_at": "2015-10-13T12:15:18+0200", 
            "votes_count": "1", 
            "link": "http://www.republique-numerique.fr/projects/projet-de-loi-numerique/consultation/consultation/opinions/section-2-service-public-de-la-donnee-1/securite-confidentialite-et-integrite-des-donnees-publiques#arg-3546#arg-3546", 
            "article_id": 196, 
            "id": "3546"
        }, 
        {
            "body": "Je suis d'accord avec les objectifs de la proposition... mais les usages technologiques changent plus vite que la loi et une telle r\u00e9daction risque de rendre le texte rapidement d\u00e9pass\u00e9.Et si on passe outre ce probl\u00e8me et consid\u00e8re ce texte comme un instantan\u00e9, alors m\u00eame si les moyens mentionn\u00e9s me semblent globalement appropri\u00e9s \u00e0 l'heure actuelle, l'article reste beaucoup trop concis, vague, limit\u00e9 et mal justifi\u00e9 pour constituer une v\u00e9ritable recommandation technique pouvant \u00eatre appliqu\u00e9e de facon pratique. Par ailleurs, il serait regrettable que des personnes se croient prot\u00e9g\u00e9es ou se d\u00e9douanent de leur responsabilit\u00e9s parce qu'ils ont respect\u00e9 la lettre d'un texte incomplet et mal formul\u00e9 dont l'application ne peut \u00eatre qu'impr\u00e9cise.La s\u00e9curit\u00e9 informatique est un m\u00e9tier, et sa mise en place peut par ailleurs demander une logistique assez lourde dans des syst\u00e8mes de traitement complexes. La loi devrait fixer des principes g\u00e9n\u00e9raux et laisser \u00e0 un groupe d'experts le soin de r\u00e9diger et de maintenir \u00e0 jour un ensemble de directives techniques d\u00e9taill\u00e9es, dont les conditions de mise en place devront \u00eatre d\u00e9taill\u00e9es et ajust\u00e9es en fonction de leur impact et du co\u00fbt de leur mise en place, et auxquels les manquements devra \u00eatre puni par la loi.", 
            "author": "alexandreconinx", 
            "created_at": "2015-10-13T12:15:03+0200", 
            "updated_at": "2015-10-13T12:15:03+0200", 
            "votes_count": "4", 
            "link": "http://www.republique-numerique.fr/projects/projet-de-loi-numerique/consultation/consultation/opinions/section-2-service-public-de-la-donnee-1/securite-confidentialite-et-integrite-des-donnees-publiques#arg-3545#arg-3545", 
            "article_id": 196, 
            "id": "3545"
        }, 
        {
            "body": "Et la mise en place de ses syst\u00e8me permettrait de mettre en avant les outils aupr\u00e8s des citoyens qui pourraient ensuite les utliser entre eux.", 
            "author": "lepoissonlibre", 
            "created_at": "2015-10-11T19:11:21+0200", 
            "updated_at": "2015-10-11T19:11:21+0200", 
            "votes_count": "0", 
            "link": "http://www.republique-numerique.fr/projects/projet-de-loi-numerique/consultation/consultation/opinions/section-2-service-public-de-la-donnee-1/securite-confidentialite-et-integrite-des-donnees-publiques#arg-3201#arg-3201", 
            "article_id": 196, 
            "id": "3201"
        }, 
        {
            "body": "Une loi doit rester suffisament g\u00e9n\u00e9rale pour ne pas avoir a \u00e9noncer ou dicter des dispositifs technologiques qui sont amen\u00e9s \u00e0 \u00e9voluer beaucoup plus vite que les lois.", 
            "author": "christophethierry", 
            "created_at": "2015-10-10T16:37:32+0200", 
            "updated_at": "2015-10-10T16:37:32+0200", 
            "votes_count": "4", 
            "link": "http://www.republique-numerique.fr/projects/projet-de-loi-numerique/consultation/consultation/opinions/section-2-service-public-de-la-donnee-1/securite-confidentialite-et-integrite-des-donnees-publiques#arg-2979#arg-2979", 
            "article_id": 196, 
            "id": "2979"
        }, 
        {
            "body": "Et pour la confidentialit\u00e9 de nos mails pour \u00e9viter le spam?", 
            "author": "phaysyvoun", 
            "created_at": "2015-10-08T14:08:10+0200", 
            "updated_at": "2015-10-08T14:08:10+0200", 
            "votes_count": "0", 
            "link": "http://www.republique-numerique.fr/projects/projet-de-loi-numerique/consultation/consultation/opinions/section-2-service-public-de-la-donnee-1/securite-confidentialite-et-integrite-des-donnees-publiques#arg-2667#arg-2667", 
            "article_id": 196, 
            "id": "2667"
        }, 
        {
            "body": "avec carte a puce est lecteur de carte hautement s\u00e9curiser", 
            "author": "yvesjeangillot", 
            "created_at": "2015-10-04T21:19:39+0200", 
            "updated_at": "2015-10-04T21:19:39+0200", 
            "votes_count": "0", 
            "link": "http://www.republique-numerique.fr/projects/projet-de-loi-numerique/consultation/consultation/opinions/section-2-service-public-de-la-donnee-1/securite-confidentialite-et-integrite-des-donnees-publiques#arg-2208#arg-2208", 
            "article_id": 196, 
            "id": "2208"
        }, 
        {
            "body": "Non mais vous parlez de protocoles informatiques ? C'est une loi, pourriez-vous essayer d'\u00eatre un peu plus ambitieux pour les autres au moins.", 
            "author": "montel", 
            "created_at": "2015-10-04T01:07:24+0200", 
            "updated_at": "2015-10-04T01:07:24+0200", 
            "votes_count": "2", 
            "link": "http://www.republique-numerique.fr/projects/projet-de-loi-numerique/consultation/consultation/opinions/section-2-service-public-de-la-donnee-1/securite-confidentialite-et-integrite-des-donnees-publiques#arg-2159#arg-2159", 
            "article_id": 196, 
            "id": "2159"
        }, 
        {
            "body": "Oui s\u00e9curisation selon les pr\u00e9conisations de l\u2019ANSSI de bout en bout mais attention RGS V2.0 est d\u00e9j\u00e0 caduc. Il ne contient pas les derni\u00e8res r\u00e8glementations en mati\u00e8re de signature num\u00e9rique conformes aux derni\u00e8res specifications ANSSI conformes au r\u00e8glement eidas d\u2019int\u00e9rop\u00e9rabilit\u00e9. RGS oui mais r\u00e9actualis\u00e9 conformit\u00e9 eIDAS.D\u2019autre part il ne faut oublier de prescrire des API (Application Programming Interface) s\u00e9curis\u00e9s et de cr\u00e9er un label de confiance en la mati\u00e8re. Car la s\u00e9curisation des API est tout aussi fondamentale que celle des \u00e9changes sur internet.", 
            "author": "launay", 
            "created_at": "2015-09-30T10:53:28+0200", 
            "updated_at": "2015-09-30T10:53:28+0200", 
            "votes_count": "1", 
            "link": "http://www.republique-numerique.fr/projects/projet-de-loi-numerique/consultation/consultation/opinions/section-2-service-public-de-la-donnee-1/securite-confidentialite-et-integrite-des-donnees-publiques#arg-1484#arg-1484", 
            "article_id": 196, 
            "id": "1484"
        }, 
        {
            "body": "Par piti\u00e9 relisez vous \u00e7a pique les yeux !!!", 
            "author": "francoisbriat", 
            "created_at": "2015-09-29T19:08:27+0200", 
            "updated_at": "2015-09-29T19:08:27+0200", 
            "votes_count": "3", 
            "link": "http://www.republique-numerique.fr/projects/projet-de-loi-numerique/consultation/consultation/opinions/section-2-service-public-de-la-donnee-1/securite-confidentialite-et-integrite-des-donnees-publiques#arg-1354#arg-1354", 
            "article_id": 196, 
            "id": "1354"
        }, 
        {
            "body": "D'accord mais doit \u00eatre en lien avec la proposition https://www.republique-numerique.fr/consultations/projet-de-loi-numerique/consultation/consultation/opinions/section-3-donnees-d-interet-general/utilisation-de-gnu-linux-dans-l-administrationSinon on va se retrouver avec faire du GPG avec des administratifs qui utilise Windows XP ou des certificats TLS, AES 4016, install\u00e9s sur des Windows Server 2003 et \u00e7a n'a plus aucun int\u00e9r\u00eat.", 
            "author": "djangicquel", 
            "created_at": "2015-09-29T11:11:23+0200", 
            "updated_at": "2015-09-29T11:11:23+0200", 
            "votes_count": "5", 
            "link": "http://www.republique-numerique.fr/projects/projet-de-loi-numerique/consultation/consultation/opinions/section-2-service-public-de-la-donnee-1/securite-confidentialite-et-integrite-des-donnees-publiques#arg-1179#arg-1179", 
            "article_id": 196, 
            "id": "1179"
        }, 
        {
            "body": "L'article de loi devrait indiqu\u00e9 qu'il faut que les usages mentionn\u00e9s par les services soient s\u00e9curis\u00e9s. Un d\u00e9cret ensuite pourrait expliquer les moyens techniques \u00e0 mettre en oeuvre. Et effectivement l'ANSSI para\u00eet \u00eatre pertinent sur les moyens de s\u00e9curit\u00e9 \u00e0 mettre en oeuvre, \u00e0 condition qu'il y ait une ad\u00e9quation entre usages et s\u00e9curit\u00e9.Un point suppl\u00e9mentaire serait d'obliger les administrations \u00e0 informer les usagers lorsqu\u2019il y a eu une atteinte aux donn\u00e9es des citoyens.", 
            "author": "teodorchabin", 
            "created_at": "2015-09-27T22:25:58+0200", 
            "updated_at": "2015-09-27T22:25:58+0200", 
            "votes_count": "2", 
            "link": "http://www.republique-numerique.fr/projects/projet-de-loi-numerique/consultation/consultation/opinions/section-2-service-public-de-la-donnee-1/securite-confidentialite-et-integrite-des-donnees-publiques#arg-704#arg-704", 
            "article_id": 196, 
            "id": "704"
        }, 
        {
            "body": "R\u00e9ponse \u00e0 St\u00e9phane Bortzmeyer : le RGS n'est pas un texte contraignant, il date de 2010 et est orient\u00e9 vers les chefs de projet.Lorsque l'on constate le niveau de s\u00e9curit\u00e9 de certain services publics (t\u00e9l\u00e9d\u00e9claration notamment ; cf. https://imirhil.fr/tls/#Administration), l'inscription dans la loi de la notion de communication s\u00e9curis\u00e9e (chiffrement de haut niveau) semble n\u00e9cessaire.Je reconnais que certains OVI, comme la S\u00e9cu, sont sur un r\u00e9seau qui ne dispose que de 2 points de contact avec internet au niveau national (en passant, c'est parfait pour un MITM), mais l'administration fran\u00e7aise et les citoyens utilisent massivement des outils et des routes \"ouvertes\" (emails, sites internet, etc). Ces canaux d'informations doivent \u00eatre s\u00e9curis\u00e9s correctement.", 
            "author": "al", 
            "created_at": "2015-09-27T21:45:42+0200", 
            "updated_at": "2015-09-27T21:45:42+0200", 
            "votes_count": "2", 
            "link": "http://www.republique-numerique.fr/projects/projet-de-loi-numerique/consultation/consultation/opinions/section-2-service-public-de-la-donnee-1/securite-confidentialite-et-integrite-des-donnees-publiques#arg-689#arg-689", 
            "article_id": 196, 
            "id": "689"
        }
    ], 
    "answer": {
        "body": "La proposition de Al consiste \u00e0 assurer la s\u00e9curit\u00e9, confidentialit\u00e9 et int\u00e9grit\u00e9 des donn\u00e9es publiques.Pour ce qui concerne les r\u00e8gles de s\u00e9curit\u00e9 des syst\u00e8mes d\u2019information publics, leur mise en \u0153uvre est pr\u00e9vue dans les conditions fix\u00e9es par l\u2019article 9 de l\u2019ordonnance n\u00b0 2005-1516 du 8 d\u00e9cembre 2005 relative aux \u00e9changes \u00e9lectroniques entre les usagers et les autorit\u00e9s administratives et entre les autorit\u00e9s administratives et le d\u00e9cret n\u00b0 2010-112 du 2 f\u00e9vrier 2010 pris pour l'application des articles 9, 10 et 12 de l'ordonnance n\u00b0 2005-1516 du 8 d\u00e9cembre 2005 relative aux \u00e9changes \u00e9lectroniques entre les usagers et les autorit\u00e9s administratives et entre les autorit\u00e9s administratives. Ainsi, les administrations doivent syst\u00e9matiquement r\u00e9aliser une analyse de risque de leur syst\u00e8me d\u2019information qui doit tenir compte de la sensibilit\u00e9 des donn\u00e9es trait\u00e9es par le syst\u00e8me et appliquer corr\u00e9lativement les r\u00e8gles de s\u00e9curit\u00e9 pr\u00e9vues par le r\u00e9f\u00e9rentiel g\u00e9n\u00e9ral de s\u00e9curit\u00e9. Ces r\u00e8gles de s\u00e9curit\u00e9 incluent la protection de la confidentialit\u00e9 et de l\u2019int\u00e9grit\u00e9.", 
        "answer_refs": [
            "http://www.legifrance.gouv.fr/affichTexte.do?cidTexte=JORFTEXT000000636232", 
            "http://legifrance.gouv.fr/affichTexte.do?cidTexte=JORFTEXT000021779444"
        ], 
        "author": "gouvernement", 
        "article_id": 196, 
        "cited_users": [
            "al"
        ]
    }, 
    "body": "Les services publics et collectivit\u00e9s publiques (mairie, minist\u00e8res, etc.) mettant en \u0153uvre des services sur Internet (sites institutionnels, site de t\u00e9l\u00e9d\u00e9claration, extranet, intranet, etc.) doivent obligatoirement et uniquement mettre en \u0153uvre des communications s\u00e9curis\u00e9es par de la cryptographie forte et les bonnes pratiques aqu\u00e9quates (HSTS, confidentialit\u00e9 persistante) quelque soit les protocoles utilis\u00e9s et les publics vis\u00e9s.Les courriers \u00e9lectroniques \u00e9chang\u00e9s avec les institutions et services publics et les citoyens doivent pouvoir \u00eatre chiffr\u00e9s par la mise \u00e0 disposition de clefs publiques (S/MIME ou PGP). Ce doi nottament \u00eatre le cas des membres des parlements et des mairies.Les courriers \u00e9lectroniques en provenance des services de l'\u00c9tat doivent \u00eatre sign\u00e9s \u00e9lectroniquement afin d'en garantir l'authenticit\u00e9.Les courriers \u00e9lectroniques en provenance des services de l'\u00e9tat doivent \u00eatre sign\u00e9s \u00e9lectroniquement.De m\u00eame, les \u00e9changes de donn\u00e9es \u00e9lectroniques entre les diff\u00e9rents services et institutions publiques doivent obligatoirement et uniquement utiliser des canaux s\u00e9curis\u00e9s par de la cryptographie forte et de la confidentialit\u00e9 persistante.Les OVI et les services \u00ab sensibles \u00bb (D\u00e9partement informatique, ambassades, minist\u00e8res, Pr\u00e9fectures, Police et Gendarmerie), doivent utiliser 2 couches de chiffrement (VPN + HTTPS ; HTTPS + PGP par exemple) lors de la consultation ou de l'\u00e9change de donn\u00e9es informatiques.Le chiffrement doit obligatoirement \u00eatre effectu\u00e9 de bout en bout.L'ANSSI pourra aider au d\u00e9ploiement et \u00e0 la mise en \u0153uvre.Un audit de s\u00e9curit\u00e9 devra \u00eatre r\u00e9alis\u00e9 tous les 5 ans par l'ANSSI pour les communes de plus de 10 000 habitants. Les OVI et les services \"sensibles\" devront r\u00e9aliser un audit tous les 3 ans.Des ammendes administratives devront \u00eatre pr\u00e9vue pour les fautes et les manquements graves.", 
    "ranking": 56, 
    "sources_count": 0, 
    "votes_ok": 184, 
    "article_id": 196, 
    "versions": [
        {
            "comment": null, 
            "after": null, 
            "title": null, 
            "arguments_no_count": 0, 
            "created_at": "2015-10-17T15:32:14+0200", 
            "author": "spadidominique", 
            "updated_at": "2015-10-17T15:32:14+0200", 
            "id": 1300, 
            "votes_mitige": 0, 
            "arguments_yes_count": 0, 
            "link": "http://www.republique-numerique.fr/projects/projet-de-loi-numerique/consultation/consultation/opinions/section-2-service-public-de-la-donnee-1/securite-confidentialite-et-integrite-des-donnees-publiques/versions/ce-theme-me-semble-relever-du-titre-ii-protection-de-la-societe-numerique-notamment-de-l-article-22-secret-des-correspondances-numeriques", 
            "arguments_count": 0, 
            "before": null, 
            "votes_total": 0, 
            "article_id": 196, 
            "slug": "ce-theme-me-semble-relever-du-titre-ii-protection-de-la-societe-numerique-notamment-de-l-article-22-secret-des-correspondances-numeriques", 
            "votes_nok": 0
        }, 
        {
            "comment": "Etre plus directif dans les propositions de solutions. Expliciter les sigles.", 
            "after": null, 
            "title": null, 
            "arguments_no_count": 0, 
            "created_at": "2015-10-13T15:04:08+0200", 
            "author": "christianmoyon", 
            "updated_at": "2015-10-13T15:04:08+0200", 
            "id": 895, 
            "votes_mitige": 0, 
            "arguments_yes_count": 0, 
            "link": "http://www.republique-numerique.fr/projects/projet-de-loi-numerique/consultation/consultation/opinions/section-2-service-public-de-la-donnee-1/securite-confidentialite-et-integrite-des-donnees-publiques/versions/sigles-non-expliquses", 
            "arguments_count": 0, 
            "before": null, 
            "votes_total": 1, 
            "article_id": 196, 
            "slug": "sigles-non-expliquses", 
            "votes_nok": 0
        }, 
        {
            "comment": "la synth\u00e8se vocale c'est bien joli mais bon", 
            "after": null, 
            "title": null, 
            "arguments_no_count": 0, 
            "created_at": "2015-10-04T01:00:48+0200", 
            "author": "montel", 
            "updated_at": "2015-10-04T01:00:48+0200", 
            "id": 596, 
            "votes_mitige": 0, 
            "arguments_yes_count": 0, 
            "link": "http://www.republique-numerique.fr/projects/projet-de-loi-numerique/consultation/consultation/opinions/section-2-service-public-de-la-donnee-1/securite-confidentialite-et-integrite-des-donnees-publiques/versions/artagraf", 
            "arguments_count": 0, 
            "before": null, 
            "votes_total": 1, 
            "article_id": 196, 
            "slug": "artagraf", 
            "votes_nok": 0
        }, 
        {
            "comment": "Conform\u00e9ment \u00e0 ma proposition ci-jointe o\u00f9 je sollicite un contr\u00f4le de la CNIL et de tiers citoyens pour un service public de la donn\u00e9e, je propose des garanties de s\u00e9curit\u00e9 d'acc\u00e8s aux donn\u00e9es:\nVoir mes explications sous le lien suivant\nhttps://www.republique-numerique.fr/consultations/projet-de-loi-numerique/consultation/consultation/opinions/section-2-service-public-de-la-donnee-1/article-4-creation-d-un-service-public-de-la-donnee/versions/oui-a-un-service-public-de-la-donnee-mais-sous-l-egide-de-la-cnil-et-de-tiers-citoyens", 
            "after": null, 
            "title": null, 
            "arguments_no_count": 0, 
            "created_at": "2015-09-30T11:02:18+0200", 
            "author": "launay", 
            "updated_at": "2015-09-30T11:38:39+0200", 
            "id": 450, 
            "votes_mitige": 0, 
            "arguments_yes_count": 0, 
            "link": "http://www.republique-numerique.fr/projects/projet-de-loi-numerique/consultation/consultation/opinions/section-2-service-public-de-la-donnee-1/securite-confidentialite-et-integrite-des-donnees-publiques/versions/garantie-de-la-securite-de-la-donnee-avec-signature-qualifiee-reglement-eidas-et-sscd-carte-a-puce-de-niveau-renforce", 
            "arguments_count": 0, 
            "before": null, 
            "votes_total": 4, 
            "article_id": 196, 
            "slug": "garantie-de-la-securite-de-la-donnee-avec-signature-qualifiee-reglement-eidas-et-sscd-carte-a-puce-de-niveau-renforce", 
            "votes_nok": 0
        }, 
        {
            "comment": "Une r\u00e9f\u00e9rence au RGS ne serait pas plus simple ?", 
            "after": null, 
            "title": null, 
            "arguments_no_count": 0, 
            "created_at": "2015-09-27T19:24:16+0200", 
            "author": "stephanebortzmeyer", 
            "updated_at": "2015-09-27T19:24:16+0200", 
            "id": 246, 
            "votes_mitige": 0, 
            "arguments_yes_count": 2, 
            "link": "http://www.republique-numerique.fr/projects/projet-de-loi-numerique/consultation/consultation/opinions/section-2-service-public-de-la-donnee-1/securite-confidentialite-et-integrite-des-donnees-publiques/versions/rgs", 
            "arguments_count": 2, 
            "before": null, 
            "votes_total": 10, 
            "article_id": 196, 
            "slug": "rgs", 
            "votes_nok": 0
        }
    ], 
    "created_at": "2015-09-27T18:39:20+0200", 
    "title": "Section 2", 
    "votes_mitige": 25, 
    "body_links": [], 
    "votes_nok": 7
}