{
    "subtitle": "Ouverture des donn\u00e9es publiques", 
    "cat_id": 86, 
    "updated_at": "2015-09-28T22:50:23+0200", 
    "body_anchors": [], 
    "sources": [
        {
            "body": "D\u00e9cret n\u00b0 2014-1489 du 11 d\u00e9cembre 2014 modifiant le code de la consommation en ce qui concerne notamment l'information des consommateurs sur les denr\u00e9es alimentaires", 
            "category": "Lois et r\u00e8glements", 
            "title": "D\u00e9cret n\u00b0 2014-1489 du 11 d\u00e9cembre 2014 modifiant le code de la consommation en ce qui concerne nota", 
            "source_link": "http://www.legifrance.gouv.fr/affichTexte.do?cidTexte=JORFTEXT000029884889&categorieLien=id", 
            "created_at": "2015-10-01T14:40:13+0200", 
            "author": "pierre1", 
            "updated_at": "2015-10-01T14:40:13+0200", 
            "link": "http://www.legifrance.gouv.fr/affichTexte.do?cidTexte=JORFTEXT000029884889&categorieLien=id#source-189", 
            "votes_count": "0", 
            "article_id": 271, 
            "id": "189"
        }
    ], 
    "arguments_count": 6, 
    "versions_count": 1, 
    "votes_total": 132, 
    "author": "louisgabriel", 
    "article_link": "http://www.republique-numerique.fr/projects/projet-de-loi-numerique/consultation/consultation/opinions/section-1-ouverture-des-donnees-publiques-1/rendre-open-source-les-secteurs-alimentaire-et-pharmaceutique", 
    "arguments": [
        {
            "body": "Mauvaise utilisation du terme \"open source\", puisqu'il s'agit ici de tra\u00e7abilit\u00e9. De plus celle-ci est d\u00e9j\u00e0 effective (l\u00e9galement au moins) dans l'agriculture.", 
            "author": "taneleo", 
            "created_at": "2015-10-17T14:55:20+0200", 
            "updated_at": "2015-10-17T14:55:20+0200", 
            "votes_count": "0", 
            "link": "http://www.republique-numerique.fr/projects/projet-de-loi-numerique/consultation/consultation/opinions/section-1-ouverture-des-donnees-publiques-1/rendre-open-source-les-secteurs-alimentaire-et-pharmaceutique#arg-5256#arg-5256", 
            "article_id": 271, 
            "id": "5256"
        }, 
        {
            "body": "D\u2019accord mais seulement si cela est libre et non open sourcehttps://www.gnu.org/philosophy/open-source-misses-the-point.html", 
            "author": "bernardloic", 
            "created_at": "2015-10-15T08:25:25+0200", 
            "updated_at": "2015-10-15T08:25:25+0200", 
            "votes_count": "3", 
            "link": "http://www.republique-numerique.fr/projects/projet-de-loi-numerique/consultation/consultation/opinions/section-1-ouverture-des-donnees-publiques-1/rendre-open-source-les-secteurs-alimentaire-et-pharmaceutique#arg-4100#arg-4100", 
            "article_id": 271, 
            "id": "4100"
        }, 
        {
            "body": "Les industriels eux m\u00eames tra\u00e7ent de mieux en mieux leurs productions (tech. NFC etc...), il est tout \u00e0 fait l\u00e9gitime que le consommateur puisse faire de m\u00eame, il suffit de recouper les sources!A vot\u00e9!", 
            "author": "tsukinocamille", 
            "created_at": "2015-10-14T09:44:15+0200", 
            "updated_at": "2015-10-14T09:44:15+0200", 
            "votes_count": "3", 
            "link": "http://www.republique-numerique.fr/projects/projet-de-loi-numerique/consultation/consultation/opinions/section-1-ouverture-des-donnees-publiques-1/rendre-open-source-les-secteurs-alimentaire-et-pharmaceutique#arg-3780#arg-3780", 
            "article_id": 271, 
            "id": "3780"
        }, 
        {
            "body": "En gros, il s'agit de cr\u00e9er une vraie tra\u00e7abilit\u00e9 dans l'alimentaire. C'est bien mais tr\u00e8s ambitieux et sans doute un peu hors du champ de cette loi malheureusement.", 
            "author": "manikbhattacharjee", 
            "created_at": "2015-10-02T22:21:35+0200", 
            "updated_at": "2015-10-02T22:21:35+0200", 
            "votes_count": "5", 
            "link": "http://www.republique-numerique.fr/projects/projet-de-loi-numerique/consultation/consultation/opinions/section-1-ouverture-des-donnees-publiques-1/rendre-open-source-les-secteurs-alimentaire-et-pharmaceutique#arg-2059#arg-2059", 
            "article_id": 271, 
            "id": "2059"
        }, 
        {
            "body": "La transparence est le meilleur alli\u00e9 des citoyens...mais le pire ennemi des industriels dans ces milieux.", 
            "author": "jonathancrequer", 
            "created_at": "2015-10-02T20:59:36+0200", 
            "updated_at": "2015-10-02T20:59:36+0200", 
            "votes_count": "1", 
            "link": "http://www.republique-numerique.fr/projects/projet-de-loi-numerique/consultation/consultation/opinions/section-1-ouverture-des-donnees-publiques-1/rendre-open-source-les-secteurs-alimentaire-et-pharmaceutique#arg-2049#arg-2049", 
            "article_id": 271, 
            "id": "2049"
        }, 
        {
            "body": "Bonne id\u00e9e. Mais la liste des ingr\u00e9dients est \u00e9crit en tou petit. Le d\u00e9but aurait de grossir les inscriptions pour les personnes mal voyantes.", 
            "author": "julesch", 
            "created_at": "2015-09-30T23:39:38+0200", 
            "updated_at": "2015-09-30T23:39:38+0200", 
            "votes_count": "2", 
            "link": "http://www.republique-numerique.fr/projects/projet-de-loi-numerique/consultation/consultation/opinions/section-1-ouverture-des-donnees-publiques-1/rendre-open-source-les-secteurs-alimentaire-et-pharmaceutique#arg-1727#arg-1727", 
            "article_id": 271, 
            "id": "1727"
        }
    ], 
    "answer": {}, 
    "body": "Nous voulons savoir ce que nous mangeons et avec quoi nous nous soignons que ce soit pour des raisons di\u00e9t\u00e9tiques, \u00e9thiques, sanitaires ou autre.Par le biais d'un QR-Code, chaque consommateur aurait acc\u00e8s au \"code source\" du produit. Pas juste la liste des ingr\u00e9dients, l'int\u00e9gralit\u00e9 du processus de fabrication depuis les mati\u00e8res premi\u00e8re jusqu'au produit fini en passant par chaque \u00e9tape de transformation et de transport.Pourquoi pas en profiter pour \"noter\" les producteurs, les produits,...Bien entendu cela devrait \u00eatre obligatoire pour tous les produits vendus en France, jamais ils ne voudront le faire de leur plein gr\u00e8s.Parce que oui la transparence est \u00e0 la mode.", 
    "ranking": 80, 
    "sources_count": 1, 
    "votes_ok": 121, 
    "article_id": 271, 
    "versions": [
        {
            "comment": "La transparence absolue pour toute personne qui d\u00e9sire savoir ce qu'elles mangent.", 
            "after": null, 
            "title": null, 
            "arguments_no_count": 1, 
            "created_at": "2015-09-28T23:42:14+0200", 
            "author": "jeannevarasco", 
            "updated_at": "2015-09-28T23:42:14+0200", 
            "id": 362, 
            "votes_mitige": 0, 
            "arguments_yes_count": 0, 
            "link": "http://www.republique-numerique.fr/projects/projet-de-loi-numerique/consultation/consultation/opinions/section-1-ouverture-des-donnees-publiques-1/rendre-open-source-les-secteurs-alimentaire-et-pharmaceutique/versions/mise-en-forme", 
            "arguments_count": 1, 
            "before": null, 
            "votes_total": 7, 
            "article_id": 271, 
            "slug": "mise-en-forme", 
            "votes_nok": 0
        }
    ], 
    "created_at": "2015-09-28T22:50:23+0200", 
    "title": "Section 1", 
    "votes_mitige": 6, 
    "body_links": [], 
    "votes_nok": 5
}