{
    "subtitle": "Protection des donn\u00e9es \u00e0 caract\u00e8re personnel", 
    "cat_id": 99, 
    "updated_at": "2015-10-15T14:57:44+0200", 
    "body_anchors": [], 
    "sources": [], 
    "arguments_count": 1, 
    "versions_count": 0, 
    "votes_total": 7, 
    "author": "andredelaforge", 
    "article_link": "http://www.republique-numerique.fr/projects/projet-de-loi-numerique/consultation/consultation/opinions/section-1-protection-des-donnees-a-caractere-personnel/proposition-pour-le-developpement-de-methodes-d-authentification-forte-ouvertes-evaluables-et-respectueuses-de-la-vie-privee", 
    "arguments": [
        {
            "body": "France-connect qui sortira en 2016 va dans ce sens.", 
            "author": "jeannevarasco", 
            "created_at": "2015-10-16T21:07:06+0200", 
            "updated_at": "2015-10-16T21:07:06+0200", 
            "votes_count": "2", 
            "link": "http://www.republique-numerique.fr/projects/projet-de-loi-numerique/consultation/consultation/opinions/section-1-protection-des-donnees-a-caractere-personnel/proposition-pour-le-developpement-de-methodes-d-authentification-forte-ouvertes-evaluables-et-respectueuses-de-la-vie-privee#arg-5035#arg-5035", 
            "article_id": 633, 
            "id": "5035"
        }
    ], 
    "answer": {}, 
    "body": "Dans un monde de plus en plus num\u00e9rique, l\u2019acte d\u2019authentification est un geste fondamental. C\u2019est l\u2019acte que nous r\u00e9alisons pour nous connecter \u00e0 notre cloud ou \u00e0 un coffre-fort \u00e9lectronique afin d\u2019acc\u00e9der \u00e0 des informations personnelles mais c\u2019est \u00e9galement le geste que nous faisons pour acc\u00e9der \u00e0 un site de banque en ligne ou r\u00e9aliser un paiement.L'acte d'authentification va donc bien au-del\u00e0 d'un simple choix technologique : il structure nos acc\u00e8s \u00e0 des services de notre quotidien et de notre vie num\u00e9rique. Impliquant pour l'utilisateur, il doit permettre d\u2019exprimer le consentement tout en restant suffisamment simple pour pouvoir \u00eatre utilis\u00e9 par la vaste majorit\u00e9 d\u2019entre nous.L\u2019acte d\u2019authentification, \u00e0 l\u2019origine simple point d\u2019entr\u00e9e, est devenu \u00e9l\u00e9ment de diff\u00e9renciation pour les fournisseurs de services. Offrir le moyen le plus simple et le plus universel d\u2019authentification c\u2019est \u00ab capturer \u00bb le client en d\u00e9finissant un guichet privil\u00e9gi\u00e9 (voire unique) pour la r\u00e9alisation d\u2019un service.A ce jeu, les acteurs du monde de l'internet (les GAFA : Google, Apple, Facebook, Amazon) imposent leurs r\u00e8gles, leurs technologies, leur conception de la s\u00e9curit\u00e9 et leur vision de la protection des donn\u00e9es personnelles (d\u2019ailleurs \u00e0 titre d\u2019illustration, les proc\u00e9dures de contribution sur ce site les utilisent). L\u2019authentification est donc bien une technologie souveraine, car au c\u0153ur m\u00eame de l\u2019acc\u00e8s de chacun au num\u00e9rique.\u00a0Il nous semble donc essentiel de favoriser l\u2019\u00e9mergence de m\u00e9thodes d\u2019authentification forte :\u2022 ouvertes (bas\u00e9es, par exemple, sur des sp\u00e9cifications accessibles \u00e0 tous les industriels) ;\u2022 s\u2019inscrivant dans un sch\u00e9ma d\u2019\u00e9valuation et de certification, bas\u00e9es sur des tests r\u00e9alis\u00e9s par des laboratoires ind\u00e9pendants ;\u2022 compatibles avec les services n\u00e9cessitant une authentification forte et les diff\u00e9rentes initiatives autour de l\u2019identit\u00e9 num\u00e9rique (France Connect, EidAS\u2026) ;\u2022 offrant une s\u00e9curisation forte des donn\u00e9es utilis\u00e9es pour l\u2019authentification ;\u2022 en conformit\u00e9 avec les recommandations \u00e9mises par les r\u00e9gulateurs (bancaires, autorit\u00e9 de protection des donn\u00e9es personnelles\u2026)Cette proposition a pour but de :\u2022 r\u00e9pondre aux besoins croissants de m\u00e9thodes d\u2019authentification simple, universelle et s\u00e9curis\u00e9e ;\u2022 favoriser l\u2019\u00e9mergence de technologies europ\u00e9ennes souveraines alors que le paysage des technologies online (terminaux, operating system, outils de recherche\u2026) est majoritairement con\u00e7u et exploit\u00e9 hors de l\u2019Europe ;\u2022 contribuer \u00e0 la diffusion et renforcer les bonnes pratiques li\u00e9es \u00e0 la protection des donn\u00e9es personnelles (Privacy by Design, Privacy by Default, Privacy Rules\u2026) ;\u2022 \u00e9tablir la confiance mutuelle entre les fournisseurs de services et les utilisateurs ;\u2022 accompagner l\u2019apparition d\u2019un \u00e9cosyst\u00e8me de services \u00e0 valeur ajout\u00e9e en Europe reposant sur une authentification forte d\u2019un utilisateur", 
    "ranking": 397, 
    "sources_count": 0, 
    "votes_ok": 7, 
    "article_id": 633, 
    "versions": [], 
    "created_at": "2015-10-15T14:57:44+0200", 
    "title": "Section 1", 
    "votes_mitige": 0, 
    "body_links": [], 
    "votes_nok": 0
}