{
    "subtitle": "Comp\u00e9tences et organisation", 
    "cat_id": 103, 
    "updated_at": "2015-10-18T11:59:49+0200", 
    "body_anchors": [], 
    "sources": [], 
    "arguments_count": 1, 
    "versions_count": 0, 
    "votes_total": 3, 
    "author": "emmanuellehelly", 
    "article_link": "http://www.republique-numerique.fr/projects/projet-de-loi-numerique/consultation/consultation/opinions/section-1-competences-et-organisation/aider-les-citoyens-dans-leurs-pratiques-numeriques", 
    "arguments": [
        {
            "body": "Les recommandations du CNNUm pour lutter contre l'exclusion num\u00e9rique : http://www.cnnumerique.fr/inclusion/", 
            "author": "emmanuellehelly", 
            "created_at": "2015-10-18T15:36:11+0200", 
            "updated_at": "2015-10-18T15:36:11+0200", 
            "votes_count": "0", 
            "link": "http://www.republique-numerique.fr/projects/projet-de-loi-numerique/consultation/consultation/opinions/section-1-competences-et-organisation/aider-les-citoyens-dans-leurs-pratiques-numeriques#arg-5866#arg-5866", 
            "article_id": 732, 
            "id": "5866"
        }
    ], 
    "answer": {}, 
    "body": "Les programmes des formations pour les travailleurs sociaux d\u00e9crits dans le livre V du code de l'action sociale et des\u00a0 familles doivent inclure une composante sur l'informatique et les pratiques num\u00e9riquesLes conseils d\u00e9partementaux et r\u00e9gionaux, les collectivit\u00e9s locales doivent avoir les moyens de mettre \u00e0 disposition des Espaces Publics Num\u00e9riques des personnels form\u00e9s \u00e0 l'action sociale et l'aide aux familles et au num\u00e9rique", 
    "ranking": 506, 
    "sources_count": 0, 
    "votes_ok": 3, 
    "article_id": 732, 
    "versions": [], 
    "created_at": "2015-10-18T11:59:49+0200", 
    "title": "Section 1", 
    "votes_mitige": 0, 
    "body_links": [], 
    "votes_nok": 0
}