{
    "subtitle": "Accessibilit\u00e9 des personnes handicap\u00e9es aux services t\u00e9l\u00e9phoniques", 
    "cat_id": 109, 
    "updated_at": "2015-09-26T12:53:41+0200", 
    "body_anchors": [], 
    "sources": [], 
    "arguments_count": 10, 
    "versions_count": 1, 
    "votes_total": 115, 
    "author": "hayekvalerie", 
    "article_link": "http://www.republique-numerique.fr/projects/projet-de-loi-numerique/consultation/consultation/opinions/section-1-accessibilite-des-personnes-handicapees-aux-services-telephoniques/acces-aux-personnes-isolees-et-agees", 
    "arguments": [
        {
            "body": "Pas mal comme id\u00e9e, il faut voir comment c'est possible de le mettre en place.", 
            "author": "aurore1", 
            "created_at": "2015-10-15T16:50:34+0200", 
            "updated_at": "2015-10-15T16:50:34+0200", 
            "votes_count": "0", 
            "link": "http://www.republique-numerique.fr/projects/projet-de-loi-numerique/consultation/consultation/opinions/section-1-accessibilite-des-personnes-handicapees-aux-services-telephoniques/acces-aux-personnes-isolees-et-agees#arg-4294#arg-4294", 
            "article_id": 97, 
            "id": "4294"
        }, 
        {
            "body": "Le gouvernement a la responsabilit\u00e9 de rendre ses services accessibles \u00e0 tous les citoyens.A cet effet, toutes les administrations qui d\u00e9livrent des services d\u00e9mat\u00e9rialis\u00e9s devraient avoir pour mission de mettre en place un soutien adapt\u00e9 \u00e0 ceux qui ne peuvent les utiliser de mani\u00e8re autonome et de concevoir leurs services selon un r\u00e9f\u00e9rentiel qui tient compte des \u00e9carts de comp\u00e9tences informatiques et d'usages. Une d\u00e9marche UX, tenant compte de cette r\u00e9alit\u00e9, devrait \u00eatre syst\u00e9matiquement conduite, sans quoi ce sont des millions de personnes qui auront de profondes difficult\u00e9s \u00e0 utiliser ces services en toute ind\u00e9pendance. http://www.les-cahiers-connexions-solidaires.fr/dossier/prospective-inclusion-numerique-au-royaume-uni/un-plan-national-dinclusion-numerique-au-ru-pourquoi/", 
            "author": "emmausconnect", 
            "created_at": "2015-10-10T13:36:01+0200", 
            "updated_at": "2015-10-10T13:36:01+0200", 
            "votes_count": "1", 
            "link": "http://www.republique-numerique.fr/projects/projet-de-loi-numerique/consultation/consultation/opinions/section-1-accessibilite-des-personnes-handicapees-aux-services-telephoniques/acces-aux-personnes-isolees-et-agees#arg-2925#arg-2925", 
            "article_id": 97, 
            "id": "2925"
        }, 
        {
            "body": "Oui avec l'aide d'association, r\u00e9servistes suivi par la mairie qui est cens\u00e9e conna\u00eetre sa population \u00e2g\u00e9e ou les personnes indigentes ou ayant des difficult\u00e9s avec l'utilisation d'internet", 
            "author": "citoyen47", 
            "created_at": "2015-10-01T02:01:55+0200", 
            "updated_at": "2015-10-01T02:01:55+0200", 
            "votes_count": "3", 
            "link": "http://www.republique-numerique.fr/projects/projet-de-loi-numerique/consultation/consultation/opinions/section-1-accessibilite-des-personnes-handicapees-aux-services-telephoniques/acces-aux-personnes-isolees-et-agees#arg-1747#arg-1747", 
            "article_id": 97, 
            "id": "1747"
        }, 
        {
            "body": "Il est des personnes qui refusent ou sont incapables parce que analphab\u00e8tes d'utiliser internet. Et il peut se faire qu'elles aient de tr\u00e8s hauts revenus ! Qu'adviendra-il d'elles si Bercy et d'autres minist\u00e8res ou institutions tentent de les contraindre \u00e0 utiliser internet ? Faudra-t-il cr\u00e9er des brigades d' \u00e9crivains public internet ?", 
            "author": "hartenbergerjeanlouis", 
            "created_at": "2015-09-29T07:42:34+0200", 
            "updated_at": "2015-09-29T07:42:34+0200", 
            "votes_count": "0", 
            "link": "http://www.republique-numerique.fr/projects/projet-de-loi-numerique/consultation/consultation/opinions/section-1-accessibilite-des-personnes-handicapees-aux-services-telephoniques/acces-aux-personnes-isolees-et-agees#arg-1122#arg-1122", 
            "article_id": 97, 
            "id": "1122"
        }, 
        {
            "body": "Cette possibilit\u00e9 pourrait \"facilement\" \u00eatre mise en place dans les m\u00e9diath\u00e8ques qui sont d\u00e9j\u00e0 int\u00e9gr\u00e9 au structure municipale et qui peuvent m\u00eame fournir un acc\u00e8s aux EPN (espace public num\u00e9rique)", 
            "author": "zeraldarlezienne", 
            "created_at": "2015-09-27T13:16:42+0200", 
            "updated_at": "2015-09-27T13:16:42+0200", 
            "votes_count": "6", 
            "link": "http://www.republique-numerique.fr/projects/projet-de-loi-numerique/consultation/consultation/opinions/section-1-accessibilite-des-personnes-handicapees-aux-services-telephoniques/acces-aux-personnes-isolees-et-agees#arg-506#arg-506", 
            "article_id": 97, 
            "id": "506"
        }, 
        {
            "body": "Il existe d\u00e9j\u00e0 un syst\u00e8me de formation financ\u00e9 par les r\u00e9gions, les visas num\u00e9riques.", 
            "author": "oliviersery", 
            "created_at": "2015-09-27T02:41:52+0200", 
            "updated_at": "2015-09-27T02:41:52+0200", 
            "votes_count": "1", 
            "link": "http://www.republique-numerique.fr/projects/projet-de-loi-numerique/consultation/consultation/opinions/section-1-accessibilite-des-personnes-handicapees-aux-services-telephoniques/acces-aux-personnes-isolees-et-agees#arg-377#arg-377", 
            "article_id": 97, 
            "id": "377"
        }, 
        {
            "body": "Pas le r\u00f4le des mairies mais de l'\u00e9ducation nationale, des organismes de formation et des associations.", 
            "author": "davidvantyghem", 
            "created_at": "2015-09-26T23:31:29+0200", 
            "updated_at": "2015-09-26T23:31:29+0200", 
            "votes_count": "4", 
            "link": "http://www.republique-numerique.fr/projects/projet-de-loi-numerique/consultation/consultation/opinions/section-1-accessibilite-des-personnes-handicapees-aux-services-telephoniques/acces-aux-personnes-isolees-et-agees#arg-299#arg-299", 
            "article_id": 97, 
            "id": "299"
        }, 
        {
            "body": "En mairie ou \u00e0 la poste avec du personnel soumis au secret professionnel et \u00e0 une bonne honn\u00eatet\u00e9 pour aider ces personnes.", 
            "author": "jeannevarasco", 
            "created_at": "2015-09-26T23:22:10+0200", 
            "updated_at": "2015-09-26T23:22:10+0200", 
            "votes_count": "2", 
            "link": "http://www.republique-numerique.fr/projects/projet-de-loi-numerique/consultation/consultation/opinions/section-1-accessibilite-des-personnes-handicapees-aux-services-telephoniques/acces-aux-personnes-isolees-et-agees#arg-292#arg-292", 
            "article_id": 97, 
            "id": "292"
        }, 
        {
            "body": "Ne pas profiter du d\u00e9veloppement du num\u00e9rique pour supprimer des services publics en pr\u00e9sentiel.", 
            "author": "florentinfeller", 
            "created_at": "2015-09-26T22:06:54+0200", 
            "updated_at": "2015-09-26T22:06:54+0200", 
            "votes_count": "4", 
            "link": "http://www.republique-numerique.fr/projects/projet-de-loi-numerique/consultation/consultation/opinions/section-1-accessibilite-des-personnes-handicapees-aux-services-telephoniques/acces-aux-personnes-isolees-et-agees#arg-262#arg-262", 
            "article_id": 97, 
            "id": "262"
        }, 
        {
            "body": "Et pourquoi ne pas faire intervenir les association locale comme les Linux User Group et autres associations d'utilisateurs de logiciels libre qui seraient ravies de donner de leur temps pour la bonne cause ?Soyons fou on pourrait m\u00eame envisager un partenariat entre les mairie, pr\u00e9fecture et ces associations si l'\u00e9tat est assez courageux...", 
            "author": "djangicquel", 
            "created_at": "2015-09-26T18:32:15+0200", 
            "updated_at": "2015-09-26T18:32:15+0200", 
            "votes_count": "8", 
            "link": "http://www.republique-numerique.fr/projects/projet-de-loi-numerique/consultation/consultation/opinions/section-1-accessibilite-des-personnes-handicapees-aux-services-telephoniques/acces-aux-personnes-isolees-et-agees#arg-195#arg-195", 
            "article_id": 97, 
            "id": "195"
        }
    ], 
    "answer": {}, 
    "body": "Toute personne devrait pouvoir b\u00e9n\u00e9ficier d'un acc\u00e8s direct aux services num\u00e9riques en Mairie. Cet acc\u00e8s devrait \u00eatre libre et continue.Toute personne devrait avoir la possibilit\u00e9 de suivre une formation en Mairie pour ma\u00eetriser les outils num\u00e9riques.", 
    "ranking": 102, 
    "sources_count": 0, 
    "votes_ok": 90, 
    "article_id": 97, 
    "versions": [
        {
            "comment": null, 
            "after": null, 
            "title": null, 
            "arguments_no_count": 1, 
            "created_at": "2015-10-04T17:55:27+0200", 
            "author": "bernard", 
            "updated_at": "2015-10-04T17:55:27+0200", 
            "id": 605, 
            "votes_mitige": 2, 
            "arguments_yes_count": 0, 
            "link": "http://www.republique-numerique.fr/projects/projet-de-loi-numerique/consultation/consultation/opinions/section-1-accessibilite-des-personnes-handicapees-aux-services-telephoniques/acces-aux-personnes-isolees-et-agees/versions/wifi-obligatoire-en-maison-de-retraite-dans-cahier-des-charges", 
            "arguments_count": 1, 
            "before": null, 
            "votes_total": 9, 
            "article_id": 97, 
            "slug": "wifi-obligatoire-en-maison-de-retraite-dans-cahier-des-charges", 
            "votes_nok": 2
        }
    ], 
    "created_at": "2015-09-26T12:53:41+0200", 
    "title": "Section 1", 
    "votes_mitige": 13, 
    "body_links": [], 
    "votes_nok": 12
}