{
    "subtitle": "Protection des donn\u00e9es \u00e0 caract\u00e8re personnel", 
    "cat_id": 99, 
    "updated_at": "2015-09-26T21:07:28+0200", 
    "body_anchors": [], 
    "sources": [
        {
            "body": "Loi n\u00b0 2004-575 du 21 juin 2004 pour la confiance dans l'\u00e9conomie num\u00e9rique", 
            "category": "Lois et r\u00e8glements", 
            "title": "Loi n\u00b0 2004-575 du 21 juin 2004 pour la confiance dans l'\u00e9conomie num\u00e9rique", 
            "source_link": "http://www.legifrance.gouv.fr/affichTexte.do?cidTexte=JORFTEXT000000801164", 
            "created_at": "2015-10-01T14:44:44+0200", 
            "author": "pierre1", 
            "updated_at": "2015-10-01T14:45:09+0200", 
            "link": "http://www.legifrance.gouv.fr/affichTexte.do?cidTexte=JORFTEXT000000801164#source-192", 
            "votes_count": "0", 
            "article_id": 135, 
            "id": "192"
        }, 
        {
            "body": "Article L34-1-1Afin de pr\u00e9venir les actes de terrorisme, les agents individuellement d\u00e9sign\u00e9s et d\u00fbment habilit\u00e9s des services de police et de gendarmerie nationales sp\u00e9cialement charg\u00e9s de ces missions peuvent exiger des op\u00e9rateurs et personnes mentionn\u00e9s au I de l'article L. 34-1 la communication des donn\u00e9es conserv\u00e9es et trait\u00e9es par ces derniers en application dudit article.Les donn\u00e9es pouvant faire l'objet de cette demande sont limit\u00e9es aux donn\u00e9es techniques relatives \u00e0 l'identification des num\u00e9ros d'abonnement ou de connexion \u00e0 des services de communications \u00e9lectroniques, au recensement de l'ensemble des num\u00e9ros d'abonnement ou de connexion d'une personne d\u00e9sign\u00e9e, aux donn\u00e9es relatives \u00e0 la localisation des \u00e9quipements terminaux utilis\u00e9s ainsi qu'aux donn\u00e9es techniques relatives aux communications d'un abonn\u00e9 portant sur la liste des num\u00e9ros appel\u00e9s et appelants, la dur\u00e9e et la date des communications.Les surco\u00fbts identifiables et sp\u00e9cifiques \u00e9ventuellement expos\u00e9s par les op\u00e9rateurs et personnes mentionn\u00e9s au premier alin\u00e9a pour r\u00e9pondre \u00e0 ces demandes font l'objet d'une compensation financi\u00e8re.Les demandes des agents sont motiv\u00e9es et soumises \u00e0 la d\u00e9cision d'une personnalit\u00e9 qualifi\u00e9e, plac\u00e9e aupr\u00e8s du ministre de l'int\u00e9rieur. Cette personnalit\u00e9 est d\u00e9sign\u00e9e pour une dur\u00e9e de trois ans renouvelable par la Commission nationale de contr\u00f4le des interceptions de s\u00e9curit\u00e9 sur proposition du ministre de l'int\u00e9rieur qui lui pr\u00e9sente une liste d'au moins trois noms. Des adjoints pouvant la suppl\u00e9er sont d\u00e9sign\u00e9s dans les m\u00eames conditions. La personnalit\u00e9 qualifi\u00e9e \u00e9tablit un rapport d'activit\u00e9 annuel adress\u00e9 \u00e0 la Commission nationale de contr\u00f4le des interceptions de s\u00e9curit\u00e9. Les demandes, accompagn\u00e9es de leur motif, font l'objet d'un enregistrement et sont communiqu\u00e9es \u00e0 la Commission nationale de contr\u00f4le des interceptions de s\u00e9curit\u00e9.Cette instance peut \u00e0 tout moment proc\u00e9der \u00e0 des contr\u00f4les relatifs aux op\u00e9rations de communication des donn\u00e9es techniques. Lorsqu'elle constate un manquement aux r\u00e8gles d\u00e9finies par le pr\u00e9sent article ou une atteinte aux droits et libert\u00e9s, elle saisit le ministre de l'int\u00e9rieur d'une recommandation. Celui-ci lui fait conna\u00eetre dans un d\u00e9lai de quinze jours les mesures qu'il a prises pour rem\u00e9dier aux manquements constat\u00e9s.Les modalit\u00e9s d'application des dispositions du pr\u00e9sent article sont fix\u00e9es par d\u00e9cret en Conseil d'Etat, pris apr\u00e8s avis de la Commission nationale de l'informatique et des libert\u00e9s et de la Commission nationale de contr\u00f4le des interceptions de s\u00e9curit\u00e9, qui pr\u00e9cise notamment la proc\u00e9dure de suivi des demandes et les conditions et dur\u00e9e de conservation des donn\u00e9es transmises.NOTA : Loi n\u00b0 2006-64 du 23 janvier 2006 article 32 : L'article L. 34-1-1 est en vigueur jusqu'au 31 d\u00e9cembre 2008.Conform\u00e9ment \u00e0 la loi n\u00b0 2008-1245 du 1er d\u00e9cembre 2008, les dispositions de l'article 32 de la loi n\u00b0 2006-64 du 23 janvier 2006 d\u00e9terminant la dur\u00e9e d'application des dispositions introduites par les articles 3, 6 et 9 de la m\u00eame loi sont prorog\u00e9es jusqu'au 31 d\u00e9cembre 2012. La loi n\u00b0 2012-1432 du 21 d\u00e9cembre 2012, article 1er, a prorog\u00e9 ces m\u00eames dispositions jusqu'au 31 d\u00e9cembre 2015", 
            "category": "Lois et r\u00e8glements", 
            "title": "Article L34-1-1 du code des postes et des communications \u00e9lectroniques Fran\u00e7ais", 
            "source_link": "http://www.legifrance.gouv.fr/affichCodeArticle.do?cidTexte=LEGITEXT000006070987&idArticle=LEGIARTI000006465793&dateTexte=&categorieLien=cid", 
            "created_at": "2015-10-01T14:43:46+0200", 
            "author": "pierre1", 
            "updated_at": "2015-10-01T14:43:46+0200", 
            "link": "http://www.legifrance.gouv.fr/affichCodeArticle.do?cidTexte=LEGITEXT000006070987&idArticle=LEGIARTI000006465793&dateTexte=&categorieLien=cid#source-191", 
            "votes_count": "0", 
            "article_id": 135, 
            "id": "191"
        }
    ], 
    "arguments_count": 8, 
    "versions_count": 1, 
    "votes_total": 80, 
    "author": "ines", 
    "article_link": "http://www.republique-numerique.fr/projects/projet-de-loi-numerique/consultation/consultation/opinions/section-1-protection-des-donnees-a-caractere-personnel/reduire-la-duree-de-conservation-des-donnees-de-connexion", 
    "arguments": [
        {
            "body": "\u00c0 toutes les personnes qui disent qu'on ne peut pas s'opposer \u00e0 une telle mesure tant qu'on n'a rien \u00e0 cacher (et donc, \u00e0 @Laurent Martin)\"Je ne comprends pas en quoi une telle conservation peut poser probl\u00e8me pour le citoyen \"normal\" ?\"Parce que cela entraine la suspicion g\u00e9n\u00e9ralis\u00e9e. Je vous le montre :Avez-vous des rideaux chez-vous ? Je suppose que la r\u00e9ponse est affirmative. Mais alors, pourquoi donc ? Puisqu'en tant que citoyen \"normal\", vous n'avez rien \u00e0 cacher, n'est ce pas ? Alors pourquoi, si vous n'avez rien \u00e0 cacher, devez-vous utiliser des rideaux ?... C'est bien la preuve que quelque chose n'est pas net chez vous.S'opposer au viol de la vie priv\u00e9e fait de vous un suspect.Quant aux terroriste, faites-leur confiance pour utiliser des techniques de camouflage. En d\u00e9finitive, on surveille le citoyen lambda, mais pas les terroristes.", 
            "author": "ericbienfait", 
            "created_at": "2015-10-18T20:14:48+0200", 
            "updated_at": "2015-10-18T20:14:48+0200", 
            "votes_count": "1", 
            "link": "http://www.republique-numerique.fr/projects/projet-de-loi-numerique/consultation/consultation/opinions/section-1-protection-des-donnees-a-caractere-personnel/reduire-la-duree-de-conservation-des-donnees-de-connexion#arg-6065#arg-6065", 
            "article_id": 135, 
            "id": "6065"
        }, 
        {
            "body": "\u00c0 toutes les personnes qui disent qu'on ne peut pas s'opposer \u00e0 une telle mesure tant qu'on n'a rien \u00e0 cacher (et donc, \u00e0 @Laurent Martin)\"Je ne comprends pas en quoi une telle conservation peut poser probl\u00e8me pour le citoyen \"normal\" ?\"Parce que cela entraine la suspicion g\u00e9n\u00e9ralis\u00e9e. Je vous le montre :Avez-vous des rideaux chez-vous ? Je suppose que la r\u00e9ponse est affirmative. Mais alors, pourquoi donc ? Puisqu'en tant que citoyen \"normal\", vous n'avez rien \u00e0 cacher, n'est ce pas ? Alors pourquoi, si vous n'avez rien \u00e0 cacher, devez-vous utiliser des rideaux ?... C'est bien la preuve que quelque chose n'est pas net chez vous.S'opposer au viol de la vie priv\u00e9e fait de vous un suspect.Quant aux terroriste, faites-leur confiance pour utiliser des techniques de camouflage. En d\u00e9finitive, on surveille le citoyen lambda, mais pas les terroristes.", 
            "author": "ericbienfait", 
            "created_at": "2015-10-18T20:14:40+0200", 
            "updated_at": "2015-10-18T20:14:40+0200", 
            "votes_count": "0", 
            "link": "http://www.republique-numerique.fr/projects/projet-de-loi-numerique/consultation/consultation/opinions/section-1-protection-des-donnees-a-caractere-personnel/reduire-la-duree-de-conservation-des-donnees-de-connexion#arg-6064#arg-6064", 
            "article_id": 135, 
            "id": "6064"
        }, 
        {
            "body": "\u00c0 toutes les personnes qui disent qu'on ne peut pas s'opposer \u00e0 une telle mesure tant qu'on n'a rien \u00e0 cacher (et donc, \u00e0 @Laurent Martin)\"Je ne comprends pas en quoi une telle conservation peut poser probl\u00e8me pour le citoyen \"normal\" ?\"Parce que cela entraine la suspicion g\u00e9n\u00e9ralis\u00e9e. Je vous le montre :Avez-vous des rideaux chez-vous ? Je suppose que la r\u00e9ponse est affirmative. Mais alors, pourquoi donc ? Puisqu'en tant que citoyen \"normal\", vous n'avez rien \u00e0 cacher, n'est ce pas ? Alors pourquoi, si vous n'avez rien \u00e0 cacher, devez-vous utiliser des rideaux ?... C'est bien la preuve que quelque chose n'est pas net chez vous.S'opposer au viol de la vie priv\u00e9e fait de vous un suspect.Quant aux terroriste, faites-leur confiance pour utiliser des techniques de camouflage. En d\u00e9finitive, on surveille le citoyen lambda, mais pas les terroristes.", 
            "author": "ericbienfait", 
            "created_at": "2015-10-18T20:14:31+0200", 
            "updated_at": "2015-10-18T20:14:31+0200", 
            "votes_count": "0", 
            "link": "http://www.republique-numerique.fr/projects/projet-de-loi-numerique/consultation/consultation/opinions/section-1-protection-des-donnees-a-caractere-personnel/reduire-la-duree-de-conservation-des-donnees-de-connexion#arg-6063#arg-6063", 
            "article_id": 135, 
            "id": "6063"
        }, 
        {
            "body": "\u00c0 toutes les personnes qui disent qu'on ne peut pas s'opposer \u00e0 une telle mesure tant qu'on n'a rien \u00e0 cacher (et donc, \u00e0 @Laurent Martin)\"Je ne comprends pas en quoi une telle conservation peut poser probl\u00e8me pour le citoyen \"normal\" ?\"Parce que cela entraine la suspicion g\u00e9n\u00e9ralis\u00e9e. Je vous le montre :Avez-vous des rideaux chez-vous ? Je suppose que la r\u00e9ponse est affirmative. Mais alors, pourquoi donc ? Puisqu'en tant que citoyen \"normal\", vous n'avez rien \u00e0 cacher, n'est ce pas ? Alors pourquoi, si vous n'avez rien \u00e0 cacher, devez-vous utiliser des rideaux ?... C'est bien la preuve que quelque chose n'est pas net chez vous.S'opposer au viol de la vie priv\u00e9e fait de vous un suspect.Quant aux terroriste, faites-leur confiance pour utiliser des techniques de camouflage. En d\u00e9finitive, on surveille le citoyen lambda, mais pas les terroristes.", 
            "author": "ericbienfait", 
            "created_at": "2015-10-18T20:14:18+0200", 
            "updated_at": "2015-10-18T20:14:18+0200", 
            "votes_count": "0", 
            "link": "http://www.republique-numerique.fr/projects/projet-de-loi-numerique/consultation/consultation/opinions/section-1-protection-des-donnees-a-caractere-personnel/reduire-la-duree-de-conservation-des-donnees-de-connexion#arg-6062#arg-6062", 
            "article_id": 135, 
            "id": "6062"
        }, 
        {
            "body": "\u00c0 toutes les personnes qui disent qu'on ne peut pas s'opposer \u00e0 une telle mesure tant qu'on n'a rien \u00e0 cacher (et donc, \u00e0 @Laurent Martin)\"Je ne comprends pas en quoi une telle conservation peut poser probl\u00e8me pour le citoyen \"normal\" ?\"Parce que cela entraine la suspicion g\u00e9n\u00e9ralis\u00e9e. Je vous le montre :Avez-vous des rideaux chez-vous ? Je suppose que la r\u00e9ponse est affirmative. Mais alors, pourquoi donc ? Puisqu'en tant que citoyen \"normal\", vous n'avez rien \u00e0 cacher, n'est ce pas ? Alors pourquoi, si vous n'avez rien \u00e0 cacher, devez-vous utiliser des rideaux ?... C'est bien la preuve que quelque chose n'est pas net chez vous.S'opposer au viol de la vie priv\u00e9e fait de vous un suspect.Quant aux terroriste, faites-leur confiance pour utiliser des techniques de camouflage. En d\u00e9finitive, on surveille le citoyen lambda, mais pas les terroristes.", 
            "author": "ericbienfait", 
            "created_at": "2015-10-18T20:14:11+0200", 
            "updated_at": "2015-10-18T20:14:11+0200", 
            "votes_count": "0", 
            "link": "http://www.republique-numerique.fr/projects/projet-de-loi-numerique/consultation/consultation/opinions/section-1-protection-des-donnees-a-caractere-personnel/reduire-la-duree-de-conservation-des-donnees-de-connexion#arg-6061#arg-6061", 
            "article_id": 135, 
            "id": "6061"
        }, 
        {
            "body": "1 an ne me semble pas excessif. 3 mois, c'est clairement trop court.", 
            "author": "taneleo", 
            "created_at": "2015-10-17T17:16:38+0200", 
            "updated_at": "2015-10-17T17:16:38+0200", 
            "votes_count": "0", 
            "link": "http://www.republique-numerique.fr/projects/projet-de-loi-numerique/consultation/consultation/opinions/section-1-protection-des-donnees-a-caractere-personnel/reduire-la-duree-de-conservation-des-donnees-de-connexion#arg-5395#arg-5395", 
            "article_id": 135, 
            "id": "5395"
        }, 
        {
            "body": "Rares sont les personnes qui ont envie de voir leur historique de navigation \u00eatre diffus\u00e9 et je n'en fait pas parti. Mais si je veux donner les moyens \u00e0 la justice de fonctionner je me doit de voter contre cette modification (qui rel\u00e8ve principalement de la parano\u00efa).", 
            "author": "pierrelavayssiere", 
            "created_at": "2015-10-16T18:22:15+0200", 
            "updated_at": "2015-10-16T18:22:15+0200", 
            "votes_count": "0", 
            "link": "http://www.republique-numerique.fr/projects/projet-de-loi-numerique/consultation/consultation/opinions/section-1-protection-des-donnees-a-caractere-personnel/reduire-la-duree-de-conservation-des-donnees-de-connexion#arg-4926#arg-4926", 
            "article_id": 135, 
            "id": "4926"
        }, 
        {
            "body": "La justice, la lutte anti-terroriste peuvent en avoir besoin.Je ne comprends pas en quoi une telle conservation peut poser probl\u00e8me pour le citoyen \"normal\" ?", 
            "author": "laurentmartin", 
            "created_at": "2015-09-30T15:36:06+0200", 
            "updated_at": "2015-09-30T15:36:06+0200", 
            "votes_count": "1", 
            "link": "http://www.republique-numerique.fr/projects/projet-de-loi-numerique/consultation/consultation/opinions/section-1-protection-des-donnees-a-caractere-personnel/reduire-la-duree-de-conservation-des-donnees-de-connexion#arg-1571#arg-1571", 
            "article_id": 135, 
            "id": "1571"
        }
    ], 
    "answer": {}, 
    "body": "I.- Au III de l'article L.34-1 du Code des postes et communications \u00e9lectroniques, les mots\u00a0\"dur\u00e9e maximale d'un an\" sont remplac\u00e9s\u00a0par les mots \"dur\u00e9e maximale de trois mois\".II.- Au II de l'article 6 de la loi n\u00b0 2004-575 du 21 juin 2004 pour la confiance dans l'\u00e9conomie num\u00e9rique, apr\u00e8s les mots \"d\u00e9tiennent et conservent\" sont ajout\u00e9s les mots \", pour une dur\u00e9e maximale de trois mois\".", 
    "ranking": 114, 
    "sources_count": 2, 
    "votes_ok": 77, 
    "article_id": 135, 
    "versions": [
        {
            "comment": "Pas de conservation du tout !", 
            "after": null, 
            "title": null, 
            "arguments_no_count": 0, 
            "created_at": "2015-09-28T22:19:47+0200", 
            "author": "repnumman", 
            "updated_at": "2015-09-28T22:19:46+0200", 
            "id": 355, 
            "votes_mitige": 4, 
            "arguments_yes_count": 0, 
            "link": "http://www.republique-numerique.fr/projects/projet-de-loi-numerique/consultation/consultation/opinions/section-1-protection-des-donnees-a-caractere-personnel/reduire-la-duree-de-conservation-des-donnees-de-connexion/versions/pas-de-conservation", 
            "arguments_count": 0, 
            "before": null, 
            "votes_total": 9, 
            "article_id": 135, 
            "slug": "pas-de-conservation", 
            "votes_nok": 3
        }
    ], 
    "created_at": "2015-09-26T21:07:28+0200", 
    "title": "Section 1", 
    "votes_mitige": 0, 
    "body_links": [], 
    "votes_nok": 3
}