{
    "subtitle": "Couverture num\u00e9rique", 
    "cat_id": 104, 
    "updated_at": "2015-10-18T19:58:24+0200", 
    "body_anchors": [], 
    "sources": [], 
    "arguments_count": 0, 
    "versions_count": 0, 
    "votes_total": 1, 
    "author": "hajji", 
    "article_link": "http://www.republique-numerique.fr/projects/projet-de-loi-numerique/consultation/consultation/opinions/section-2-couverture-numerique/article-portant-sur-la-signaletique-electronique-et-la-securite-routiere", 
    "arguments": [], 
    "answer": {}, 
    "body": "1.Un syst\u00e8me de d\u00e9compte est mis en place sur les feux de circulation routi\u00e8re, de m\u00eame que les feux tricolores \u00e0 quatre \u00e9tats :- Vert- Jaune- Rouge- Rouge / Jaune (alternance de couleurs dans le cadre du point 3)2.Des portiques de s\u00e9curit\u00e9 (semblables aux portes de p\u00e9ages) devront \u00eatre mises en place sur les grands axes autoroutiers du pays. Ils laisseront engager les v\u00e9hicules que lorsque le trafic le permet.3.Les feux tricolores passeront de trois voyant \u00e0 un unique voyant afin d'\u00e9conomiser les mat\u00e9riaux et de l'\u00e9nergie. (Les feux tricolores \u00e9tant \u00e9quip\u00e9s d'une technologie LED, il est inutile d'avoir trois voyants...)4.Les virages seront signalis\u00e9s par des balises lumineuses clignotantes sur le tarmac.", 
    "ranking": 577, 
    "sources_count": 0, 
    "votes_ok": 1, 
    "article_id": 764, 
    "versions": [], 
    "created_at": "2015-10-18T19:58:24+0200", 
    "title": "Section 2", 
    "votes_mitige": 0, 
    "body_links": [], 
    "votes_nok": 0
}