{
    "subtitle": "Protection des donn\u00e9es \u00e0 caract\u00e8re personnel", 
    "cat_id": 99, 
    "updated_at": "2015-09-27T16:09:07+0200", 
    "body_anchors": [], 
    "sources": [], 
    "arguments_count": 0, 
    "versions_count": 2, 
    "votes_total": 38, 
    "author": "paulperrin", 
    "article_link": "http://www.republique-numerique.fr/projects/projet-de-loi-numerique/consultation/consultation/opinions/section-1-protection-des-donnees-a-caractere-personnel/independance-des-dpo-data-protection-officer-ex-cil", 
    "arguments": [], 
    "answer": {}, 
    "body": "Cr\u00e9ation d'une entit\u00e9 ind\u00e9pendante rattach\u00e9e \u00e0 la CNIL regroupant l'ensemble des DPO.", 
    "ranking": 262, 
    "sources_count": 0, 
    "votes_ok": 15, 
    "article_id": 193, 
    "versions": [
        {
            "comment": "Le DPO est un salari\u00e9 pay\u00e9 par le responsable de traitement pour l'aider, pas un agent infiltr\u00e9 d'une autorit\u00e9 ext\u00e9rieure quelconque.", 
            "after": null, 
            "title": null, 
            "arguments_no_count": 0, 
            "created_at": "2015-09-29T12:17:58+0200", 
            "author": "thierryflesch", 
            "updated_at": "2015-09-29T12:17:58+0200", 
            "id": 394, 
            "votes_mitige": 3, 
            "arguments_yes_count": 0, 
            "link": "http://www.republique-numerique.fr/projects/projet-de-loi-numerique/consultation/consultation/opinions/section-1-protection-des-donnees-a-caractere-personnel/independance-des-dpo-data-protection-officer-ex-cil/versions/dpo-salarie-protege", 
            "arguments_count": 0, 
            "before": null, 
            "votes_total": 7, 
            "article_id": 193, 
            "slug": "dpo-salarie-protege", 
            "votes_nok": 2
        }, 
        {
            "comment": "Le rattachement juridique et administratif n'est pas viable et pensable (d'autant plus que les int\u00e9r\u00eats de l'entreprise compte autant si ce n'est plus que les autres). Le rattachement morale en tant que personne physique du DPO reste cependant possible au travers d'un document \u00e9tabli sous la forme d'une Charte du DPO que toute personne nom\u00e9e \u00e0 cette fonction sera tene de lire et de signer en retournant cet engagement aupr\u00e8s de la CNIL. Deux envois seron t possible:\n- A la prise de fonction de DPO (Nom Pr\u00e9nom, D\u00e9nomination + SIRET Soci\u00e9t\u00e9, @email professionnelle, date d'effet de la prise de focntion),\n- A la fin de prise ou bien au renoncement de la fonction de DPO (Nom Pr\u00e9nom, D\u00e9nomination + SIRET Soci\u00e9t\u00e9, @email professionnelle, date de fin de la prise de focntion, motivation).", 
            "after": null, 
            "title": null, 
            "arguments_no_count": 0, 
            "created_at": "2015-09-28T13:31:02+0200", 
            "author": "fabianrodes", 
            "updated_at": "2015-09-28T13:31:02+0200", 
            "id": 309, 
            "votes_mitige": 0, 
            "arguments_yes_count": 0, 
            "link": "http://www.republique-numerique.fr/projects/projet-de-loi-numerique/consultation/consultation/opinions/section-1-protection-des-donnees-a-caractere-personnel/independance-des-dpo-data-protection-officer-ex-cil/versions/charte-du-dpo-dont-la-signature-est-transmise-a-la-cnil", 
            "arguments_count": 0, 
            "before": null, 
            "votes_total": 8, 
            "article_id": 193, 
            "slug": "charte-du-dpo-dont-la-signature-est-transmise-a-la-cnil", 
            "votes_nok": 0
        }
    ], 
    "created_at": "2015-09-27T16:09:07+0200", 
    "title": "Section 1", 
    "votes_mitige": 5, 
    "body_links": [], 
    "votes_nok": 18
}