{
    "subtitle": "Ouverture des donn\u00e9es publiques", 
    "cat_id": 86, 
    "updated_at": "2015-10-14T08:37:57+0200", 
    "body_anchors": [], 
    "sources": [], 
    "arguments_count": 2, 
    "versions_count": 0, 
    "votes_total": 19, 
    "author": "hervegroleas", 
    "article_link": "http://www.republique-numerique.fr/projects/projet-de-loi-numerique/consultation/consultation/opinions/section-1-ouverture-des-donnees-publiques-1/creation-d-un-cadre-de-confiance-propice-a-la-valorisation-des-donnees", 
    "arguments": [
        {
            "body": "Pour innover, pour imaginer un service public novateur r\u00e9pondant aux besoins des citoyens et aux aspirations \u00e9mergentes issues de l'\u00e9conomie collaborative, de la dynamique ducrowdsourcing... Ce cadre de confiance, voire m\u00eame de bienveillance, doit \u00eatre en oeuvre, et ne serait-ce pas la place des collectivit\u00e9s territoriales que d'assurer ce contexte protecteur des producteurs de donn\u00e9es comme des utilisateurs, comme \u00e9videmment et prioritairement des citoyens... Ces derniers b\u00e9n\u00e9ficiant ainsi d'un service efficient, d'une r\u00e9appropriation des donn\u00e9es (empowerment), d'une s\u00e9curit\u00e9 au travers de la licence qui garantit la conformit\u00e9 \u00e0 l'int\u00e9r\u00eat g\u00e9n\u00e9ral.Un dispositif d'accompagnement de l'ouverture des donn\u00e9es peut en acc\u00e9l\u00e9rer le rythme et \u00eatre un levier efficace pour r\u00e9v\u00e9ler plus surement encore le potentiel de valeur ajout\u00e9e des donn\u00e9es de notre R\u00e9publique num\u00e9rique.", 
            "author": "vernusprostnathalie", 
            "created_at": "2015-10-16T22:33:25+0200", 
            "updated_at": "2015-10-16T22:33:25+0200", 
            "votes_count": "1", 
            "link": "http://www.republique-numerique.fr/projects/projet-de-loi-numerique/consultation/consultation/opinions/section-1-ouverture-des-donnees-publiques-1/creation-d-un-cadre-de-confiance-propice-a-la-valorisation-des-donnees#arg-5061#arg-5061", 
            "article_id": 595, 
            "id": "5061"
        }, 
        {
            "body": "Quel est l'objectif de l'open data ? S'il s'agit dans le cadre de la loi num\u00e9rique de favoriser de nouveaux services, et donc les mod\u00e8les \u00e9conomiques qui vont avec, il est n\u00e9cessaire de mettre en place les conditions pour que ces mod\u00e8les \u00e9conomiques \u00e9mergent.L'ouverture des donn\u00e9es sans contr\u00f4les et une v\u00e9ritable aubaine pour des groupes comme Google (Google France est une SARL au capital de 7500 euros. http://www.societe.com/societe/google-france-443061841.html ...) qui diffusent gratuitement ses services, de haute qualit\u00e9 par ailleurs, dans le seul but d'accaparer l'audience et emp\u00eacher tout concurrent d'\u00e9merger : comment un service d'information voyageur peut-il voir le jour sans financement.Si on ne g\u00e8re pas ce risque alors l'open data conduira \u00e0 l'inverse du but recherch\u00e9 : aucun d\u00e9veloppement \u00e9conomique en France, la valeur ajout\u00e9e de la donn\u00e9e (produite par les imp\u00f4ts des fran\u00e7ais) partira nourrir un fonds de bilan dans un paradis fiscal, les soci\u00e9t\u00e9s fran\u00e7aises n'auront aucune chance de d\u00e9velopper des services en France face \u00e0 une telle concurrence d\u00e9loyale.", 
            "author": "jeancoldefy", 
            "created_at": "2015-10-15T07:41:30+0200", 
            "updated_at": "2015-10-15T07:41:30+0200", 
            "votes_count": "2", 
            "link": "http://www.republique-numerique.fr/projects/projet-de-loi-numerique/consultation/consultation/opinions/section-1-ouverture-des-donnees-publiques-1/creation-d-un-cadre-de-confiance-propice-a-la-valorisation-des-donnees#arg-4090#arg-4090", 
            "article_id": 595, 
            "id": "4090"
        }
    ], 
    "answer": {}, 
    "body": "Les organismes publics en charge de l'ouverture des donn\u00e9es d'int\u00e9r\u00eat g\u00e9n\u00e9ral peuvent mettre en place\u00a0un syst\u00e8me de licences d'utilisation, pour certaines donn\u00e9es, qui permet\u00a0:- l'identification des r\u00e9utilisateurs. L\u2019objectif est d'\u00e9tablir une relation de confiance entre producteur de donn\u00e9es et r\u00e9utilisateur et de veiller au respect de l'int\u00e9r\u00eat g\u00e9n\u00e9ral.- la possibilit\u00e9 d'\u00e9tablir une redevance de r\u00e9utilisation des donn\u00e9es aux seules entreprises en situation monopolistique (plateforme) afin de garantir un \u00e9gal acc\u00e8s au march\u00e9.", 
    "ranking": 234, 
    "sources_count": 0, 
    "votes_ok": 18, 
    "article_id": 595, 
    "versions": [], 
    "created_at": "2015-10-14T08:37:57+0200", 
    "title": "Section 1", 
    "votes_mitige": 1, 
    "body_links": [], 
    "votes_nok": 0
}