{
    "subtitle": "Couverture num\u00e9rique", 
    "cat_id": 104, 
    "updated_at": "2015-10-14T10:25:53+0200", 
    "body_anchors": [], 
    "sources": [], 
    "arguments_count": 1, 
    "versions_count": 0, 
    "votes_total": 10, 
    "author": "avicca", 
    "article_link": "http://www.republique-numerique.fr/projects/projet-de-loi-numerique/consultation/consultation/opinions/section-2-couverture-numerique/informer-le-consommateur-sur-les-technologies", 
    "arguments": [
        {
            "body": "J'ajouterais que l'on devrait avoir le choix, si on ne veut pas utiliser telle ou telle technologie (par exemple une antenne wifi sise \u00e0 notre insu dans notre PC ou une fonction de box inutile)", 
            "author": "jeannevarasco", 
            "created_at": "2015-10-15T14:49:51+0200", 
            "updated_at": "2015-10-15T14:49:51+0200", 
            "votes_count": "2", 
            "link": "http://www.republique-numerique.fr/projects/projet-de-loi-numerique/consultation/consultation/opinions/section-2-couverture-numerique/informer-le-consommateur-sur-les-technologies#arg-4230#arg-4230", 
            "article_id": 597, 
            "id": "4230"
        }
    ], 
    "answer": {}, 
    "body": "VI. L\u2019article L. 121-83 du code de la consommation est ainsi compl\u00e9t\u00e9 :\u00a0n) Les architectures de r\u00e9seaux et technologies employ\u00e9es.", 
    "ranking": 328, 
    "sources_count": 0, 
    "votes_ok": 10, 
    "article_id": 597, 
    "versions": [], 
    "created_at": "2015-10-14T10:25:53+0200", 
    "title": "Section 2", 
    "votes_mitige": 0, 
    "body_links": [], 
    "votes_nok": 0
}