{
    "subtitle": "Ouverture des donn\u00e9es publiques", 
    "cat_id": 86, 
    "updated_at": "2015-09-27T01:25:02+0200", 
    "body_anchors": [], 
    "sources": [], 
    "arguments_count": 5, 
    "versions_count": 1, 
    "votes_total": 81, 
    "author": "jeanyvestallet", 
    "article_link": "http://www.republique-numerique.fr/projects/projet-de-loi-numerique/consultation/consultation/opinions/section-1-ouverture-des-donnees-publiques-1/du-capitalisme-numerique-en-democratie-participative", 
    "arguments": [
        {
            "body": "Aucun rapport avec \u00ab Ouverture des donn\u00e9es publiques \u00bb !", 
            "author": "danielazuelos", 
            "created_at": "2015-10-18T14:52:41+0200", 
            "updated_at": "2015-10-18T14:52:41+0200", 
            "votes_count": "0", 
            "link": "http://www.republique-numerique.fr/projects/projet-de-loi-numerique/consultation/consultation/opinions/section-1-ouverture-des-donnees-publiques-1/du-capitalisme-numerique-en-democratie-participative#arg-5843#arg-5843", 
            "article_id": 153, 
            "id": "5843"
        }, 
        {
            "body": "Completement hors sujet.", 
            "author": "guitouflc", 
            "created_at": "2015-10-15T22:08:24+0200", 
            "updated_at": "2015-10-15T22:08:24+0200", 
            "votes_count": "1", 
            "link": "http://www.republique-numerique.fr/projects/projet-de-loi-numerique/consultation/consultation/opinions/section-1-ouverture-des-donnees-publiques-1/du-capitalisme-numerique-en-democratie-participative#arg-4432#arg-4432", 
            "article_id": 153, 
            "id": "4432"
        }, 
        {
            "body": "Hors sujet ?", 
            "author": "laurentmartin", 
            "created_at": "2015-09-30T16:00:56+0200", 
            "updated_at": "2015-09-30T16:00:56+0200", 
            "votes_count": "2", 
            "link": "http://www.republique-numerique.fr/projects/projet-de-loi-numerique/consultation/consultation/opinions/section-1-ouverture-des-donnees-publiques-1/du-capitalisme-numerique-en-democratie-participative#arg-1590#arg-1590", 
            "article_id": 153, 
            "id": "1590"
        }, 
        {
            "body": "Pas tr\u00e8s clair comme article.", 
            "author": "francoisbriat", 
            "created_at": "2015-09-29T18:42:52+0200", 
            "updated_at": "2015-09-29T18:42:52+0200", 
            "votes_count": "2", 
            "link": "http://www.republique-numerique.fr/projects/projet-de-loi-numerique/consultation/consultation/opinions/section-1-ouverture-des-donnees-publiques-1/du-capitalisme-numerique-en-democratie-participative#arg-1342#arg-1342", 
            "article_id": 153, 
            "id": "1342"
        }, 
        {
            "body": "C'est une vision tr\u00e8s politique qui manque de la neutralit\u00e9 n\u00e9cessaire \u00e0 la loi.", 
            "author": "jeannevarasco", 
            "created_at": "2015-09-27T16:41:09+0200", 
            "updated_at": "2015-09-27T16:41:09+0200", 
            "votes_count": "3", 
            "link": "http://www.republique-numerique.fr/projects/projet-de-loi-numerique/consultation/consultation/opinions/section-1-ouverture-des-donnees-publiques-1/du-capitalisme-numerique-en-democratie-participative#arg-575#arg-575", 
            "article_id": 153, 
            "id": "575"
        }
    ], 
    "answer": {}, 
    "body": "Du capitalisme num\u00e9rique en d\u00e9mocratie participative\u00a01 ) - Nul n'est sens\u00e9 ne pas \u00eatre inform\u00e9.\u00a02 ) - Seuls les citoyens, inform\u00e9s par tous les moyens qu'ils chercheront \u00e0 atteindre, y compris les conseils d'experts, d\u00e9cident en droit de favoriser telle collaboration et l'attribution des fonds mon\u00e9taires utiles et n\u00e9cessaires aux travaux et projets utiles et n\u00e9cessaires. Tous les citoyens ou groupes de citoyens ont acc\u00e9s \u00e0 tous les moyens entrepreneuriaux utiles et n\u00e9cesaires quelque soit la puissance publique requise, comme la puissance de calcul, les bureaux d'\u00e9tudes, les brevets, la publication d'informations, journaux et nouvelles par exemple ; ce qui n\u00e9cessite une \u00ab combinatoire de priorisation \u00bb et l'organisation qui l'accompagne.\u00a03 ) - S'il/elle existe encore, le/la capitaliste bourgeois(e) sera incit\u00e9(e) \u00e0 favoriser le capitalisme num\u00e9rique en d\u00e9mocratie participative, mais sera l\u00e9gitimement ruin\u00e9(e) s'il/elle fait seulement mine de s'y opposer, apr\u00e8s le vote majoritaire du capitalisme num\u00e9rique en d\u00e9mocratie participative par les citoyens du globe.", 
    "ranking": 427, 
    "sources_count": 0, 
    "votes_ok": 6, 
    "article_id": 153, 
    "versions": [
        {
            "comment": "Le jeu actuel \" \u00e0 l'argent \" nuit \u00e0 l'\u00e9volution du monde car les rentabilisations d'investissements pass\u00e9s par les gros d\u00e9tenteurs de capitaux emp\u00eachent la sortie des nouveaut\u00e9s qui pourraient leur nuire \u00e0 eux seuls \u00e0 cause d'un turn over rapide des inventions, bien que les besoins soient criants pour la collectivit\u00e9 dans tous les domaines ; \u00e9nergies renouvelables, sant\u00e9, climat, d\u00e9ficit de la d\u00e9mocratie au profit de l'argent qui fait la loi, enfumages publicitaires, informations truqu\u00e9es, salaires et retraites illimit\u00e9es des dirigeants, droit \u00e0 poluer et \u00e0 d\u00e9truire la nature et des vies humaines en expliquant que la mis\u00e8re serait impossible \u00e0 enrayer ...\nBref ils sont ignobles.", 
            "after": null, 
            "title": null, 
            "arguments_no_count": 0, 
            "created_at": "2015-09-27T01:45:59+0200", 
            "author": "jeanyvestallet", 
            "updated_at": "2015-09-27T01:45:59+0200", 
            "id": 189, 
            "votes_mitige": 6, 
            "arguments_yes_count": 1, 
            "link": "http://www.republique-numerique.fr/projects/projet-de-loi-numerique/consultation/consultation/opinions/section-1-ouverture-des-donnees-publiques-1/du-capitalisme-numerique-en-democratie-participative/versions/du-capitalisme-numerique-en-democratie-participative", 
            "arguments_count": 1, 
            "before": null, 
            "votes_total": 11, 
            "article_id": 153, 
            "slug": "du-capitalisme-numerique-en-democratie-participative", 
            "votes_nok": 2
        }
    ], 
    "created_at": "2015-09-27T01:25:02+0200", 
    "title": "Section 1", 
    "votes_mitige": 12, 
    "body_links": [], 
    "votes_nok": 63
}