{
    "subtitle": "Travaux de recherche et de statistique", 
    "cat_id": 91, 
    "updated_at": "2015-09-28T06:04:09+0200", 
    "body_anchors": [], 
    "sources": [], 
    "arguments_count": 5, 
    "versions_count": 0, 
    "votes_total": 63, 
    "author": "raslebruno", 
    "article_link": "http://www.republique-numerique.fr/projects/projet-de-loi-numerique/consultation/consultation/opinions/section-2-travaux-de-recherche-et-de-statistique/plus-de-souplesse-encore-en-presence-d-un-cil", 
    "arguments": [
        {
            "body": "la cnil est la cada Vonfusionnerl'ann\u00e9e prochainequi aura les comp\u00e9tencele texte est peut \u00eatre a reecrire", 
            "author": "yvesjeangillot", 
            "created_at": "2015-10-09T19:07:05+0200", 
            "updated_at": "2015-10-09T19:07:05+0200", 
            "votes_count": "0", 
            "link": "http://www.republique-numerique.fr/projects/projet-de-loi-numerique/consultation/consultation/opinions/section-2-travaux-de-recherche-et-de-statistique/plus-de-souplesse-encore-en-presence-d-un-cil#arg-2822#arg-2822", 
            "article_id": 215, 
            "id": "2822"
        }, 
        {
            "body": "d\u00e9sol\u00e9, je n'avais pas vu cette proposition. A rapprocher de la mienne sur l'interdiction ce cumul de fonction CIL et DSI", 
            "author": "henryvermier", 
            "created_at": "2015-10-06T11:41:35+0200", 
            "updated_at": "2015-10-06T11:41:35+0200", 
            "votes_count": "0", 
            "link": "http://www.republique-numerique.fr/projects/projet-de-loi-numerique/consultation/consultation/opinions/section-2-travaux-de-recherche-et-de-statistique/plus-de-souplesse-encore-en-presence-d-un-cil#arg-2367#arg-2367", 
            "article_id": 215, 
            "id": "2367"
        }, 
        {
            "body": "Aller \"plus loin\" entra\u00eenera m\u00e9caniquement plus de souplesse pour les auteurs de traitements de donn\u00e9es personnelles, mais \u00e9galement un abaissement net de la protection des droits et libert\u00e9s de la personne fich\u00e9e.Ce que vous proposez -l'extension de l'accountability aux proc\u00e9dures d'autorisation - est dangereux car on ne peut l\u00e9gitimement attendre d'un CIL la m\u00eame expertise et surtout la m\u00eame impartialit\u00e9 qu'une Autorit\u00e9 administrative ind\u00e9pendante. Par qui le CIL est-il r\u00e9mun\u00e9r\u00e9? L'auteur du traitement. Cela peut-il avoir un effet sur l'\u00e9tude d'impact qu'il aurait \u00e0 r\u00e9diger? Ben non, bien sur, ce serait follement inconcevable... ;-)Pour information, cette \u00e9volution d'un r\u00e9gime d'autorisation \u00e0 un r\u00e9gime d'accountability a \u00e9t\u00e9 mise en oeuvre en mati\u00e8re de r\u00e9glementation du contr\u00f4le sanitaire en mati\u00e8re agro alimentaire au d\u00e9but des ann\u00e9es 2000, apr\u00e8s la crise de la vache folle. Le r\u00e9sultat? Ce red\u00e9ploiement s'est accompagn\u00e9 d'un abaissement du niveau de contr\u00f4le des risques sanitaires, comme l'illustre dans l'actualit\u00e9 pas si lointaine le scandale li\u00e9 \u00e0 l'utilisation de viande chevaline dans des plats de lasagnes surgel\u00e9s. Cette d\u00e9gradation du niveau de contr\u00f4le li\u00e9e \u00e0 ce red\u00e9ploiement a d'ailleurs fait l'objet de critiques explicites de la part de la Cour des comptes, dans son rapport public annuel pour 2014 (Cour des comptes, Rapport public annuel pour 2014, Tome I, pp. 65-89).Donc votre proposition d'\u00e9tendre ce superbe syst\u00e8me au droit des donn\u00e9es personnelles, non merci.", 
            "author": "nicolasochoa", 
            "created_at": "2015-09-29T12:39:05+0200", 
            "updated_at": "2015-09-29T12:41:41+0200", 
            "votes_count": "2", 
            "link": "http://www.republique-numerique.fr/projects/projet-de-loi-numerique/consultation/consultation/opinions/section-2-travaux-de-recherche-et-de-statistique/plus-de-souplesse-encore-en-presence-d-un-cil#arg-1206#arg-1206", 
            "article_id": 215, 
            "id": "1206"
        }, 
        {
            "body": "Le changement de braquet est total, sans plus aucune garantie a priori sur notre patrimoine informationnel commun et individuel : la proposition ferait passer d'un r\u00e9gime de contr\u00f4le ex-ante tr\u00e8s lourd (d\u00e9cret en Conseil d'Etat) \u00e0 un r\u00e9gime ex-post. Pas convaincu que les mesures techniques \u00e9voqu\u00e9es rendent le risque acceptable.", 
            "author": "mesa", 
            "created_at": "2015-09-29T06:53:40+0200", 
            "updated_at": "2015-09-29T06:53:40+0200", 
            "votes_count": "2", 
            "link": "http://www.republique-numerique.fr/projects/projet-de-loi-numerique/consultation/consultation/opinions/section-2-travaux-de-recherche-et-de-statistique/plus-de-souplesse-encore-en-presence-d-un-cil#arg-1121#arg-1121", 
            "article_id": 215, 
            "id": "1121"
        }, 
        {
            "body": "Donner au CIL toutes les responsabilit\u00e9s pour bien d\u00e9fendre les lois IL et \u00eatre le repr\u00e9sentant de la CNIL pour un maximum de processus li\u00e9s \u00e0 la protection des DCP", 
            "author": "oueslatisebastien", 
            "created_at": "2015-09-28T10:53:37+0200", 
            "updated_at": "2015-09-28T10:53:37+0200", 
            "votes_count": "3", 
            "link": "http://www.republique-numerique.fr/projects/projet-de-loi-numerique/consultation/consultation/opinions/section-2-travaux-de-recherche-et-de-statistique/plus-de-souplesse-encore-en-presence-d-un-cil#arg-790#arg-790", 
            "article_id": 215, 
            "id": "790"
        }
    ], 
    "answer": {}, 
    "body": "Le projet, m\u00eame s'il \u00e9limine le besoin du d\u00e9cret en Conseil d'Etat, maintient le r\u00e9gime de demande d'autorisation aupr\u00e8s de la CNIL pour des finalit\u00e9s de recherche scientifique ou historique, ce qui reste une proc\u00e9dure longue et avec une tr\u00e8s faible \"pr\u00e9dictibilit\u00e9\" (sans compter la charge que ces dossiers font peser sur l'Autorit\u00e9 de contr\u00f4le).Pourquoi ne pas aller plus loin - sans abaisser le niveau de protection - en permettant aux responsables de traitement qui ont d\u00e9sign\u00e9 un Correspondant Informatique et Libert\u00e9s que le traitement soit port\u00e9 au registre de ce dernier, sous l'obligation de la r\u00e9alisation d'une analyse de risque et une analyse d\u2019impact pour les personnes concern\u00e9es (avec endossement des risques r\u00e9siduels par le responsable de traitement). Cette analyse serait tenue \u00e0 disposition de la CNIL, sur simple demande. L'analyse permettrait de formaliser tous les points permettant de s\u00e9curiser le traitement (pr\u00e9sence d'un contrat de recherche, engagement de confidentialit\u00e9 avec alerte en cas de r\u00e9-identification accidentelle, obligation de purge des donn\u00e9es \u00e0 l'issuer de la recherche, etc.).Par ailleurs, le d\u00e9cret d'application, concernant le proc\u00e9d\u00e9 de \"hash\" (op\u00e9ration cryptographique irr\u00e9versible), devrait faire r\u00e9f\u00e9rence \u00e0 l'\u00e9tat de l'art (qui pourrait \u00e9maner de l'ANSSI, du service d'expertise technique de la CNIL et/ou du G29/du futur Comit\u00e9 europ\u00e9en de protection des donn\u00e9es). Il conviendrait d'imposer un sel et de pr\u00e9ciser que la gestion et la protection de celui-ci soit r\u00e9alis\u00e9e par un dispositif d\u00e9di\u00e9.", 
    "ranking": 200, 
    "sources_count": 0, 
    "votes_ok": 24, 
    "article_id": 215, 
    "versions": [], 
    "created_at": "2015-09-28T06:04:09+0200", 
    "title": "Section 2", 
    "votes_mitige": 17, 
    "body_links": [], 
    "votes_nok": 22
}