{
    "subtitle": "Ouverture des donn\u00e9es publiques", 
    "cat_id": 86, 
    "updated_at": "2015-10-14T11:55:48+0200", 
    "body_anchors": [], 
    "sources": [], 
    "arguments_count": 1, 
    "versions_count": 1, 
    "votes_total": 16, 
    "author": "geraldm", 
    "article_link": "http://www.republique-numerique.fr/projects/projet-de-loi-numerique/consultation/consultation/opinions/section-1-ouverture-des-donnees-publiques-1/ouverture-des-donnees-issues-d-organismes-de-recherche-subventionnes-par-l-etat", 
    "arguments": [
        {
            "body": "Il s'agit en fait d'un approfondissement \u00e0 l'art. 9 concernant les donn\u00e9es issues de la recherche que vous proposez. Cependant, il faut distinguer les donn\u00e9es interpr\u00e9t\u00e9es, que cet article vise \u00e0 rendre disponible en acc\u00e8s libre, des donn\u00e9es brutes, lesquelles sont plurielles et dont certaines devraient sans doute \u00eatre en acc\u00e8s libre (logiciels utilis\u00e9s, donn\u00e9es sur les modalit\u00e9s de l'exp\u00e9rimentation, etc.) mais peut-\u00eatre pas toutes.", 
            "author": "samsond", 
            "created_at": "2015-10-15T12:38:37+0200", 
            "updated_at": "2015-10-15T12:38:37+0200", 
            "votes_count": "0", 
            "link": "http://www.republique-numerique.fr/projects/projet-de-loi-numerique/consultation/consultation/opinions/section-1-ouverture-des-donnees-publiques-1/ouverture-des-donnees-issues-d-organismes-de-recherche-subventionnes-par-l-etat#arg-4175#arg-4175", 
            "article_id": 602, 
            "id": "4175"
        }
    ], 
    "answer": {}, 
    "body": "L'ensemble des donn\u00e9es et documents produits par les organismes de recherche ou chercheurs individuels, financ\u00e9s par des fonds publics sera rendu public sous format ouvert apr\u00e8s un an.", 
    "ranking": 270, 
    "sources_count": 0, 
    "votes_ok": 14, 
    "article_id": 602, 
    "versions": [
        {
            "comment": "On ne peut pas brader la recherche pay\u00e9e par le contribuable fran\u00e7ais. Il faut reserver aux seuls contribuables fran\u00e7ais la primeure des recherches. Cela rendrait la France un peu plus attractive.", 
            "after": null, 
            "title": null, 
            "arguments_no_count": 0, 
            "created_at": "2015-10-14T17:13:45+0200", 
            "author": "jeannevarasco", 
            "updated_at": "2015-10-14T17:13:45+0200", 
            "id": 982, 
            "votes_mitige": 0, 
            "arguments_yes_count": 0, 
            "link": "http://www.republique-numerique.fr/projects/projet-de-loi-numerique/consultation/consultation/opinions/section-1-ouverture-des-donnees-publiques-1/ouverture-des-donnees-issues-d-organismes-de-recherche-subventionnes-par-l-etat/versions/sauf-donnees-sensibles-sans-delai-donnees-commercialement-reutilisable-avec-primeure-aux-entreprises-francaises", 
            "arguments_count": 0, 
            "before": null, 
            "votes_total": 4, 
            "article_id": 602, 
            "slug": "sauf-donnees-sensibles-sans-delai-donnees-commercialement-reutilisable-avec-primeure-aux-entreprises-francaises", 
            "votes_nok": 0
        }
    ], 
    "created_at": "2015-10-14T11:55:48+0200", 
    "title": "Section 1", 
    "votes_mitige": 2, 
    "body_links": [], 
    "votes_nok": 0
}