{
    "subtitle": "Confidentialit\u00e9 des correspondances priv\u00e9es", 
    "cat_id": 100, 
    "updated_at": "2015-12-02T22:14:32+0100", 
    "body_anchors": [], 
    "sources": [
        {
            "body": "Description des caract\u00e9ristiques et usages de la carte d'identit\u00e9 belge, par exemple la pr\u00e9sence de certificats num\u00e9riques et la possibilit\u00e9 de signer des contrats \u00e9lectroniquement.", 
            "category": "Manuel / Guide", 
            "title": "eID, la carte d\u2019identit\u00e9 \u00e9lectronique belge", 
            "source_link": "http://eid.belgium.be/fr/en_savoir_plus_sur_l_eid/les_documents_d_identite_electroniques/l_eid", 
            "created_at": "2015-10-15T12:10:04+0200", 
            "author": "adriencordonnier", 
            "updated_at": "2015-10-15T12:10:03+0200", 
            "link": "http://eid.belgium.be/fr/en_savoir_plus_sur_l_eid/les_documents_d_identite_electroniques/l_eid#source-325", 
            "votes_count": "0", 
            "article_id": 181, 
            "id": "325"
        }, 
        {
            "body": "\" (...) Chaque certificat est \u00e9mis par une autorit\u00e9 de certification, de la m\u00eame fa\u00e7on qu'une carte d'identit\u00e9 classique est \u00e9mise directement ou indirectement par une pr\u00e9fecture.Chaque utilisateur et chaque serveur WWW disposent de moyens automatiques pour v\u00e9rifier que les certificats qu'on lui pr\u00e9sente sont valides. (...) \"", 
            "category": "Site internet", 
            "title": "Les certificats personnels de s\u00e9curit\u00e9", 
            "source_link": "http://www.inaf.cnrs-gif.fr/plateforme/informatique/certificats-inaf.htm", 
            "created_at": "2015-09-29T16:03:12+0200", 
            "author": "pierre1", 
            "updated_at": "2015-09-29T16:03:26+0200", 
            "link": "http://www.inaf.cnrs-gif.fr/plateforme/informatique/certificats-inaf.htm#source-77", 
            "votes_count": "0", 
            "article_id": 181, 
            "id": "77"
        }
    ], 
    "arguments_count": 15, 
    "versions_count": 2, 
    "votes_total": 180, 
    "author": "beuselinckvincent", 
    "article_link": "http://www.republique-numerique.fr/projects/projet-de-loi-numerique/consultation/consultation/opinions/section-2-confidentialite-des-correspondances-privees/service-public-d-identite-electronique", 
    "arguments": [
        {
            "body": "L'id\u00e9e est pas mal mais je vois d\u00e9j\u00e0 les hackers trouver des failles dans ce syst\u00e8me.", 
            "author": "efficience", 
            "created_at": "2015-10-16T17:24:51+0200", 
            "updated_at": "2015-10-16T17:24:51+0200", 
            "votes_count": "0", 
            "link": "http://www.republique-numerique.fr/projects/projet-de-loi-numerique/consultation/consultation/opinions/section-2-confidentialite-des-correspondances-privees/service-public-d-identite-electronique#arg-4873#arg-4873", 
            "article_id": 181, 
            "id": "4873"
        }, 
        {
            "body": "\u00c7a existe en Belgique depuis 2002 mais aussi en Italie, Allemagne, Estonie, etc. Il serait judicieux que tous les pays europ\u00e9ens adoptent le m\u00eame type de carte d'identit\u00e9 \u00e9lectronique. Au niveau technique, la pr\u00e9fecture pourrait signer \u00e9lectroniquement le ou les certificats de chaque citoyen, ainsi le certificat personnel reste confidentiel. Avec des signatures num\u00e9riques, le syst\u00e8me pourrait \u00eatre d\u00e9centralis\u00e9.", 
            "author": "adriencordonnier", 
            "created_at": "2015-10-15T12:00:12+0200", 
            "updated_at": "2015-10-15T12:00:12+0200", 
            "votes_count": "1", 
            "link": "http://www.republique-numerique.fr/projects/projet-de-loi-numerique/consultation/consultation/opinions/section-2-confidentialite-des-correspondances-privees/service-public-d-identite-electronique#arg-4165#arg-4165", 
            "article_id": 181, 
            "id": "4165"
        }, 
        {
            "body": "On devrait avoir la possiblit\u00e9 d'utiliser PGP pour s\u00e9curiser les mails \u00e9chang\u00e9s avec l'administrtion.", 
            "author": "lepoissonlibre", 
            "created_at": "2015-10-11T19:07:31+0200", 
            "updated_at": "2015-10-11T19:07:31+0200", 
            "votes_count": "5", 
            "link": "http://www.republique-numerique.fr/projects/projet-de-loi-numerique/consultation/consultation/opinions/section-2-confidentialite-des-correspondances-privees/service-public-d-identite-electronique#arg-3200#arg-3200", 
            "article_id": 181, 
            "id": "3200"
        }, 
        {
            "body": "pas de certificatspas au niveau nationalun truc connect public (comme facebook connect) oui, mais europ\u00e9en", 
            "author": "pierreobrecht", 
            "created_at": "2015-10-11T12:58:37+0200", 
            "updated_at": "2015-10-11T12:58:37+0200", 
            "votes_count": "2", 
            "link": "http://www.republique-numerique.fr/projects/projet-de-loi-numerique/consultation/consultation/opinions/section-2-confidentialite-des-correspondances-privees/service-public-d-identite-electronique#arg-3127#arg-3127", 
            "article_id": 181, 
            "id": "3127"
        }, 
        {
            "body": "Quelle s\u00e9curisation pour les donn\u00e9es de l'administration dans le futur ? un appel \u00e0 projet du gouvernement qui date d'avant 2000 (a peu pres dans ces termes). J'avais fait une proposition \u00e0 l'epoque a peu pres semblable, en 2015, nous en sommes toujours l\u00e0, .. vraiment navrant.Si la centralisation des donn\u00e9es n'est pas souhaitable pour des raisons de securit\u00e9 , il est tout de meme incroyable que nous n'ayons pas de certification de l'identit\u00e9 numerique made in France.Je vote ok pour l'id\u00e9e, avec un bemol . Pour l'exemple que vous evoquez , notamment de la carte d'identit\u00e9, j'ai denonc\u00e9 la prise d'empreinte et de photo par l'administration ce qui en cas de prise de controle, hack des bases, gouvernement non democratique, r\u00e9duit \u00e0 poussiere la securit\u00e9 des personnes.J'ai soutenu donc de 2008 \u00e0 2011 (outre pour le modele economique) la prise de vue chez un photographe et la prise d'empreinte en mairie.Au final, la prise de vue en mairie fut supprim\u00e9e par decret, mais cela ne fut pas sans mal, nombres de parlementaires ne saisissant pas le message.Si pour les donn\u00e9es courantes on peut envisager d'autres proced\u00e9s, appel \u00e0 la plus grande vigilance pour les donn\u00e9es biometriques.", 
            "author": "maltesenadine", 
            "created_at": "2015-10-10T16:39:47+0200", 
            "updated_at": "2015-10-10T16:39:47+0200", 
            "votes_count": "0", 
            "link": "http://www.republique-numerique.fr/projects/projet-de-loi-numerique/consultation/consultation/opinions/section-2-confidentialite-des-correspondances-privees/service-public-d-identite-electronique#arg-2980#arg-2980", 
            "article_id": 181, 
            "id": "2980"
        }, 
        {
            "body": "Prenez les banques en exemple... inutile de payer des gens \u00e0 brasser de l'air pour \"g\u00e9rer la certification de l'identit\u00e9 num\u00e9rique\".", 
            "author": "nicolasjoly", 
            "created_at": "2015-10-08T23:35:41+0200", 
            "updated_at": "2015-10-08T23:35:41+0200", 
            "votes_count": "0", 
            "link": "http://www.republique-numerique.fr/projects/projet-de-loi-numerique/consultation/consultation/opinions/section-2-confidentialite-des-correspondances-privees/service-public-d-identite-electronique#arg-2738#arg-2738", 
            "article_id": 181, 
            "id": "2738"
        }, 
        {
            "body": "La centralisation de l'identit\u00e9 dans le contexte du num\u00e9rique me fait le plus grand peur : comment interdire ou limiter le fichage g\u00e9n\u00e9ralis\u00e9, le croisement des fichiers et l'eug\u00e9nisme et la discrimination qui s'en suivront ? Comment \u00e9viter qu'un futur gouvernement non d\u00e9mocratique n'en fasse pas une arme de g\u00e9nocide ? \u00c9tant du m\u00e9tier de la donn\u00e9e et des r\u00e9seaux, et \u00e9tant conscient de l'impossibilit\u00e9 de cette t\u00e2che, je vote CONTRE", 
            "author": "benjaminsonntag", 
            "created_at": "2015-10-03T16:47:53+0200", 
            "updated_at": "2015-10-03T16:47:53+0200", 
            "votes_count": "11", 
            "link": "http://www.republique-numerique.fr/projects/projet-de-loi-numerique/consultation/consultation/opinions/section-2-confidentialite-des-correspondances-privees/service-public-d-identite-electronique#arg-2117#arg-2117", 
            "article_id": 181, 
            "id": "2117"
        }, 
        {
            "body": "Il suffirait que l'\u00c9tat signe ma clef GPG avec sa clef publique et utilise les mails chiffr\u00e9s et sign\u00e9s pour comuniquer. La signature pourrait se faire au commissariat.Dans le cas d'une consultation comme celle l\u00e0, cela permettrait de s'identifier et ainsi d'\u00e9viter que des personnes votent deux fois (et donc de prendre en compte les votes).", 
            "author": "olivierricou", 
            "created_at": "2015-10-01T17:31:16+0200", 
            "updated_at": "2015-10-01T17:31:16+0200", 
            "votes_count": "5", 
            "link": "http://www.republique-numerique.fr/projects/projet-de-loi-numerique/consultation/consultation/opinions/section-2-confidentialite-des-correspondances-privees/service-public-d-identite-electronique#arg-1904#arg-1904", 
            "article_id": 181, 
            "id": "1904"
        }, 
        {
            "body": "J'avais \u00e9galement envie de proposer cette mesure pour que les gens puissent signer leurs e-mails et leurs correspondances avec l'administration. En revanche si le certificat a valeur de papier d'identit\u00e9, la d\u00e9livrance de ceux ci doit subir une v\u00e9rification au m\u00eame titre que les papiers d'identit\u00e9 afin d'\u00e9viter les usurpations.En outre il serait raisonnable de ne d\u00e9livrer que des clefs chiffr\u00e9es par un mot de passe, une carte \u00e0 puce o\u00f9 une empreinte digitale afin de s'assurer que la clef ne puisse pas \u00eatre rendue publique par maladresse. Tout le monde ne maitrise pas son ordinateur ou suffisamment de notions de s\u00e9curit\u00e9 pour prot\u00e9ger correctement sa clef priv\u00e9e.", 
            "author": "damiendejean", 
            "created_at": "2015-09-30T22:31:48+0200", 
            "updated_at": "2015-09-30T22:31:48+0200", 
            "votes_count": "4", 
            "link": "http://www.republique-numerique.fr/projects/projet-de-loi-numerique/consultation/consultation/opinions/section-2-confidentialite-des-correspondances-privees/service-public-d-identite-electronique#arg-1713#arg-1713", 
            "article_id": 181, 
            "id": "1713"
        }, 
        {
            "body": "mais sinon oui (plusieurs proposition de ce type, comme le france connect)", 
            "author": "data", 
            "created_at": "2015-09-30T15:57:25+0200", 
            "updated_at": "2015-09-30T15:57:25+0200", 
            "votes_count": "0", 
            "link": "http://www.republique-numerique.fr/projects/projet-de-loi-numerique/consultation/consultation/opinions/section-2-confidentialite-des-correspondances-privees/service-public-d-identite-electronique#arg-1589#arg-1589", 
            "article_id": 181, 
            "id": "1589"
        }, 
        {
            "body": "oui mais pas de certificats \u00e0 installer sur une machine svpun bon mot de passe", 
            "author": "data", 
            "created_at": "2015-09-30T15:55:46+0200", 
            "updated_at": "2015-09-30T15:55:46+0200", 
            "votes_count": "1", 
            "link": "http://www.republique-numerique.fr/projects/projet-de-loi-numerique/consultation/consultation/opinions/section-2-confidentialite-des-correspondances-privees/service-public-d-identite-electronique#arg-1587#arg-1587", 
            "article_id": 181, 
            "id": "1587"
        }, 
        {
            "body": "Ok a condition que ce certificat soit gratuit (aussi bien pour les personne que pour les entreprise) d'une dur\u00e9e de validit\u00e9 d'au moins 5ans. J'attire votre attention qu\u2019actuellement avoir un tel certificat coute plus de 100 euro par ans et il est renouveler au maximum tout les 2 ans (et c'est p\u00e9nible a faire et couteux en temps et energie)", 
            "author": "lacombe", 
            "created_at": "2015-09-29T17:52:09+0200", 
            "updated_at": "2015-09-29T17:52:09+0200", 
            "votes_count": "7", 
            "link": "http://www.republique-numerique.fr/projects/projet-de-loi-numerique/consultation/consultation/opinions/section-2-confidentialite-des-correspondances-privees/service-public-d-identite-electronique#arg-1313#arg-1313", 
            "article_id": 181, 
            "id": "1313"
        }, 
        {
            "body": "C'est la premi\u00e8re chose que je me suis dit en arrivant sur le site : \"Le site de mon pays me propose de me connecter avec des identifiants de sites \u00e9trangers (que j'ai banni) et n'est m\u00eame pas capable de me reconna\u00eetre en tant que citoyen !\"", 
            "author": "lionelgiraudeau", 
            "created_at": "2015-09-28T15:41:17+0200", 
            "updated_at": "2015-09-28T15:41:17+0200", 
            "votes_count": "4", 
            "link": "http://www.republique-numerique.fr/projects/projet-de-loi-numerique/consultation/consultation/opinions/section-2-confidentialite-des-correspondances-privees/service-public-d-identite-electronique#arg-919#arg-919", 
            "article_id": 181, 
            "id": "919"
        }, 
        {
            "body": "Comme dans les banques, la s\u00e9cu, le cnam, les institutions devraient communiquer au travers d'un compte s\u00e9curis\u00e9, le mail ne servant qu'\u00e0 dire qu'un document est \u00e0 disposition \u00e0 tel endroit. Mais cela devrait aussi \u00eatre le cas pour les priv\u00e9s qui envoient des factures !!! En fait, pour tout ce qui est \"sensible\".", 
            "author": "jeannevarasco", 
            "created_at": "2015-09-27T18:25:31+0200", 
            "updated_at": "2015-09-27T18:25:31+0200", 
            "votes_count": "6", 
            "link": "http://www.republique-numerique.fr/projects/projet-de-loi-numerique/consultation/consultation/opinions/section-2-confidentialite-des-correspondances-privees/service-public-d-identite-electronique#arg-625#arg-625", 
            "article_id": 181, 
            "id": "625"
        }, 
        {
            "body": "Un tel dispositif existe d\u00e9j\u00e0 en Estonie et rencontre un fort succ\u00e8s.", 
            "author": "solarus", 
            "created_at": "2015-09-27T14:32:24+0200", 
            "updated_at": "2015-09-27T14:32:24+0200", 
            "votes_count": "6", 
            "link": "http://www.republique-numerique.fr/projects/projet-de-loi-numerique/consultation/consultation/opinions/section-2-confidentialite-des-correspondances-privees/service-public-d-identite-electronique#arg-540#arg-540", 
            "article_id": 181, 
            "id": "540"
        }
    ], 
    "answer": {
        "body": "La consultation en ligne a d\u00e9montr\u00e9 une tr\u00e8s forte mobilisation des internautes demandant la reconnaissance et la promotion du chiffrement des communications. Selon la Quadrature du Net, qui est \u00e0 l\u2019origine de cette contribution, la p\u00e9nalisation plus lourde des crimes et d\u00e9lits lorsque des moyens de cryptologie sont utilis\u00e9s aurait pour cons\u00e9quence de limiter la promotion, le d\u00e9veloppement et l'utilisation de ces techniques.Si le Gouvernement partage l\u2019objectif de promotion du chiffrement, il souhaite privil\u00e9gier une approche diff\u00e9rente que la proposition sugg\u00e9r\u00e9e : celui de la sensibilisation sur l\u2019utilisation des technologies de chiffrement. C\u2019est pourquoi il a \u00e9t\u00e9 d\u00e9cid\u00e9 suite aux r\u00e9sultats de la consultation en ligne de confier \u00e0 la CNIL la mission de promouvoir l\u2019utilisation des technologies de chiffrements de donn\u00e9es.Cette nouvelle mission rejoint d\u2019autres initiatives prises par le Gouvernement pour encourager le chiffrement. A l\u2019initiative de l\u2019Agence nationale de la s\u00e9curit\u00e9 des syst\u00e8mes d\u2019information, Bouygues Telecom, Free, La Poste, Numericable-SFR et Orange ont sign\u00e9, en pr\u00e9sence de la secr\u00e9taire d\u2019Etat en charge du num\u00e9rique, le 16 octobre dernier, une charte les engageant \u00e0 activer les fonctions de chiffrement sur leurs serveurs de messagerie de mani\u00e8re \u00e0 prot\u00e9ger les courriels v\u00e9hicul\u00e9s entre ces serveurs. Cette d\u00e9marche, fond\u00e9e sur l\u2019adh\u00e9sion des partenaires priv\u00e9s constitue une premi\u00e8re \u00e9tape vers le renforcement de la s\u00e9curisation des \u00e9changes sur internet.Par ailleurs, le Gouvernement a lanc\u00e9, le 6 octobre 2015, un appel \u00e0 projets destin\u00e9 \u00e0 soutenir les technologies protectrices de la vie priv\u00e9e, pouvant mobiliser une enveloppe de 10 M\u20ac du programme des investissements d\u2019avenir.C\u2019est pourquoi il a \u00e9t\u00e9 jug\u00e9 pr\u00e9matur\u00e9 de revenir, \u00e0 ce stade, sur l\u2019article du code p\u00e9nal qu\u2019il \u00e9tait propos\u00e9 d\u2019abroger. Celui-ci n'a pas par ailleurs pour effet de criminaliser le chiffrement, mais seulement le fait, pour une personne reconnue coupable d'un d\u00e9lit, d'avoir entrav\u00e9 l'enqu\u00eate en refusant de fournir les \u00e9changes en clair.", 
        "answer_refs": [
            "http://www.ssi.gouv.fr/particulier/precautions-elementaires/charte-pour-la-securite-des-courriers-electroniques/", 
            "http://www.ssi.gouv.fr/particulier/precautions-elementaires/charte-pour-la-securite-des-courriers-electroniques/"
        ], 
        "author": "gouvernement", 
        "article_id": 181, 
        "cited_users": [
            "laquadraturedunet"
        ]
    }, 
    "body": "Il est institu\u00e9 un service public de certification de l'identit\u00e9 num\u00e9rique. Tout citoyen qui en fait la demande dispose d'un certificat d'identit\u00e9 num\u00e9rique d\u00e9livr\u00e9 par la pr\u00e9fecture et peut exiger que les \u00e9changes avec une administration ou un organisme public fassent l'objet d'un chiffrement \u00e0 l'aide de ce moyen.Le service public de certification de l'identit\u00e9 num\u00e9rique est une autorit\u00e9 de certification. Le d\u00e9tenteur d'un certificat d'identit\u00e9 num\u00e9rique peut utiliser celui-ci afin de signer num\u00e9riquement un acte administratif ou contractuel.", 
    "ranking": 77, 
    "sources_count": 2, 
    "votes_ok": 125, 
    "article_id": 181, 
    "versions": [
        {
            "comment": "Inclure cette clef dans notre carte d'identite pour ceux qui en font la demande. (le caractere obligatoire d une telle demarche peut paraitre dangereux, les citoyens n'etant pas tous former pour une telle utilisation), permettrait a son detenteur de faciliter le stockage de celle-ci et son utilisation.", 
            "after": null, 
            "title": null, 
            "arguments_no_count": 0, 
            "created_at": "2015-09-27T21:55:28+0200", 
            "author": "antoinehoussais", 
            "updated_at": "2015-09-27T21:55:28+0200", 
            "id": 253, 
            "votes_mitige": 1, 
            "arguments_yes_count": 1, 
            "link": "http://www.republique-numerique.fr/projects/projet-de-loi-numerique/consultation/consultation/opinions/section-2-confidentialite-des-correspondances-privees/service-public-d-identite-electronique/versions/carte-d-identite-volet-numerique", 
            "arguments_count": 1, 
            "before": null, 
            "votes_total": 7, 
            "article_id": 181, 
            "slug": "carte-d-identite-volet-numerique", 
            "votes_nok": 2
        }, 
        {
            "comment": "La gestion par l'\u00e9tat de plusieurs identit\u00e9s num\u00e9riques pour chaque individu. Exemple :\n- Clef Publique enregistr\u00e9e sans le nom du propri\u00e9taire dans une base de donn\u00e9es (ou m\u00e9canisme \u00e9quivalent \u00e0 bitcoin...) pour les votes anonymes : ainsi impossible de voter plusieurs fois ET impossible de savoir qui a vot\u00e9 quoi.\n- Le gouvernement signe des clefs publiques pour les utilisateurs afin qu'ils puissent prouver leur identit\u00e9 autrement qu'en envoyant des photocopies de CNI (exmple de Google et le droit \u00e0 l'oubli)\n- Service de signature de clefs GPG pour les mails (\u00e0 mi-chemin donc entre le certificat X509 et la \"cha\u00eene de confiance\").\n\u00a0\n\u00a0", 
            "after": null, 
            "title": null, 
            "arguments_no_count": 0, 
            "created_at": "2015-09-27T13:26:12+0200", 
            "author": "myrnmail", 
            "updated_at": "2015-09-27T13:26:12+0200", 
            "id": 215, 
            "votes_mitige": 0, 
            "arguments_yes_count": 1, 
            "link": "http://www.republique-numerique.fr/projects/projet-de-loi-numerique/consultation/consultation/opinions/section-2-confidentialite-des-correspondances-privees/service-public-d-identite-electronique/versions/identites-numeriques", 
            "arguments_count": 1, 
            "before": null, 
            "votes_total": 14, 
            "article_id": 181, 
            "slug": "identites-numeriques", 
            "votes_nok": 1
        }
    ], 
    "created_at": "2015-09-27T11:08:03+0200", 
    "title": "Section 2", 
    "votes_mitige": 16, 
    "body_links": [], 
    "votes_nok": 39
}