{
    "subtitle": "Portabilit\u00e9 des donn\u00e9es", 
    "cat_id": 95, 
    "updated_at": "2015-10-14T11:13:47+0200", 
    "body_anchors": [], 
    "sources": [], 
    "arguments_count": 1, 
    "versions_count": 0, 
    "votes_total": 6, 
    "author": "stephanemetens", 
    "article_link": "http://www.republique-numerique.fr/projects/projet-de-loi-numerique/consultation/consultation/opinions/section-2-portabilite-des-donnees/etre-favorable-a-l-acces-libre-aux-publications-scientifiques-de-plus-d-un-an", 
    "arguments": [
        {
            "body": "Doublon", 
            "author": "jeannevarasco", 
            "created_at": "2015-10-14T16:15:55+0200", 
            "updated_at": "2015-10-14T16:15:55+0200", 
            "votes_count": "0", 
            "link": "http://www.republique-numerique.fr/projects/projet-de-loi-numerique/consultation/consultation/opinions/section-2-portabilite-des-donnees/etre-favorable-a-l-acces-libre-aux-publications-scientifiques-de-plus-d-un-an#arg-3935#arg-3935", 
            "article_id": 599, 
            "id": "3935"
        }
    ], 
    "answer": {}, 
    "body": "Etant donn\u00e9 les co\u00fbts exhorbitants li\u00e9s \u00e0 la consultation des articles scientifiques publi\u00e9s par les grands \u00e9diteurs, il serait tout \u00e0 fait raisonnable\u00a0 de pouvoir consulter gratuitement\u00a0 les contributions des scientifiques - pour rappel aucun des auteurs ne per\u00e7oit des droits relatifs \u00e0 ses publications, c'est m\u00eame l'inverse puisqu'il est demand\u00e9 une contribution financi\u00e8re notamment pour la publication de figures couleurs...", 
    "ranking": 427, 
    "sources_count": 0, 
    "votes_ok": 6, 
    "article_id": 599, 
    "versions": [], 
    "created_at": "2015-10-14T11:13:47+0200", 
    "title": "Section 2", 
    "votes_mitige": 0, 
    "body_links": [], 
    "votes_nok": 0
}