{
    "subtitle": "Comp\u00e9tences et organisation", 
    "cat_id": 103, 
    "updated_at": "2015-09-28T12:56:22+0200", 
    "body_anchors": [], 
    "sources": [], 
    "arguments_count": 3, 
    "versions_count": 2, 
    "votes_total": 32, 
    "author": "christophedisic", 
    "article_link": "http://www.republique-numerique.fr/projects/projet-de-loi-numerique/consultation/consultation/opinions/section-1-competences-et-organisation/integrer-l-usage-numerique-a-l-apprentissage-des-le-college-dans-les-cours-d-education-civique", 
    "arguments": [
        {
            "body": "On attend juste la mise en oeuvre dans les \u00e9tablissements de ce qui est pr\u00e9vu dans les textes. Et, en compl\u00e9ment on pourrait imaginer la formation des enseignants au C2I2E par exemple, dans un plan de formation comptant comme formation fortement recommand\u00e9e par l'Acad\u00e9mie, en dehors des temps d'enseignement, dans le cadre de la formation continue des enseignants, notamment en 2e partie de carri\u00e8re. Certains enseignants des fili\u00e8res g\u00e9n\u00e9ralistes sont malheureusement encore tr\u00e8s tr\u00e8s TRES \u00e9loign\u00e9s du num\u00e9rique et de ses enjeux \u00e9ducatifs et citoyens.Idem pour les autres intervenants dans les \u00e9tablissements. Les professeurs documentalistes peuvent jouer un r\u00f4le int\u00e9ressant \u00e0 ce titre, avec l'appui d'intervenants ext\u00e9rieurs ?, \u00e9tant d\u00e9j\u00e0 impliqu\u00e9s dans le num\u00e9rique par leur fonction.", 
            "author": "benedicte1", 
            "created_at": "2015-10-18T12:06:49+0200", 
            "updated_at": "2015-10-18T12:06:49+0200", 
            "votes_count": "0", 
            "link": "http://www.republique-numerique.fr/projects/projet-de-loi-numerique/consultation/consultation/opinions/section-1-competences-et-organisation/integrer-l-usage-numerique-a-l-apprentissage-des-le-college-dans-les-cours-d-education-civique#arg-5768#arg-5768", 
            "article_id": 237, 
            "id": "5768"
        }, 
        {
            "body": "Bien avant la programmation, apprendre aux plus jeunes (\u00e0 leurs a\u00een\u00e9s aussi, l'\u00e9cole ne peut pas tout ici mais s'il y a moyen de former les plus jeunes, c'est un bon d\u00e9but) ce qu'est un ordinateur, internet, \u00e0 qui appartiennent les donn\u00e9es, qui peut en faire quelque chose (o\u00f9 elles se trouvent, formats de donn\u00e9es ouverts), qui d\u00e9cide de quoi sur le r\u00e9seau, ... Des notions fondamentales pour qu'ils ne consomment pas juste des services sans rien comprendre mais aient un minimum de culture sur la soci\u00e9t\u00e9 de l'information.Que chacun ne soit pas expert en programmation n'est pas un probl\u00e8me mais il me semble important de d\u00e9mystifier l'ensemble : ne pas se laisser pi\u00e9ger sans en avoir conscience par un service, un logiciel, ... : des enjeux importants qui n\u00e9cessitent des citoyens qui savent plus qu'utiliser des logiciels.\u00c9crire quelques lignes de code peut \u00eatre bien pour d\u00e9mystifier la machine, comprendre que tout ce qu'on n'utilise n'est jamais que du travail \u00e0 plus grande \u00e9chelle consistant \u00e0 r\u00e9aliser tout \u00e7a. Plus qu'en m\u00e9canique par exemple, la nature du travail r\u00e9el est masqu\u00e9e dans l'informatique. C'est une sorte d'outil magique. Des outils simples qui ne n\u00e9cessitent pas de comprendre leurs rouages pour s'en servir c'est bien pour les utilisateurs, mais un aper\u00e7u des ficelles c'est important pour les citoyens.Et surtout si l'\u00e9cole pouvait \u00e9viter de leur apprendre \u00e0 utiliser des tablettes comme des environnements compl\u00e8tement ferm\u00e9s et surveill\u00e9s \u00e0 distance, ce serait une bonne chose : je ne sais pas s'il faut former les jeunes gens \u00e0 cr\u00e9er leurs propres outils, mais leur apprendre \u00e0 vivre dans un monde ferm\u00e9 et une soci\u00e9t\u00e9 de surveillance : non merci.", 
            "author": "syll", 
            "created_at": "2015-10-06T16:22:10+0200", 
            "updated_at": "2015-10-06T16:22:10+0200", 
            "votes_count": "1", 
            "link": "http://www.republique-numerique.fr/projects/projet-de-loi-numerique/consultation/consultation/opinions/section-1-competences-et-organisation/integrer-l-usage-numerique-a-l-apprentissage-des-le-college-dans-les-cours-d-education-civique#arg-2391#arg-2391", 
            "article_id": 237, 
            "id": "2391"
        }, 
        {
            "body": "Si le num\u00e9rique devient un vecteur de citoyennet\u00e9 via des d\u00e9marches l\u00e9gislatives qui passent par une consultation publique comme celle-ci, oui ! Sinon, peu d'int\u00e9r\u00eat...", 
            "author": "williampaul", 
            "created_at": "2015-09-30T20:35:46+0200", 
            "updated_at": "2015-09-30T20:35:46+0200", 
            "votes_count": "1", 
            "link": "http://www.republique-numerique.fr/projects/projet-de-loi-numerique/consultation/consultation/opinions/section-1-competences-et-organisation/integrer-l-usage-numerique-a-l-apprentissage-des-le-college-dans-les-cours-d-education-civique#arg-1691#arg-1691", 
            "article_id": 237, 
            "id": "1691"
        }
    ], 
    "answer": {}, 
    "body": "Int\u00e9ger d\u00e8s le coll\u00e8ge des modules d'enseignement aux usages du num\u00e9rique (dans le cadre de l'\u00e9ducation civique et citoyenne). Offrir une bourse aux \u00e9l\u00e8ves qui proposent en fin de cycle secondaire une id\u00e9e d'appli ou de projet qui soutienne la solidarit\u00e9 r\u00e9publicaine via le num\u00e9rique.", 
    "ranking": 208, 
    "sources_count": 0, 
    "votes_ok": 23, 
    "article_id": 237, 
    "versions": [
        {
            "comment": "Il est important de le faire plus t\u00f4t afin que tous aient les fondamentaux en mati\u00e8re de num\u00e9rique.\u00a0\nEt tout comme le code de la route, r\u00e9fl\u00e9chir sur un code en signal\u00e9tique pour \u00eatre plus explicite pour les enfants mais surtout tous les \u00e9ducateurs,\u00a0de bonne conduite sur le web pour tous en respectant droits, usages et devoirs sur Internet.", 
            "after": null, 
            "title": null, 
            "arguments_no_count": 0, 
            "created_at": "2015-10-16T17:07:11+0200", 
            "author": "roueregine", 
            "updated_at": "2015-10-16T17:07:11+0200", 
            "id": 1207, 
            "votes_mitige": 0, 
            "arguments_yes_count": 0, 
            "link": "http://www.republique-numerique.fr/projects/projet-de-loi-numerique/consultation/consultation/opinions/section-1-competences-et-organisation/integrer-l-usage-numerique-a-l-apprentissage-des-le-college-dans-les-cours-d-education-civique/versions/education-aux-medias-des-le-primaire", 
            "arguments_count": 0, 
            "before": null, 
            "votes_total": 0, 
            "article_id": 237, 
            "slug": "education-aux-medias-des-le-primaire", 
            "votes_nok": 0
        }, 
        {
            "comment": "Les cours d'\u00e9ducation civique, par experience, sont exrtrement marginalis\u00e9s, fais \u00e0 la va-vite et d\u00e9j\u00e0 surcharg\u00e9.\nCette proposition est bonne, mais m\u00e9riterait un cours distinct o\u00f9 elle pourrait pleinement s'exercer.", 
            "after": null, 
            "title": null, 
            "arguments_no_count": 0, 
            "created_at": "2015-10-14T10:19:40+0200", 
            "author": "kevinmessangblansche", 
            "updated_at": "2015-10-14T10:19:40+0200", 
            "id": 951, 
            "votes_mitige": 0, 
            "arguments_yes_count": 0, 
            "link": "http://www.republique-numerique.fr/projects/projet-de-loi-numerique/consultation/consultation/opinions/section-1-competences-et-organisation/integrer-l-usage-numerique-a-l-apprentissage-des-le-college-dans-les-cours-d-education-civique/versions/creer-un-cours-a-part", 
            "arguments_count": 0, 
            "before": null, 
            "votes_total": 2, 
            "article_id": 237, 
            "slug": "creer-un-cours-a-part", 
            "votes_nok": 0
        }
    ], 
    "created_at": "2015-09-28T12:56:22+0200", 
    "title": "Section 1", 
    "votes_mitige": 6, 
    "body_links": [], 
    "votes_nok": 3
}