{
    "subtitle": "Couverture num\u00e9rique", 
    "cat_id": 104, 
    "updated_at": "2015-09-28T11:18:26+0200", 
    "body_anchors": [], 
    "sources": [], 
    "arguments_count": 2, 
    "versions_count": 1, 
    "votes_total": 10, 
    "author": "sludovic", 
    "article_link": "http://www.republique-numerique.fr/projects/projet-de-loi-numerique/consultation/consultation/opinions/section-2-couverture-numerique/obligation-de-mise-a-niveau-des-acces-aux-differents-reseaux", 
    "arguments": [
        {
            "body": "oui et d\u00e9j\u00e0 commencer par les zones qui n'ont m\u00eame pas l'ADSL (et encore moins la fibre...)", 
            "author": "christophedenis", 
            "created_at": "2015-10-03T12:35:21+0200", 
            "updated_at": "2015-10-03T12:35:21+0200", 
            "votes_count": "0", 
            "link": "http://www.republique-numerique.fr/projects/projet-de-loi-numerique/consultation/consultation/opinions/section-2-couverture-numerique/obligation-de-mise-a-niveau-des-acces-aux-differents-reseaux#arg-2089#arg-2089", 
            "article_id": 230, 
            "id": "2089"
        }, 
        {
            "body": "Cela semble tomber sous le sens, dans la pratique les FAI posent la fibre dans les zones les plus \"rentables\" en premier.", 
            "author": "mikechang", 
            "created_at": "2015-09-30T16:38:22+0200", 
            "updated_at": "2015-09-30T16:38:22+0200", 
            "votes_count": "0", 
            "link": "http://www.republique-numerique.fr/projects/projet-de-loi-numerique/consultation/consultation/opinions/section-2-couverture-numerique/obligation-de-mise-a-niveau-des-acces-aux-differents-reseaux#arg-1603#arg-1603", 
            "article_id": 230, 
            "id": "1603"
        }
    ], 
    "answer": {}, 
    "body": "Tout op\u00e9rateur souhaitant mettre en place des acc\u00e8s aux r\u00e9seaux doit le faire en commen\u00e7ant par la zone de la ville ayant la plus mauvaise qualit\u00e9 pour le r\u00e9seau concern\u00e9 selon les organismes charg\u00e9s de ces missions, afin de garantir des acc\u00e8s \u00e9quilibr\u00e9 sur le t\u00e9rritoire communal.", 
    "ranking": 397, 
    "sources_count": 0, 
    "votes_ok": 7, 
    "article_id": 230, 
    "versions": [
        {
            "comment": "Il y a un probl\u00e8me de disparit\u00e9 de NRA, je vous explique un cas particulier : lorsqu'un nouveau quartier \u00e9merge et se greffe \u00e0 un plus ancien, si il y a 2 NRA, l'un pour le quartier historique \u00e9loign\u00e9 de 5km, et l'autre auquel sera reli\u00e9 le quartier \u00e9mergent \u00e0 ~3km, lors du passage de la fibre le nouveau quartier sera exclu car consid\u00e9r\u00e9 comme ayant un d\u00e9bit suffisant.\nCela fait donc une disparit\u00e9 territoriale, et obligera le FAI \u00e0 \"revenir\" g\u00e9ographiquement au m\u00eame endroit plus tard pour poser la fibre alors qu'il aurait pu le faire dans la foul\u00e9e. Sur une repr\u00e9sentation en carte, on peut dessiner un \"U\", l'int\u00e9rieur \u00e9tant le quartier \u00e9mergent, l'ext\u00e9rieur le quartier historique.\nTechniquement il s'av\u00e8re qu'un NRO (noeud de raccordement optique) est diff\u00e9rent d'un NRA hors capitale.", 
            "after": null, 
            "title": null, 
            "arguments_no_count": 0, 
            "created_at": "2015-09-30T16:46:54+0200", 
            "author": "mikechang", 
            "updated_at": "2015-09-30T16:46:54+0200", 
            "id": 488, 
            "votes_mitige": 1, 
            "arguments_yes_count": 0, 
            "link": "http://www.republique-numerique.fr/projects/projet-de-loi-numerique/consultation/consultation/opinions/section-2-couverture-numerique/obligation-de-mise-a-niveau-des-acces-aux-differents-reseaux/versions/modification-pour-ne-pas-exclure-une-zone-geographique", 
            "arguments_count": 0, 
            "before": null, 
            "votes_total": 1, 
            "article_id": 230, 
            "slug": "modification-pour-ne-pas-exclure-une-zone-geographique", 
            "votes_nok": 0
        }
    ], 
    "created_at": "2015-09-28T11:18:26+0200", 
    "title": "Section 2", 
    "votes_mitige": 1, 
    "body_links": [], 
    "votes_nok": 2
}