{
    "subtitle": "Comp\u00e9tences et organisation", 
    "cat_id": 103, 
    "updated_at": "2015-10-14T17:13:43+0200", 
    "body_anchors": [], 
    "sources": [], 
    "arguments_count": 6, 
    "versions_count": 0, 
    "votes_total": 7, 
    "author": "conseildepartementaldelalozere", 
    "article_link": "http://www.republique-numerique.fr/projects/projet-de-loi-numerique/consultation/consultation/opinions/section-1-competences-et-organisation/contribition-de-la-majorite-departementale-en-faveur-du-tres-haut-debit-pour-tous", 
    "arguments": [
        {
            "body": "Suite de l'argument pr\u00e9c\u00e9dent :2- Le\"FTTH rural\"(Fiber To The Hameau), pr\u00e9alable au vrai FTTH : La remise en cause par Bruxelles de la mont\u00e9e en d\u00e9bit sur le cuivre (nextinpact.com\u2026/96814-france-thd-europe-etrille\u2026) nous obligera vraisemblablement \u00e0 revoir le dossier RIP Loz\u00e8re . Profitons en pour remettre tout \u00e0 plat et demandons \u00e0 EXPERIMENTER en Loz\u00e8re le FTTH rural (la fibre \u00e0 chaque Hameau de Loz\u00e8re... plus de 2000\u00a0!http://lozeregenweb.lozere-histoire-genealogie.com/Communes/Infos.asp!! ) Demandons, pour les 150 communes ou plus\u00ab\u00a0hors vrai FTTH\u00a0\u00bb dans un premier temps, et leurs nombreux hameaux dans un deuxi\u00e8me temps, une v\u00e9ritable boucle optique, pr\u00e9alable au vrai FTTH, objectif final pour une \u00e9galit\u00e9 r\u00e9publicaine dans l'acc\u00e8s aux services publics de demain websdugevaudan.wordpress.com/2012/09/10/services-publics-tous-egaux\u00a0 dont celui, vital, de la sant\u00e9 https://websdugevaudan.wordpress.com/2014/03/30/e-sante-une-revolution-en-marche-avec-les-citoyens/SES Ruralit\u00e9 (Sant\u00e9 Education Services de proximit\u00e9 pour la Loz\u00e8re et \u00ab\u00a0campagnes\u00a0 intelligentes\u00a0\u00bb pour la France\u00a0, une \u00ab\u00a0\u00e9vidence\u00a0\u00bb martel\u00e9e par les Webs du G\u00e9vaudan depuis... toujours\u00a0! https://websdugevaudan.wordpress.com/2011/09/24/campagnes-intelligentes/ La demande de boucle locale optique, nous la demandions d\u00e9j\u00e0 en 2009... une \u00e9ternit\u00e9 dans le monde de l'internet ! https://websdugevaudan.wordpress.com/2009/10/17/boucle-locale-et-montee-en-debit/", 
            "author": "pierreygrie", 
            "created_at": "2015-10-18T18:18:36+0200", 
            "updated_at": "2015-10-18T18:18:36+0200", 
            "votes_count": "0", 
            "link": "http://www.republique-numerique.fr/projects/projet-de-loi-numerique/consultation/consultation/opinions/section-1-competences-et-organisation/contribition-de-la-majorite-departementale-en-faveur-du-tres-haut-debit-pour-tous#arg-5965#arg-5965", 
            "article_id": 611, 
            "id": "5965"
        }, 
        {
            "body": "En Loz\u00e8re citoyens et \u00e9lus= m\u00eame combat\u00a0!Des propositions de \u00ab\u00a0droit \u00e0 la fibre\u00a0\u00bb faites par les Webs du G\u00e9vaudan et des r\u00e9actions qu'elles ont soulev\u00e9 j\u2019extrais deux arguments , l'un sur le couple\u00a0\"usages/infrastructures\", l'autre sur la \u00ab\u00a0marche\u00a0\u00bb vers le FTTH1-LES USAGES dans le SDTAN\u00a0: Introduire obligatoirement un volet \u00ab\u00a0USAGES\u00bblors de la r\u00e9vision du SDTAN .Infrastrucures et usages= m\u00eame combat . On commence par qoui\u00a0? La poule et l'oef... donc les deux\u00a0! Un territoire num\u00e9rique sera comme un immeuble dont les fondations sont les infrastructures et les \u00e9tages les usages . Sachant que personne ne connait le nombre d'\u00e9tages les infrastructures devront etre tr\u00e8s solides, donc en fibre optique\u00a0! Bien \u00e9videmment le volet \u00ab\u00a0usages\u00a0\u00bb doit etre aussi important que le volet \u00ab\u00a0infrastructures\u00a0\u00bb . C'est loin d'etre le cas . L'explication\u00a0? R\u00e9fl\u00e9chir avec les citoyens suppose -une volont\u00e9 politique forte. Dans un papier d'avant les \u00e9lections de 2014 j'avais sugg\u00e9r\u00e9 que chaque commune ( ou communaut\u00e9 de communes selon le cas) se dote d'un \u00ab\u00a0r\u00e9f\u00e9rent num\u00e9rique\u00a0\u00bbwebsdugevaudan.wordpress.com/2014/03/26/un-referent-numerique-dans-chaque-conseil-municipal\u00a0-une large d\u00e9marche de concertation pour inventer les usages de demain , en particulier dans les domaines vitaux comme la sant\u00e9websdugevaudan.wordpress.com/2014/03/30/e-sante-une-revolution-en-marche-avec-les-citoyens\u00a0Toutes les r\u00e9volutions se sont faites avec les citoyens\u00a0? La r\u00e9volution num\u00e9rique ferait-elle exception\u00a0? Non\u00a0!websdugevaudan.wordpress.com/2014/07/10/numerique-audace-citoyens\u00a0Tous \u00e9gaux dans la r\u00e9publique num\u00e9rique\u00a0!websdugevaudan.wordpress.com/2012/09/10/services-publics-tous-egaux", 
            "author": "pierreygrie", 
            "created_at": "2015-10-18T17:58:03+0200", 
            "updated_at": "2015-10-18T17:58:03+0200", 
            "votes_count": "0", 
            "link": "http://www.republique-numerique.fr/projects/projet-de-loi-numerique/consultation/consultation/opinions/section-1-competences-et-organisation/contribition-de-la-majorite-departementale-en-faveur-du-tres-haut-debit-pour-tous#arg-5950#arg-5950", 
            "article_id": 611, 
            "id": "5950"
        }, 
        {
            "body": "La fibre doit irriguer tout le pays c'est absolument prioritaire.La fibre permet d'\u00e9tablir une \u00e9quit\u00e9 parfaite entre les territoires ruraux et Urbains.Serait il admissible que les jeunes Ruraux, et jeunes entreprises qui s'\u00e9tablissent en zone rurale ne puissent pas acc\u00e9der \u00e0 tous les services d'internet?De m\u00eame serait il admissible que les personnes \u00e2g\u00e9s qui doivent pouvoir b\u00e9n\u00e9ficier d'un service internet sant\u00e9 soient oubli\u00e9 \u00e0 cause qu'ils sont en zones rurale?pour prendre un exemple:Un corps mal irrigu\u00e9 par ses vaisseaux est vou\u00e9 \u00e0 mourir il en est de m\u00eame pour un pays.", 
            "author": "michel12", 
            "created_at": "2015-10-15T06:19:13+0200", 
            "updated_at": "2015-10-15T06:19:13+0200", 
            "votes_count": "1", 
            "link": "http://www.republique-numerique.fr/projects/projet-de-loi-numerique/consultation/consultation/opinions/section-1-competences-et-organisation/contribition-de-la-majorite-departementale-en-faveur-du-tres-haut-debit-pour-tous#arg-4084#arg-4084", 
            "article_id": 611, 
            "id": "4084"
        }, 
        {
            "body": "Une erreur de lien dans l'argument 1 o\u00f9 il est question de \u00ab\u00a0FTTH rural\u00a0: Fiber To The Hameau , concept en filigramme dans une note de 2009 (une \u00e9ternit\u00e9 !) Le bon lien est celui cihttps://websdugevaudan.wordpress.com/2009/10/17/boucle-locale-et-montee-en-debit/\u00a0\u00bbD\u00e9sol\u00e9 et merci de votre compr\u00e9hension", 
            "author": "pierreygrie", 
            "created_at": "2015-10-14T22:44:38+0200", 
            "updated_at": "2015-10-14T22:44:38+0200", 
            "votes_count": "1", 
            "link": "http://www.republique-numerique.fr/projects/projet-de-loi-numerique/consultation/consultation/opinions/section-1-competences-et-organisation/contribition-de-la-majorite-departementale-en-faveur-du-tres-haut-debit-pour-tous#arg-4065#arg-4065", 
            "article_id": 611, 
            "id": "4065"
        }, 
        {
            "body": "La remise en cause par Bruxelles de la mont\u00e9e en d\u00e9bit sur le cuivre (http://www.nextinpact.com/\u2026/96814-france-thd-europe-etrille\u2026) nous obligera vraisemblablement \u00e0 revoir le dossier RIP Loz\u00e8re . Profitons en pour remettre tout \u00e0 plat et demandons \u00e0 EXPERIMENTER en Loz\u00e8re le FTTH rural (la fibre \u00e0 chaque Hameau de Loz\u00e8re ) Demandons pour les 150 communes \u00ab\u00a0hors vrai FTTH une v\u00e9ritable boucle optique, pr\u00e9alable au vrai FTTH . La Loz\u00e8re num\u00e9rique,c\u2019est un immeuble dont les fondations sont les infrastructures et les \u00e9tages les usages ! Sachant que personne ne peut dire combien d\u2019\u00e9tages aura l\u2019immeuble , les fondations devront etre tr\u00e8s solides donc en fibre optique\u00a0, seule fa\u00e7on de permettre \u00e0 chaque loz\u00e9rien d'avoir la m\u00eame qualit\u00e9 de services que pour les citadins. https://websdugevaudan.wordpress.com/2012/09/10/services-publics-tous-egaux/ En attendant .VOTONS pour un \u00ab\u00a0droit \u00e0 la fibre\u00a0\u00bb!https://websdugevaudan.wordpress.com/", 
            "author": "websdugevaudan", 
            "created_at": "2015-10-14T22:16:19+0200", 
            "updated_at": "2015-10-14T22:16:19+0200", 
            "votes_count": "1", 
            "link": "http://www.republique-numerique.fr/projects/projet-de-loi-numerique/consultation/consultation/opinions/section-1-competences-et-organisation/contribition-de-la-majorite-departementale-en-faveur-du-tres-haut-debit-pour-tous#arg-4063#arg-4063", 
            "article_id": 611, 
            "id": "4063"
        }, 
        {
            "body": "Si l'on additionne les programmes \u00ab\u00a0fibre\u00a0\u00bb du conseil d\u00e9partemental et d'Orange il reste plus de 150 communes \u00ab\u00a0hors fibre\u00a0\u00bb . Cette perspective est inacceptable dans une r\u00e9publique num\u00e9rique . Offrons \u00e0 ces 150 communes, \u00e0 d\u00e9faut de vrai FTTH, du FTTH rural\u00a0: Fiber To The Hameau , concept en filigramme dans une note de 2009 (une \u00e9ternit\u00e9 !) https://websdugevaudan.wordpress.com/ et pr\u00e9cis\u00e9 d\u00e9s l'ann\u00e9e suivante https://websdugevaudan.wordpress.com/2010/06/04/du-ftth-fiber-to-the-home-palois-au-ftth-fiber-to-the-hameau-lozerien/ . La v\u00e9tust\u00e9 du r\u00e9seau cuivre rend urgent le remplacement des vieilles \u00ab\u00a0armoires\u00a0\u00bb par des r\u00e9partiteurs et sous r\u00e9partiteurs optiques .Cette \u00ab\u00a0necessit\u00e9\u00a0\u00bb ne pourra pas se concr\u00e9tiser sans modification de la loi . La forte pr\u00e9sence de l'Etat dans le capital d'Orange devrait permettre de r\u00e9soudre le probl\u00e8me\u00a0!", 
            "author": "websdugevaudan", 
            "created_at": "2015-10-14T22:01:57+0200", 
            "updated_at": "2015-10-14T22:01:57+0200", 
            "votes_count": "1", 
            "link": "http://www.republique-numerique.fr/projects/projet-de-loi-numerique/consultation/consultation/opinions/section-1-competences-et-organisation/contribition-de-la-majorite-departementale-en-faveur-du-tres-haut-debit-pour-tous#arg-4061#arg-4061", 
            "article_id": 611, 
            "id": "4061"
        }
    ], 
    "answer": {}, 
    "body": "Section 1article 23 Sch\u00e9ma directeur num\u00e9rique des collectivit\u00e9s\u00a0:Proposition n\u00b01: Nous proposons que soit joint au sch\u00e9ma une p\u00e9r\u00e9quation financi\u00e8re forte en faveur des d\u00e9partements d\u00e9favoris\u00e9s. Afin que la solidarit\u00e9 nationale puisse s'exercer sur nos zones rurales o\u00f9 nous constatons tous les jours la d\u00e9faillance de l'initiative priv\u00e9e.Proposition n\u00b02: L\u00e0 o\u00f9 la p\u00e9r\u00e9quation nationale s'exerce le cadre r\u00e8glementaire devrait pr\u00e9voir que les solidarit\u00e9s territoriales s'exercent aussi afin que chacun participe \u00e0 l'effort commun et \u00e9viter ainsi un engagement r\u00e9gional trop faible qui vient annuler l'effort de solidarit\u00e9.Proposition n\u00b03: Il conviendrait de faire des zones les plus rurales des territoires d'exp\u00e9rimentation o\u00f9 les nouvelles mesures en faveur des services et usages seraient mises en place prioritairement et en cas de succ\u00e8s elles pourraient ensuite diffuser vers des zones plus urbanis\u00e9es. Cela reviendrait en fait \u00e0 inverser la tendance naturelle qui fait que nos zones sont \u00e9quip\u00e9es en dernier.", 
    "ranking": 397, 
    "sources_count": 0, 
    "votes_ok": 7, 
    "article_id": 611, 
    "versions": [], 
    "created_at": "2015-10-14T17:13:43+0200", 
    "title": "Section 1", 
    "votes_mitige": 0, 
    "body_links": [], 
    "votes_nok": 0
}