{
    "updated_at": "2015-09-26T19:45:59+0200", 
    "connections": [], 
    "sources": [
        {
            "body": "Le cheminement de la pr\u00e9sente dynamique de R\u00e9publique num\u00e9rique s'inscrit d\u00e9j\u00e0 sur des recommandations Europ\u00e9ennes, sachant que nous sommes presque \"\u00e0 la traine\" et que le d\u00e9poussi\u00e9rage qui r\u00e9sultera de la finalisation de cette Premi\u00e8re loi int\u00e9grant les notions de consum\u00e9risation actuelles apportera un socle pour de futures \u00e9volutions, en ne mettant pas de c\u00f4t\u00e9 le fait que l'ensemble des pays membres doivent dans un premier temps cr\u00e9er les textes socles puis \"harmoniser\" leurs lois avec leurs citoyens, et l'on aura constat\u00e9 de fortes disparit\u00e9s entre les signatures d'accords et les faits av\u00e9r\u00e9s ou les pens\u00e9es politiques de certains pays membres ... \n\nAussi, la base la plus importante \u00e9tant celle nationale, le pays se charge, par cette consultation, d'avoir l' \"agr\u00e9ment\" d'au moins une partie de la population ... C'est louable ...\n\nAussi, parcourir le portail de l'Union europ\u00e9enne peut aider, je pense, \u00e0 appr\u00e9hender ces champs, comme d'autres cit\u00e9s, \u00e9tant plus \u00e9conomiques, en pensant qu'il est possible, via ce portail de l'Union europ\u00e9enne, de trouver des informations et des services Web orient\u00e9s Affaires, business, march\u00e9s publiques, Lois centralis\u00e9es, orientation vers des bases de donn\u00e9es nationales de droit, comme jurisprudentielles ... Cela peut aider aussi ...\n\nEn tous les cas, personnellement, \u00e7a m'aide \u00e0 y voir plus clair ... Ouvrir un compte est rapide, un acc\u00e8s pour les citoyens est pr\u00e9vu !\n\net \u00e7a aussi, c'est plut\u00f4t bien fait !!! et m\u00eame tr\u00e8s bien fait ... comme le sujet est @ suivre sur le long terme, permettez-moi, SVP, de partager ce que je consid\u00e8re \u00eatre une ressource exemplaire, contextuelle, didactique ... sans orientation ni en faveur ni en d\u00e9faveur de la proposition ... Tr\u00e8s Cordialement,", 
            "category": "Autre", 
            "isContribuable": false, 
            "title": "COMMUNICATION DE LA COMMISSION AU PARLEMENT EUROP\u00c9EN, AU CONSEIL, AU COMIT\u00c9 \u00c9CONOMIQUE ET SOCIAL EUR", 
            "created_at": "2015-10-04T01:34:12+0200", 
            "author": {
                "username": "Amine Mzerma", 
                "displayName": "Amine Mzerma", 
                "media": null, 
                "vip": false, 
                "isAdmin": false, 
                "_links": {
                    "profile": "http://www.republique-numerique.fr/profile/aminemzerma", 
                    "settings": "http://www.republique-numerique.fr/profile/edit-profile"
                }, 
                "uniqueId": "aminemzerma"
            }, 
            "updated_at": "2015-10-04T01:34:12+0200", 
            "has_user_reported": false, 
            "link": "http://ec.europa.eu/transparency/regdoc/rep/1/2012/FR/1-2012-9-FR-F1-1.Pdf", 
            "has_user_voted": false, 
            "_links": {
                "edit": "http://www.republique-numerique.fr/consultations/projet-de-loi-numerique/consultation/consultation/opinions/section-1-ouverture-des-donnees-publiques-1/droit-a-l-information-universel-europeen/sources/communication-de-la-commission-au-parlement-europeen-au-conseil-au-comite-economique-et-social-europeen-et-au-comite-des-regions/edit", 
                "report": "http://www.republique-numerique.fr/consultations/projet-de-loi-numerique/consultation/consultation/opinions/section-1-ouverture-des-donnees-publiques-1/droit-a-l-information-universel-europeen/sources/communication-de-la-commission-au-parlement-europeen-au-conseil-au-comite-economique-et-social-europeen-et-au-comite-des-regions/report"
            }, 
            "votes_count": 1, 
            "id": 215
        }
    ], 
    "arguments_count": 6, 
    "versions_count": 1, 
    "connections_count": 0, 
    "votes_total": 128, 
    "id": 128, 
    "votes": [
        {
            "user": {
                "username": "Hermann Djoumessi", 
                "displayName": "Hermann Djoumessi", 
                "media": null, 
                "vip": false, 
                "isAdmin": false, 
                "_links": {
                    "profile": "http://www.republique-numerique.fr/profile/hermanndjoumessi", 
                    "settings": "http://www.republique-numerique.fr/profile/edit-profile"
                }, 
                "uniqueId": "hermanndjoumessi"
            }
        }, 
        {
            "user": {
                "username": "Olivier SERY", 
                "displayName": "Olivier SERY", 
                "media": null, 
                "vip": false, 
                "isAdmin": false, 
                "_links": {
                    "profile": "http://www.republique-numerique.fr/profile/oliviersery", 
                    "settings": "http://www.republique-numerique.fr/profile/edit-profile"
                }, 
                "uniqueId": "oliviersery"
            }
        }, 
        {
            "user": {
                "username": "Maltese Nadine", 
                "displayName": "Maltese Nadine", 
                "media": {
                    "url": "/media/cache/default_avatar/default/0001/01/113_default_avatar.png"
                }, 
                "vip": false, 
                "isAdmin": false, 
                "_links": {
                    "profile": "http://www.republique-numerique.fr/profile/maltesenadine", 
                    "settings": "http://www.republique-numerique.fr/profile/edit-profile"
                }, 
                "uniqueId": "maltesenadine"
            }
        }, 
        {
            "user": {
                "username": "SPAHR Hugo", 
                "displayName": "SPAHR Hugo", 
                "media": {
                    "url": "/media/cache/default_avatar/default/0001/01/89_default_avatar.jpg"
                }, 
                "vip": false, 
                "isAdmin": false, 
                "_links": {
                    "profile": "http://www.republique-numerique.fr/profile/spahrhugo", 
                    "settings": "http://www.republique-numerique.fr/profile/edit-profile"
                }, 
                "uniqueId": "spahrhugo"
            }
        }, 
        {
            "user": {
                "username": "NADPERR", 
                "displayName": "NADPERR", 
                "media": {
                    "url": "/media/cache/default_avatar/default/0001/01/154_default_avatar.jpg"
                }, 
                "vip": false, 
                "isAdmin": false, 
                "_links": {
                    "profile": "http://www.republique-numerique.fr/profile/nadperr", 
                    "settings": "http://www.republique-numerique.fr/profile/edit-profile"
                }, 
                "uniqueId": "nadperr"
            }
        }
    ], 
    "author": {
        "username": "Hermann Djoumessi", 
        "displayName": "Hermann Djoumessi", 
        "media": null, 
        "vip": false, 
        "isAdmin": false, 
        "_links": {
            "profile": "http://www.republique-numerique.fr/profile/hermanndjoumessi", 
            "settings": "http://www.republique-numerique.fr/profile/edit-profile"
        }, 
        "uniqueId": "hermanndjoumessi"
    }, 
    "user_vote": null, 
    "_links": {
        "edit": "http://www.republique-numerique.fr/projects/projet-de-loi-numerique/consultation/consultation/opinions/section-1-ouverture-des-donnees-publiques-1/droit-a-l-information-universel-europeen/edit", 
        "report": "http://www.republique-numerique.fr/consultations/projet-de-loi-numerique/consultation/consultation/opinions/section-1-ouverture-des-donnees-publiques-1/droit-a-l-information-universel-europeen/report", 
        "type": "http://www.republique-numerique.fr/projects/projet-de-loi-numerique/consultation/consultation/types/section-1-ouverture-des-donnees-publiques-1", 
        "show": "http://www.republique-numerique.fr/projects/projet-de-loi-numerique/consultation/consultation/opinions/section-1-ouverture-des-donnees-publiques-1/droit-a-l-information-universel-europeen"
    }, 
    "arguments": [
        {
            "body": "C'est d\u00e9j\u00e0 le cas.", 
            "is_enabled": true, 
            "isContribuable": false, 
            "author": {
                "username": "Tan\u00e9l\u00e9o", 
                "displayName": "Tan\u00e9l\u00e9o", 
                "media": null, 
                "vip": false, 
                "isAdmin": false, 
                "_links": {
                    "profile": "http://www.republique-numerique.fr/profile/taneleo", 
                    "settings": "http://www.republique-numerique.fr/profile/edit-profile"
                }, 
                "uniqueId": "taneleo"
            }, 
            "created_at": "2015-10-17T15:14:04+0200", 
            "updated_at": "2015-10-17T15:14:04+0200", 
            "has_user_reported": false, 
            "votes_count": 0, 
            "has_user_voted": false, 
            "_links": {
                "edit": "http://www.republique-numerique.fr/projects/projet-de-loi-numerique/consultation/consultation/opinions/section-1-ouverture-des-donnees-publiques-1/droit-a-l-information-universel-europeen/arguments/5282/edit", 
                "report": "http://www.republique-numerique.fr/consultations/projet-de-loi-numerique/consultation/consultation/opinions/section-1-ouverture-des-donnees-publiques-1/droit-a-l-information-universel-europeen/arguments/5282/report", 
                "show": "http://www.republique-numerique.fr/projects/projet-de-loi-numerique/consultation/consultation/opinions/section-1-ouverture-des-donnees-publiques-1/droit-a-l-information-universel-europeen#arg-5282"
            }, 
            "type": 0, 
            "id": 5282, 
            "is_trashed": false
        }, 
        {
            "body": "Enti\u00e8rement d'accord... mais alors que m\u00eame le gouvernement ne peut acc\u00e9der librement aux informations concernant TAFTA qu'en sera-t-il de l'information communiqu\u00e9e aux citoyens ????", 
            "is_enabled": true, 
            "isContribuable": false, 
            "author": {
                "username": "POYET", 
                "displayName": "POYET", 
                "media": null, 
                "vip": false, 
                "isAdmin": false, 
                "_links": {
                    "profile": "http://www.republique-numerique.fr/profile/poyet", 
                    "settings": "http://www.republique-numerique.fr/profile/edit-profile"
                }, 
                "uniqueId": "poyet"
            }, 
            "created_at": "2015-10-17T11:25:45+0200", 
            "updated_at": "2015-10-17T11:25:45+0200", 
            "has_user_reported": false, 
            "votes_count": 0, 
            "has_user_voted": false, 
            "_links": {
                "edit": "http://www.republique-numerique.fr/projects/projet-de-loi-numerique/consultation/consultation/opinions/section-1-ouverture-des-donnees-publiques-1/droit-a-l-information-universel-europeen/arguments/5162/edit", 
                "report": "http://www.republique-numerique.fr/consultations/projet-de-loi-numerique/consultation/consultation/opinions/section-1-ouverture-des-donnees-publiques-1/droit-a-l-information-universel-europeen/arguments/5162/report", 
                "show": "http://www.republique-numerique.fr/projects/projet-de-loi-numerique/consultation/consultation/opinions/section-1-ouverture-des-donnees-publiques-1/droit-a-l-information-universel-europeen#arg-5162"
            }, 
            "type": 1, 
            "id": 5162, 
            "is_trashed": false
        }, 
        {
            "body": "Je suis enti\u00e8rement d'accord avec cette id\u00e9e, mais en effet elle n'a rien \u00e0 faire dans ce cadre. R\u00e9ponse \u00e0 Jeanne Varasco: les Etats Unis et l'Angleterre ont d\u00e9j\u00e0 des dispositions similaires, mais que je sache la France ne s'en est pas servi pour s\u2019immiscer dans leurs affaires.", 
            "is_enabled": true, 
            "isContribuable": false, 
            "author": {
                "username": "Fr\u00e9d\u00e9ric Da Vitoria", 
                "displayName": "Fr\u00e9d\u00e9ric Da Vitoria", 
                "media": null, 
                "vip": false, 
                "isAdmin": false, 
                "_links": {
                    "profile": "http://www.republique-numerique.fr/profile/fredericdavitoria", 
                    "settings": "http://www.republique-numerique.fr/profile/edit-profile"
                }, 
                "uniqueId": "fredericdavitoria"
            }, 
            "created_at": "2015-10-16T11:23:37+0200", 
            "updated_at": "2015-10-16T11:23:37+0200", 
            "has_user_reported": false, 
            "votes_count": 0, 
            "has_user_voted": false, 
            "_links": {
                "edit": "http://www.republique-numerique.fr/projects/projet-de-loi-numerique/consultation/consultation/opinions/section-1-ouverture-des-donnees-publiques-1/droit-a-l-information-universel-europeen/arguments/4600/edit", 
                "report": "http://www.republique-numerique.fr/consultations/projet-de-loi-numerique/consultation/consultation/opinions/section-1-ouverture-des-donnees-publiques-1/droit-a-l-information-universel-europeen/arguments/4600/report", 
                "show": "http://www.republique-numerique.fr/projects/projet-de-loi-numerique/consultation/consultation/opinions/section-1-ouverture-des-donnees-publiques-1/droit-a-l-information-universel-europeen#arg-4600"
            }, 
            "type": 1, 
            "id": 4600, 
            "is_trashed": false
        }, 
        {
            "body": "Le droit \u00e0 l'information est requis par un citoyen, qui devra faire une demande et motiver sa demande. L'argument s\u00e9curitaire, ne fonctionne pas \u00e0 partir du moment o\u00f9 l'on s'inscrit dans un cadre d\u00e9mocratique. La protection des donn\u00e9es dites \"sensibles\" elle sera toujours garantie par le 'copyright', o\u00f9 simplement le rappel du caract\u00e8re sacr\u00e9 de la propri\u00e9t\u00e9 priv\u00e9e et donc des donn\u00e9es priv\u00e9es. Toutes les donn\u00e9es priv\u00e9es, y compris les 'meta-data', 'datas', etc... ", 
            "is_enabled": true, 
            "isContribuable": false, 
            "author": {
                "username": "Hermann Djoumessi", 
                "displayName": "Hermann Djoumessi", 
                "media": null, 
                "vip": false, 
                "isAdmin": false, 
                "_links": {
                    "profile": "http://www.republique-numerique.fr/profile/hermanndjoumessi", 
                    "settings": "http://www.republique-numerique.fr/profile/edit-profile"
                }, 
                "uniqueId": "hermanndjoumessi"
            }, 
            "created_at": "2015-10-15T21:37:44+0200", 
            "updated_at": "2015-10-15T21:37:44+0200", 
            "has_user_reported": false, 
            "votes_count": 0, 
            "has_user_voted": false, 
            "_links": {
                "edit": "http://www.republique-numerique.fr/projects/projet-de-loi-numerique/consultation/consultation/opinions/section-1-ouverture-des-donnees-publiques-1/droit-a-l-information-universel-europeen/arguments/4423/edit", 
                "report": "http://www.republique-numerique.fr/consultations/projet-de-loi-numerique/consultation/consultation/opinions/section-1-ouverture-des-donnees-publiques-1/droit-a-l-information-universel-europeen/arguments/4423/report", 
                "show": "http://www.republique-numerique.fr/projects/projet-de-loi-numerique/consultation/consultation/opinions/section-1-ouverture-des-donnees-publiques-1/droit-a-l-information-universel-europeen#arg-4423"
            }, 
            "type": 1, 
            "id": 4423, 
            "is_trashed": false
        }, 
        {
            "body": "Rien \u00e0 voir avec un projet de loi sur le num\u00e9rique", 
            "is_enabled": true, 
            "isContribuable": false, 
            "author": {
                "username": "Jean Dambreville", 
                "displayName": "Jean Dambreville", 
                "media": null, 
                "vip": false, 
                "isAdmin": false, 
                "_links": {
                    "profile": "http://www.republique-numerique.fr/profile/jeandambreville", 
                    "settings": "http://www.republique-numerique.fr/profile/edit-profile"
                }, 
                "uniqueId": "jeandambreville"
            }, 
            "created_at": "2015-09-28T09:24:52+0200", 
            "updated_at": "2015-09-28T09:24:52+0200", 
            "has_user_reported": false, 
            "votes_count": 1, 
            "has_user_voted": false, 
            "_links": {
                "edit": "http://www.republique-numerique.fr/projects/projet-de-loi-numerique/consultation/consultation/opinions/section-1-ouverture-des-donnees-publiques-1/droit-a-l-information-universel-europeen/arguments/760/edit", 
                "report": "http://www.republique-numerique.fr/consultations/projet-de-loi-numerique/consultation/consultation/opinions/section-1-ouverture-des-donnees-publiques-1/droit-a-l-information-universel-europeen/arguments/760/report", 
                "show": "http://www.republique-numerique.fr/projects/projet-de-loi-numerique/consultation/consultation/opinions/section-1-ouverture-des-donnees-publiques-1/droit-a-l-information-universel-europeen#arg-760"
            }, 
            "type": 0, 
            "id": 760, 
            "is_trashed": false
        }, 
        {
            "body": "Ce n'est pas dans l'int\u00e9r\u00eat de la nation. Cela ne peut que faciliter la vie \u00e0 la NSA ou autres services liberticides d'ing\u00e9rence. Je ne crois pas que ce soit une bonne id\u00e9e pour garder notre ind\u00e9pendance et notre d\u00e9mocratie.", 
            "is_enabled": true, 
            "isContribuable": false, 
            "author": {
                "username": "Jeanne Varasco", 
                "displayName": "Jeanne Varasco", 
                "media": {
                    "url": "/media/cache/default_avatar/default/0001/01/139_default_avatar.jpg"
                }, 
                "vip": false, 
                "isAdmin": false, 
                "_links": {
                    "profile": "http://www.republique-numerique.fr/profile/jeannevarasco", 
                    "settings": "http://www.republique-numerique.fr/profile/edit-profile"
                }, 
                "uniqueId": "jeannevarasco"
            }, 
            "created_at": "2015-09-27T16:11:17+0200", 
            "updated_at": "2015-09-27T16:11:17+0200", 
            "has_user_reported": false, 
            "votes_count": 0, 
            "has_user_voted": false, 
            "_links": {
                "edit": "http://www.republique-numerique.fr/projects/projet-de-loi-numerique/consultation/consultation/opinions/section-1-ouverture-des-donnees-publiques-1/droit-a-l-information-universel-europeen/arguments/566/edit", 
                "report": "http://www.republique-numerique.fr/consultations/projet-de-loi-numerique/consultation/consultation/opinions/section-1-ouverture-des-donnees-publiques-1/droit-a-l-information-universel-europeen/arguments/566/report", 
                "show": "http://www.republique-numerique.fr/projects/projet-de-loi-numerique/consultation/consultation/opinions/section-1-ouverture-des-donnees-publiques-1/droit-a-l-information-universel-europeen#arg-566"
            }, 
            "type": 0, 
            "id": 566, 
            "is_trashed": false
        }
    ], 
    "answer": null, 
    "type": {
        "votesThresholdHelpText": null, 
        "subtitle": "Ouverture des donn\u00e9es publiques", 
        "votesThreshold": null, 
        "votesHelpText": "Pensez-vous que cette proposition permet d'atteindre les objectifs pr\u00e9sent\u00e9s dans l\u2019explication de l\u2019article ?", 
        "title": "Section 1", 
        "color": "blue", 
        "commentSystem": 2, 
        "voteWidgetType": 2, 
        "sourceable": true, 
        "linkable": false, 
        "versionable": true, 
        "id": 86
    }, 
    "body": "<p>Ouveryutre des donn&eacute;es relatives aux :&nbsp;</p>\r\n\r\n<p>- March&eacute; public nationaux et europ&eacute;ens&nbsp;</p>\r\n\r\n<p>- Actes de Parlements nationaux et europ&eacute;ens&nbsp;</p>\r\n\r\n<p>- Conseil municipaux et europ&eacute;ens&nbsp;</p>", 
    "ranking": 88, 
    "sources_count": 1, 
    "votes_ok": 112, 
    "step": {
        "projectId": 3, 
        "id": 11
    }, 
    "link": null, 
    "appendices": [
        {
            "body": "<p>- Cr&eacute;er un cadre comparable au &#39;Freedom of Information Act&#39; britannique de 2000, permettant &agrave; tout citoyens de demander via le &#39;Freedom of Information Act&#39; les documenst d&eacute;tenus par une administration publique. &nbsp;</p>\r\n\r\n<p>- Cela inclut les administrations publiques EUROPEENES &eacute;galement !!&nbsp;</p>\r\n\r\n<p>- Si l&#39;information est jug&eacute;e &#39;sensible&#39; alors pr&eacute;voir un d&eacute;lai (10 ans - 20 ans?) permettant le d&eacute;classement des informations dites &#39;sensibles&#39;..&nbsp;</p>", 
            "type": {
                "title": "Explication de l'article"
            }
        }
    ], 
    "has_user_reported": false, 
    "is_trashed": false, 
    "isContribuable": false, 
    "created_at": "2015-09-26T19:45:59+0200", 
    "title": "DROIT A L' INFORMATION UNIVERSEL & EUROPEEN", 
    "modals": [], 
    "votes_mitige": 9, 
    "arguments_yes_count": 3, 
    "arguments_no_count": 3, 
    "votes_nok": 7
}