{
    "updated_at": "2015-09-26T21:45:43+0200", 
    "connections": [], 
    "sources": [], 
    "arguments_count": 3, 
    "versions_count": 0, 
    "connections_count": 0, 
    "votes_total": 63, 
    "id": 142, 
    "votes": [
        {
            "user": {
                "username": "Hermann Djoumessi", 
                "displayName": "Hermann Djoumessi", 
                "media": null, 
                "vip": false, 
                "isAdmin": false, 
                "_links": {
                    "profile": "http://www.republique-numerique.fr/profile/hermanndjoumessi", 
                    "settings": "http://www.republique-numerique.fr/profile/edit-profile"
                }, 
                "uniqueId": "hermanndjoumessi"
            }
        }, 
        {
            "user": {
                "username": "Florentin Feller", 
                "displayName": "Florentin Feller", 
                "media": null, 
                "vip": false, 
                "isAdmin": false, 
                "_links": {
                    "profile": "http://www.republique-numerique.fr/profile/florentinfeller", 
                    "settings": "http://www.republique-numerique.fr/profile/edit-profile"
                }, 
                "uniqueId": "florentinfeller"
            }
        }, 
        {
            "user": {
                "username": "Jeanne Varasco", 
                "displayName": "Jeanne Varasco", 
                "media": {
                    "url": "/media/cache/default_avatar/default/0001/01/139_default_avatar.jpg"
                }, 
                "vip": false, 
                "isAdmin": false, 
                "_links": {
                    "profile": "http://www.republique-numerique.fr/profile/jeannevarasco", 
                    "settings": "http://www.republique-numerique.fr/profile/edit-profile"
                }, 
                "uniqueId": "jeannevarasco"
            }
        }, 
        {
            "user": {
                "username": "NADPERR", 
                "displayName": "NADPERR", 
                "media": {
                    "url": "/media/cache/default_avatar/default/0001/01/154_default_avatar.jpg"
                }, 
                "vip": false, 
                "isAdmin": false, 
                "_links": {
                    "profile": "http://www.republique-numerique.fr/profile/nadperr", 
                    "settings": "http://www.republique-numerique.fr/profile/edit-profile"
                }, 
                "uniqueId": "nadperr"
            }
        }, 
        {
            "user": {
                "username": "Edouard B.", 
                "displayName": "Edouard B.", 
                "media": {
                    "url": "/media/cache/default_avatar/default/0001/01/163_default_avatar.jpg"
                }, 
                "vip": false, 
                "isAdmin": false, 
                "_links": {
                    "profile": "http://www.republique-numerique.fr/profile/edouardb", 
                    "settings": "http://www.republique-numerique.fr/profile/edit-profile"
                }, 
                "uniqueId": "edouardb"
            }
        }
    ], 
    "author": {
        "username": "Hermann Djoumessi", 
        "displayName": "Hermann Djoumessi", 
        "media": null, 
        "vip": false, 
        "isAdmin": false, 
        "_links": {
            "profile": "http://www.republique-numerique.fr/profile/hermanndjoumessi", 
            "settings": "http://www.republique-numerique.fr/profile/edit-profile"
        }, 
        "uniqueId": "hermanndjoumessi"
    }, 
    "user_vote": null, 
    "_links": {
        "edit": "http://www.republique-numerique.fr/projects/projet-de-loi-numerique/consultation/consultation/opinions/section-4-information-des-consommateurs/droit-de-reponse-du-consomateur-entreprise/edit", 
        "report": "http://www.republique-numerique.fr/consultations/projet-de-loi-numerique/consultation/consultation/opinions/section-4-information-des-consommateurs/droit-de-reponse-du-consomateur-entreprise/report", 
        "type": "http://www.republique-numerique.fr/projects/projet-de-loi-numerique/consultation/consultation/types/section-4-information-des-consommateurs", 
        "show": "http://www.republique-numerique.fr/projects/projet-de-loi-numerique/consultation/consultation/opinions/section-4-information-des-consommateurs/droit-de-reponse-du-consomateur-entreprise"
    }, 
    "arguments": [
        {
            "body": "Je suis tout \u00e0 fait d'accord avec NADPERR. Une loi compl\u00e8tement inutile \u00e0 mon sens.", 
            "is_enabled": true, 
            "isContribuable": false, 
            "author": {
                "username": "peronnard", 
                "displayName": "peronnard", 
                "media": null, 
                "vip": false, 
                "isAdmin": false, 
                "_links": {
                    "profile": "http://www.republique-numerique.fr/profile/peronnard", 
                    "settings": "http://www.republique-numerique.fr/profile/edit-profile"
                }, 
                "uniqueId": "peronnard"
            }, 
            "created_at": "2015-10-16T15:25:17+0200", 
            "updated_at": "2015-10-16T15:25:17+0200", 
            "has_user_reported": false, 
            "votes_count": 0, 
            "has_user_voted": false, 
            "_links": {
                "edit": "http://www.republique-numerique.fr/projects/projet-de-loi-numerique/consultation/consultation/opinions/section-4-information-des-consommateurs/droit-de-reponse-du-consomateur-entreprise/arguments/4772/edit", 
                "report": "http://www.republique-numerique.fr/consultations/projet-de-loi-numerique/consultation/consultation/opinions/section-4-information-des-consommateurs/droit-de-reponse-du-consomateur-entreprise/arguments/4772/report", 
                "show": "http://www.republique-numerique.fr/projects/projet-de-loi-numerique/consultation/consultation/opinions/section-4-information-des-consommateurs/droit-de-reponse-du-consomateur-entreprise#arg-4772"
            }, 
            "type": 0, 
            "id": 4772, 
            "is_trashed": false
        }, 
        {
            "body": "@NADPERR : non, il ne s'agit pas de favoriser la plainte (qui est d\u00e9j\u00e0 possible) mais que le verdict et la r\u00e9ponse de la victime soient visibles sur les canaux de communication du coupable. Ceci entra\u00eenerait une responsabilisation du propos sur le net. Pour.", 
            "is_enabled": true, 
            "isContribuable": false, 
            "author": {
                "username": "S\u00e9bastien Geldreich", 
                "displayName": "S\u00e9bastien Geldreich", 
                "media": null, 
                "vip": false, 
                "isAdmin": false, 
                "_links": {
                    "profile": "http://www.republique-numerique.fr/profile/sebastiengeldreich", 
                    "settings": "http://www.republique-numerique.fr/profile/edit-profile"
                }, 
                "uniqueId": "sebastiengeldreich"
            }, 
            "created_at": "2015-10-16T11:56:21+0200", 
            "updated_at": "2015-10-16T11:57:14+0200", 
            "has_user_reported": false, 
            "votes_count": 0, 
            "has_user_voted": false, 
            "_links": {
                "edit": "http://www.republique-numerique.fr/projects/projet-de-loi-numerique/consultation/consultation/opinions/section-4-information-des-consommateurs/droit-de-reponse-du-consomateur-entreprise/arguments/4630/edit", 
                "report": "http://www.republique-numerique.fr/consultations/projet-de-loi-numerique/consultation/consultation/opinions/section-4-information-des-consommateurs/droit-de-reponse-du-consomateur-entreprise/arguments/4630/report", 
                "show": "http://www.republique-numerique.fr/projects/projet-de-loi-numerique/consultation/consultation/opinions/section-4-information-des-consommateurs/droit-de-reponse-du-consomateur-entreprise#arg-4630"
            }, 
            "type": 1, 
            "id": 4630, 
            "is_trashed": false
        }, 
        {
            "body": "Encombrement inutile des tribunaux.  Les individus et entreprises vont porter plaintes et sans mesure \u00e0 tout va, d\u00e8s le moindre mal-entendus .", 
            "is_enabled": true, 
            "isContribuable": false, 
            "author": {
                "username": "NADPERR", 
                "displayName": "NADPERR", 
                "media": {
                    "url": "/media/cache/default_avatar/default/0001/01/154_default_avatar.jpg"
                }, 
                "vip": false, 
                "isAdmin": false, 
                "_links": {
                    "profile": "http://www.republique-numerique.fr/profile/nadperr", 
                    "settings": "http://www.republique-numerique.fr/profile/edit-profile"
                }, 
                "uniqueId": "nadperr"
            }, 
            "created_at": "2015-09-28T08:01:38+0200", 
            "updated_at": "2015-09-28T08:01:38+0200", 
            "has_user_reported": false, 
            "votes_count": 4, 
            "has_user_voted": false, 
            "_links": {
                "edit": "http://www.republique-numerique.fr/projects/projet-de-loi-numerique/consultation/consultation/opinions/section-4-information-des-consommateurs/droit-de-reponse-du-consomateur-entreprise/arguments/748/edit", 
                "report": "http://www.republique-numerique.fr/consultations/projet-de-loi-numerique/consultation/consultation/opinions/section-4-information-des-consommateurs/droit-de-reponse-du-consomateur-entreprise/arguments/748/report", 
                "show": "http://www.republique-numerique.fr/projects/projet-de-loi-numerique/consultation/consultation/opinions/section-4-information-des-consommateurs/droit-de-reponse-du-consomateur-entreprise#arg-748"
            }, 
            "type": 0, 
            "id": 748, 
            "is_trashed": false
        }
    ], 
    "answer": null, 
    "type": {
        "votesThresholdHelpText": null, 
        "subtitle": "Information des consommateurs", 
        "votesThreshold": null, 
        "votesHelpText": "Pensez-vous que cette proposition permet d'atteindre les objectifs pr\u00e9sent\u00e9s dans l\u2019explication de l\u2019article ?", 
        "title": "Section 4", 
        "color": "blue", 
        "commentSystem": 2, 
        "voteWidgetType": 2, 
        "sourceable": true, 
        "linkable": false, 
        "versionable": true, 
        "id": 97
    }, 
    "body": "<p>- Dans un conflit consomateur/Entreprise, lorsqu&#39;il a &eacute;t&eacute; prouv&eacute; par d&eacute;cision de justice que le consomateur a bel et bien &eacute;t&eacute; &#39;victime&#39; de l&#39;entrpeise, alors celle-ci devra &eacute;galement accorder un &#39;droit de r&eacute;ponse&#39; du consomateur sur ses nombreux canaux de communication en ligne (que ce soit le website de l&#39;entreprise, o&ugrave; les r&eacute;seaux sociaux)&nbsp;</p>\r\n\r\n<p>- Et &#39;vice-versa&#39; dans le cas o&ugrave; l&#39;entrprise aurait &eacute;t&eacute; &#39;victime&#39; du consomateur, alors celui-ci peut-&ecirc;tre contraint &agrave; offrir ses canaux de communications, surtout dans le cas, o&ugrave; il aurait &eacute;t&eacute; &agrave; l&#39;origine d&#39;un &#39;Bad Buzz&#39; par exemple. Cela impliquerait une plus grande responsabilisation de ceux qui passent leur temps &agrave; harceler sur les r&eacute;seaux sociaux.&nbsp;</p>", 
    "ranking": 182, 
    "sources_count": 0, 
    "votes_ok": 28, 
    "step": {
        "projectId": 3, 
        "id": 11
    }, 
    "link": null, 
    "appendices": [
        {
            "body": null, 
            "type": {
                "title": "Explication de l'article"
            }
        }
    ], 
    "has_user_reported": false, 
    "is_trashed": false, 
    "isContribuable": false, 
    "created_at": "2015-09-26T21:45:43+0200", 
    "title": "DROIT DE REPONSE DU CONSOMATEUR / ENTREPRISE", 
    "modals": [], 
    "votes_mitige": 20, 
    "arguments_yes_count": 1, 
    "arguments_no_count": 2, 
    "votes_nok": 15
}