{
    "updated_at": "2015-09-27T01:25:02+0200", 
    "connections": [], 
    "sources": [], 
    "arguments_count": 5, 
    "versions_count": 1, 
    "connections_count": 0, 
    "votes_total": 81, 
    "id": 153, 
    "votes": [
        {
            "user": {
                "username": "Guillaume Ber", 
                "displayName": "Guillaume Ber", 
                "media": null, 
                "vip": false, 
                "isAdmin": false, 
                "_links": {
                    "profile": "http://www.republique-numerique.fr/profile/guillaumeber", 
                    "settings": "http://www.republique-numerique.fr/profile/edit-profile"
                }, 
                "uniqueId": "guillaumeber"
            }
        }, 
        {
            "user": {
                "username": "Gilbert PROT", 
                "displayName": "Gilbert PROT", 
                "media": null, 
                "vip": false, 
                "isAdmin": false, 
                "_links": {
                    "profile": "http://www.republique-numerique.fr/profile/gilbertprot", 
                    "settings": "http://www.republique-numerique.fr/profile/edit-profile"
                }, 
                "uniqueId": "gilbertprot"
            }
        }, 
        {
            "user": {
                "username": "Jonathan Crequer", 
                "displayName": "Jonathan Crequer", 
                "media": null, 
                "vip": false, 
                "isAdmin": false, 
                "_links": {
                    "profile": "http://www.republique-numerique.fr/profile/jonathancrequer", 
                    "settings": "http://www.republique-numerique.fr/profile/edit-profile"
                }, 
                "uniqueId": "jonathancrequer"
            }
        }, 
        {
            "user": {
                "username": "Olivier SERY", 
                "displayName": "Olivier SERY", 
                "media": null, 
                "vip": false, 
                "isAdmin": false, 
                "_links": {
                    "profile": "http://www.republique-numerique.fr/profile/oliviersery", 
                    "settings": "http://www.republique-numerique.fr/profile/edit-profile"
                }, 
                "uniqueId": "oliviersery"
            }
        }, 
        {
            "user": {
                "username": "Jeanne Varasco", 
                "displayName": "Jeanne Varasco", 
                "media": {
                    "url": "/media/cache/default_avatar/default/0001/01/139_default_avatar.jpg"
                }, 
                "vip": false, 
                "isAdmin": false, 
                "_links": {
                    "profile": "http://www.republique-numerique.fr/profile/jeannevarasco", 
                    "settings": "http://www.republique-numerique.fr/profile/edit-profile"
                }, 
                "uniqueId": "jeannevarasco"
            }
        }
    ], 
    "author": {
        "username": "Jean-Yves Tallet", 
        "displayName": "Jean-Yves Tallet", 
        "media": null, 
        "vip": false, 
        "isAdmin": false, 
        "_links": {
            "profile": "http://www.republique-numerique.fr/profile/jeanyvestallet", 
            "settings": "http://www.republique-numerique.fr/profile/edit-profile"
        }, 
        "uniqueId": "jeanyvestallet"
    }, 
    "user_vote": null, 
    "_links": {
        "edit": "http://www.republique-numerique.fr/projects/projet-de-loi-numerique/consultation/consultation/opinions/section-1-ouverture-des-donnees-publiques-1/du-capitalisme-numerique-en-democratie-participative/edit", 
        "report": "http://www.republique-numerique.fr/consultations/projet-de-loi-numerique/consultation/consultation/opinions/section-1-ouverture-des-donnees-publiques-1/du-capitalisme-numerique-en-democratie-participative/report", 
        "type": "http://www.republique-numerique.fr/projects/projet-de-loi-numerique/consultation/consultation/types/section-1-ouverture-des-donnees-publiques-1", 
        "show": "http://www.republique-numerique.fr/projects/projet-de-loi-numerique/consultation/consultation/opinions/section-1-ouverture-des-donnees-publiques-1/du-capitalisme-numerique-en-democratie-participative"
    }, 
    "arguments": [
        {
            "body": "Aucun rapport avec \u00ab Ouverture des donn\u00e9es publiques \u00bb !", 
            "is_enabled": true, 
            "isContribuable": false, 
            "author": {
                "username": "daniel Azuelos", 
                "displayName": "daniel Azuelos", 
                "media": {
                    "url": "/media/cache/default_avatar/default/0001/01/952_default_avatar.jpg"
                }, 
                "vip": false, 
                "isAdmin": false, 
                "_links": {
                    "profile": "http://www.republique-numerique.fr/profile/danielazuelos", 
                    "settings": "http://www.republique-numerique.fr/profile/edit-profile"
                }, 
                "uniqueId": "danielazuelos"
            }, 
            "created_at": "2015-10-18T14:52:41+0200", 
            "updated_at": "2015-10-18T14:52:41+0200", 
            "has_user_reported": false, 
            "votes_count": 0, 
            "has_user_voted": false, 
            "_links": {
                "edit": "http://www.republique-numerique.fr/projects/projet-de-loi-numerique/consultation/consultation/opinions/section-1-ouverture-des-donnees-publiques-1/du-capitalisme-numerique-en-democratie-participative/arguments/5843/edit", 
                "report": "http://www.republique-numerique.fr/consultations/projet-de-loi-numerique/consultation/consultation/opinions/section-1-ouverture-des-donnees-publiques-1/du-capitalisme-numerique-en-democratie-participative/arguments/5843/report", 
                "show": "http://www.republique-numerique.fr/projects/projet-de-loi-numerique/consultation/consultation/opinions/section-1-ouverture-des-donnees-publiques-1/du-capitalisme-numerique-en-democratie-participative#arg-5843"
            }, 
            "type": 0, 
            "id": 5843, 
            "is_trashed": false
        }, 
        {
            "body": "Completement hors sujet.", 
            "is_enabled": true, 
            "isContribuable": false, 
            "author": {
                "username": "Guitou Flc", 
                "displayName": "Guitou Flc", 
                "media": null, 
                "vip": false, 
                "isAdmin": false, 
                "_links": {
                    "profile": "http://www.republique-numerique.fr/profile/guitouflc", 
                    "settings": "http://www.republique-numerique.fr/profile/edit-profile"
                }, 
                "uniqueId": "guitouflc"
            }, 
            "created_at": "2015-10-15T22:08:24+0200", 
            "updated_at": "2015-10-15T22:08:24+0200", 
            "has_user_reported": false, 
            "votes_count": 1, 
            "has_user_voted": false, 
            "_links": {
                "edit": "http://www.republique-numerique.fr/projects/projet-de-loi-numerique/consultation/consultation/opinions/section-1-ouverture-des-donnees-publiques-1/du-capitalisme-numerique-en-democratie-participative/arguments/4432/edit", 
                "report": "http://www.republique-numerique.fr/consultations/projet-de-loi-numerique/consultation/consultation/opinions/section-1-ouverture-des-donnees-publiques-1/du-capitalisme-numerique-en-democratie-participative/arguments/4432/report", 
                "show": "http://www.republique-numerique.fr/projects/projet-de-loi-numerique/consultation/consultation/opinions/section-1-ouverture-des-donnees-publiques-1/du-capitalisme-numerique-en-democratie-participative#arg-4432"
            }, 
            "type": 0, 
            "id": 4432, 
            "is_trashed": false
        }, 
        {
            "body": "Hors sujet ?", 
            "is_enabled": true, 
            "isContribuable": false, 
            "author": {
                "username": "Laurent Martin", 
                "displayName": "Laurent Martin", 
                "media": null, 
                "vip": false, 
                "isAdmin": false, 
                "_links": {
                    "profile": "http://www.republique-numerique.fr/profile/laurentmartin", 
                    "settings": "http://www.republique-numerique.fr/profile/edit-profile"
                }, 
                "uniqueId": "laurentmartin"
            }, 
            "created_at": "2015-09-30T16:00:56+0200", 
            "updated_at": "2015-09-30T16:00:56+0200", 
            "has_user_reported": false, 
            "votes_count": 2, 
            "has_user_voted": false, 
            "_links": {
                "edit": "http://www.republique-numerique.fr/projects/projet-de-loi-numerique/consultation/consultation/opinions/section-1-ouverture-des-donnees-publiques-1/du-capitalisme-numerique-en-democratie-participative/arguments/1590/edit", 
                "report": "http://www.republique-numerique.fr/consultations/projet-de-loi-numerique/consultation/consultation/opinions/section-1-ouverture-des-donnees-publiques-1/du-capitalisme-numerique-en-democratie-participative/arguments/1590/report", 
                "show": "http://www.republique-numerique.fr/projects/projet-de-loi-numerique/consultation/consultation/opinions/section-1-ouverture-des-donnees-publiques-1/du-capitalisme-numerique-en-democratie-participative#arg-1590"
            }, 
            "type": 0, 
            "id": 1590, 
            "is_trashed": false
        }, 
        {
            "body": "Pas tr\u00e8s clair comme article.", 
            "is_enabled": true, 
            "isContribuable": false, 
            "author": {
                "username": "Fran\u00e7ois Briat", 
                "displayName": "Fran\u00e7ois Briat", 
                "media": {
                    "url": "/media/cache/default_avatar/default/0001/01/243_default_avatar.jpg"
                }, 
                "vip": false, 
                "isAdmin": false, 
                "_links": {
                    "profile": "http://www.republique-numerique.fr/profile/francoisbriat", 
                    "settings": "http://www.republique-numerique.fr/profile/edit-profile"
                }, 
                "uniqueId": "francoisbriat"
            }, 
            "created_at": "2015-09-29T18:42:52+0200", 
            "updated_at": "2015-09-29T18:42:52+0200", 
            "has_user_reported": false, 
            "votes_count": 2, 
            "has_user_voted": false, 
            "_links": {
                "edit": "http://www.republique-numerique.fr/projects/projet-de-loi-numerique/consultation/consultation/opinions/section-1-ouverture-des-donnees-publiques-1/du-capitalisme-numerique-en-democratie-participative/arguments/1342/edit", 
                "report": "http://www.republique-numerique.fr/consultations/projet-de-loi-numerique/consultation/consultation/opinions/section-1-ouverture-des-donnees-publiques-1/du-capitalisme-numerique-en-democratie-participative/arguments/1342/report", 
                "show": "http://www.republique-numerique.fr/projects/projet-de-loi-numerique/consultation/consultation/opinions/section-1-ouverture-des-donnees-publiques-1/du-capitalisme-numerique-en-democratie-participative#arg-1342"
            }, 
            "type": 1, 
            "id": 1342, 
            "is_trashed": false
        }, 
        {
            "body": "C'est une vision tr\u00e8s politique qui manque de la neutralit\u00e9 n\u00e9cessaire \u00e0 la loi.", 
            "is_enabled": true, 
            "isContribuable": false, 
            "author": {
                "username": "Jeanne Varasco", 
                "displayName": "Jeanne Varasco", 
                "media": {
                    "url": "/media/cache/default_avatar/default/0001/01/139_default_avatar.jpg"
                }, 
                "vip": false, 
                "isAdmin": false, 
                "_links": {
                    "profile": "http://www.republique-numerique.fr/profile/jeannevarasco", 
                    "settings": "http://www.republique-numerique.fr/profile/edit-profile"
                }, 
                "uniqueId": "jeannevarasco"
            }, 
            "created_at": "2015-09-27T16:41:09+0200", 
            "updated_at": "2015-09-27T16:41:09+0200", 
            "has_user_reported": false, 
            "votes_count": 3, 
            "has_user_voted": false, 
            "_links": {
                "edit": "http://www.republique-numerique.fr/projects/projet-de-loi-numerique/consultation/consultation/opinions/section-1-ouverture-des-donnees-publiques-1/du-capitalisme-numerique-en-democratie-participative/arguments/575/edit", 
                "report": "http://www.republique-numerique.fr/consultations/projet-de-loi-numerique/consultation/consultation/opinions/section-1-ouverture-des-donnees-publiques-1/du-capitalisme-numerique-en-democratie-participative/arguments/575/report", 
                "show": "http://www.republique-numerique.fr/projects/projet-de-loi-numerique/consultation/consultation/opinions/section-1-ouverture-des-donnees-publiques-1/du-capitalisme-numerique-en-democratie-participative#arg-575"
            }, 
            "type": 0, 
            "id": 575, 
            "is_trashed": false
        }
    ], 
    "answer": null, 
    "type": {
        "votesThresholdHelpText": null, 
        "subtitle": "Ouverture des donn\u00e9es publiques", 
        "votesThreshold": null, 
        "votesHelpText": "Pensez-vous que cette proposition permet d'atteindre les objectifs pr\u00e9sent\u00e9s dans l\u2019explication de l\u2019article ?", 
        "title": "Section 1", 
        "color": "blue", 
        "commentSystem": 2, 
        "voteWidgetType": 2, 
        "sourceable": true, 
        "linkable": false, 
        "versionable": true, 
        "id": 86
    }, 
    "body": "<p>Du capitalisme num&eacute;rique en d&eacute;mocratie participative</p>\r\n\r\n<p>&nbsp;</p>\r\n\r\n<p>1 ) - Nul n&#39;est sens&eacute; ne pas &ecirc;tre inform&eacute;.</p>\r\n\r\n<p>&nbsp;</p>\r\n\r\n<p>2 ) - Seuls les citoyens, inform&eacute;s par tous les moyens qu&#39;ils chercheront &agrave; atteindre, y compris les conseils d&#39;experts, d&eacute;cident en droit de favoriser telle collaboration et l&#39;attribution des fonds mon&eacute;taires utiles et n&eacute;cessaires aux travaux et projets utiles et n&eacute;cessaires. Tous les citoyens ou groupes de citoyens ont acc&eacute;s &agrave; tous les moyens entrepreneuriaux utiles et n&eacute;cesaires quelque soit la puissance publique requise, comme la puissance de calcul, les bureaux d&#39;&eacute;tudes, les brevets, la publication d&#39;informations, journaux et nouvelles par exemple ; ce qui n&eacute;cessite une &laquo; combinatoire de priorisation &raquo; et l&#39;organisation qui l&#39;accompagne.</p>\r\n\r\n<p>&nbsp;</p>\r\n\r\n<p>3 ) - S&#39;il/elle existe encore, le/la capitaliste bourgeois(e) sera incit&eacute;(e) &agrave; favoriser le capitalisme num&eacute;rique en d&eacute;mocratie participative, mais sera l&eacute;gitimement ruin&eacute;(e) s&#39;il/elle fait seulement mine de s&#39;y opposer, apr&egrave;s le vote majoritaire du capitalisme num&eacute;rique en d&eacute;mocratie participative par les citoyens du globe.</p>", 
    "ranking": 427, 
    "sources_count": 0, 
    "votes_ok": 6, 
    "step": {
        "projectId": 3, 
        "id": 11
    }, 
    "link": null, 
    "appendices": [
        {
            "body": "<p>A la demande.</p>", 
            "type": {
                "title": "Explication de l'article"
            }
        }
    ], 
    "has_user_reported": false, 
    "is_trashed": false, 
    "isContribuable": false, 
    "created_at": "2015-09-27T01:25:02+0200", 
    "title": "Du capitalisme num\u00e9rique en d\u00e9mocratie participative", 
    "modals": [], 
    "votes_mitige": 12, 
    "arguments_yes_count": 1, 
    "arguments_no_count": 4, 
    "votes_nok": 63
}