{
    "updated_at": "2015-12-02T17:04:01+0100", 
    "connections": [], 
    "sources": [], 
    "arguments_count": 11, 
    "versions_count": 0, 
    "connections_count": 0, 
    "votes_total": 241, 
    "id": 183, 
    "votes": [
        {
            "user": {
                "username": "OUVRARD", 
                "displayName": "OUVRARD", 
                "media": null, 
                "vip": false, 
                "isAdmin": false, 
                "_links": {
                    "profile": "http://www.republique-numerique.fr/profile/ouvrard", 
                    "settings": "http://www.republique-numerique.fr/profile/edit-profile"
                }, 
                "uniqueId": "ouvrard"
            }
        }, 
        {
            "user": {
                "username": "bog", 
                "displayName": "bog", 
                "media": {
                    "url": "/media/cache/default_avatar/default/0001/01/168_default_avatar.png"
                }, 
                "vip": false, 
                "isAdmin": false, 
                "_links": {
                    "profile": "http://www.republique-numerique.fr/profile/bog", 
                    "settings": "http://www.republique-numerique.fr/profile/edit-profile"
                }, 
                "uniqueId": "bog"
            }
        }, 
        {
            "user": {
                "username": "Hugues Bernaud", 
                "displayName": "Hugues Bernaud", 
                "media": null, 
                "vip": false, 
                "isAdmin": false, 
                "_links": {
                    "profile": "http://www.republique-numerique.fr/profile/huguesbernaud", 
                    "settings": "http://www.republique-numerique.fr/profile/edit-profile"
                }, 
                "uniqueId": "huguesbernaud"
            }
        }, 
        {
            "user": {
                "username": "Djan GICQUEL", 
                "displayName": "Djan GICQUEL", 
                "media": {
                    "url": "/media/cache/default_avatar/default/0001/01/122_default_avatar.jpg"
                }, 
                "vip": false, 
                "isAdmin": false, 
                "_links": {
                    "profile": "http://www.republique-numerique.fr/profile/djangicquel", 
                    "settings": "http://www.republique-numerique.fr/profile/edit-profile"
                }, 
                "uniqueId": "djangicquel"
            }
        }, 
        {
            "user": {
                "username": "Olivier SERY", 
                "displayName": "Olivier SERY", 
                "media": null, 
                "vip": false, 
                "isAdmin": false, 
                "_links": {
                    "profile": "http://www.republique-numerique.fr/profile/oliviersery", 
                    "settings": "http://www.republique-numerique.fr/profile/edit-profile"
                }, 
                "uniqueId": "oliviersery"
            }
        }
    ], 
    "author": {
        "username": "OUVRARD", 
        "displayName": "OUVRARD", 
        "media": null, 
        "vip": false, 
        "isAdmin": false, 
        "_links": {
            "profile": "http://www.republique-numerique.fr/profile/ouvrard", 
            "settings": "http://www.republique-numerique.fr/profile/edit-profile"
        }, 
        "uniqueId": "ouvrard"
    }, 
    "user_vote": null, 
    "_links": {
        "edit": "http://www.republique-numerique.fr/projects/projet-de-loi-numerique/consultation/consultation/opinions/section-1-ouverture-des-donnees-publiques-1/obligation-du-format-ouvert-et-libre-pour-toute-administration-publique-et-institution-de-formation/edit", 
        "report": "http://www.republique-numerique.fr/consultations/projet-de-loi-numerique/consultation/consultation/opinions/section-1-ouverture-des-donnees-publiques-1/obligation-du-format-ouvert-et-libre-pour-toute-administration-publique-et-institution-de-formation/report", 
        "type": "http://www.republique-numerique.fr/projects/projet-de-loi-numerique/consultation/consultation/types/section-1-ouverture-des-donnees-publiques-1", 
        "show": "http://www.republique-numerique.fr/projects/projet-de-loi-numerique/consultation/consultation/opinions/section-1-ouverture-des-donnees-publiques-1/obligation-du-format-ouvert-et-libre-pour-toute-administration-publique-et-institution-de-formation"
    }, 
    "arguments": [
        {
            "body": "on parle de logiciel ou de documents l\u00e0? \u00e7a n'est pas clair du tout !", 
            "is_enabled": true, 
            "isContribuable": false, 
            "author": {
                "username": "Florian Nouviale", 
                "displayName": "Florian Nouviale", 
                "media": null, 
                "vip": false, 
                "isAdmin": false, 
                "_links": {
                    "profile": "http://www.republique-numerique.fr/profile/floriannouviale", 
                    "settings": "http://www.republique-numerique.fr/profile/edit-profile"
                }, 
                "uniqueId": "floriannouviale"
            }, 
            "created_at": "2015-10-16T19:33:37+0200", 
            "updated_at": "2015-10-16T19:33:37+0200", 
            "has_user_reported": false, 
            "votes_count": 0, 
            "has_user_voted": false, 
            "_links": {
                "edit": "http://www.republique-numerique.fr/projects/projet-de-loi-numerique/consultation/consultation/opinions/section-1-ouverture-des-donnees-publiques-1/obligation-du-format-ouvert-et-libre-pour-toute-administration-publique-et-institution-de-formation/arguments/4983/edit", 
                "report": "http://www.republique-numerique.fr/consultations/projet-de-loi-numerique/consultation/consultation/opinions/section-1-ouverture-des-donnees-publiques-1/obligation-du-format-ouvert-et-libre-pour-toute-administration-publique-et-institution-de-formation/arguments/4983/report", 
                "show": "http://www.republique-numerique.fr/projects/projet-de-loi-numerique/consultation/consultation/opinions/section-1-ouverture-des-donnees-publiques-1/obligation-du-format-ouvert-et-libre-pour-toute-administration-publique-et-institution-de-formation#arg-4983"
            }, 
            "type": 0, 
            "id": 4983, 
            "is_trashed": false
        }, 
        {
            "body": "Article trop impr\u00e9cis.", 
            "is_enabled": true, 
            "isContribuable": false, 
            "author": {
                "username": "sarah fouquet", 
                "displayName": "sarah fouquet", 
                "media": null, 
                "vip": false, 
                "isAdmin": false, 
                "_links": {
                    "profile": "http://www.republique-numerique.fr/profile/sarahfouquet", 
                    "settings": "http://www.republique-numerique.fr/profile/edit-profile"
                }, 
                "uniqueId": "sarahfouquet"
            }, 
            "created_at": "2015-10-16T15:40:15+0200", 
            "updated_at": "2015-10-16T15:40:15+0200", 
            "has_user_reported": false, 
            "votes_count": 0, 
            "has_user_voted": false, 
            "_links": {
                "edit": "http://www.republique-numerique.fr/projects/projet-de-loi-numerique/consultation/consultation/opinions/section-1-ouverture-des-donnees-publiques-1/obligation-du-format-ouvert-et-libre-pour-toute-administration-publique-et-institution-de-formation/arguments/4788/edit", 
                "report": "http://www.republique-numerique.fr/consultations/projet-de-loi-numerique/consultation/consultation/opinions/section-1-ouverture-des-donnees-publiques-1/obligation-du-format-ouvert-et-libre-pour-toute-administration-publique-et-institution-de-formation/arguments/4788/report", 
                "show": "http://www.republique-numerique.fr/projects/projet-de-loi-numerique/consultation/consultation/opinions/section-1-ouverture-des-donnees-publiques-1/obligation-du-format-ouvert-et-libre-pour-toute-administration-publique-et-institution-de-formation#arg-4788"
            }, 
            "type": 0, 
            "id": 4788, 
            "is_trashed": false
        }, 
        {
            "body": "Les d\u00e9finitions pr\u00e9alables des formats me paraissent fausses ou alors mal formul\u00e9es.\nJe suis pour la premi\u00e8re partie de cette proposition (format des documents), la seconde partie me para\u00eet plus difficile \u00e0 mettre en \u0153uvre.", 
            "is_enabled": true, 
            "isContribuable": false, 
            "author": {
                "username": "Fr\u00e9d\u00e9ric Da Vitoria", 
                "displayName": "Fr\u00e9d\u00e9ric Da Vitoria", 
                "media": null, 
                "vip": false, 
                "isAdmin": false, 
                "_links": {
                    "profile": "http://www.republique-numerique.fr/profile/fredericdavitoria", 
                    "settings": "http://www.republique-numerique.fr/profile/edit-profile"
                }, 
                "uniqueId": "fredericdavitoria"
            }, 
            "created_at": "2015-10-16T11:58:11+0200", 
            "updated_at": "2015-10-16T11:58:11+0200", 
            "has_user_reported": false, 
            "votes_count": 1, 
            "has_user_voted": false, 
            "_links": {
                "edit": "http://www.republique-numerique.fr/projects/projet-de-loi-numerique/consultation/consultation/opinions/section-1-ouverture-des-donnees-publiques-1/obligation-du-format-ouvert-et-libre-pour-toute-administration-publique-et-institution-de-formation/arguments/4631/edit", 
                "report": "http://www.republique-numerique.fr/consultations/projet-de-loi-numerique/consultation/consultation/opinions/section-1-ouverture-des-donnees-publiques-1/obligation-du-format-ouvert-et-libre-pour-toute-administration-publique-et-institution-de-formation/arguments/4631/report", 
                "show": "http://www.republique-numerique.fr/projects/projet-de-loi-numerique/consultation/consultation/opinions/section-1-ouverture-des-donnees-publiques-1/obligation-du-format-ouvert-et-libre-pour-toute-administration-publique-et-institution-de-formation#arg-4631"
            }, 
            "type": 1, 
            "id": 4631, 
            "is_trashed": false
        }, 
        {
            "body": "@Vincent Reverdy: la premi\u00e8re partie de la proposition me semble simplement dire que si un document est mis \u00e0 disposition, il doit l'\u00eatre dans un format libre. La seconde ne parle que du type de logiciels. Je ne vois donc pas o\u00f9 intervient ici le probl\u00e8me de la confidentialit\u00e9.", 
            "is_enabled": true, 
            "isContribuable": false, 
            "author": {
                "username": "Fr\u00e9d\u00e9ric Da Vitoria", 
                "displayName": "Fr\u00e9d\u00e9ric Da Vitoria", 
                "media": null, 
                "vip": false, 
                "isAdmin": false, 
                "_links": {
                    "profile": "http://www.republique-numerique.fr/profile/fredericdavitoria", 
                    "settings": "http://www.republique-numerique.fr/profile/edit-profile"
                }, 
                "uniqueId": "fredericdavitoria"
            }, 
            "created_at": "2015-10-16T11:51:39+0200", 
            "updated_at": "2015-10-16T11:51:39+0200", 
            "has_user_reported": false, 
            "votes_count": 0, 
            "has_user_voted": false, 
            "_links": {
                "edit": "http://www.republique-numerique.fr/projects/projet-de-loi-numerique/consultation/consultation/opinions/section-1-ouverture-des-donnees-publiques-1/obligation-du-format-ouvert-et-libre-pour-toute-administration-publique-et-institution-de-formation/arguments/4626/edit", 
                "report": "http://www.republique-numerique.fr/consultations/projet-de-loi-numerique/consultation/consultation/opinions/section-1-ouverture-des-donnees-publiques-1/obligation-du-format-ouvert-et-libre-pour-toute-administration-publique-et-institution-de-formation/arguments/4626/report", 
                "show": "http://www.republique-numerique.fr/projects/projet-de-loi-numerique/consultation/consultation/opinions/section-1-ouverture-des-donnees-publiques-1/obligation-du-format-ouvert-et-libre-pour-toute-administration-publique-et-institution-de-formation#arg-4626"
            }, 
            "type": 1, 
            "id": 4626, 
            "is_trashed": false
        }, 
        {
            "body": "Le Cerfa n\u00b013754*02 est un pdf t\u00e9l\u00e9chargeable mais que l'on ne peut ouvrir qu'avec Adobe reader et nul autre lecteur de pdf. Un format ouvert peut donc ne pas respecter la norme ISO 32000-1:2008. (dans ce cas).  ", 
            "is_enabled": true, 
            "isContribuable": false, 
            "author": {
                "username": "Eric Niort", 
                "displayName": "Eric Niort", 
                "media": null, 
                "vip": false, 
                "isAdmin": false, 
                "_links": {
                    "profile": "http://www.republique-numerique.fr/profile/ericniort", 
                    "settings": "http://www.republique-numerique.fr/profile/edit-profile"
                }, 
                "uniqueId": "ericniort"
            }, 
            "created_at": "2015-10-15T17:39:29+0200", 
            "updated_at": "2015-10-15T17:39:29+0200", 
            "has_user_reported": false, 
            "votes_count": 0, 
            "has_user_voted": false, 
            "_links": {
                "edit": "http://www.republique-numerique.fr/projects/projet-de-loi-numerique/consultation/consultation/opinions/section-1-ouverture-des-donnees-publiques-1/obligation-du-format-ouvert-et-libre-pour-toute-administration-publique-et-institution-de-formation/arguments/4326/edit", 
                "report": "http://www.republique-numerique.fr/consultations/projet-de-loi-numerique/consultation/consultation/opinions/section-1-ouverture-des-donnees-publiques-1/obligation-du-format-ouvert-et-libre-pour-toute-administration-publique-et-institution-de-formation/arguments/4326/report", 
                "show": "http://www.republique-numerique.fr/projects/projet-de-loi-numerique/consultation/consultation/opinions/section-1-ouverture-des-donnees-publiques-1/obligation-du-format-ouvert-et-libre-pour-toute-administration-publique-et-institution-de-formation#arg-4326"
            }, 
            "type": 1, 
            "id": 4326, 
            "is_trashed": false
        }, 
        {
            "body": "C'est important : Format ouvert = format accessible \u00e0 tous quelque soit le syst\u00e8me servant \u00e0 la machine et quelque soit le logiciel utilis\u00e9, format libre = format respectant le principe des 4 libert\u00e9s ch\u00e8res aux licences r\u00e9gissant les logiciels libres", 
            "is_enabled": true, 
            "isContribuable": false, 
            "author": {
                "username": "Jean Carreel", 
                "displayName": "Jean Carreel", 
                "media": null, 
                "vip": false, 
                "isAdmin": false, 
                "_links": {
                    "profile": "http://www.republique-numerique.fr/profile/jeancarreel", 
                    "settings": "http://www.republique-numerique.fr/profile/edit-profile"
                }, 
                "uniqueId": "jeancarreel"
            }, 
            "created_at": "2015-10-11T11:20:52+0200", 
            "updated_at": "2015-10-11T11:20:52+0200", 
            "has_user_reported": false, 
            "votes_count": 0, 
            "has_user_voted": false, 
            "_links": {
                "edit": "http://www.republique-numerique.fr/projects/projet-de-loi-numerique/consultation/consultation/opinions/section-1-ouverture-des-donnees-publiques-1/obligation-du-format-ouvert-et-libre-pour-toute-administration-publique-et-institution-de-formation/arguments/3114/edit", 
                "report": "http://www.republique-numerique.fr/consultations/projet-de-loi-numerique/consultation/consultation/opinions/section-1-ouverture-des-donnees-publiques-1/obligation-du-format-ouvert-et-libre-pour-toute-administration-publique-et-institution-de-formation/arguments/3114/report", 
                "show": "http://www.republique-numerique.fr/projects/projet-de-loi-numerique/consultation/consultation/opinions/section-1-ouverture-des-donnees-publiques-1/obligation-du-format-ouvert-et-libre-pour-toute-administration-publique-et-institution-de-formation#arg-3114"
            }, 
            "type": 1, 
            "id": 3114, 
            "is_trashed": false
        }, 
        {
            "body": "L'utilisation de format ouverts permet une interop\u00e9rabilit\u00e9 entre les diff\u00e9rentes institutions et les citoyens. Les formats ouverts garantissent le maintien dans le temps des donn\u00e9es et leur r\u00e9utilisation de mani\u00e8re simple", 
            "is_enabled": true, 
            "isContribuable": false, 
            "author": {
                "username": "Guillaume", 
                "displayName": "Guillaume", 
                "media": null, 
                "vip": false, 
                "isAdmin": false, 
                "_links": {
                    "profile": "http://www.republique-numerique.fr/profile/guillaume3", 
                    "settings": "http://www.republique-numerique.fr/profile/edit-profile"
                }, 
                "uniqueId": "guillaume3"
            }, 
            "created_at": "2015-10-07T19:12:35+0200", 
            "updated_at": "2015-10-07T19:12:35+0200", 
            "has_user_reported": false, 
            "votes_count": 3, 
            "has_user_voted": false, 
            "_links": {
                "edit": "http://www.republique-numerique.fr/projects/projet-de-loi-numerique/consultation/consultation/opinions/section-1-ouverture-des-donnees-publiques-1/obligation-du-format-ouvert-et-libre-pour-toute-administration-publique-et-institution-de-formation/arguments/2542/edit", 
                "report": "http://www.republique-numerique.fr/consultations/projet-de-loi-numerique/consultation/consultation/opinions/section-1-ouverture-des-donnees-publiques-1/obligation-du-format-ouvert-et-libre-pour-toute-administration-publique-et-institution-de-formation/arguments/2542/report", 
                "show": "http://www.republique-numerique.fr/projects/projet-de-loi-numerique/consultation/consultation/opinions/section-1-ouverture-des-donnees-publiques-1/obligation-du-format-ouvert-et-libre-pour-toute-administration-publique-et-institution-de-formation#arg-2542"
            }, 
            "type": 1, 
            "id": 2542, 
            "is_trashed": false
        }, 
        {
            "body": "On parle i\u00e7i de donn\u00e9es, pas de traitements.", 
            "is_enabled": true, 
            "isContribuable": false, 
            "author": {
                "username": "Laurent Martin", 
                "displayName": "Laurent Martin", 
                "media": null, 
                "vip": false, 
                "isAdmin": false, 
                "_links": {
                    "profile": "http://www.republique-numerique.fr/profile/laurentmartin", 
                    "settings": "http://www.republique-numerique.fr/profile/edit-profile"
                }, 
                "uniqueId": "laurentmartin"
            }, 
            "created_at": "2015-10-01T13:25:26+0200", 
            "updated_at": "2015-10-01T13:25:26+0200", 
            "has_user_reported": false, 
            "votes_count": 0, 
            "has_user_voted": false, 
            "_links": {
                "edit": "http://www.republique-numerique.fr/projects/projet-de-loi-numerique/consultation/consultation/opinions/section-1-ouverture-des-donnees-publiques-1/obligation-du-format-ouvert-et-libre-pour-toute-administration-publique-et-institution-de-formation/arguments/1816/edit", 
                "report": "http://www.republique-numerique.fr/consultations/projet-de-loi-numerique/consultation/consultation/opinions/section-1-ouverture-des-donnees-publiques-1/obligation-du-format-ouvert-et-libre-pour-toute-administration-publique-et-institution-de-formation/arguments/1816/report", 
                "show": "http://www.republique-numerique.fr/projects/projet-de-loi-numerique/consultation/consultation/opinions/section-1-ouverture-des-donnees-publiques-1/obligation-du-format-ouvert-et-libre-pour-toute-administration-publique-et-institution-de-formation#arg-1816"
            }, 
            "type": 0, 
            "id": 1816, 
            "is_trashed": false
        }, 
        {
            "body": "La d\u00e9finition du terme libre serait \u00e0 pr\u00e9ciser, notamment au regard de l'existence du \"free software\". Une clause de confidentialit\u00e9 sur tout ce qui pourrait porter atteinte \u00e0 la s\u00e9curit\u00e9 des individus et des infrastructures serait \u00e0 ajouter.", 
            "is_enabled": true, 
            "isContribuable": false, 
            "author": {
                "username": "Vincent Reverdy", 
                "displayName": "Vincent Reverdy", 
                "media": {
                    "url": "/media/cache/default_avatar/default/0001/01/268_default_avatar.jpg"
                }, 
                "vip": false, 
                "isAdmin": false, 
                "_links": {
                    "profile": "http://www.republique-numerique.fr/profile/vincentreverdy", 
                    "settings": "http://www.republique-numerique.fr/profile/edit-profile"
                }, 
                "uniqueId": "vincentreverdy"
            }, 
            "created_at": "2015-09-30T17:07:40+0200", 
            "updated_at": "2015-09-30T17:07:40+0200", 
            "has_user_reported": false, 
            "votes_count": 2, 
            "has_user_voted": false, 
            "_links": {
                "edit": "http://www.republique-numerique.fr/projects/projet-de-loi-numerique/consultation/consultation/opinions/section-1-ouverture-des-donnees-publiques-1/obligation-du-format-ouvert-et-libre-pour-toute-administration-publique-et-institution-de-formation/arguments/1620/edit", 
                "report": "http://www.republique-numerique.fr/consultations/projet-de-loi-numerique/consultation/consultation/opinions/section-1-ouverture-des-donnees-publiques-1/obligation-du-format-ouvert-et-libre-pour-toute-administration-publique-et-institution-de-formation/arguments/1620/report", 
                "show": "http://www.republique-numerique.fr/projects/projet-de-loi-numerique/consultation/consultation/opinions/section-1-ouverture-des-donnees-publiques-1/obligation-du-format-ouvert-et-libre-pour-toute-administration-publique-et-institution-de-formation#arg-1620"
            }, 
            "type": 0, 
            "id": 1620, 
            "is_trashed": false
        }, 
        {
            "body": "Il y a apparemment une confusion entre un *format* de donn\u00e9es et un *logiciel*.\n\nEn outre cet article n'a rien \u00e0 faire en Section 1.", 
            "is_enabled": true, 
            "isContribuable": false, 
            "author": {
                "username": "Lertsenem", 
                "displayName": "Lertsenem", 
                "media": {
                    "url": "/media/cache/default_avatar/default/0001/01/324_default_avatar.jpg"
                }, 
                "vip": false, 
                "isAdmin": false, 
                "_links": {
                    "profile": "http://www.republique-numerique.fr/profile/lertsenem", 
                    "settings": "http://www.republique-numerique.fr/profile/edit-profile"
                }, 
                "uniqueId": "lertsenem"
            }, 
            "created_at": "2015-09-30T12:59:57+0200", 
            "updated_at": "2015-09-30T12:59:57+0200", 
            "has_user_reported": false, 
            "votes_count": 2, 
            "has_user_voted": false, 
            "_links": {
                "edit": "http://www.republique-numerique.fr/projects/projet-de-loi-numerique/consultation/consultation/opinions/section-1-ouverture-des-donnees-publiques-1/obligation-du-format-ouvert-et-libre-pour-toute-administration-publique-et-institution-de-formation/arguments/1514/edit", 
                "report": "http://www.republique-numerique.fr/consultations/projet-de-loi-numerique/consultation/consultation/opinions/section-1-ouverture-des-donnees-publiques-1/obligation-du-format-ouvert-et-libre-pour-toute-administration-publique-et-institution-de-formation/arguments/1514/report", 
                "show": "http://www.republique-numerique.fr/projects/projet-de-loi-numerique/consultation/consultation/opinions/section-1-ouverture-des-donnees-publiques-1/obligation-du-format-ouvert-et-libre-pour-toute-administration-publique-et-institution-de-formation#arg-1514"
            }, 
            "type": 0, 
            "id": 1514, 
            "is_trashed": false
        }, 
        {
            "body": "En plus d'avoir un acc\u00e8s facilit\u00e9, le format ouvert garanti une p\u00e9rennit\u00e9 dans le temps.", 
            "is_enabled": true, 
            "isContribuable": false, 
            "author": {
                "username": "C\u00e9dric Foissac", 
                "displayName": "C\u00e9dric Foissac", 
                "media": {
                    "url": "/media/cache/default_avatar/default/0001/01/184_default_avatar.jpg"
                }, 
                "vip": false, 
                "isAdmin": false, 
                "_links": {
                    "profile": "http://www.republique-numerique.fr/profile/cedricfoissac", 
                    "settings": "http://www.republique-numerique.fr/profile/edit-profile"
                }, 
                "uniqueId": "cedricfoissac"
            }, 
            "created_at": "2015-09-27T23:15:50+0200", 
            "updated_at": "2015-09-27T23:15:50+0200", 
            "has_user_reported": false, 
            "votes_count": 9, 
            "has_user_voted": false, 
            "_links": {
                "edit": "http://www.republique-numerique.fr/projects/projet-de-loi-numerique/consultation/consultation/opinions/section-1-ouverture-des-donnees-publiques-1/obligation-du-format-ouvert-et-libre-pour-toute-administration-publique-et-institution-de-formation/arguments/719/edit", 
                "report": "http://www.republique-numerique.fr/consultations/projet-de-loi-numerique/consultation/consultation/opinions/section-1-ouverture-des-donnees-publiques-1/obligation-du-format-ouvert-et-libre-pour-toute-administration-publique-et-institution-de-formation/arguments/719/report", 
                "show": "http://www.republique-numerique.fr/projects/projet-de-loi-numerique/consultation/consultation/opinions/section-1-ouverture-des-donnees-publiques-1/obligation-du-format-ouvert-et-libre-pour-toute-administration-publique-et-institution-de-formation#arg-719"
            }, 
            "type": 1, 
            "id": 719, 
            "is_trashed": false
        }
    ], 
    "answer": {
        "body": "<p>Les propositions formul&eacute;es par l&rsquo;<a href=\"/profile/april\">APRIL</a>, <a href=\"/profile/fgonzalez\">F.Gonzalez</a> et <a href=\"/profile/ouvrard\">OUVRARD</a> pour donner la priorit&eacute; aux logiciels libres et aux formats ouverts dans le service public national et local doivent n&eacute;cessairement s&rsquo;articuler avec le principe de libre administration des collectivit&eacute;s territoriales pos&eacute; par l&rsquo;article 72 de la constitution. &nbsp;Dans ces conditions, imposer l&rsquo;utilisation de logiciels libres aux collectivit&eacute;s territoriales pourrait porter atteinte &agrave; ce principe en imposant des charges trop lourdes aux collectivit&eacute;s, notamment si l&rsquo;utilisation de logiciels libres nouveaux n&eacute;cessite une formation de leurs agents.</p>\r\n\r\n<p>Pour ce qui concerne l&rsquo;Etat, la modification du code de l&rsquo;&eacute;ducation par les lois n&deg;2013-595 du 8 juillet 2013 et n&deg;2013-660 du 22 juillet 2013 a marqu&eacute; de grandes avanc&eacute;es en la mati&egrave;re. Ainsi, l&rsquo;article L131-2 de ce code, dans sa r&eacute;daction issue de la <a href=\"http://www.legifrance.gouv.fr/affichTexteArticle.do;jsessionid=A1433AB893080D4FF94FD4DC37F12FFB.tpdila22v_2?cidTexte=JORFTEXT000027677984&amp;idArticle=LEGIARTI000027679268&amp;dateTexte=20151104&amp;categorieLien=id#LEGIARTI000027679268\" target=\"_blank\">loi&nbsp;n&deg;2013-595 du 8 juillet 2013 (art. 16)</a>, pr&eacute;voit que dans le cadre du num&eacute;rique &eacute;ducatif, &laquo; la d&eacute;termination du choix des ressources utilis&eacute;es tient compte de l&#39;offre de logiciels libres et de documents au format ouvert, si elle existe. &raquo;</p>\r\n\r\n<p>L&rsquo;article L123-4-1 du m&ecirc;me code, dans sa r&eacute;daction issue de la <a href=\"http://www.legifrance.gouv.fr/affichTexteArticle.do;jsessionid=4AF9C56981F2CF2357B764F7F42EE992.tpdila12v_1?cidTexte=JORFTEXT000027735009&amp;idArticle=LEGIARTI000027736697&amp;dateTexte=20151104&amp;categorieLien=id#LEGIARTI000027736697\" target=\"_blank\">loi&nbsp;n&deg;2013-660 du 22 juillet 2013 (art. 9)</a>, pr&eacute;voit quant &agrave; lui que : &laquo; Le service public de l&#39;enseignement sup&eacute;rieur met &agrave; disposition de ses usagers des services et des ressources p&eacute;dagogiques num&eacute;riques. Les logiciels libres sont utilis&eacute;s en priorit&eacute; &raquo;.</p>\r\n\r\n<p>Pour ce qui concerne la g&eacute;n&eacute;ralisation des logiciels libres dans les administrations d&rsquo;Etat, comme le propose <a href=\"/profile/lepoissonlibre\">Le Poisson libre</a> qui entend obliger l&rsquo;Etat, d&egrave;s qu&#39;il traite des donn&eacute;es de citoyens, un syst&egrave;me libre tel que ceux d&eacute;riv&eacute;s de GNU/Linux, le recours &agrave; la voie l&eacute;gislative n&rsquo;apparait pas n&eacute;cessaire. Un chantier interminist&eacute;riel est actuellement en cours pour faire progresser la mise en &oelig;uvre des dispositions amorc&eacute;es par la <a href=\"http://circulaire.legifrance.gouv.fr/pdf/2012/09/cir_35837.pdf\" target=\"_blank\">circulaire du 19 septembre 2012</a> et les travaux de la Direction interminist&eacute;rielle du Num&eacute;rique, des Syst&egrave;mes d&rsquo;Information et de Communication (DINSIC) afin de recourir prioritairement au logiciel libre dans tous les cas qui le justifient, notamment au regard du type de fonctionnalit&eacute;s recherch&eacute;es, de l&rsquo;existence d&rsquo;une communaut&eacute; et des co&ucirc;ts de maintenance associ&eacute;s.</p>\r\n\r\n<p>Un guide, &laquo; Conseils &agrave; la r&eacute;daction de clauses de propri&eacute;t&eacute; intellectuelle pour les march&eacute;s de d&eacute;veloppement et de maintenance de logiciels libre &raquo;, a notamment &eacute;t&eacute; &eacute;labor&eacute; en 2014 pour favoriser l&rsquo;int&eacute;gration des clauses de propri&eacute;t&eacute; intellectuelle dans les appels d&rsquo;offre. L&#39;objectif du guide &agrave; destination des administrations est de proposer des exemples de r&eacute;daction &agrave; ins&eacute;rer dans les cahiers des clauses administratives particuli&egrave;res (CCAP), permettant de d&eacute;roger ou de compl&eacute;ter certaines stipulations des cahiers des clauses administratives g&eacute;n&eacute;rales-TIC (CCAG-TIC).</p>", 
        "author": {
            "username": "Gouvernement", 
            "displayName": "Gouvernement", 
            "media": {
                "url": "/media/cache/default_avatar/default/0001/01/72_default_avatar.jpg"
            }, 
            "vip": true, 
            "isAdmin": false, 
            "_links": {
                "profile": "http://www.republique-numerique.fr/profile/gouvernement", 
                "settings": "http://www.republique-numerique.fr/profile/edit-profile"
            }, 
            "uniqueId": "gouvernement"
        }, 
        "title": "R\u00e9ponse du Gouvernement"
    }, 
    "type": {
        "votesThresholdHelpText": null, 
        "subtitle": "Ouverture des donn\u00e9es publiques", 
        "votesThreshold": null, 
        "votesHelpText": "Pensez-vous que cette proposition permet d'atteindre les objectifs pr\u00e9sent\u00e9s dans l\u2019explication de l\u2019article ?", 
        "title": "Section 1", 
        "color": "blue", 
        "commentSystem": 2, 
        "voteWidgetType": 2, 
        "sourceable": true, 
        "linkable": false, 
        "versionable": true, 
        "id": 86
    }, 
    "body": "<p>Un format ouvert est un format auquel on a acc&egrave;s au code source.</p>\r\n\r\n<p>Un format libre permet la r&eacute;utilisation du code source.</p>\r\n\r\n<p>Tout document fourni par un organisme public doit &ecirc;tre en format ouvert et libre. En particulier pour les organismes de formation, d&#39;&eacute;ducation et de recherche ainsi que pour les administrations centrales, y compris &agrave; des fins de communication interne.</p>\r\n\r\n<p>Sauf impossibilit&eacute; majeure et qui se doit d&#39;&ecirc;tre justifi&eacute;e, les solutions utilis&eacute;es pour les logiciels m&eacute;tiers se doivent d&#39;&ecirc;tre aussi en format libre et ouvert.</p>\r\n\r\n<p>&nbsp;</p>", 
    "ranking": 47, 
    "sources_count": 0, 
    "votes_ok": 221, 
    "step": {
        "projectId": 3, 
        "id": 11
    }, 
    "link": null, 
    "appendices": [
        {
            "body": null, 
            "type": {
                "title": "Explication de l'article"
            }
        }
    ], 
    "has_user_reported": false, 
    "is_trashed": false, 
    "isContribuable": false, 
    "created_at": "2015-09-27T11:37:45+0200", 
    "title": "Obligation du format ouvert et libre pour toute administration publique et institution de formation", 
    "modals": [], 
    "votes_mitige": 12, 
    "arguments_yes_count": 6, 
    "arguments_no_count": 5, 
    "votes_nok": 8
}