{
    "updated_at": "2015-09-27T13:38:05+0200", 
    "connections": [], 
    "sources": [], 
    "arguments_count": 10, 
    "versions_count": 0, 
    "connections_count": 0, 
    "votes_total": 102, 
    "id": 185, 
    "votes": [
        {
            "user": {
                "username": "fran\u00e7ois blanc", 
                "displayName": "fran\u00e7ois blanc", 
                "media": null, 
                "vip": false, 
                "isAdmin": false, 
                "_links": {
                    "profile": "http://www.republique-numerique.fr/profile/francoisblanc", 
                    "settings": "http://www.republique-numerique.fr/profile/edit-profile"
                }, 
                "uniqueId": "francoisblanc"
            }
        }, 
        {
            "user": {
                "username": "Olivier SERY", 
                "displayName": "Olivier SERY", 
                "media": null, 
                "vip": false, 
                "isAdmin": false, 
                "_links": {
                    "profile": "http://www.republique-numerique.fr/profile/oliviersery", 
                    "settings": "http://www.republique-numerique.fr/profile/edit-profile"
                }, 
                "uniqueId": "oliviersery"
            }
        }, 
        {
            "user": {
                "username": "Jeanne Varasco", 
                "displayName": "Jeanne Varasco", 
                "media": {
                    "url": "/media/cache/default_avatar/default/0001/01/139_default_avatar.jpg"
                }, 
                "vip": false, 
                "isAdmin": false, 
                "_links": {
                    "profile": "http://www.republique-numerique.fr/profile/jeannevarasco", 
                    "settings": "http://www.republique-numerique.fr/profile/edit-profile"
                }, 
                "uniqueId": "jeannevarasco"
            }
        }, 
        {
            "user": {
                "username": "Duc Ha Duong", 
                "displayName": "Duc Ha Duong", 
                "media": {
                    "url": "/media/cache/default_avatar/default/0001/01/188_default_avatar.jpg"
                }, 
                "vip": false, 
                "isAdmin": false, 
                "_links": {
                    "profile": "http://www.republique-numerique.fr/profile/duchaduong", 
                    "settings": "http://www.republique-numerique.fr/profile/edit-profile"
                }, 
                "uniqueId": "duchaduong"
            }
        }, 
        {
            "user": {
                "username": "Fan Fan Budeba", 
                "displayName": "Fan Fan Budeba", 
                "media": null, 
                "vip": false, 
                "isAdmin": false, 
                "_links": {
                    "profile": "http://www.republique-numerique.fr/profile/fanfanbudeba", 
                    "settings": "http://www.republique-numerique.fr/profile/edit-profile"
                }, 
                "uniqueId": "fanfanbudeba"
            }
        }
    ], 
    "author": {
        "username": "L\u00e9on Zitroll", 
        "displayName": "L\u00e9on Zitroll", 
        "media": {
            "url": "/media/cache/default_avatar/default/0001/01/100_default_avatar.png"
        }, 
        "vip": false, 
        "isAdmin": false, 
        "_links": {
            "profile": "http://www.republique-numerique.fr/profile/leonzitroll", 
            "settings": "http://www.republique-numerique.fr/profile/edit-profile"
        }, 
        "uniqueId": "leonzitroll"
    }, 
    "user_vote": null, 
    "_links": {
        "edit": "http://www.republique-numerique.fr/projects/projet-de-loi-numerique/consultation/consultation/opinions/section-2-confidentialite-des-correspondances-privees/paquets-ip-cerfa/edit", 
        "report": "http://www.republique-numerique.fr/consultations/projet-de-loi-numerique/consultation/consultation/opinions/section-2-confidentialite-des-correspondances-privees/paquets-ip-cerfa/report", 
        "type": "http://www.republique-numerique.fr/projects/projet-de-loi-numerique/consultation/consultation/types/section-2-confidentialite-des-correspondances-privees", 
        "show": "http://www.republique-numerique.fr/projects/projet-de-loi-numerique/consultation/consultation/opinions/section-2-confidentialite-des-correspondances-privees/paquets-ip-cerfa"
    }, 
    "arguments": [
        {
            "body": "oui il serait int\u00e9ressant de diff\u00e9rencier les r\u00e9seaux des secteurs m\u00e9diaux etc... \u00e0 celui du public afin de prot\u00e9ger la confidentialit\u00e9 des donn\u00e9es.", 
            "is_enabled": true, 
            "isContribuable": false, 
            "author": {
                "username": "efficience", 
                "displayName": "efficience", 
                "media": null, 
                "vip": false, 
                "isAdmin": false, 
                "_links": {
                    "profile": "http://www.republique-numerique.fr/profile/efficience", 
                    "settings": "http://www.republique-numerique.fr/profile/edit-profile"
                }, 
                "uniqueId": "efficience"
            }, 
            "created_at": "2015-10-16T17:22:56+0200", 
            "updated_at": "2015-10-16T17:22:56+0200", 
            "has_user_reported": false, 
            "votes_count": 0, 
            "has_user_voted": false, 
            "_links": {
                "edit": "http://www.republique-numerique.fr/projects/projet-de-loi-numerique/consultation/consultation/opinions/section-2-confidentialite-des-correspondances-privees/paquets-ip-cerfa/arguments/4871/edit", 
                "report": "http://www.republique-numerique.fr/consultations/projet-de-loi-numerique/consultation/consultation/opinions/section-2-confidentialite-des-correspondances-privees/paquets-ip-cerfa/arguments/4871/report", 
                "show": "http://www.republique-numerique.fr/projects/projet-de-loi-numerique/consultation/consultation/opinions/section-2-confidentialite-des-correspondances-privees/paquets-ip-cerfa#arg-4871"
            }, 
            "type": 1, 
            "id": 4871, 
            "is_trashed": false
        }, 
        {
            "body": "Autre solution : que chaque paquet IP contenant des donn\u00e9es personnelles soit automatiquement d\u00e9clar\u00e9 \u00e0 la CNIL, permettant ainsi de poursuivre tous ceux ayant lu l'information sans autorisation pr\u00e9lable. Et tant qu'\u00e0 faire d\u00e9clarer aussi les routeurs et fibres qui voient passer des informations confidentielles toute la journ\u00e9e.", 
            "is_enabled": true, 
            "isContribuable": false, 
            "author": {
                "username": "Fran\u00e7ois Leiber", 
                "displayName": "Fran\u00e7ois Leiber", 
                "media": null, 
                "vip": false, 
                "isAdmin": false, 
                "_links": {
                    "profile": "http://www.republique-numerique.fr/profile/francoisleiber", 
                    "settings": "http://www.republique-numerique.fr/profile/edit-profile"
                }, 
                "uniqueId": "francoisleiber"
            }, 
            "created_at": "2015-10-15T21:56:58+0200", 
            "updated_at": "2015-10-15T21:56:58+0200", 
            "has_user_reported": false, 
            "votes_count": 0, 
            "has_user_voted": false, 
            "_links": {
                "edit": "http://www.republique-numerique.fr/projects/projet-de-loi-numerique/consultation/consultation/opinions/section-2-confidentialite-des-correspondances-privees/paquets-ip-cerfa/arguments/4427/edit", 
                "report": "http://www.republique-numerique.fr/consultations/projet-de-loi-numerique/consultation/consultation/opinions/section-2-confidentialite-des-correspondances-privees/paquets-ip-cerfa/arguments/4427/report", 
                "show": "http://www.republique-numerique.fr/projects/projet-de-loi-numerique/consultation/consultation/opinions/section-2-confidentialite-des-correspondances-privees/paquets-ip-cerfa#arg-4427"
            }, 
            "type": 1, 
            "id": 4427, 
            "is_trashed": false
        }, 
        {
            "body": "Avec un protocole sp\u00e9cifique \u00e0 la France, ce ne sera plus compatible avec l'internet ! Ces professions feraient mieux de chiffrer leurs communications si elles veulent de la confidentialit\u00e9.", 
            "is_enabled": true, 
            "isContribuable": false, 
            "author": {
                "username": "Adrien Cordonnier", 
                "displayName": "Adrien Cordonnier", 
                "media": null, 
                "vip": false, 
                "isAdmin": false, 
                "_links": {
                    "profile": "http://www.republique-numerique.fr/profile/adriencordonnier", 
                    "settings": "http://www.republique-numerique.fr/profile/edit-profile"
                }, 
                "uniqueId": "adriencordonnier"
            }, 
            "created_at": "2015-10-15T10:43:58+0200", 
            "updated_at": "2015-10-15T10:43:58+0200", 
            "has_user_reported": false, 
            "votes_count": 2, 
            "has_user_voted": false, 
            "_links": {
                "edit": "http://www.republique-numerique.fr/projects/projet-de-loi-numerique/consultation/consultation/opinions/section-2-confidentialite-des-correspondances-privees/paquets-ip-cerfa/arguments/4128/edit", 
                "report": "http://www.republique-numerique.fr/consultations/projet-de-loi-numerique/consultation/consultation/opinions/section-2-confidentialite-des-correspondances-privees/paquets-ip-cerfa/arguments/4128/report", 
                "show": "http://www.republique-numerique.fr/projects/projet-de-loi-numerique/consultation/consultation/opinions/section-2-confidentialite-des-correspondances-privees/paquets-ip-cerfa#arg-4128"
            }, 
            "type": 0, 
            "id": 4128, 
            "is_trashed": false
        }, 
        {
            "body": "Il faut un moratoire international sur l'overhead des paquets IP, des trames MAC, des segments TCP et des datagrammes ! Et la France doit en le moteur !", 
            "is_enabled": true, 
            "isContribuable": false, 
            "author": {
                "username": "Cl\u00e9ment VIEL", 
                "displayName": "Cl\u00e9ment VIEL", 
                "media": null, 
                "vip": false, 
                "isAdmin": false, 
                "_links": {
                    "profile": "http://www.republique-numerique.fr/profile/clementviel", 
                    "settings": "http://www.republique-numerique.fr/profile/edit-profile"
                }, 
                "uniqueId": "clementviel"
            }, 
            "created_at": "2015-10-13T16:54:32+0200", 
            "updated_at": "2015-10-13T16:54:32+0200", 
            "has_user_reported": false, 
            "votes_count": 0, 
            "has_user_voted": false, 
            "_links": {
                "edit": "http://www.republique-numerique.fr/projects/projet-de-loi-numerique/consultation/consultation/opinions/section-2-confidentialite-des-correspondances-privees/paquets-ip-cerfa/arguments/3641/edit", 
                "report": "http://www.republique-numerique.fr/consultations/projet-de-loi-numerique/consultation/consultation/opinions/section-2-confidentialite-des-correspondances-privees/paquets-ip-cerfa/arguments/3641/report", 
                "show": "http://www.republique-numerique.fr/projects/projet-de-loi-numerique/consultation/consultation/opinions/section-2-confidentialite-des-correspondances-privees/paquets-ip-cerfa#arg-3641"
            }, 
            "type": 1, 
            "id": 3641, 
            "is_trashed": false
        }, 
        {
            "body": "Modifier la couche IP alors qu'il existe d'autres solutions ne me semble pas judicieux sauf :\n- pour le prestataire \u00e9tant le seul au monde \u00e0 savoir faire cela ou ayant un brevet ! \n- si le but \u00e0 terme est de pouvoir identifier tout le monde et la je vous convie \u00e0 lire \"1984\" d'Orwells. Ou \u00e0 penser ce que ferait un \u00e9tat totalitaire ....\n", 
            "is_enabled": true, 
            "isContribuable": false, 
            "author": {
                "username": "lacombe", 
                "displayName": "lacombe", 
                "media": {
                    "url": "/media/cache/default_avatar/default/0001/01/310_default_avatar.png"
                }, 
                "vip": false, 
                "isAdmin": false, 
                "_links": {
                    "profile": "http://www.republique-numerique.fr/profile/lacombe", 
                    "settings": "http://www.republique-numerique.fr/profile/edit-profile"
                }, 
                "uniqueId": "lacombe"
            }, 
            "created_at": "2015-09-29T17:46:06+0200", 
            "updated_at": "2015-09-29T17:46:06+0200", 
            "has_user_reported": false, 
            "votes_count": 6, 
            "has_user_voted": false, 
            "_links": {
                "edit": "http://www.republique-numerique.fr/projects/projet-de-loi-numerique/consultation/consultation/opinions/section-2-confidentialite-des-correspondances-privees/paquets-ip-cerfa/arguments/1310/edit", 
                "report": "http://www.republique-numerique.fr/consultations/projet-de-loi-numerique/consultation/consultation/opinions/section-2-confidentialite-des-correspondances-privees/paquets-ip-cerfa/arguments/1310/report", 
                "show": "http://www.republique-numerique.fr/projects/projet-de-loi-numerique/consultation/consultation/opinions/section-2-confidentialite-des-correspondances-privees/paquets-ip-cerfa#arg-1310"
            }, 
            "type": 0, 
            "id": 1310, 
            "is_trashed": false
        }, 
        {
            "body": "1. Le texte n'est pas clair sur l'objectif de ce service: authentification ou cryptage ?\n2. Des solutions existent d\u00e9j\u00e0: VPN, mails crypt\u00e9s et sign\u00e9s, SSL, proxys, TOR, etc.\n3. Je ne vois pas d'argument pour faire les modifications au niveau d'IP - il semble plus logique de les faire (si besoin) au niveau applicatif. En particulier, l'envoi de documents dans l'ent\u00eate IP est absurde: quel int\u00e9r\u00eat de les mettre dans l'ent\u00eate par rapport au corps du message ??\n4. Le passage de \"quelques dizaines d'octets\" \u00e0 \"quelques m\u00e9gaoctets\" repr\u00e9sente une multiplication par 100 000, et ne parait pas \"mineur\" !", 
            "is_enabled": true, 
            "isContribuable": false, 
            "author": {
                "username": "Antoine Poliakov", 
                "displayName": "Antoine Poliakov", 
                "media": null, 
                "vip": false, 
                "isAdmin": false, 
                "_links": {
                    "profile": "http://www.republique-numerique.fr/profile/antoinepoliakov", 
                    "settings": "http://www.republique-numerique.fr/profile/edit-profile"
                }, 
                "uniqueId": "antoinepoliakov"
            }, 
            "created_at": "2015-09-29T10:10:39+0200", 
            "updated_at": "2015-09-29T10:10:39+0200", 
            "has_user_reported": false, 
            "votes_count": 8, 
            "has_user_voted": false, 
            "_links": {
                "edit": "http://www.republique-numerique.fr/projects/projet-de-loi-numerique/consultation/consultation/opinions/section-2-confidentialite-des-correspondances-privees/paquets-ip-cerfa/arguments/1162/edit", 
                "report": "http://www.republique-numerique.fr/consultations/projet-de-loi-numerique/consultation/consultation/opinions/section-2-confidentialite-des-correspondances-privees/paquets-ip-cerfa/arguments/1162/report", 
                "show": "http://www.republique-numerique.fr/projects/projet-de-loi-numerique/consultation/consultation/opinions/section-2-confidentialite-des-correspondances-privees/paquets-ip-cerfa#arg-1162"
            }, 
            "type": 0, 
            "id": 1162, 
            "is_trashed": false
        }, 
        {
            "body": "1- Ca ne fonctionne pas sans casser internet\n2- Le point du renseignement est d'\u00e9couter tout le monde pour aussi d\u00e9masquer les parlementaires terroristes.", 
            "is_enabled": true, 
            "isContribuable": false, 
            "author": {
                "username": "Samuel Papin", 
                "displayName": "Samuel Papin", 
                "media": null, 
                "vip": false, 
                "isAdmin": false, 
                "_links": {
                    "profile": "http://www.republique-numerique.fr/profile/samuelpapin1", 
                    "settings": "http://www.republique-numerique.fr/profile/edit-profile"
                }, 
                "uniqueId": "samuelpapin1"
            }, 
            "created_at": "2015-09-29T09:10:19+0200", 
            "updated_at": "2015-09-29T09:10:19+0200", 
            "has_user_reported": false, 
            "votes_count": 0, 
            "has_user_voted": false, 
            "_links": {
                "edit": "http://www.republique-numerique.fr/projects/projet-de-loi-numerique/consultation/consultation/opinions/section-2-confidentialite-des-correspondances-privees/paquets-ip-cerfa/arguments/1136/edit", 
                "report": "http://www.republique-numerique.fr/consultations/projet-de-loi-numerique/consultation/consultation/opinions/section-2-confidentialite-des-correspondances-privees/paquets-ip-cerfa/arguments/1136/report", 
                "show": "http://www.republique-numerique.fr/projects/projet-de-loi-numerique/consultation/consultation/opinions/section-2-confidentialite-des-correspondances-privees/paquets-ip-cerfa#arg-1136"
            }, 
            "type": 0, 
            "id": 1136, 
            "is_trashed": false
        }, 
        {
            "body": "C'est pas marrant de troller avec des trucs impossibles... Allez un peu de cr\u00e9ativit\u00e9 doit bien y avoir des trucs \u00e0 la fois marrant et votables !", 
            "is_enabled": true, 
            "isContribuable": false, 
            "author": {
                "username": "Duc Ha Duong", 
                "displayName": "Duc Ha Duong", 
                "media": {
                    "url": "/media/cache/default_avatar/default/0001/01/188_default_avatar.jpg"
                }, 
                "vip": false, 
                "isAdmin": false, 
                "_links": {
                    "profile": "http://www.republique-numerique.fr/profile/duchaduong", 
                    "settings": "http://www.republique-numerique.fr/profile/edit-profile"
                }, 
                "uniqueId": "duchaduong"
            }, 
            "created_at": "2015-09-27T19:57:47+0200", 
            "updated_at": "2015-09-27T19:57:47+0200", 
            "has_user_reported": false, 
            "votes_count": 14, 
            "has_user_voted": false, 
            "_links": {
                "edit": "http://www.republique-numerique.fr/projects/projet-de-loi-numerique/consultation/consultation/opinions/section-2-confidentialite-des-correspondances-privees/paquets-ip-cerfa/arguments/661/edit", 
                "report": "http://www.republique-numerique.fr/consultations/projet-de-loi-numerique/consultation/consultation/opinions/section-2-confidentialite-des-correspondances-privees/paquets-ip-cerfa/arguments/661/report", 
                "show": "http://www.republique-numerique.fr/projects/projet-de-loi-numerique/consultation/consultation/opinions/section-2-confidentialite-des-correspondances-privees/paquets-ip-cerfa#arg-661"
            }, 
            "type": 0, 
            "id": 661, 
            "is_trashed": false
        }, 
        {
            "body": "Il devrait y avoir un r\u00e9seau de fibre ind\u00e9pendant pour le milieu m\u00e9dical comme il en existe pour de grosses entreprises.", 
            "is_enabled": true, 
            "isContribuable": false, 
            "author": {
                "username": "Jeanne Varasco", 
                "displayName": "Jeanne Varasco", 
                "media": {
                    "url": "/media/cache/default_avatar/default/0001/01/139_default_avatar.jpg"
                }, 
                "vip": false, 
                "isAdmin": false, 
                "_links": {
                    "profile": "http://www.republique-numerique.fr/profile/jeannevarasco", 
                    "settings": "http://www.republique-numerique.fr/profile/edit-profile"
                }, 
                "uniqueId": "jeannevarasco"
            }, 
            "created_at": "2015-09-27T18:28:41+0200", 
            "updated_at": "2015-09-27T18:28:41+0200", 
            "has_user_reported": false, 
            "votes_count": 2, 
            "has_user_voted": false, 
            "_links": {
                "edit": "http://www.republique-numerique.fr/projects/projet-de-loi-numerique/consultation/consultation/opinions/section-2-confidentialite-des-correspondances-privees/paquets-ip-cerfa/arguments/626/edit", 
                "report": "http://www.republique-numerique.fr/consultations/projet-de-loi-numerique/consultation/consultation/opinions/section-2-confidentialite-des-correspondances-privees/paquets-ip-cerfa/arguments/626/report", 
                "show": "http://www.republique-numerique.fr/projects/projet-de-loi-numerique/consultation/consultation/opinions/section-2-confidentialite-des-correspondances-privees/paquets-ip-cerfa#arg-626"
            }, 
            "type": 1, 
            "id": 626, 
            "is_trashed": false
        }, 
        {
            "body": "Quid du mod\u00e8le OSI ? Ces donn\u00e9es doivent \u00eatre en couche 5 pas 3. De plus modifier la couche 3 induit une rupture de communication avec tous les routeurs du monde...", 
            "is_enabled": true, 
            "isContribuable": false, 
            "author": {
                "username": "Olivier SERY", 
                "displayName": "Olivier SERY", 
                "media": null, 
                "vip": false, 
                "isAdmin": false, 
                "_links": {
                    "profile": "http://www.republique-numerique.fr/profile/oliviersery", 
                    "settings": "http://www.republique-numerique.fr/profile/edit-profile"
                }, 
                "uniqueId": "oliviersery"
            }, 
            "created_at": "2015-09-27T17:31:15+0200", 
            "updated_at": "2015-09-27T17:31:15+0200", 
            "has_user_reported": false, 
            "votes_count": 9, 
            "has_user_voted": false, 
            "_links": {
                "edit": "http://www.republique-numerique.fr/projects/projet-de-loi-numerique/consultation/consultation/opinions/section-2-confidentialite-des-correspondances-privees/paquets-ip-cerfa/arguments/605/edit", 
                "report": "http://www.republique-numerique.fr/consultations/projet-de-loi-numerique/consultation/consultation/opinions/section-2-confidentialite-des-correspondances-privees/paquets-ip-cerfa/arguments/605/report", 
                "show": "http://www.republique-numerique.fr/projects/projet-de-loi-numerique/consultation/consultation/opinions/section-2-confidentialite-des-correspondances-privees/paquets-ip-cerfa#arg-605"
            }, 
            "type": 0, 
            "id": 605, 
            "is_trashed": false
        }
    ], 
    "answer": null, 
    "type": {
        "votesThresholdHelpText": null, 
        "subtitle": "Confidentialit\u00e9 des correspondances priv\u00e9es", 
        "votesThreshold": null, 
        "votesHelpText": "Pensez-vous que cette proposition permet d'atteindre les objectifs pr\u00e9sent\u00e9s dans l\u2019explication de l\u2019article ?", 
        "title": "Section 2", 
        "color": "blue", 
        "commentSystem": 2, 
        "voteWidgetType": 2, 
        "sourceable": true, 
        "linkable": false, 
        "versionable": true, 
        "id": 100
    }, 
    "body": "<p>A chapitre 2 du livre II du code des postes et communications &eacute;lectroniques est ajout&eacute; un nouvel article.</p>\r\n\r\n<h4>Article L. 34-7</h4>\r\n\r\n<p>Les personnes qui, par l&#39;exercice de leur profession, souhaitent que leurs communications soient plac&eacute;es sous le sceau du secret peuvent exiger de l&#39;op&eacute;rateur leur fournissant un acc&egrave;s &agrave; des services de communication en ligne que soit ajout&eacute; automatiquement un document justifiant de leur identit&eacute; &agrave; toutes leurs communications &eacute;lectroniques.</p>", 
    "ranking": 182, 
    "sources_count": 0, 
    "votes_ok": 28, 
    "step": {
        "projectId": 3, 
        "id": 11
    }, 
    "link": null, 
    "appendices": [
        {
            "body": "<p>Avocats, journalistes, m&eacute;decins, magistrats, administrateurs syst&egrave;me ou r&eacute;seau, parlementaires, nombre de professions communiquent &agrave; propos de sujets sensibles et, &agrave; ce titre, peuvent pr&eacute;tendre &agrave; une confidentialit&eacute; totale. Les dispositions l&eacute;gislatives r&eacute;centes, la loi sur le renseignement par exemple, ou futures, la loi de surveillance internationale, mettent en p&eacute;ril cette confidentialit&eacute; puisqu&#39;il n&#39;existe pas de moyen de discriminer ce type de correspondances a priori.</p>\r\n\r\n<p>Le protocole sous-jacent aux communications en ligne, le protocole IP, ne propose en effet aucun m&eacute;canisme d&#39;identification des &quot;paquets&quot; &eacute;mis ou re&ccedil;us par les personnes exer&ccedil;ant ces professions.</p>\r\n\r\n<p>Il suffirait d&#39;augmenter la taille maximale des en-t&ecirc;tes de ces paquets de quelques dizaines d&#39;octets &agrave; quelques m&eacute;gaoctets. Cette tr&egrave;s l&eacute;g&egrave;re modification du fonctionnement d&#39;Internet permettrait &agrave; ces personnes de joindre &agrave; leur paquets IP une version num&eacute;ris&eacute;e de leur carte professionnelle ou, &agrave; d&eacute;faut, d&#39;un justificatif d&#39;identit&eacute;. Ces nouveaux paquets &agrave; la structure r&eacute;glement&eacute;e pourraient ainsi jouir d&#39;un statut particulier renfor&ccedil;ant leur caract&egrave;re officiel, les &quot;paquets IP-CERFA&quot; par exemple.</p>\r\n\r\n<p>Cette innovation d&eacute;bouchera probablement sur d&#39;autres nouveaut&eacute;s int&eacute;ressantes, par exemple en permettant aux citoyens de joindre des copies de certains documents (justificatif de domicile ou d&#39;identit&eacute;, certificat d&#39;immatriculation, d&eacute;claration d&#39;imp&ocirc;ts sur le revenu, etc.) &agrave; leurs paquets IP pour faciliter leur d&eacute;marches en ligne.</p>\r\n\r\n<p>&nbsp;</p>", 
            "type": {
                "title": "Explication de l'article"
            }
        }
    ], 
    "has_user_reported": false, 
    "is_trashed": false, 
    "isContribuable": false, 
    "created_at": "2015-09-27T13:38:05+0200", 
    "title": "Paquets IP-CERFA", 
    "modals": [], 
    "votes_mitige": 10, 
    "arguments_yes_count": 4, 
    "arguments_no_count": 6, 
    "votes_nok": 64
}