{
    "updated_at": "2015-09-27T15:06:19+0200", 
    "connections": [], 
    "sources": [], 
    "arguments_count": 4, 
    "versions_count": 0, 
    "connections_count": 0, 
    "votes_total": 33, 
    "id": 190, 
    "votes": [
        {
            "user": {
                "username": "Emmanuelle ABOAF", 
                "displayName": "Emmanuelle ABOAF", 
                "media": null, 
                "vip": false, 
                "isAdmin": false, 
                "_links": {
                    "profile": "http://www.republique-numerique.fr/profile/emmanuelleaboaf", 
                    "settings": "http://www.republique-numerique.fr/profile/edit-profile"
                }, 
                "uniqueId": "emmanuelleaboaf"
            }
        }, 
        {
            "user": {
                "username": "C\u00e9dric Anthony", 
                "displayName": "C\u00e9dric Anthony", 
                "media": null, 
                "vip": false, 
                "isAdmin": false, 
                "_links": {
                    "profile": "http://www.republique-numerique.fr/profile/cedricanthony", 
                    "settings": "http://www.republique-numerique.fr/profile/edit-profile"
                }, 
                "uniqueId": "cedricanthony"
            }
        }, 
        {
            "user": {
                "username": "Metral R\u00e9mi", 
                "displayName": "Metral R\u00e9mi", 
                "media": null, 
                "vip": false, 
                "isAdmin": false, 
                "_links": {
                    "profile": "http://www.republique-numerique.fr/profile/metralremi", 
                    "settings": "http://www.republique-numerique.fr/profile/edit-profile"
                }, 
                "uniqueId": "metralremi"
            }
        }, 
        {
            "user": {
                "username": "SEO Rennes", 
                "displayName": "SEO Rennes", 
                "media": null, 
                "vip": false, 
                "isAdmin": false, 
                "_links": {
                    "profile": "http://www.republique-numerique.fr/profile/seorennes", 
                    "settings": "http://www.republique-numerique.fr/profile/edit-profile"
                }, 
                "uniqueId": "seorennes"
            }
        }, 
        {
            "user": {
                "username": "Florence Durand Tornare", 
                "displayName": "Florence Durand Tornare", 
                "media": null, 
                "vip": false, 
                "isAdmin": false, 
                "_links": {
                    "profile": "http://www.republique-numerique.fr/profile/florencedurandtornare", 
                    "settings": "http://www.republique-numerique.fr/profile/edit-profile"
                }, 
                "uniqueId": "florencedurandtornare"
            }
        }
    ], 
    "author": {
        "username": "Frank Galey", 
        "displayName": "Frank Galey", 
        "media": null, 
        "vip": false, 
        "isAdmin": false, 
        "_links": {
            "profile": "http://www.republique-numerique.fr/profile/frankgaley", 
            "settings": "http://www.republique-numerique.fr/profile/edit-profile"
        }, 
        "uniqueId": "frankgaley"
    }, 
    "user_vote": null, 
    "_links": {
        "edit": "http://www.republique-numerique.fr/projects/projet-de-loi-numerique/consultation/consultation/opinions/section-2-accessibilite-des-personnes-handicapees-aux-sites-internet-publics/creation-d-un-poste-de-referent-accessibilite-numerique-par-groupement-de-communes-1/edit", 
        "report": "http://www.republique-numerique.fr/consultations/projet-de-loi-numerique/consultation/consultation/opinions/section-2-accessibilite-des-personnes-handicapees-aux-sites-internet-publics/creation-d-un-poste-de-referent-accessibilite-numerique-par-groupement-de-communes-1/report", 
        "type": "http://www.republique-numerique.fr/projects/projet-de-loi-numerique/consultation/consultation/types/section-2-accessibilite-des-personnes-handicapees-aux-sites-internet-publics", 
        "show": "http://www.republique-numerique.fr/projects/projet-de-loi-numerique/consultation/consultation/opinions/section-2-accessibilite-des-personnes-handicapees-aux-sites-internet-publics/creation-d-un-poste-de-referent-accessibilite-numerique-par-groupement-de-communes-1"
    }, 
    "arguments": [
        {
            "body": "je ne vois pas ce que \u00e7a pourrait rapporter...", 
            "is_enabled": true, 
            "isContribuable": false, 
            "author": {
                "username": "madere", 
                "displayName": "madere", 
                "media": null, 
                "vip": false, 
                "isAdmin": false, 
                "_links": {
                    "profile": "http://www.republique-numerique.fr/profile/madere", 
                    "settings": "http://www.republique-numerique.fr/profile/edit-profile"
                }, 
                "uniqueId": "madere"
            }, 
            "created_at": "2015-10-15T16:02:45+0200", 
            "updated_at": "2015-10-15T16:02:45+0200", 
            "has_user_reported": false, 
            "votes_count": 0, 
            "has_user_voted": false, 
            "_links": {
                "edit": "http://www.republique-numerique.fr/projects/projet-de-loi-numerique/consultation/consultation/opinions/section-2-accessibilite-des-personnes-handicapees-aux-sites-internet-publics/creation-d-un-poste-de-referent-accessibilite-numerique-par-groupement-de-communes-1/arguments/4261/edit", 
                "report": "http://www.republique-numerique.fr/consultations/projet-de-loi-numerique/consultation/consultation/opinions/section-2-accessibilite-des-personnes-handicapees-aux-sites-internet-publics/creation-d-un-poste-de-referent-accessibilite-numerique-par-groupement-de-communes-1/arguments/4261/report", 
                "show": "http://www.republique-numerique.fr/projects/projet-de-loi-numerique/consultation/consultation/opinions/section-2-accessibilite-des-personnes-handicapees-aux-sites-internet-publics/creation-d-un-poste-de-referent-accessibilite-numerique-par-groupement-de-communes-1#arg-4261"
            }, 
            "type": 0, 
            "id": 4261, 
            "is_trashed": false
        }, 
        {
            "body": "Fonctions bidons assur\u00e9es. Mettez des gens sp\u00e9cialis\u00e9s qui contr\u00f4lent au niveau de l'\u00e9tat. Pourquoi pas la CNIL d'ailleurs.", 
            "is_enabled": true, 
            "isContribuable": false, 
            "author": {
                "username": "Michel Bouchet", 
                "displayName": "Michel Bouchet", 
                "media": null, 
                "vip": false, 
                "isAdmin": false, 
                "_links": {
                    "profile": "http://www.republique-numerique.fr/profile/michelbouchet", 
                    "settings": "http://www.republique-numerique.fr/profile/edit-profile"
                }, 
                "uniqueId": "michelbouchet"
            }, 
            "created_at": "2015-10-11T15:10:03+0200", 
            "updated_at": "2015-10-11T15:10:03+0200", 
            "has_user_reported": false, 
            "votes_count": 2, 
            "has_user_voted": false, 
            "_links": {
                "edit": "http://www.republique-numerique.fr/projects/projet-de-loi-numerique/consultation/consultation/opinions/section-2-accessibilite-des-personnes-handicapees-aux-sites-internet-publics/creation-d-un-poste-de-referent-accessibilite-numerique-par-groupement-de-communes-1/arguments/3144/edit", 
                "report": "http://www.republique-numerique.fr/consultations/projet-de-loi-numerique/consultation/consultation/opinions/section-2-accessibilite-des-personnes-handicapees-aux-sites-internet-publics/creation-d-un-poste-de-referent-accessibilite-numerique-par-groupement-de-communes-1/arguments/3144/report", 
                "show": "http://www.republique-numerique.fr/projects/projet-de-loi-numerique/consultation/consultation/opinions/section-2-accessibilite-des-personnes-handicapees-aux-sites-internet-publics/creation-d-un-poste-de-referent-accessibilite-numerique-par-groupement-de-communes-1#arg-3144"
            }, 
            "type": 0, 
            "id": 3144, 
            "is_trashed": false
        }, 
        {
            "body": "D\u00e9j\u00e0 \u00e9voqu\u00e9 par ailleurs (Doublon)", 
            "is_enabled": true, 
            "isContribuable": false, 
            "author": {
                "username": "Jeanne Varasco", 
                "displayName": "Jeanne Varasco", 
                "media": {
                    "url": "/media/cache/default_avatar/default/0001/01/139_default_avatar.jpg"
                }, 
                "vip": false, 
                "isAdmin": false, 
                "_links": {
                    "profile": "http://www.republique-numerique.fr/profile/jeannevarasco", 
                    "settings": "http://www.republique-numerique.fr/profile/edit-profile"
                }, 
                "uniqueId": "jeannevarasco"
            }, 
            "created_at": "2015-09-29T01:13:43+0200", 
            "updated_at": "2015-09-29T01:13:43+0200", 
            "has_user_reported": false, 
            "votes_count": 3, 
            "has_user_voted": false, 
            "_links": {
                "edit": "http://www.republique-numerique.fr/projects/projet-de-loi-numerique/consultation/consultation/opinions/section-2-accessibilite-des-personnes-handicapees-aux-sites-internet-publics/creation-d-un-poste-de-referent-accessibilite-numerique-par-groupement-de-communes-1/arguments/1113/edit", 
                "report": "http://www.republique-numerique.fr/consultations/projet-de-loi-numerique/consultation/consultation/opinions/section-2-accessibilite-des-personnes-handicapees-aux-sites-internet-publics/creation-d-un-poste-de-referent-accessibilite-numerique-par-groupement-de-communes-1/arguments/1113/report", 
                "show": "http://www.republique-numerique.fr/projects/projet-de-loi-numerique/consultation/consultation/opinions/section-2-accessibilite-des-personnes-handicapees-aux-sites-internet-publics/creation-d-un-poste-de-referent-accessibilite-numerique-par-groupement-de-communes-1#arg-1113"
            }, 
            "type": 1, 
            "id": 1113, 
            "is_trashed": false
        }, 
        {
            "body": "Les communes n'ont que peu de projet num\u00e9riques. Si elles ont un r\u00e9f\u00e9rent Comm/informatique, il pourra assurer l\u2019accessibilit\u00e9. \n\nIl est de toute mani\u00e8re dangereux de mettre des exigences de personnel dans la loi.", 
            "is_enabled": true, 
            "isContribuable": false, 
            "author": {
                "username": "Metral R\u00e9mi", 
                "displayName": "Metral R\u00e9mi", 
                "media": null, 
                "vip": false, 
                "isAdmin": false, 
                "_links": {
                    "profile": "http://www.republique-numerique.fr/profile/metralremi", 
                    "settings": "http://www.republique-numerique.fr/profile/edit-profile"
                }, 
                "uniqueId": "metralremi"
            }, 
            "created_at": "2015-09-28T14:49:26+0200", 
            "updated_at": "2015-09-28T14:49:26+0200", 
            "has_user_reported": false, 
            "votes_count": 4, 
            "has_user_voted": false, 
            "_links": {
                "edit": "http://www.republique-numerique.fr/projects/projet-de-loi-numerique/consultation/consultation/opinions/section-2-accessibilite-des-personnes-handicapees-aux-sites-internet-publics/creation-d-un-poste-de-referent-accessibilite-numerique-par-groupement-de-communes-1/arguments/895/edit", 
                "report": "http://www.republique-numerique.fr/consultations/projet-de-loi-numerique/consultation/consultation/opinions/section-2-accessibilite-des-personnes-handicapees-aux-sites-internet-publics/creation-d-un-poste-de-referent-accessibilite-numerique-par-groupement-de-communes-1/arguments/895/report", 
                "show": "http://www.republique-numerique.fr/projects/projet-de-loi-numerique/consultation/consultation/opinions/section-2-accessibilite-des-personnes-handicapees-aux-sites-internet-publics/creation-d-un-poste-de-referent-accessibilite-numerique-par-groupement-de-communes-1#arg-895"
            }, 
            "type": 0, 
            "id": 895, 
            "is_trashed": false
        }
    ], 
    "answer": null, 
    "type": {
        "votesThresholdHelpText": null, 
        "subtitle": "Accessibilit\u00e9 des personnes handicap\u00e9es aux sites internet publics", 
        "votesThreshold": null, 
        "votesHelpText": "Pensez-vous que cette proposition permet d'atteindre les objectifs pr\u00e9sent\u00e9s dans l\u2019explication de l\u2019article ?", 
        "title": "Section 2", 
        "color": "blue", 
        "commentSystem": 2, 
        "voteWidgetType": 2, 
        "sourceable": true, 
        "linkable": false, 
        "versionable": true, 
        "id": 110
    }, 
    "body": "<p>Les groupements de communes doivent cr&eacute;er un poste de r&eacute;f&eacute;rent accessibilit&eacute; num&eacute;rique.</p>\r\n\r\n<p>Le financement de ces postes peut-&ecirc;tre r&eacute;alis&eacute; totalement ou partiellement (&agrave; d&eacute;finir selon les budgets de fonctionnement de chaque entit&eacute;s)&nbsp; par le fond d&rsquo;accompagnement de l&rsquo;accessibilit&eacute; universelle pr&eacute;vu &agrave; l&rsquo;article L.111-7-12 du code de la construction et de l&rsquo;habitation.</p>", 
    "ranking": 234, 
    "sources_count": 0, 
    "votes_ok": 18, 
    "step": {
        "projectId": 3, 
        "id": 11
    }, 
    "link": null, 
    "appendices": [
        {
            "body": "<p>Les principaux freins &agrave; la mise en accessibilit&eacute; des sites sont principalement l&#39;absence de sensibilisation, et les co&ucirc;ts. Il faudrait donc cr&eacute;er des postes de r&eacute;f&eacute;rents accessibilit&eacute; num&eacute;rique par groupement de communes (communaut&eacute; de communes, d&#39;agglom&eacute;ration, urbaine) qui seraient d&eacute;tach&eacute;s sur les projets num&eacute;riques des diff&eacute;rentes communes en faisant partie.</p>\r\n\r\n<p>Il peut intervenir directement (sous-titrage vid&eacute;o, cr&eacute;ation de pdf accessible...) ou r&eacute;aliser des actions de sensibilisation, d&#39;accompagnement, de suivi, de formation, aide au choix du prestataire, &agrave; la cr&eacute;ation du cahier des charges.</p>\r\n\r\n<p>Obligation pour les communes de faire appel &agrave; ce r&eacute;f&eacute;rent unique pour tous projets num&eacute;riques.</p>\r\n\r\n<p>Il ne serait donc plus possible de passer au travers d&#39;un niveau &quot;acceptable&quot; d&#39;accessibilit&eacute;, cela pourrait m&ecirc;me favoriser une mont&eacute;e progressive du niveau d&#39;accessibilit&eacute; et pourquoi pas respecter pleinement le RGAA sans pour autant vider les caisses d&#39;une commune.</p>", 
            "type": {
                "title": "Explication de l'article"
            }
        }
    ], 
    "has_user_reported": false, 
    "is_trashed": false, 
    "isContribuable": false, 
    "created_at": "2015-09-27T15:06:19+0200", 
    "title": "Cr\u00e9ation d'un poste de r\u00e9f\u00e9rent accessibilit\u00e9 num\u00e9rique par groupement de communes", 
    "modals": [], 
    "votes_mitige": 10, 
    "arguments_yes_count": 1, 
    "arguments_no_count": 3, 
    "votes_nok": 5
}