{
    "updated_at": "2015-12-02T17:29:24+0100", 
    "connections": [], 
    "sources": [], 
    "arguments_count": 10, 
    "versions_count": 3, 
    "connections_count": 0, 
    "votes_total": 178, 
    "id": 208, 
    "votes": [
        {
            "user": {
                "username": "Fan Fan Budeba", 
                "displayName": "Fan Fan Budeba", 
                "media": null, 
                "vip": false, 
                "isAdmin": false, 
                "_links": {
                    "profile": "http://www.republique-numerique.fr/profile/fanfanbudeba", 
                    "settings": "http://www.republique-numerique.fr/profile/edit-profile"
                }, 
                "uniqueId": "fanfanbudeba"
            }
        }, 
        {
            "user": {
                "username": "L\u00e8oh Goni", 
                "displayName": "L\u00e8oh Goni", 
                "media": null, 
                "vip": false, 
                "isAdmin": false, 
                "_links": {
                    "profile": "http://www.republique-numerique.fr/profile/leohgoni", 
                    "settings": "http://www.republique-numerique.fr/profile/edit-profile"
                }, 
                "uniqueId": "leohgoni"
            }
        }, 
        {
            "user": {
                "username": "Didier L\u00e9autey-Cl\u00e9ment", 
                "displayName": "Didier L\u00e9autey-Cl\u00e9ment", 
                "media": null, 
                "vip": false, 
                "isAdmin": false, 
                "_links": {
                    "profile": "http://www.republique-numerique.fr/profile/didierleauteyclement", 
                    "settings": "http://www.republique-numerique.fr/profile/edit-profile"
                }, 
                "uniqueId": "didierleauteyclement"
            }
        }, 
        {
            "user": {
                "username": "BUECHEIM", 
                "displayName": "BUECHEIM", 
                "media": null, 
                "vip": false, 
                "isAdmin": false, 
                "_links": {
                    "profile": "http://www.republique-numerique.fr/profile/buecheim", 
                    "settings": "http://www.republique-numerique.fr/profile/edit-profile"
                }, 
                "uniqueId": "buecheim"
            }
        }, 
        {
            "user": {
                "username": "NADPERR", 
                "displayName": "NADPERR", 
                "media": {
                    "url": "/media/cache/default_avatar/default/0001/01/154_default_avatar.jpg"
                }, 
                "vip": false, 
                "isAdmin": false, 
                "_links": {
                    "profile": "http://www.republique-numerique.fr/profile/nadperr", 
                    "settings": "http://www.republique-numerique.fr/profile/edit-profile"
                }, 
                "uniqueId": "nadperr"
            }
        }
    ], 
    "author": {
        "username": "Fan Fan Budeba", 
        "displayName": "Fan Fan Budeba", 
        "media": null, 
        "vip": false, 
        "isAdmin": false, 
        "_links": {
            "profile": "http://www.republique-numerique.fr/profile/fanfanbudeba", 
            "settings": "http://www.republique-numerique.fr/profile/edit-profile"
        }, 
        "uniqueId": "fanfanbudeba"
    }, 
    "user_vote": null, 
    "_links": {
        "edit": "http://www.republique-numerique.fr/projects/projet-de-loi-numerique/consultation/consultation/opinions/section-2-service-public-de-la-donnee-1/bloquer-les-publicites-par-defaut-dans-les-lieux-destines-a-l-education/edit", 
        "report": "http://www.republique-numerique.fr/consultations/projet-de-loi-numerique/consultation/consultation/opinions/section-2-service-public-de-la-donnee-1/bloquer-les-publicites-par-defaut-dans-les-lieux-destines-a-l-education/report", 
        "type": "http://www.republique-numerique.fr/projects/projet-de-loi-numerique/consultation/consultation/types/section-2-service-public-de-la-donnee-1", 
        "show": "http://www.republique-numerique.fr/projects/projet-de-loi-numerique/consultation/consultation/opinions/section-2-service-public-de-la-donnee-1/bloquer-les-publicites-par-defaut-dans-les-lieux-destines-a-l-education"
    }, 
    "arguments": [
        {
            "body": "Si on veut \u00eatre coh\u00e9rent, il faut bloquer tous les sites contenant de la pub, et pas seulement la pub... et il ne reste plus grand chose.", 
            "is_enabled": true, 
            "isContribuable": false, 
            "author": {
                "username": "Fr\u00e9d\u00e9ric Jacquot", 
                "displayName": "Fr\u00e9d\u00e9ric Jacquot", 
                "media": null, 
                "vip": false, 
                "isAdmin": false, 
                "_links": {
                    "profile": "http://www.republique-numerique.fr/profile/fredericjacquot", 
                    "settings": "http://www.republique-numerique.fr/profile/edit-profile"
                }, 
                "uniqueId": "fredericjacquot"
            }, 
            "created_at": "2015-10-17T20:36:32+0200", 
            "updated_at": "2015-10-17T20:36:32+0200", 
            "has_user_reported": false, 
            "votes_count": 0, 
            "has_user_voted": false, 
            "_links": {
                "edit": "http://www.republique-numerique.fr/projects/projet-de-loi-numerique/consultation/consultation/opinions/section-2-service-public-de-la-donnee-1/bloquer-les-publicites-par-defaut-dans-les-lieux-destines-a-l-education/arguments/5525/edit", 
                "report": "http://www.republique-numerique.fr/consultations/projet-de-loi-numerique/consultation/consultation/opinions/section-2-service-public-de-la-donnee-1/bloquer-les-publicites-par-defaut-dans-les-lieux-destines-a-l-education/arguments/5525/report", 
                "show": "http://www.republique-numerique.fr/projects/projet-de-loi-numerique/consultation/consultation/opinions/section-2-service-public-de-la-donnee-1/bloquer-les-publicites-par-defaut-dans-les-lieux-destines-a-l-education#arg-5525"
            }, 
            "type": 0, 
            "id": 5525, 
            "is_trashed": false
        }, 
        {
            "body": "Il n'est pas souhaitable d'avoir des affiches publicitaires sur les murs des \u00e9tablissements scolaires et dans les classes : il en est de m\u00eame pour les \u00e9crans \u00e0 l'int\u00e9rieur de ces m\u00eames \u00e9tablissements.\nDe plus, les publicit\u00e9s sont tr\u00e8s intrusives sur certains sites et peuvent d\u00e9concentrer les \u00e9l\u00e8ves... ils sont d\u00e9j\u00e0 facilement distraits, alors \u00e9vitons qu'ils le soient encore plus.", 
            "is_enabled": true, 
            "isContribuable": false, 
            "author": {
                "username": "David ROUMANET", 
                "displayName": "David ROUMANET", 
                "media": null, 
                "vip": false, 
                "isAdmin": false, 
                "_links": {
                    "profile": "http://www.republique-numerique.fr/profile/davidroumanet", 
                    "settings": "http://www.republique-numerique.fr/profile/edit-profile"
                }, 
                "uniqueId": "davidroumanet"
            }, 
            "created_at": "2015-10-14T21:52:06+0200", 
            "updated_at": "2015-10-14T21:52:06+0200", 
            "has_user_reported": false, 
            "votes_count": 2, 
            "has_user_voted": false, 
            "_links": {
                "edit": "http://www.republique-numerique.fr/projects/projet-de-loi-numerique/consultation/consultation/opinions/section-2-service-public-de-la-donnee-1/bloquer-les-publicites-par-defaut-dans-les-lieux-destines-a-l-education/arguments/4059/edit", 
                "report": "http://www.republique-numerique.fr/consultations/projet-de-loi-numerique/consultation/consultation/opinions/section-2-service-public-de-la-donnee-1/bloquer-les-publicites-par-defaut-dans-les-lieux-destines-a-l-education/arguments/4059/report", 
                "show": "http://www.republique-numerique.fr/projects/projet-de-loi-numerique/consultation/consultation/opinions/section-2-service-public-de-la-donnee-1/bloquer-les-publicites-par-defaut-dans-les-lieux-destines-a-l-education#arg-4059"
            }, 
            "type": 1, 
            "id": 4059, 
            "is_trashed": false
        }, 
        {
            "body": "Prof b2i benevole j'ai et\u00e9 confront\u00e9 un jour \u00e0 ce probleme (en 2006).  Alors que nous abordions le moteur de recherche au CM1, un eleve puis plusieurs en entrant le mot \"chatte\" furent sur des sites pornos.. C'est avec effroi que je constata alors qu'il n'y avait pas de controle parental activ\u00e9 ! J'ai mis en place les services qui furent enlev\u00e9s par des profs et \"responsables informatiques\" de l'ecole qui denoncerent cette censure !! On croit rever, reprimand\u00e9 pour avoir os\u00e9 faire des modifs, j'ai ainsi quitter mon benevolat pour le moins estomaqu\u00e9e.\nJe suis donc pour que le blocage dans les ecoles primaires, colleges et lyc\u00e9es soient rendus obligatoires.", 
            "is_enabled": true, 
            "isContribuable": false, 
            "author": {
                "username": "Maltese Nadine", 
                "displayName": "Maltese Nadine", 
                "media": {
                    "url": "/media/cache/default_avatar/default/0001/01/113_default_avatar.png"
                }, 
                "vip": false, 
                "isAdmin": false, 
                "_links": {
                    "profile": "http://www.republique-numerique.fr/profile/maltesenadine", 
                    "settings": "http://www.republique-numerique.fr/profile/edit-profile"
                }, 
                "uniqueId": "maltesenadine"
            }, 
            "created_at": "2015-10-11T12:49:07+0200", 
            "updated_at": "2015-10-11T12:49:07+0200", 
            "has_user_reported": false, 
            "votes_count": 0, 
            "has_user_voted": false, 
            "_links": {
                "edit": "http://www.republique-numerique.fr/projects/projet-de-loi-numerique/consultation/consultation/opinions/section-2-service-public-de-la-donnee-1/bloquer-les-publicites-par-defaut-dans-les-lieux-destines-a-l-education/arguments/3125/edit", 
                "report": "http://www.republique-numerique.fr/consultations/projet-de-loi-numerique/consultation/consultation/opinions/section-2-service-public-de-la-donnee-1/bloquer-les-publicites-par-defaut-dans-les-lieux-destines-a-l-education/arguments/3125/report", 
                "show": "http://www.republique-numerique.fr/projects/projet-de-loi-numerique/consultation/consultation/opinions/section-2-service-public-de-la-donnee-1/bloquer-les-publicites-par-defaut-dans-les-lieux-destines-a-l-education#arg-3125"
            }, 
            "type": 1, 
            "id": 3125, 
            "is_trashed": false
        }, 
        {
            "body": "Il est peut \u00eatre un peu brutal de tout bloquer par d\u00e9faut. Personnellement je bloque tout car j'ai des convictions. Cependant les imposer \u00e0 des enfants en construction va \u00e0 l'encontre de la philosophie du libre.\nIl faudrait plut\u00f4t initier une r\u00e9flexion aupr\u00e8s des \u00e9l\u00e8ves, sur les financements, sur le neuromarketing, sur les alternatives (dons, crowdfunding...)", 
            "is_enabled": true, 
            "isContribuable": false, 
            "author": {
                "username": "Le Poisson Libre", 
                "displayName": "Le Poisson Libre", 
                "media": {
                    "url": "/media/cache/default_avatar/default/0001/01/116_default_avatar.png"
                }, 
                "vip": false, 
                "isAdmin": false, 
                "_links": {
                    "profile": "http://www.republique-numerique.fr/profile/lepoissonlibre", 
                    "settings": "http://www.republique-numerique.fr/profile/edit-profile"
                }, 
                "uniqueId": "lepoissonlibre"
            }, 
            "created_at": "2015-10-07T00:12:15+0200", 
            "updated_at": "2015-10-07T00:12:15+0200", 
            "has_user_reported": false, 
            "votes_count": 4, 
            "has_user_voted": false, 
            "_links": {
                "edit": "http://www.republique-numerique.fr/projects/projet-de-loi-numerique/consultation/consultation/opinions/section-2-service-public-de-la-donnee-1/bloquer-les-publicites-par-defaut-dans-les-lieux-destines-a-l-education/arguments/2446/edit", 
                "report": "http://www.republique-numerique.fr/consultations/projet-de-loi-numerique/consultation/consultation/opinions/section-2-service-public-de-la-donnee-1/bloquer-les-publicites-par-defaut-dans-les-lieux-destines-a-l-education/arguments/2446/report", 
                "show": "http://www.republique-numerique.fr/projects/projet-de-loi-numerique/consultation/consultation/opinions/section-2-service-public-de-la-donnee-1/bloquer-les-publicites-par-defaut-dans-les-lieux-destines-a-l-education#arg-2446"
            }, 
            "type": 0, 
            "id": 2446, 
            "is_trashed": false
        }, 
        {
            "body": "Je suis plut\u00f4t mitig\u00e9 sur ce point. Pour plusieurs raisons : 1) un adbloker efficace install\u00e9 sur les postes par l'admin fait le job. 2) mettre en place des filtre va \u00eatre un pr\u00e9texte pour bloquer tout et n'importe quoi, sans r\u00e9el contr\u00f4le. 3) Il faut aussi apprendre \u00e0 l'utilisateur a \u00eatre \"actif\" et qu'il fasse lui-m\u00eame les choix de navigation qui l'int\u00e9resse. 4) Peu de lien avec le sujet. 5) La pub peut \u00eatre un sujet d'\u00e9tude universitaire (pas forc\u00e9ment que dans les carri\u00e8res marketing).", 
            "is_enabled": true, 
            "isContribuable": false, 
            "author": {
                "username": "Al", 
                "displayName": "Al", 
                "media": null, 
                "vip": false, 
                "isAdmin": false, 
                "_links": {
                    "profile": "http://www.republique-numerique.fr/profile/al", 
                    "settings": "http://www.republique-numerique.fr/profile/edit-profile"
                }, 
                "uniqueId": "al"
            }, 
            "created_at": "2015-10-01T03:57:22+0200", 
            "updated_at": "2015-10-01T03:57:22+0200", 
            "has_user_reported": false, 
            "votes_count": 2, 
            "has_user_voted": false, 
            "_links": {
                "edit": "http://www.republique-numerique.fr/projects/projet-de-loi-numerique/consultation/consultation/opinions/section-2-service-public-de-la-donnee-1/bloquer-les-publicites-par-defaut-dans-les-lieux-destines-a-l-education/arguments/1748/edit", 
                "report": "http://www.republique-numerique.fr/consultations/projet-de-loi-numerique/consultation/consultation/opinions/section-2-service-public-de-la-donnee-1/bloquer-les-publicites-par-defaut-dans-les-lieux-destines-a-l-education/arguments/1748/report", 
                "show": "http://www.republique-numerique.fr/projects/projet-de-loi-numerique/consultation/consultation/opinions/section-2-service-public-de-la-donnee-1/bloquer-les-publicites-par-defaut-dans-les-lieux-destines-a-l-education#arg-1748"
            }, 
            "type": 0, 
            "id": 1748, 
            "is_trashed": false
        }, 
        {
            "body": "Pas vraiment de lien avec le sujet qui est le \"Service public de la donn\u00e9e\".", 
            "is_enabled": true, 
            "isContribuable": false, 
            "author": {
                "username": "Laurent Martin", 
                "displayName": "Laurent Martin", 
                "media": null, 
                "vip": false, 
                "isAdmin": false, 
                "_links": {
                    "profile": "http://www.republique-numerique.fr/profile/laurentmartin", 
                    "settings": "http://www.republique-numerique.fr/profile/edit-profile"
                }, 
                "uniqueId": "laurentmartin"
            }, 
            "created_at": "2015-09-30T10:19:49+0200", 
            "updated_at": "2015-09-30T10:19:49+0200", 
            "has_user_reported": false, 
            "votes_count": 2, 
            "has_user_voted": false, 
            "_links": {
                "edit": "http://www.republique-numerique.fr/projects/projet-de-loi-numerique/consultation/consultation/opinions/section-2-service-public-de-la-donnee-1/bloquer-les-publicites-par-defaut-dans-les-lieux-destines-a-l-education/arguments/1467/edit", 
                "report": "http://www.republique-numerique.fr/consultations/projet-de-loi-numerique/consultation/consultation/opinions/section-2-service-public-de-la-donnee-1/bloquer-les-publicites-par-defaut-dans-les-lieux-destines-a-l-education/arguments/1467/report", 
                "show": "http://www.republique-numerique.fr/projects/projet-de-loi-numerique/consultation/consultation/opinions/section-2-service-public-de-la-donnee-1/bloquer-les-publicites-par-defaut-dans-les-lieux-destines-a-l-education#arg-1467"
            }, 
            "type": 0, 
            "id": 1467, 
            "is_trashed": false
        }, 
        {
            "body": "C'est une violation de la neutralit\u00e9 du net, et c'est tr\u00e8s dangereux pour le financement et l\u2019existence d'un grand nombre de sites et services. En revanche une sensibilisation des enfants pour leur apprendre \u00e0 diff\u00e9rencier les informations de la publicit\u00e9 serait utile.", 
            "is_enabled": true, 
            "isContribuable": false, 
            "author": {
                "username": "Matthieu Arnold", 
                "displayName": "Matthieu Arnold", 
                "media": null, 
                "vip": false, 
                "isAdmin": false, 
                "_links": {
                    "profile": "http://www.republique-numerique.fr/profile/matthieuarnold", 
                    "settings": "http://www.republique-numerique.fr/profile/edit-profile"
                }, 
                "uniqueId": "matthieuarnold"
            }, 
            "created_at": "2015-09-30T01:47:20+0200", 
            "updated_at": "2015-09-30T01:47:20+0200", 
            "has_user_reported": false, 
            "votes_count": 2, 
            "has_user_voted": false, 
            "_links": {
                "edit": "http://www.republique-numerique.fr/projects/projet-de-loi-numerique/consultation/consultation/opinions/section-2-service-public-de-la-donnee-1/bloquer-les-publicites-par-defaut-dans-les-lieux-destines-a-l-education/arguments/1427/edit", 
                "report": "http://www.republique-numerique.fr/consultations/projet-de-loi-numerique/consultation/consultation/opinions/section-2-service-public-de-la-donnee-1/bloquer-les-publicites-par-defaut-dans-les-lieux-destines-a-l-education/arguments/1427/report", 
                "show": "http://www.republique-numerique.fr/projects/projet-de-loi-numerique/consultation/consultation/opinions/section-2-service-public-de-la-donnee-1/bloquer-les-publicites-par-defaut-dans-les-lieux-destines-a-l-education#arg-1427"
            }, 
            "type": 0, 
            "id": 1427, 
            "is_trashed": false
        }, 
        {
            "body": "Le mod\u00e8le de financement du net est \u00e0 r\u00e9inventer. personne ne veut de pub mais personne ne veut payer.\nA un moment ou un autre va falloir revoir le syst\u00e8me.\nRien n'\u00e9tant gratuit dans la vie, le net ne devrait pas \u00eatre gratuit non plus.", 
            "is_enabled": true, 
            "isContribuable": false, 
            "author": {
                "username": "Fran\u00e7ois Briat", 
                "displayName": "Fran\u00e7ois Briat", 
                "media": {
                    "url": "/media/cache/default_avatar/default/0001/01/243_default_avatar.jpg"
                }, 
                "vip": false, 
                "isAdmin": false, 
                "_links": {
                    "profile": "http://www.republique-numerique.fr/profile/francoisbriat", 
                    "settings": "http://www.republique-numerique.fr/profile/edit-profile"
                }, 
                "uniqueId": "francoisbriat"
            }, 
            "created_at": "2015-09-29T19:11:35+0200", 
            "updated_at": "2015-09-29T19:11:35+0200", 
            "has_user_reported": false, 
            "votes_count": 1, 
            "has_user_voted": false, 
            "_links": {
                "edit": "http://www.republique-numerique.fr/projects/projet-de-loi-numerique/consultation/consultation/opinions/section-2-service-public-de-la-donnee-1/bloquer-les-publicites-par-defaut-dans-les-lieux-destines-a-l-education/arguments/1356/edit", 
                "report": "http://www.republique-numerique.fr/consultations/projet-de-loi-numerique/consultation/consultation/opinions/section-2-service-public-de-la-donnee-1/bloquer-les-publicites-par-defaut-dans-les-lieux-destines-a-l-education/arguments/1356/report", 
                "show": "http://www.republique-numerique.fr/projects/projet-de-loi-numerique/consultation/consultation/opinions/section-2-service-public-de-la-donnee-1/bloquer-les-publicites-par-defaut-dans-les-lieux-destines-a-l-education#arg-1356"
            }, 
            "type": 0, 
            "id": 1356, 
            "is_trashed": false
        }, 
        {
            "body": "Cette proposition c'est aussi accepter de tuer a petit feu des sources d'infos comme L'Etudiant par exemple ...", 
            "is_enabled": true, 
            "isContribuable": false, 
            "author": {
                "username": "alexis piloy", 
                "displayName": "alexis piloy", 
                "media": null, 
                "vip": false, 
                "isAdmin": false, 
                "_links": {
                    "profile": "http://www.republique-numerique.fr/profile/alexispiloy", 
                    "settings": "http://www.republique-numerique.fr/profile/edit-profile"
                }, 
                "uniqueId": "alexispiloy"
            }, 
            "created_at": "2015-09-29T10:52:36+0200", 
            "updated_at": "2015-09-29T10:52:36+0200", 
            "has_user_reported": false, 
            "votes_count": 1, 
            "has_user_voted": false, 
            "_links": {
                "edit": "http://www.republique-numerique.fr/projects/projet-de-loi-numerique/consultation/consultation/opinions/section-2-service-public-de-la-donnee-1/bloquer-les-publicites-par-defaut-dans-les-lieux-destines-a-l-education/arguments/1170/edit", 
                "report": "http://www.republique-numerique.fr/consultations/projet-de-loi-numerique/consultation/consultation/opinions/section-2-service-public-de-la-donnee-1/bloquer-les-publicites-par-defaut-dans-les-lieux-destines-a-l-education/arguments/1170/report", 
                "show": "http://www.republique-numerique.fr/projects/projet-de-loi-numerique/consultation/consultation/opinions/section-2-service-public-de-la-donnee-1/bloquer-les-publicites-par-defaut-dans-les-lieux-destines-a-l-education#arg-1170"
            }, 
            "type": 0, 
            "id": 1170, 
            "is_trashed": false
        }, 
        {
            "body": "Je suis pour le blocage dans les ecoles primaire, colleges, et lyc\u00e9es, je ne pense que la solution soit simplement un adblocker, cela devrait aussi venir des fournisseurs d'acces (apr\u00e8s tout, FREE a d\u00e9ja commenc\u00e9 puisque une option existe dans la box m\u00eame si elle a ses limites) .", 
            "is_enabled": true, 
            "isContribuable": false, 
            "author": {
                "username": "Frederic TSL", 
                "displayName": "Frederic TSL", 
                "media": null, 
                "vip": false, 
                "isAdmin": false, 
                "_links": {
                    "profile": "http://www.republique-numerique.fr/profile/frederictsl", 
                    "settings": "http://www.republique-numerique.fr/profile/edit-profile"
                }, 
                "uniqueId": "frederictsl"
            }, 
            "created_at": "2015-09-28T18:42:14+0200", 
            "updated_at": "2015-09-28T18:43:22+0200", 
            "has_user_reported": false, 
            "votes_count": 6, 
            "has_user_voted": false, 
            "_links": {
                "edit": "http://www.republique-numerique.fr/projects/projet-de-loi-numerique/consultation/consultation/opinions/section-2-service-public-de-la-donnee-1/bloquer-les-publicites-par-defaut-dans-les-lieux-destines-a-l-education/arguments/988/edit", 
                "report": "http://www.republique-numerique.fr/consultations/projet-de-loi-numerique/consultation/consultation/opinions/section-2-service-public-de-la-donnee-1/bloquer-les-publicites-par-defaut-dans-les-lieux-destines-a-l-education/arguments/988/report", 
                "show": "http://www.republique-numerique.fr/projects/projet-de-loi-numerique/consultation/consultation/opinions/section-2-service-public-de-la-donnee-1/bloquer-les-publicites-par-defaut-dans-les-lieux-destines-a-l-education#arg-988"
            }, 
            "type": 1, 
            "id": 988, 
            "is_trashed": false
        }
    ], 
    "answer": {
        "body": "<p>Le Code de l&rsquo;Education, dans l&rsquo;article <a href=\"http://www.legifrance.gouv.fr/affichCodeArticle.do?cidTexte=LEGITEXT000006071191&amp;idArticle=LEGIARTI000006525120\" target=\"_blank\">L511-2</a>, &eacute;nonce le principe de neutralit&eacute; du syst&egrave;me &eacute;ducatif en mati&egrave;re religieuse, politique et commerciale. Le principe de l&rsquo;interdiction de la publicit&eacute; &agrave; l&rsquo;&eacute;cole a &eacute;t&eacute; pos&eacute; d&egrave;s 1936 et <a href=\"http://eduscol.education.fr/cid48575/interdiction-de-pratiques-commerciales-dans-les-eple.html\">constamment r&eacute;affirm&eacute; depuis</a> et &laquo; en aucun cas et en aucune mani&egrave;re&nbsp;&raquo; les ma&icirc;tres et les &eacute;l&egrave;ves ne doivent servir directement ou indirectement &agrave; aucun publicit&eacute; commerciale.</p>", 
        "author": {
            "username": "Gouvernement", 
            "displayName": "Gouvernement", 
            "media": {
                "url": "/media/cache/default_avatar/default/0001/01/72_default_avatar.jpg"
            }, 
            "vip": true, 
            "isAdmin": false, 
            "_links": {
                "profile": "http://www.republique-numerique.fr/profile/gouvernement", 
                "settings": "http://www.republique-numerique.fr/profile/edit-profile"
            }, 
            "uniqueId": "gouvernement"
        }, 
        "title": "R\u00e9ponse du Gouvernement"
    }, 
    "type": {
        "votesThresholdHelpText": null, 
        "subtitle": "Service public de la donn\u00e9e", 
        "votesThreshold": null, 
        "votesHelpText": "Pensez-vous que cette proposition permet d'atteindre les objectifs pr\u00e9sent\u00e9s dans l\u2019explication de l\u2019article ?", 
        "title": "Section 2", 
        "color": "blue", 
        "commentSystem": 2, 
        "voteWidgetType": 2, 
        "sourceable": true, 
        "linkable": false, 
        "versionable": true, 
        "id": 87
    }, 
    "body": "<p>Les publicit&eacute;s et les scripts malveillants se doivent d&#39;etre bloqu&eacute;s dans les primaires,&eacute;coles,lyc&eacute;es et universit&eacute;s.</p>", 
    "ranking": 74, 
    "sources_count": 0, 
    "votes_ok": 137, 
    "step": {
        "projectId": 3, 
        "id": 11
    }, 
    "link": null, 
    "appendices": [
        {
            "body": "<p>En quoi la publicit&eacute; est un mal et comment la bloquer dans les lieux destin&eacute;s a l&rsquo;&eacute;ducation?</p>\r\n\r\n<ul>\r\n\t<li>\r\n\t<p>La publicit&eacute; a plusieurs cons&eacute;quences nocives,notamment sur les enfants.</p>\r\n\t</li>\r\n\t<li>\r\n\t<p>la publicit&eacute; fais bien souvent de la d&eacute;sinformation ce qui est juste inadmissible dans un lieu vou&eacute; a l&#39;information qu&#39;est une &eacute;cole.</p>\r\n\t</li>\r\n\t<li>\r\n\t<p>la publicit&eacute; conditionne les humains et les pousses a la surconsommation et les forces a acheter des produits sans que ces produits soient mieux que la conccurence. les enfants y sont tr&egrave;s sensible et cela cause &eacute;norm&eacute;ment d&#39;externalit&eacute;s n&eacute;gatives dans leurs comportements futurs d&rsquo;adulte.</p>\r\n\t</li>\r\n\t<li>\r\n\t<p>la publicit&eacute; cr&eacute;e et maintient des st&eacute;r&eacute;otype notamment sexistes,dans le monde merveilleux des publicit&eacute;s,la femme est sexualis&eacute;e et les marques de v&ecirc;tements que la pub impose a ces enfants les sexualisent et cr&eacute;e des diff&eacute;rences entre les classes sociales ce qui engendre des souffrances.</p>\r\n\t</li>\r\n\t<li>\r\n\t<p>C&#39;est pour toutes ces raisons et m&ecirc;me d&#39;autres qu&#39;il faut bloquer par defaut la publicit&eacute; et les scripts malveillants dans les navigateurs dans les lieux destin&eacute;s a l&rsquo;&eacute;ducation.</p>\r\n\t</li>\r\n\t<li>\r\n\t<p>comment? installer l&#39;addon ublock origin qui est actuellement le plus complet et performant,et il est libre.Son installation est tr&egrave;s facilement automatisable sur une distribution Linux.</p>\r\n\t</li>\r\n</ul>\r\n\r\n<p>&nbsp;</p>", 
            "type": {
                "title": "Explication de l'article"
            }
        }
    ], 
    "has_user_reported": false, 
    "is_trashed": false, 
    "isContribuable": false, 
    "created_at": "2015-09-27T21:55:29+0200", 
    "title": "Bloquer les publicit\u00e9s par d\u00e9faut dans les lieux destin\u00e9s \u00e0 l'Education.", 
    "modals": [], 
    "votes_mitige": 23, 
    "arguments_yes_count": 3, 
    "arguments_no_count": 7, 
    "votes_nok": 18
}