{
    "updated_at": "2015-09-29T14:48:52+0200", 
    "connections": [], 
    "sources": [
        {
            "body": "Un annuaire qui recense pour les principaux sites internet mondiaux la facilit\u00e9 (ou non) \u00e0 se d\u00e9sinscrire. Il y en a un certain nombre pour lesquels c'est \"difficile\" ou \"impossible\". Noter que ce site est loin d'\u00eatre exhaustif.", 
            "category": "Site internet", 
            "isContribuable": false, 
            "title": "Just delete me", 
            "created_at": "2015-09-30T20:14:50+0200", 
            "author": {
                "username": "Superchaton", 
                "displayName": "Superchaton", 
                "media": null, 
                "vip": false, 
                "isAdmin": false, 
                "_links": {
                    "profile": "http://www.republique-numerique.fr/profile/superchaton", 
                    "settings": "http://www.republique-numerique.fr/profile/edit-profile"
                }, 
                "uniqueId": "superchaton"
            }, 
            "updated_at": "2015-09-30T20:14:50+0200", 
            "has_user_reported": false, 
            "link": "http://justdelete.me/fr.html", 
            "has_user_voted": false, 
            "_links": {
                "edit": "http://www.republique-numerique.fr/consultations/projet-de-loi-numerique/consultation/consultation/opinions/section-4-information-des-consommateurs/visibilite-et-accessibilite-equivalente-pour-l-inscription-et-la-desinscription-a-un-service-en-ligne/sources/just-delete-me/edit", 
                "report": "http://www.republique-numerique.fr/consultations/projet-de-loi-numerique/consultation/consultation/opinions/section-4-information-des-consommateurs/visibilite-et-accessibilite-equivalente-pour-l-inscription-et-la-desinscription-a-un-service-en-ligne/sources/just-delete-me/report"
            }, 
            "votes_count": 0, 
            "id": 140
        }
    ], 
    "arguments_count": 2, 
    "versions_count": 0, 
    "connections_count": 0, 
    "votes_total": 15, 
    "id": 301, 
    "votes": [
        {
            "user": {
                "username": "NADPERR", 
                "displayName": "NADPERR", 
                "media": {
                    "url": "/media/cache/default_avatar/default/0001/01/154_default_avatar.jpg"
                }, 
                "vip": false, 
                "isAdmin": false, 
                "_links": {
                    "profile": "http://www.republique-numerique.fr/profile/nadperr", 
                    "settings": "http://www.republique-numerique.fr/profile/edit-profile"
                }, 
                "uniqueId": "nadperr"
            }
        }, 
        {
            "user": {
                "username": "Guillaume Litaudon", 
                "displayName": "Guillaume Litaudon", 
                "media": null, 
                "vip": false, 
                "isAdmin": false, 
                "_links": {
                    "profile": "http://www.republique-numerique.fr/profile/guillaumelitaudon", 
                    "settings": "http://www.republique-numerique.fr/profile/edit-profile"
                }, 
                "uniqueId": "guillaumelitaudon"
            }
        }, 
        {
            "user": {
                "username": "Yoann Sculo", 
                "displayName": "Yoann Sculo", 
                "media": null, 
                "vip": false, 
                "isAdmin": false, 
                "_links": {
                    "profile": "http://www.republique-numerique.fr/profile/yoannsculo", 
                    "settings": "http://www.republique-numerique.fr/profile/edit-profile"
                }, 
                "uniqueId": "yoannsculo"
            }
        }, 
        {
            "user": {
                "username": "Superchaton", 
                "displayName": "Superchaton", 
                "media": null, 
                "vip": false, 
                "isAdmin": false, 
                "_links": {
                    "profile": "http://www.republique-numerique.fr/profile/superchaton", 
                    "settings": "http://www.republique-numerique.fr/profile/edit-profile"
                }, 
                "uniqueId": "superchaton"
            }
        }, 
        {
            "user": {
                "username": "Bonin", 
                "displayName": "Bonin", 
                "media": null, 
                "vip": false, 
                "isAdmin": false, 
                "_links": {
                    "profile": "http://www.republique-numerique.fr/profile/bonin", 
                    "settings": "http://www.republique-numerique.fr/profile/edit-profile"
                }, 
                "uniqueId": "bonin"
            }
        }
    ], 
    "author": {
        "username": "FX NUTTALL", 
        "displayName": "FX NUTTALL", 
        "media": null, 
        "vip": false, 
        "isAdmin": false, 
        "_links": {
            "profile": "http://www.republique-numerique.fr/profile/fxnuttall", 
            "settings": "http://www.republique-numerique.fr/profile/edit-profile"
        }, 
        "uniqueId": "fxnuttall"
    }, 
    "user_vote": null, 
    "_links": {
        "edit": "http://www.republique-numerique.fr/projects/projet-de-loi-numerique/consultation/consultation/opinions/section-4-information-des-consommateurs/visibilite-et-accessibilite-equivalente-pour-l-inscription-et-la-desinscription-a-un-service-en-ligne/edit", 
        "report": "http://www.republique-numerique.fr/consultations/projet-de-loi-numerique/consultation/consultation/opinions/section-4-information-des-consommateurs/visibilite-et-accessibilite-equivalente-pour-l-inscription-et-la-desinscription-a-un-service-en-ligne/report", 
        "type": "http://www.republique-numerique.fr/projects/projet-de-loi-numerique/consultation/consultation/types/section-4-information-des-consommateurs", 
        "show": "http://www.republique-numerique.fr/projects/projet-de-loi-numerique/consultation/consultation/opinions/section-4-information-des-consommateurs/visibilite-et-accessibilite-equivalente-pour-l-inscription-et-la-desinscription-a-un-service-en-ligne"
    }, 
    "arguments": [
        {
            "body": "Pire, il existe un certain nombre de services o\u00f9 ce lien n'existe pas. Au mieux, vous pouvez envoyer un message au service client ; au pire, c'est impossible. ", 
            "is_enabled": true, 
            "isContribuable": false, 
            "author": {
                "username": "Superchaton", 
                "displayName": "Superchaton", 
                "media": null, 
                "vip": false, 
                "isAdmin": false, 
                "_links": {
                    "profile": "http://www.republique-numerique.fr/profile/superchaton", 
                    "settings": "http://www.republique-numerique.fr/profile/edit-profile"
                }, 
                "uniqueId": "superchaton"
            }, 
            "created_at": "2015-09-30T20:13:13+0200", 
            "updated_at": "2015-09-30T20:13:13+0200", 
            "has_user_reported": false, 
            "votes_count": 0, 
            "has_user_voted": false, 
            "_links": {
                "edit": "http://www.republique-numerique.fr/projects/projet-de-loi-numerique/consultation/consultation/opinions/section-4-information-des-consommateurs/visibilite-et-accessibilite-equivalente-pour-l-inscription-et-la-desinscription-a-un-service-en-ligne/arguments/1680/edit", 
                "report": "http://www.republique-numerique.fr/consultations/projet-de-loi-numerique/consultation/consultation/opinions/section-4-information-des-consommateurs/visibilite-et-accessibilite-equivalente-pour-l-inscription-et-la-desinscription-a-un-service-en-ligne/arguments/1680/report", 
                "show": "http://www.republique-numerique.fr/projects/projet-de-loi-numerique/consultation/consultation/opinions/section-4-information-des-consommateurs/visibilite-et-accessibilite-equivalente-pour-l-inscription-et-la-desinscription-a-un-service-en-ligne#arg-1680"
            }, 
            "type": 1, 
            "id": 1680, 
            "is_trashed": false
        }, 
        {
            "body": "Une \u00e9vidence.\r\nTrop souvent la dissuasion au d\u00e9sabonnement est pratiqu\u00e9e par certaines entreprises: on s'abonne en ligne mais pour se d\u00e9sabonner c'est LRAR \u00e0 une adresse trouv\u00e9e au travers du p\u00e9riple de recherche titanesque dans les pages internets du site.", 
            "is_enabled": true, 
            "isContribuable": false, 
            "author": {
                "username": "NADPERR", 
                "displayName": "NADPERR", 
                "media": {
                    "url": "/media/cache/default_avatar/default/0001/01/154_default_avatar.jpg"
                }, 
                "vip": false, 
                "isAdmin": false, 
                "_links": {
                    "profile": "http://www.republique-numerique.fr/profile/nadperr", 
                    "settings": "http://www.republique-numerique.fr/profile/edit-profile"
                }, 
                "uniqueId": "nadperr"
            }, 
            "created_at": "2015-09-29T15:22:53+0200", 
            "updated_at": "2015-09-29T18:32:41+0200", 
            "has_user_reported": false, 
            "votes_count": 0, 
            "has_user_voted": false, 
            "_links": {
                "edit": "http://www.republique-numerique.fr/projects/projet-de-loi-numerique/consultation/consultation/opinions/section-4-information-des-consommateurs/visibilite-et-accessibilite-equivalente-pour-l-inscription-et-la-desinscription-a-un-service-en-ligne/arguments/1262/edit", 
                "report": "http://www.republique-numerique.fr/consultations/projet-de-loi-numerique/consultation/consultation/opinions/section-4-information-des-consommateurs/visibilite-et-accessibilite-equivalente-pour-l-inscription-et-la-desinscription-a-un-service-en-ligne/arguments/1262/report", 
                "show": "http://www.republique-numerique.fr/projects/projet-de-loi-numerique/consultation/consultation/opinions/section-4-information-des-consommateurs/visibilite-et-accessibilite-equivalente-pour-l-inscription-et-la-desinscription-a-un-service-en-ligne#arg-1262"
            }, 
            "type": 1, 
            "id": 1262, 
            "is_trashed": false
        }
    ], 
    "answer": null, 
    "type": {
        "votesThresholdHelpText": null, 
        "subtitle": "Information des consommateurs", 
        "votesThreshold": null, 
        "votesHelpText": "Pensez-vous que cette proposition permet d'atteindre les objectifs pr\u00e9sent\u00e9s dans l\u2019explication de l\u2019article ?", 
        "title": "Section 4", 
        "color": "blue", 
        "commentSystem": 2, 
        "voteWidgetType": 2, 
        "sourceable": true, 
        "linkable": false, 
        "versionable": true, 
        "id": 97
    }, 
    "body": "<p>Le lien pour l&#39;inscription a un service en ligne et celui pour la d&eacute;sinscription doit &ecirc;tre&nbsp;&eacute;quivalent en visibilit&eacute; et en facilit&eacute; d&#39;acc&eacute;s.</p>\r\n\r\n<p>Simple principe&nbsp;d&#39;honn&ecirc;tet&eacute; commerciale.</p>", 
    "ranking": 270, 
    "sources_count": 1, 
    "votes_ok": 14, 
    "step": {
        "projectId": 3, 
        "id": 11
    }, 
    "link": null, 
    "appendices": [
        {
            "body": "<p>Une grande majorit&eacute; de services en ligne,&nbsp;sites internet, mais aussi et surtout les services par&nbsp;abonnements (Internet, t&eacute;l&eacute;phonie,..) permettent tr&eacute;s facilement de s&#39;inscrire. Par contre, lorsque vous souhaitez vous d&eacute;sinscrire ou&nbsp;r&eacute;silier votre abonnement, le lien&nbsp;est souvent&nbsp;cach&eacute; en bas d&#39;une page improbable a trouver, rendant la tache complexe, fastidieuse et souvent d&eacute;courageante.</p>", 
            "type": {
                "title": "Explication de l'article"
            }
        }
    ], 
    "has_user_reported": false, 
    "is_trashed": false, 
    "isContribuable": false, 
    "created_at": "2015-09-29T14:48:52+0200", 
    "title": "Visibilit\u00e9 et accessibilit\u00e9 \u00e9quivalente pour l'inscription et la d\u00e9sinscription a un service en ligne", 
    "modals": [], 
    "votes_mitige": 0, 
    "arguments_yes_count": 2, 
    "arguments_no_count": 0, 
    "votes_nok": 1
}