{
    "updated_at": "2015-09-30T12:17:58+0200", 
    "connections": [], 
    "sources": [], 
    "arguments_count": 2, 
    "versions_count": 1, 
    "connections_count": 0, 
    "votes_total": 22, 
    "id": 346, 
    "votes": [
        {
            "user": {
                "username": "thomas", 
                "displayName": "thomas", 
                "media": null, 
                "vip": false, 
                "isAdmin": false, 
                "_links": {
                    "profile": "http://www.republique-numerique.fr/profile/thomas1", 
                    "settings": "http://www.republique-numerique.fr/profile/edit-profile"
                }, 
                "uniqueId": "thomas1"
            }
        }, 
        {
            "user": {
                "username": "Jeanne Varasco", 
                "displayName": "Jeanne Varasco", 
                "media": {
                    "url": "/media/cache/default_avatar/default/0001/01/139_default_avatar.jpg"
                }, 
                "vip": false, 
                "isAdmin": false, 
                "_links": {
                    "profile": "http://www.republique-numerique.fr/profile/jeannevarasco", 
                    "settings": "http://www.republique-numerique.fr/profile/edit-profile"
                }, 
                "uniqueId": "jeannevarasco"
            }
        }, 
        {
            "user": {
                "username": "Vincent Reverdy", 
                "displayName": "Vincent Reverdy", 
                "media": {
                    "url": "/media/cache/default_avatar/default/0001/01/268_default_avatar.jpg"
                }, 
                "vip": false, 
                "isAdmin": false, 
                "_links": {
                    "profile": "http://www.republique-numerique.fr/profile/vincentreverdy", 
                    "settings": "http://www.republique-numerique.fr/profile/edit-profile"
                }, 
                "uniqueId": "vincentreverdy"
            }
        }, 
        {
            "user": {
                "username": "Fran\u00e7ois Briat", 
                "displayName": "Fran\u00e7ois Briat", 
                "media": {
                    "url": "/media/cache/default_avatar/default/0001/01/243_default_avatar.jpg"
                }, 
                "vip": false, 
                "isAdmin": false, 
                "_links": {
                    "profile": "http://www.republique-numerique.fr/profile/francoisbriat", 
                    "settings": "http://www.republique-numerique.fr/profile/edit-profile"
                }, 
                "uniqueId": "francoisbriat"
            }
        }, 
        {
            "user": {
                "username": "Yoann Sculo", 
                "displayName": "Yoann Sculo", 
                "media": null, 
                "vip": false, 
                "isAdmin": false, 
                "_links": {
                    "profile": "http://www.republique-numerique.fr/profile/yoannsculo", 
                    "settings": "http://www.republique-numerique.fr/profile/edit-profile"
                }, 
                "uniqueId": "yoannsculo"
            }
        }
    ], 
    "author": {
        "username": "thomas", 
        "displayName": "thomas", 
        "media": null, 
        "vip": false, 
        "isAdmin": false, 
        "_links": {
            "profile": "http://www.republique-numerique.fr/profile/thomas1", 
            "settings": "http://www.republique-numerique.fr/profile/edit-profile"
        }, 
        "uniqueId": "thomas1"
    }, 
    "user_vote": null, 
    "_links": {
        "edit": "http://www.republique-numerique.fr/projects/projet-de-loi-numerique/consultation/consultation/opinions/section-2-service-public-de-la-donnee-1/organigramme-gouvernementale/edit", 
        "report": "http://www.republique-numerique.fr/consultations/projet-de-loi-numerique/consultation/consultation/opinions/section-2-service-public-de-la-donnee-1/organigramme-gouvernementale/report", 
        "type": "http://www.republique-numerique.fr/projects/projet-de-loi-numerique/consultation/consultation/types/section-2-service-public-de-la-donnee-1", 
        "show": "http://www.republique-numerique.fr/projects/projet-de-loi-numerique/consultation/consultation/opinions/section-2-service-public-de-la-donnee-1/organigramme-gouvernementale"
    }, 
    "arguments": [
        {
            "body": "Tout est d\u00e9j\u00e0 publique, pour qui veut bien se donner la peine de s'informer.", 
            "is_enabled": true, 
            "isContribuable": false, 
            "author": {
                "username": "Tan\u00e9l\u00e9o", 
                "displayName": "Tan\u00e9l\u00e9o", 
                "media": null, 
                "vip": false, 
                "isAdmin": false, 
                "_links": {
                    "profile": "http://www.republique-numerique.fr/profile/taneleo", 
                    "settings": "http://www.republique-numerique.fr/profile/edit-profile"
                }, 
                "uniqueId": "taneleo"
            }, 
            "created_at": "2015-10-17T15:26:26+0200", 
            "updated_at": "2015-10-17T15:26:26+0200", 
            "has_user_reported": false, 
            "votes_count": 1, 
            "has_user_voted": false, 
            "_links": {
                "edit": "http://www.republique-numerique.fr/projects/projet-de-loi-numerique/consultation/consultation/opinions/section-2-service-public-de-la-donnee-1/organigramme-gouvernementale/arguments/5294/edit", 
                "report": "http://www.republique-numerique.fr/consultations/projet-de-loi-numerique/consultation/consultation/opinions/section-2-service-public-de-la-donnee-1/organigramme-gouvernementale/arguments/5294/report", 
                "show": "http://www.republique-numerique.fr/projects/projet-de-loi-numerique/consultation/consultation/opinions/section-2-service-public-de-la-donnee-1/organigramme-gouvernementale#arg-5294"
            }, 
            "type": 0, 
            "id": 5294, 
            "is_trashed": false
        }, 
        {
            "body": "On risque d'avoir des surprises !", 
            "is_enabled": true, 
            "isContribuable": false, 
            "author": {
                "username": "Jeanne Varasco", 
                "displayName": "Jeanne Varasco", 
                "media": {
                    "url": "/media/cache/default_avatar/default/0001/01/139_default_avatar.jpg"
                }, 
                "vip": false, 
                "isAdmin": false, 
                "_links": {
                    "profile": "http://www.republique-numerique.fr/profile/jeannevarasco", 
                    "settings": "http://www.republique-numerique.fr/profile/edit-profile"
                }, 
                "uniqueId": "jeannevarasco"
            }, 
            "created_at": "2015-09-30T17:21:49+0200", 
            "updated_at": "2015-09-30T17:21:49+0200", 
            "has_user_reported": false, 
            "votes_count": 1, 
            "has_user_voted": false, 
            "_links": {
                "edit": "http://www.republique-numerique.fr/projects/projet-de-loi-numerique/consultation/consultation/opinions/section-2-service-public-de-la-donnee-1/organigramme-gouvernementale/arguments/1633/edit", 
                "report": "http://www.republique-numerique.fr/consultations/projet-de-loi-numerique/consultation/consultation/opinions/section-2-service-public-de-la-donnee-1/organigramme-gouvernementale/arguments/1633/report", 
                "show": "http://www.republique-numerique.fr/projects/projet-de-loi-numerique/consultation/consultation/opinions/section-2-service-public-de-la-donnee-1/organigramme-gouvernementale#arg-1633"
            }, 
            "type": 1, 
            "id": 1633, 
            "is_trashed": false
        }
    ], 
    "answer": null, 
    "type": {
        "votesThresholdHelpText": null, 
        "subtitle": "Service public de la donn\u00e9e", 
        "votesThreshold": null, 
        "votesHelpText": "Pensez-vous que cette proposition permet d'atteindre les objectifs pr\u00e9sent\u00e9s dans l\u2019explication de l\u2019article ?", 
        "title": "Section 2", 
        "color": "blue", 
        "commentSystem": 2, 
        "voteWidgetType": 2, 
        "sourceable": true, 
        "linkable": false, 
        "versionable": true, 
        "id": 87
    }, 
    "body": "<p>Chaques elu&nbsp;(du maire au president en passant par les senateurs/prefets/prefet fantome//etc..) devrait apparaitre dans un immensse organigramme afin que chaque citoyen puisse connaitre les acteurs de la politique francaise.</p>\r\n\r\n<p>En plus du nom de la personne, une petite description du poste,&nbsp;attributions, adresse (professionnel), numero de telephone et adresse mail (professionnel) sera accessible.</p>\r\n\r\n<p>&nbsp;</p>", 
    "ranking": 223, 
    "sources_count": 0, 
    "votes_ok": 20, 
    "step": {
        "projectId": 3, 
        "id": 11
    }, 
    "link": null, 
    "appendices": [
        {
            "body": "<p>Il faut plus de transparence. Le numerique et l&#39;informatique nous permet ca.</p>", 
            "type": {
                "title": "Explication de l'article"
            }
        }
    ], 
    "has_user_reported": false, 
    "is_trashed": false, 
    "isContribuable": false, 
    "created_at": "2015-09-30T12:17:58+0200", 
    "title": "Organigramme gouvernementale", 
    "modals": [], 
    "votes_mitige": 1, 
    "arguments_yes_count": 1, 
    "arguments_no_count": 1, 
    "votes_nok": 1
}