{
    "updated_at": "2015-09-30T13:29:17+0200", 
    "connections": [], 
    "sources": [], 
    "arguments_count": 1, 
    "versions_count": 0, 
    "connections_count": 0, 
    "votes_total": 36, 
    "id": 351, 
    "votes": [
        {
            "user": {
                "username": "Charles Magalie", 
                "displayName": "Charles Magalie", 
                "media": null, 
                "vip": false, 
                "isAdmin": false, 
                "_links": {
                    "profile": "http://www.republique-numerique.fr/profile/charlesmagalie", 
                    "settings": "http://www.republique-numerique.fr/profile/edit-profile"
                }, 
                "uniqueId": "charlesmagalie"
            }
        }, 
        {
            "user": {
                "username": "Brun Pierre", 
                "displayName": "Brun Pierre", 
                "media": null, 
                "vip": false, 
                "isAdmin": false, 
                "_links": {
                    "profile": "http://www.republique-numerique.fr/profile/brunpierre", 
                    "settings": "http://www.republique-numerique.fr/profile/edit-profile"
                }, 
                "uniqueId": "brunpierre"
            }
        }, 
        {
            "user": {
                "username": "Ony", 
                "displayName": "Ony", 
                "media": null, 
                "vip": false, 
                "isAdmin": false, 
                "_links": {
                    "profile": "http://www.republique-numerique.fr/profile/ony", 
                    "settings": "http://www.republique-numerique.fr/profile/edit-profile"
                }, 
                "uniqueId": "ony"
            }
        }, 
        {
            "user": {
                "username": "Jeanne Varasco", 
                "displayName": "Jeanne Varasco", 
                "media": {
                    "url": "/media/cache/default_avatar/default/0001/01/139_default_avatar.jpg"
                }, 
                "vip": false, 
                "isAdmin": false, 
                "_links": {
                    "profile": "http://www.republique-numerique.fr/profile/jeannevarasco", 
                    "settings": "http://www.republique-numerique.fr/profile/edit-profile"
                }, 
                "uniqueId": "jeannevarasco"
            }
        }, 
        {
            "user": {
                "username": "Laurent Martin", 
                "displayName": "Laurent Martin", 
                "media": null, 
                "vip": false, 
                "isAdmin": false, 
                "_links": {
                    "profile": "http://www.republique-numerique.fr/profile/laurentmartin", 
                    "settings": "http://www.republique-numerique.fr/profile/edit-profile"
                }, 
                "uniqueId": "laurentmartin"
            }
        }
    ], 
    "author": {
        "username": "Charles Magalie", 
        "displayName": "Charles Magalie", 
        "media": null, 
        "vip": false, 
        "isAdmin": false, 
        "_links": {
            "profile": "http://www.republique-numerique.fr/profile/charlesmagalie", 
            "settings": "http://www.republique-numerique.fr/profile/edit-profile"
        }, 
        "uniqueId": "charlesmagalie"
    }, 
    "user_vote": null, 
    "_links": {
        "edit": "http://www.republique-numerique.fr/projects/projet-de-loi-numerique/consultation/consultation/opinions/section-1-ouverture-des-donnees-publiques-1/protection-des-mineurs-sur-les-reseaux-sociaux/edit", 
        "report": "http://www.republique-numerique.fr/consultations/projet-de-loi-numerique/consultation/consultation/opinions/section-1-ouverture-des-donnees-publiques-1/protection-des-mineurs-sur-les-reseaux-sociaux/report", 
        "type": "http://www.republique-numerique.fr/projects/projet-de-loi-numerique/consultation/consultation/types/section-1-ouverture-des-donnees-publiques-1", 
        "show": "http://www.republique-numerique.fr/projects/projet-de-loi-numerique/consultation/consultation/opinions/section-1-ouverture-des-donnees-publiques-1/protection-des-mineurs-sur-les-reseaux-sociaux"
    }, 
    "arguments": [
        {
            "body": "Rien \u00e0 voir avec le sujet de l'ouverture des donn\u00e9es publiques.", 
            "is_enabled": true, 
            "isContribuable": false, 
            "author": {
                "username": "Laurent Martin", 
                "displayName": "Laurent Martin", 
                "media": null, 
                "vip": false, 
                "isAdmin": false, 
                "_links": {
                    "profile": "http://www.republique-numerique.fr/profile/laurentmartin", 
                    "settings": "http://www.republique-numerique.fr/profile/edit-profile"
                }, 
                "uniqueId": "laurentmartin"
            }, 
            "created_at": "2015-10-01T13:36:43+0200", 
            "updated_at": "2015-10-01T13:36:43+0200", 
            "has_user_reported": false, 
            "votes_count": 1, 
            "has_user_voted": false, 
            "_links": {
                "edit": "http://www.republique-numerique.fr/projects/projet-de-loi-numerique/consultation/consultation/opinions/section-1-ouverture-des-donnees-publiques-1/protection-des-mineurs-sur-les-reseaux-sociaux/arguments/1832/edit", 
                "report": "http://www.republique-numerique.fr/consultations/projet-de-loi-numerique/consultation/consultation/opinions/section-1-ouverture-des-donnees-publiques-1/protection-des-mineurs-sur-les-reseaux-sociaux/arguments/1832/report", 
                "show": "http://www.republique-numerique.fr/projects/projet-de-loi-numerique/consultation/consultation/opinions/section-1-ouverture-des-donnees-publiques-1/protection-des-mineurs-sur-les-reseaux-sociaux#arg-1832"
            }, 
            "type": 0, 
            "id": 1832, 
            "is_trashed": false
        }
    ], 
    "answer": null, 
    "type": {
        "votesThresholdHelpText": null, 
        "subtitle": "Ouverture des donn\u00e9es publiques", 
        "votesThreshold": null, 
        "votesHelpText": "Pensez-vous que cette proposition permet d'atteindre les objectifs pr\u00e9sent\u00e9s dans l\u2019explication de l\u2019article ?", 
        "title": "Section 1", 
        "color": "blue", 
        "commentSystem": 2, 
        "voteWidgetType": 2, 
        "sourceable": true, 
        "linkable": false, 
        "versionable": true, 
        "id": 86
    }, 
    "body": "<p>Trop d&#39;enfants sont expos&eacute;s sur les r&eacute;seaux sociaux, beaucoup de parents partagent des photos de leurs enfants sans tenir compte du fait qu&#39;ils sont des &ecirc;tres &agrave; part enti&egrave;re et ont le droit &agrave; une intimit&eacute;. Le partage de photo de mineurs doit &ecirc;tre encadr&eacute;.</p>", 
    "ranking": 172, 
    "sources_count": 0, 
    "votes_ok": 31, 
    "step": {
        "projectId": 3, 
        "id": 11
    }, 
    "link": null, 
    "appendices": [
        {
            "body": null, 
            "type": {
                "title": "Explication de l'article"
            }
        }
    ], 
    "has_user_reported": false, 
    "is_trashed": false, 
    "isContribuable": false, 
    "created_at": "2015-09-30T13:27:31+0200", 
    "title": "Protection des mineurs sur les r\u00e9seaux sociaux", 
    "modals": [], 
    "votes_mitige": 3, 
    "arguments_yes_count": 0, 
    "arguments_no_count": 1, 
    "votes_nok": 2
}