{
    "updated_at": "2015-10-01T14:14:35+0200", 
    "connections": [], 
    "sources": [], 
    "arguments_count": 5, 
    "versions_count": 0, 
    "connections_count": 0, 
    "votes_total": 24, 
    "id": 371, 
    "votes": [
        {
            "user": {
                "username": "Laurent Martin", 
                "displayName": "Laurent Martin", 
                "media": null, 
                "vip": false, 
                "isAdmin": false, 
                "_links": {
                    "profile": "http://www.republique-numerique.fr/profile/laurentmartin", 
                    "settings": "http://www.republique-numerique.fr/profile/edit-profile"
                }, 
                "uniqueId": "laurentmartin"
            }
        }, 
        {
            "user": {
                "username": "Vincent Reverdy", 
                "displayName": "Vincent Reverdy", 
                "media": {
                    "url": "/media/cache/default_avatar/default/0001/01/268_default_avatar.jpg"
                }, 
                "vip": false, 
                "isAdmin": false, 
                "_links": {
                    "profile": "http://www.republique-numerique.fr/profile/vincentreverdy", 
                    "settings": "http://www.republique-numerique.fr/profile/edit-profile"
                }, 
                "uniqueId": "vincentreverdy"
            }
        }, 
        {
            "user": {
                "username": "berger", 
                "displayName": "berger", 
                "media": {
                    "url": "/media/cache/default_avatar/default/0001/01/364_default_avatar.jpg"
                }, 
                "vip": false, 
                "isAdmin": false, 
                "_links": {
                    "profile": "http://www.republique-numerique.fr/profile/berger", 
                    "settings": "http://www.republique-numerique.fr/profile/edit-profile"
                }, 
                "uniqueId": "berger"
            }
        }, 
        {
            "user": {
                "username": "Fran\u00e7ois Briat", 
                "displayName": "Fran\u00e7ois Briat", 
                "media": {
                    "url": "/media/cache/default_avatar/default/0001/01/243_default_avatar.jpg"
                }, 
                "vip": false, 
                "isAdmin": false, 
                "_links": {
                    "profile": "http://www.republique-numerique.fr/profile/francoisbriat", 
                    "settings": "http://www.republique-numerique.fr/profile/edit-profile"
                }, 
                "uniqueId": "francoisbriat"
            }
        }, 
        {
            "user": {
                "username": "Jeanne Varasco", 
                "displayName": "Jeanne Varasco", 
                "media": {
                    "url": "/media/cache/default_avatar/default/0001/01/139_default_avatar.jpg"
                }, 
                "vip": false, 
                "isAdmin": false, 
                "_links": {
                    "profile": "http://www.republique-numerique.fr/profile/jeannevarasco", 
                    "settings": "http://www.republique-numerique.fr/profile/edit-profile"
                }, 
                "uniqueId": "jeannevarasco"
            }
        }
    ], 
    "author": {
        "username": "simonet", 
        "displayName": "simonet", 
        "media": {
            "url": "/media/cache/default_avatar/default/0001/01/356_default_avatar.png"
        }, 
        "vip": false, 
        "isAdmin": false, 
        "_links": {
            "profile": "http://www.republique-numerique.fr/profile/simonet", 
            "settings": "http://www.republique-numerique.fr/profile/edit-profile"
        }, 
        "uniqueId": "simonet"
    }, 
    "user_vote": null, 
    "_links": {
        "edit": "http://www.republique-numerique.fr/projects/projet-de-loi-numerique/consultation/consultation/opinions/section-1-neutralite-de-l-internet/le-libre-dans-les-etablissements-scolaire/edit", 
        "report": "http://www.republique-numerique.fr/consultations/projet-de-loi-numerique/consultation/consultation/opinions/section-1-neutralite-de-l-internet/le-libre-dans-les-etablissements-scolaire/report", 
        "type": "http://www.republique-numerique.fr/projects/projet-de-loi-numerique/consultation/consultation/types/section-1-neutralite-de-l-internet", 
        "show": "http://www.republique-numerique.fr/projects/projet-de-loi-numerique/consultation/consultation/opinions/section-1-neutralite-de-l-internet/le-libre-dans-les-etablissements-scolaire"
    }, 
    "arguments": [
        {
            "body": "Voir ici :\nhttps://www.republique-numerique.fr/consultations/projet-de-loi-numerique/consultation/consultation/opinions/section-2-service-public-de-la-donnee-1/utiliser-les-logiciels-libres-gnu-linux-dans-les-ecoles-et-les-universites", 
            "is_enabled": true, 
            "isContribuable": false, 
            "author": {
                "username": "momb", 
                "displayName": "momb", 
                "media": null, 
                "vip": false, 
                "isAdmin": false, 
                "_links": {
                    "profile": "http://www.republique-numerique.fr/profile/momb", 
                    "settings": "http://www.republique-numerique.fr/profile/edit-profile"
                }, 
                "uniqueId": "momb"
            }, 
            "created_at": "2015-10-17T16:07:47+0200", 
            "updated_at": "2015-10-17T16:07:47+0200", 
            "has_user_reported": false, 
            "votes_count": 0, 
            "has_user_voted": false, 
            "_links": {
                "edit": "http://www.republique-numerique.fr/projects/projet-de-loi-numerique/consultation/consultation/opinions/section-1-neutralite-de-l-internet/le-libre-dans-les-etablissements-scolaire/arguments/5335/edit", 
                "report": "http://www.republique-numerique.fr/consultations/projet-de-loi-numerique/consultation/consultation/opinions/section-1-neutralite-de-l-internet/le-libre-dans-les-etablissements-scolaire/arguments/5335/report", 
                "show": "http://www.republique-numerique.fr/projects/projet-de-loi-numerique/consultation/consultation/opinions/section-1-neutralite-de-l-internet/le-libre-dans-les-etablissements-scolaire#arg-5335"
            }, 
            "type": 1, 
            "id": 5335, 
            "is_trashed": false
        }, 
        {
            "body": "Pour ! Trop d'etablissements, professeurs confondent le B2i avec des cours de secretariat, font utiliser word et excel aux eleves, faute de rien connaitre d'autres ? \nQue le libre soit les seuls logiciels propos\u00e9s dans les etablissements scolaires, qu'ils soient appris aux enfants a contribuer a leur mecanisme, developpement, deja un depart !", 
            "is_enabled": true, 
            "isContribuable": false, 
            "author": {
                "username": "Maltese Nadine", 
                "displayName": "Maltese Nadine", 
                "media": {
                    "url": "/media/cache/default_avatar/default/0001/01/113_default_avatar.png"
                }, 
                "vip": false, 
                "isAdmin": false, 
                "_links": {
                    "profile": "http://www.republique-numerique.fr/profile/maltesenadine", 
                    "settings": "http://www.republique-numerique.fr/profile/edit-profile"
                }, 
                "uniqueId": "maltesenadine"
            }, 
            "created_at": "2015-10-10T18:33:13+0200", 
            "updated_at": "2015-10-10T18:33:13+0200", 
            "has_user_reported": false, 
            "votes_count": 1, 
            "has_user_voted": false, 
            "_links": {
                "edit": "http://www.republique-numerique.fr/projects/projet-de-loi-numerique/consultation/consultation/opinions/section-1-neutralite-de-l-internet/le-libre-dans-les-etablissements-scolaire/arguments/3010/edit", 
                "report": "http://www.republique-numerique.fr/consultations/projet-de-loi-numerique/consultation/consultation/opinions/section-1-neutralite-de-l-internet/le-libre-dans-les-etablissements-scolaire/arguments/3010/report", 
                "show": "http://www.republique-numerique.fr/projects/projet-de-loi-numerique/consultation/consultation/opinions/section-1-neutralite-de-l-internet/le-libre-dans-les-etablissements-scolaire#arg-3010"
            }, 
            "type": 1, 
            "id": 3010, 
            "is_trashed": false
        }, 
        {
            "body": "Pour faire une r\u00e9ponse simple, pour conna\u00eetre les fonctionnalit\u00e9s d'un tableur il faut d\u00e9j\u00e0 apprendre les r\u00e8gles de bases des math\u00e9matiques, pour le reste en primaire les \u00e9l\u00e8ves apprennent \u00e0 faire cela, lire un courrier, envoyer un courrier, faire la diff\u00e9rences entre un courrier officiel et un courrier dit de spam ...", 
            "is_enabled": true, 
            "isContribuable": false, 
            "author": {
                "username": "simonet", 
                "displayName": "simonet", 
                "media": {
                    "url": "/media/cache/default_avatar/default/0001/01/356_default_avatar.png"
                }, 
                "vip": false, 
                "isAdmin": false, 
                "_links": {
                    "profile": "http://www.republique-numerique.fr/profile/simonet", 
                    "settings": "http://www.republique-numerique.fr/profile/edit-profile"
                }, 
                "uniqueId": "simonet"
            }, 
            "created_at": "2015-10-08T10:18:02+0200", 
            "updated_at": "2015-10-08T10:18:02+0200", 
            "has_user_reported": false, 
            "votes_count": 1, 
            "has_user_voted": false, 
            "_links": {
                "edit": "http://www.republique-numerique.fr/projects/projet-de-loi-numerique/consultation/consultation/opinions/section-1-neutralite-de-l-internet/le-libre-dans-les-etablissements-scolaire/arguments/2625/edit", 
                "report": "http://www.republique-numerique.fr/consultations/projet-de-loi-numerique/consultation/consultation/opinions/section-1-neutralite-de-l-internet/le-libre-dans-les-etablissements-scolaire/arguments/2625/report", 
                "show": "http://www.republique-numerique.fr/projects/projet-de-loi-numerique/consultation/consultation/opinions/section-1-neutralite-de-l-internet/le-libre-dans-les-etablissements-scolaire#arg-2625"
            }, 
            "type": 1, 
            "id": 2625, 
            "is_trashed": false
        }, 
        {
            "body": "Sujets d\u00e9j\u00e0 abord\u00e9 de nombreuses fois. Concernant l'apprentissage du code aux \u00e9l\u00e8ves, je suis contre. Concernant l'utilisation de logiciels libres, je suis pour. Savoir maitriser les logiciels de courrier \u00e9lectronique (pi\u00e8ces jointes, tri des courriers automatique), les traitements de texte et leur transformation en pdf (utilisation pour administrations, l'utilisation de tableurs me semblent beaucoup plus importantes (sauf formations sp\u00e9cifiques \u00e0 l'informatique, bien s\u00fbr)", 
            "is_enabled": true, 
            "isContribuable": false, 
            "author": {
                "username": "Jeanne Varasco", 
                "displayName": "Jeanne Varasco", 
                "media": {
                    "url": "/media/cache/default_avatar/default/0001/01/139_default_avatar.jpg"
                }, 
                "vip": false, 
                "isAdmin": false, 
                "_links": {
                    "profile": "http://www.republique-numerique.fr/profile/jeannevarasco", 
                    "settings": "http://www.republique-numerique.fr/profile/edit-profile"
                }, 
                "uniqueId": "jeannevarasco"
            }, 
            "created_at": "2015-10-02T15:54:15+0200", 
            "updated_at": "2015-10-02T15:54:15+0200", 
            "has_user_reported": false, 
            "votes_count": 1, 
            "has_user_voted": false, 
            "_links": {
                "edit": "http://www.republique-numerique.fr/projects/projet-de-loi-numerique/consultation/consultation/opinions/section-1-neutralite-de-l-internet/le-libre-dans-les-etablissements-scolaire/arguments/2012/edit", 
                "report": "http://www.republique-numerique.fr/consultations/projet-de-loi-numerique/consultation/consultation/opinions/section-1-neutralite-de-l-internet/le-libre-dans-les-etablissements-scolaire/arguments/2012/report", 
                "show": "http://www.republique-numerique.fr/projects/projet-de-loi-numerique/consultation/consultation/opinions/section-1-neutralite-de-l-internet/le-libre-dans-les-etablissements-scolaire#arg-2012"
            }, 
            "type": 0, 
            "id": 2012, 
            "is_trashed": false
        }, 
        {
            "body": "Cette section est consacr\u00e9e \u00e0 la neutralit\u00e9 du Net.", 
            "is_enabled": true, 
            "isContribuable": false, 
            "author": {
                "username": "Laurent Martin", 
                "displayName": "Laurent Martin", 
                "media": null, 
                "vip": false, 
                "isAdmin": false, 
                "_links": {
                    "profile": "http://www.republique-numerique.fr/profile/laurentmartin", 
                    "settings": "http://www.republique-numerique.fr/profile/edit-profile"
                }, 
                "uniqueId": "laurentmartin"
            }, 
            "created_at": "2015-10-01T14:22:05+0200", 
            "updated_at": "2015-10-01T14:22:05+0200", 
            "has_user_reported": false, 
            "votes_count": 2, 
            "has_user_voted": false, 
            "_links": {
                "edit": "http://www.republique-numerique.fr/projects/projet-de-loi-numerique/consultation/consultation/opinions/section-1-neutralite-de-l-internet/le-libre-dans-les-etablissements-scolaire/arguments/1861/edit", 
                "report": "http://www.republique-numerique.fr/consultations/projet-de-loi-numerique/consultation/consultation/opinions/section-1-neutralite-de-l-internet/le-libre-dans-les-etablissements-scolaire/arguments/1861/report", 
                "show": "http://www.republique-numerique.fr/projects/projet-de-loi-numerique/consultation/consultation/opinions/section-1-neutralite-de-l-internet/le-libre-dans-les-etablissements-scolaire#arg-1861"
            }, 
            "type": 0, 
            "id": 1861, 
            "is_trashed": false
        }
    ], 
    "answer": null, 
    "type": {
        "votesThresholdHelpText": null, 
        "subtitle": "Neutralit\u00e9 de l\u2019internet", 
        "votesThreshold": null, 
        "votesHelpText": "Pensez-vous que cette proposition permet d'atteindre les objectifs pr\u00e9sent\u00e9s dans l\u2019explication de l\u2019article ?", 
        "title": "Section 1", 
        "color": "blue", 
        "commentSystem": 2, 
        "voteWidgetType": 2, 
        "sourceable": true, 
        "linkable": false, 
        "versionable": true, 
        "id": 94
    }, 
    "body": "<p>L&#39;informatique&nbsp;libre dans les &eacute;tablissements scolaires repr&eacute;senterais un avantage &eacute;conomique culturel et pourrait servir de base &agrave; une &eacute;ducation du&nbsp;respect des licences propri&eacute;taires. Montrer &agrave; nos enfants que le piratage de logiciels ne sert &agrave; rien, puisque il existe en g&eacute;n&eacute;ral la m&ecirc;me &nbsp;chose en logiciel libre et gratuit.</p>\r\n\r\n<p>La libert&eacute;&nbsp;d&#39;utiliser &agrave; l&#39;&eacute;cole ou &agrave; la maison le m&ecirc;me logiciel, donc reprendre les travaux de l&#39;&eacute;cole &agrave; la maison sans surco&ucirc;t pour les familles.</p>\r\n\r\n<p>Beaucoup d&#39;&eacute;l&egrave;ves poss&egrave;dent&nbsp;un don pour la programmation, ils sont fascin&eacute;s par les ordinateurs et enthousiastes &agrave; l&#39;id&eacute;e d&#39;apprendre comment leurs syst&egrave;mes fonctionnent.&nbsp;</p>\r\n\r\n<p>Avec le logiciel priv&eacute;&nbsp;cette information est un secret, donc les enseignants ne peuvent d&#39;aucune fa&ccedil;on la rendre accessible &agrave; leurs &eacute;l&egrave;ves. Mais s&#39;il s&#39;agit de logiciel libre, le professeur peut expliquer les bases, puis leur donner le code source pour qu&#39;ils le lisent et s&#39;instruisent.</p>\r\n\r\n<p>Les professeurs peuvent distribuer &agrave; leurs &eacute;l&egrave;ves des copies des programmes qu&#39;ils utilisent en classe pour qu&#39;ils s&#39;en servent chez eux. Avec le logiciel libre, la copie est non seulement autoris&eacute;e, mais encourag&eacute;e.</p>\r\n\r\n<p>Pour ma part j&#39;h&eacute;berge depuis 15 &agrave; 16 ans des centaines d&#39;&eacute;tablissements scolaires du premier et second degr&eacute;s sur une plate compl&egrave;te en open source serveur de virtualisation, cms, logiciel d&#39;apprentissage a distance, logiciel sp&eacute;cifique &eacute;ducation nationale mais libre, serveur de messagerie, serveur de listes, serveur vid&eacute;o, radio etc... tous les produits sont open source et cette plate-forme fonctionne parfaitement depuis de tr&egrave;s nombreuses ann&eacute;es.</p>\r\n\r\n<p>Je pense que pour la fonction publique faire et travailler avec de l&#39;open source n&#39;a que des avantages.</p>\r\n\r\n<p>Savoir partager, ind&eacute;pendance vis &agrave; vis des logiciels propri&eacute;taire, une responsabilit&eacute; sociale par rapport aux contribuables, apprendre un ma&icirc;tre mot, &Eacute;conomique &eacute;videment pas de frais de licences, et tr&egrave;s souvent des produits de&nbsp;tr&egrave;s bonne qualit&eacute;.</p>\r\n\r\n<p>&nbsp;</p>", 
    "ranking": 270, 
    "sources_count": 0, 
    "votes_ok": 14, 
    "step": {
        "projectId": 3, 
        "id": 11
    }, 
    "link": null, 
    "appendices": [
        {
            "body": "<p>Maitrise des co&ucirc;ts et choix de l&#39;envirronement informatique au saint de la fonction publique educative</p>", 
            "type": {
                "title": "Explication de l'article"
            }
        }
    ], 
    "has_user_reported": false, 
    "is_trashed": false, 
    "isContribuable": false, 
    "created_at": "2015-10-01T14:14:35+0200", 
    "title": "Le libre dans les Etablissements scolaire", 
    "modals": [], 
    "votes_mitige": 7, 
    "arguments_yes_count": 3, 
    "arguments_no_count": 2, 
    "votes_nok": 3
}