{
    "updated_at": "2015-10-01T14:50:47+0200", 
    "connections": [], 
    "sources": [], 
    "arguments_count": 2, 
    "versions_count": 0, 
    "connections_count": 0, 
    "votes_total": 18, 
    "id": 373, 
    "votes": [
        {
            "user": {
                "username": "Chantal Edouard", 
                "displayName": "Chantal Edouard", 
                "media": null, 
                "vip": false, 
                "isAdmin": false, 
                "_links": {
                    "profile": "http://www.republique-numerique.fr/profile/chantaledouard", 
                    "settings": "http://www.republique-numerique.fr/profile/edit-profile"
                }, 
                "uniqueId": "chantaledouard"
            }
        }, 
        {
            "user": {
                "username": "Fran\u00e7ois Briat", 
                "displayName": "Fran\u00e7ois Briat", 
                "media": {
                    "url": "/media/cache/default_avatar/default/0001/01/243_default_avatar.jpg"
                }, 
                "vip": false, 
                "isAdmin": false, 
                "_links": {
                    "profile": "http://www.republique-numerique.fr/profile/francoisbriat", 
                    "settings": "http://www.republique-numerique.fr/profile/edit-profile"
                }, 
                "uniqueId": "francoisbriat"
            }
        }, 
        {
            "user": {
                "username": "St\u00e9phane Auclair", 
                "displayName": "St\u00e9phane Auclair", 
                "media": null, 
                "vip": false, 
                "isAdmin": false, 
                "_links": {
                    "profile": "http://www.republique-numerique.fr/profile/stephaneauclair1", 
                    "settings": "http://www.republique-numerique.fr/profile/edit-profile"
                }, 
                "uniqueId": "stephaneauclair1"
            }
        }, 
        {
            "user": {
                "username": "Jeanne Varasco", 
                "displayName": "Jeanne Varasco", 
                "media": {
                    "url": "/media/cache/default_avatar/default/0001/01/139_default_avatar.jpg"
                }, 
                "vip": false, 
                "isAdmin": false, 
                "_links": {
                    "profile": "http://www.republique-numerique.fr/profile/jeannevarasco", 
                    "settings": "http://www.republique-numerique.fr/profile/edit-profile"
                }, 
                "uniqueId": "jeannevarasco"
            }
        }, 
        {
            "user": {
                "username": "Hugo Mathieu", 
                "displayName": "Hugo Mathieu", 
                "media": null, 
                "vip": false, 
                "isAdmin": false, 
                "_links": {
                    "profile": "http://www.republique-numerique.fr/profile/hugomathieu", 
                    "settings": "http://www.republique-numerique.fr/profile/edit-profile"
                }, 
                "uniqueId": "hugomathieu"
            }
        }
    ], 
    "author": {
        "username": "Chantal Edouard", 
        "displayName": "Chantal Edouard", 
        "media": null, 
        "vip": false, 
        "isAdmin": false, 
        "_links": {
            "profile": "http://www.republique-numerique.fr/profile/chantaledouard", 
            "settings": "http://www.republique-numerique.fr/profile/edit-profile"
        }, 
        "uniqueId": "chantaledouard"
    }, 
    "user_vote": null, 
    "_links": {
        "edit": "http://www.republique-numerique.fr/projects/projet-de-loi-numerique/consultation/consultation/opinions/section-1-ouverture-des-donnees-publiques-1/creation-d-un-service-numerique-gratuit-pour-les-webmestres-des-mairies/edit", 
        "report": "http://www.republique-numerique.fr/consultations/projet-de-loi-numerique/consultation/consultation/opinions/section-1-ouverture-des-donnees-publiques-1/creation-d-un-service-numerique-gratuit-pour-les-webmestres-des-mairies/report", 
        "type": "http://www.republique-numerique.fr/projects/projet-de-loi-numerique/consultation/consultation/types/section-1-ouverture-des-donnees-publiques-1", 
        "show": "http://www.republique-numerique.fr/projects/projet-de-loi-numerique/consultation/consultation/opinions/section-1-ouverture-des-donnees-publiques-1/creation-d-un-service-numerique-gratuit-pour-les-webmestres-des-mairies"
    }, 
    "arguments": [
        {
            "body": "C'est une id\u00e9e int\u00e9ressante, alors pourquoi la brider? <br>\n<br>\nD'une part on peut l'ouvrir \u00e0 un domaine plus large qu'un espace d'\u00e9change avec les administr\u00e9s: mettre \u00e0 disposition des mairies un site/des logiciels proposant les fonctionnalit\u00e9s demand\u00e9es par une majorit\u00e9 de mairies, allant du classique site web \u00e9quip\u00e9 du blog, des dates de collecte des encombrants, des informations sur les \u00e9coles, ... au logiciel de gestion de la liste \u00e9lectorale.<br>\n<br>\nD'autre part, un tel dispositif pourrait concerner d'autres collectivit\u00e9s que les mairies: conseils r\u00e9gionaux, g\u00e9n\u00e9raux, ... <br>\n<br>\nUn tel syst\u00e8me pourrait \u00eatre chapeaut\u00e9 par une entit\u00e9 au sein de l'\u00e9tat charg\u00e9e de recueillir les besoins des organismes pour lesquels elle doit d\u00e9velopper tel ou tel produit, pour ensuite les faire r\u00e9aliser sous forme d'appel d'offre ou bien m\u00eame par des startups d'\u00e9tat... ", 
            "is_enabled": true, 
            "isContribuable": false, 
            "author": {
                "username": "Gami", 
                "displayName": "Gami", 
                "media": null, 
                "vip": false, 
                "isAdmin": false, 
                "_links": {
                    "profile": "http://www.republique-numerique.fr/profile/gami", 
                    "settings": "http://www.republique-numerique.fr/profile/edit-profile"
                }, 
                "uniqueId": "gami"
            }, 
            "created_at": "2015-10-17T22:20:22+0200", 
            "updated_at": "2015-10-17T22:20:22+0200", 
            "has_user_reported": false, 
            "votes_count": 0, 
            "has_user_voted": false, 
            "_links": {
                "edit": "http://www.republique-numerique.fr/projects/projet-de-loi-numerique/consultation/consultation/opinions/section-1-ouverture-des-donnees-publiques-1/creation-d-un-service-numerique-gratuit-pour-les-webmestres-des-mairies/arguments/5590/edit", 
                "report": "http://www.republique-numerique.fr/consultations/projet-de-loi-numerique/consultation/consultation/opinions/section-1-ouverture-des-donnees-publiques-1/creation-d-un-service-numerique-gratuit-pour-les-webmestres-des-mairies/arguments/5590/report", 
                "show": "http://www.republique-numerique.fr/projects/projet-de-loi-numerique/consultation/consultation/opinions/section-1-ouverture-des-donnees-publiques-1/creation-d-un-service-numerique-gratuit-pour-les-webmestres-des-mairies#arg-5590"
            }, 
            "type": 1, 
            "id": 5590, 
            "is_trashed": false
        }, 
        {
            "body": "Article un peu flou: s'agit-il d'un espace d'\u00e9changes d'outils et de bonnes pratiques entre webmestres de mairies, donc un site d\u00e9di\u00e9 \u00e0 une profession bien cibl\u00e9e? d'un outil propos\u00e9 par l'\u00e9tat aux mairies pour fluidifier les \u00e9changes entre l'organisme et ses administr\u00e9s?<br>\r\n<br>\r\nDans le second cas (je vais supposer que c'est de \u00e7a qu'il s'agit), on a effectivement une id\u00e9e int\u00e9ressante: <br>\r\n- pour faire des \u00e9conomies d'\u00e9chelle: si c'est fait une fois par l'\u00e9tat plut\u00f4t que par 36000 mairies chacune dans son coin<br>\r\n- pour r\u00e9duire la fracture num\u00e9rique: les mairies de campagnes seraient convenablement \u00e9quip\u00e9es num\u00e9riquement (un miracle que j'arrive \u00e0 peine \u00e0 concevoir), un premier pas pour inciter une partie des m\u00e9nages de campagnes \u00e0 s'\u00e9quiper (ce n'est pas que de la faute des FAI si les campagnes n'ont pas internet)", 
            "is_enabled": true, 
            "isContribuable": false, 
            "author": {
                "username": "Gami", 
                "displayName": "Gami", 
                "media": null, 
                "vip": false, 
                "isAdmin": false, 
                "_links": {
                    "profile": "http://www.republique-numerique.fr/profile/gami", 
                    "settings": "http://www.republique-numerique.fr/profile/edit-profile"
                }, 
                "uniqueId": "gami"
            }, 
            "created_at": "2015-10-17T21:59:12+0200", 
            "updated_at": "2015-10-17T22:02:10+0200", 
            "has_user_reported": false, 
            "votes_count": 0, 
            "has_user_voted": false, 
            "_links": {
                "edit": "http://www.republique-numerique.fr/projects/projet-de-loi-numerique/consultation/consultation/opinions/section-1-ouverture-des-donnees-publiques-1/creation-d-un-service-numerique-gratuit-pour-les-webmestres-des-mairies/arguments/5572/edit", 
                "report": "http://www.republique-numerique.fr/consultations/projet-de-loi-numerique/consultation/consultation/opinions/section-1-ouverture-des-donnees-publiques-1/creation-d-un-service-numerique-gratuit-pour-les-webmestres-des-mairies/arguments/5572/report", 
                "show": "http://www.republique-numerique.fr/projects/projet-de-loi-numerique/consultation/consultation/opinions/section-1-ouverture-des-donnees-publiques-1/creation-d-un-service-numerique-gratuit-pour-les-webmestres-des-mairies#arg-5572"
            }, 
            "type": 1, 
            "id": 5572, 
            "is_trashed": false
        }
    ], 
    "answer": null, 
    "type": {
        "votesThresholdHelpText": null, 
        "subtitle": "Ouverture des donn\u00e9es publiques", 
        "votesThreshold": null, 
        "votesHelpText": "Pensez-vous que cette proposition permet d'atteindre les objectifs pr\u00e9sent\u00e9s dans l\u2019explication de l\u2019article ?", 
        "title": "Section 1", 
        "color": "blue", 
        "commentSystem": 2, 
        "voteWidgetType": 2, 
        "sourceable": true, 
        "linkable": false, 
        "versionable": true, 
        "id": 86
    }, 
    "body": "<p>Espace d&#39;&eacute;changes pour mieux oeuvrer pour le d&eacute;veloppement du num&eacute;rique des sites internet des villes.</p>", 
    "ranking": 298, 
    "sources_count": 0, 
    "votes_ok": 12, 
    "step": {
        "projectId": 3, 
        "id": 11
    }, 
    "link": null, 
    "appendices": [
        {
            "body": null, 
            "type": {
                "title": "Explication de l'article"
            }
        }
    ], 
    "has_user_reported": false, 
    "is_trashed": false, 
    "isContribuable": false, 
    "created_at": "2015-10-01T14:50:47+0200", 
    "title": "Cr\u00e9ation d'un service num\u00e9rique gratuit pour les webmestres des Mairies", 
    "modals": [], 
    "votes_mitige": 2, 
    "arguments_yes_count": 2, 
    "arguments_no_count": 0, 
    "votes_nok": 4
}