{
    "updated_at": "2015-10-01T20:45:24+0200", 
    "connections": [], 
    "sources": [], 
    "arguments_count": 1, 
    "versions_count": 0, 
    "connections_count": 0, 
    "votes_total": 6, 
    "id": 383, 
    "votes": [
        {
            "user": {
                "username": "Fran\u00e7ois Briat", 
                "displayName": "Fran\u00e7ois Briat", 
                "media": {
                    "url": "/media/cache/default_avatar/default/0001/01/243_default_avatar.jpg"
                }, 
                "vip": false, 
                "isAdmin": false, 
                "_links": {
                    "profile": "http://www.republique-numerique.fr/profile/francoisbriat", 
                    "settings": "http://www.republique-numerique.fr/profile/edit-profile"
                }, 
                "uniqueId": "francoisbriat"
            }
        }, 
        {
            "user": {
                "username": "Jeanne Varasco", 
                "displayName": "Jeanne Varasco", 
                "media": {
                    "url": "/media/cache/default_avatar/default/0001/01/139_default_avatar.jpg"
                }, 
                "vip": false, 
                "isAdmin": false, 
                "_links": {
                    "profile": "http://www.republique-numerique.fr/profile/jeannevarasco", 
                    "settings": "http://www.republique-numerique.fr/profile/edit-profile"
                }, 
                "uniqueId": "jeannevarasco"
            }
        }, 
        {
            "user": {
                "username": "Vincent Reverdy", 
                "displayName": "Vincent Reverdy", 
                "media": {
                    "url": "/media/cache/default_avatar/default/0001/01/268_default_avatar.jpg"
                }, 
                "vip": false, 
                "isAdmin": false, 
                "_links": {
                    "profile": "http://www.republique-numerique.fr/profile/vincentreverdy", 
                    "settings": "http://www.republique-numerique.fr/profile/edit-profile"
                }, 
                "uniqueId": "vincentreverdy"
            }
        }, 
        {
            "user": {
                "username": "Emilien", 
                "displayName": "Emilien", 
                "media": null, 
                "vip": false, 
                "isAdmin": false, 
                "_links": {
                    "profile": "http://www.republique-numerique.fr/profile/emilien", 
                    "settings": "http://www.republique-numerique.fr/profile/edit-profile"
                }, 
                "uniqueId": "emilien"
            }
        }, 
        {
            "user": {
                "username": "Christophe Pi.", 
                "displayName": "Christophe Pi.", 
                "media": null, 
                "vip": false, 
                "isAdmin": false, 
                "_links": {
                    "profile": "http://www.republique-numerique.fr/profile/christophepi", 
                    "settings": "http://www.republique-numerique.fr/profile/edit-profile"
                }, 
                "uniqueId": "christophepi"
            }
        }
    ], 
    "author": {
        "username": "cauvin", 
        "displayName": "cauvin", 
        "media": null, 
        "vip": false, 
        "isAdmin": false, 
        "_links": {
            "profile": "http://www.republique-numerique.fr/profile/cauvin", 
            "settings": "http://www.republique-numerique.fr/profile/edit-profile"
        }, 
        "uniqueId": "cauvin"
    }, 
    "user_vote": null, 
    "_links": {
        "edit": "http://www.republique-numerique.fr/projects/projet-de-loi-numerique/consultation/consultation/opinions/section-1-protection-des-donnees-a-caractere-personnel/protection-de-la-vie-privee-en-ligne-non-protection-des-libertes-en-ligne/edit", 
        "report": "http://www.republique-numerique.fr/consultations/projet-de-loi-numerique/consultation/consultation/opinions/section-1-protection-des-donnees-a-caractere-personnel/protection-de-la-vie-privee-en-ligne-non-protection-des-libertes-en-ligne/report", 
        "type": "http://www.republique-numerique.fr/projects/projet-de-loi-numerique/consultation/consultation/types/section-1-protection-des-donnees-a-caractere-personnel", 
        "show": "http://www.republique-numerique.fr/projects/projet-de-loi-numerique/consultation/consultation/opinions/section-1-protection-des-donnees-a-caractere-personnel/protection-de-la-vie-privee-en-ligne-non-protection-des-libertes-en-ligne"
    }, 
    "arguments": [
        {
            "body": "La notion de \"vie priv\u00e9e\" a en effet \u00e9volu\u00e9 avec internet. Mais je maintiens le terme de protection de la \"vie priv\u00e9e\" qui correspond \u00e0 la protection des donn\u00e9es personnelles vis \u00e0 vis de tout internaute. La localisation des donn\u00e9es ne doit pas \u00eatre dissimul\u00e9e \u00e0 ceux qui en ont besoin mais \u00e0 l'internaute lambda qui peut nous vouloir du mal ou tout simplement qui n'a pas \u00e0 connaitre notre vie priv\u00e9e. En cela, l'utilisation d'un pseudo peut s'av\u00e9rer tr\u00e8s efficace contre l'intrusion dans la vie priv\u00e9e. Les libert\u00e9s sont d'un tout autre registre. ", 
            "is_enabled": true, 
            "isContribuable": false, 
            "author": {
                "username": "Jeanne Varasco", 
                "displayName": "Jeanne Varasco", 
                "media": {
                    "url": "/media/cache/default_avatar/default/0001/01/139_default_avatar.jpg"
                }, 
                "vip": false, 
                "isAdmin": false, 
                "_links": {
                    "profile": "http://www.republique-numerique.fr/profile/jeannevarasco", 
                    "settings": "http://www.republique-numerique.fr/profile/edit-profile"
                }, 
                "uniqueId": "jeannevarasco"
            }, 
            "created_at": "2015-10-03T15:42:59+0200", 
            "updated_at": "2015-10-03T15:42:59+0200", 
            "has_user_reported": false, 
            "votes_count": 1, 
            "has_user_voted": false, 
            "_links": {
                "edit": "http://www.republique-numerique.fr/projects/projet-de-loi-numerique/consultation/consultation/opinions/section-1-protection-des-donnees-a-caractere-personnel/protection-de-la-vie-privee-en-ligne-non-protection-des-libertes-en-ligne/arguments/2104/edit", 
                "report": "http://www.republique-numerique.fr/consultations/projet-de-loi-numerique/consultation/consultation/opinions/section-1-protection-des-donnees-a-caractere-personnel/protection-de-la-vie-privee-en-ligne-non-protection-des-libertes-en-ligne/arguments/2104/report", 
                "show": "http://www.republique-numerique.fr/projects/projet-de-loi-numerique/consultation/consultation/opinions/section-1-protection-des-donnees-a-caractere-personnel/protection-de-la-vie-privee-en-ligne-non-protection-des-libertes-en-ligne#arg-2104"
            }, 
            "type": 0, 
            "id": 2104, 
            "is_trashed": false
        }
    ], 
    "answer": null, 
    "type": {
        "votesThresholdHelpText": null, 
        "subtitle": "Protection des donn\u00e9es \u00e0 caract\u00e8re personnel", 
        "votesThreshold": null, 
        "votesHelpText": "Pensez-vous que cette proposition permet d'atteindre les objectifs pr\u00e9sent\u00e9s dans l\u2019explication de l\u2019article ?", 
        "title": "Section 1", 
        "color": "blue", 
        "commentSystem": 2, 
        "voteWidgetType": 2, 
        "sourceable": true, 
        "linkable": false, 
        "versionable": true, 
        "id": 99
    }, 
    "body": "<p>Le titre du chapitre n&#39;est pas pertinent.</p>\r\n\r\n<p>je propose en remplacement:</p>\r\n\r\n<p>Protection des libert&eacute;s en ligne, ou</p>\r\n\r\n<p>Protection du consentement individuel en ligne</p>", 
    "ranking": 506, 
    "sources_count": 0, 
    "votes_ok": 3, 
    "step": {
        "projectId": 3, 
        "id": 11
    }, 
    "link": null, 
    "appendices": [
        {
            "body": "<p>Le titre re-introduit l&#39;id&eacute;e d&#39;une vie priv&eacute;e en ligne : ce qui est trompeur.</p>\r\n\r\n<p>Notre vie priv&eacute;e, ou ce qu&rsquo;il en reste, ne peut &ecirc;tre que <em>d&eacute;connect&eacute;e</em>. Tout ce que nous versons dans l&#39;univers num&eacute;rique perd instantan&eacute;ment son caract&egrave;re priv&eacute;.</p>\r\n\r\n<p>D&eacute;monstration:</p>\r\n\r\n<p><a _src=\"http://blogs.rue89.nouvelobs.com/nouveau-monde/2015/09/22/la-vie-privee-sur-internet-expliquee-par-secret-story-234978\" class=\"external-link\" href=\"http://blogs.rue89.nouvelobs.com/nouveau-monde/2015/09/22/la-vie-privee-sur-internet-expliquee-par-secret-story-234978\">http://blogs.rue89.nouvelobs.com/nouveau-monde/2015/09/22/la-vie-privee-sur-internet-expliquee-par-secret-story-234978</a></p>\r\n\r\n<p>Le titre de ce chapitre entretient la confusion, ce qui est regrettable.</p>\r\n\r\n<p>&nbsp;</p>", 
            "type": {
                "title": "Explication de l'article"
            }
        }
    ], 
    "has_user_reported": false, 
    "is_trashed": false, 
    "isContribuable": false, 
    "created_at": "2015-10-01T20:45:24+0200", 
    "title": "Protection de la \"vie priv\u00e9e\" en ligne : NON -> Protection des libert\u00e9s en ligne", 
    "modals": [], 
    "votes_mitige": 1, 
    "arguments_yes_count": 0, 
    "arguments_no_count": 1, 
    "votes_nok": 2
}