{
    "updated_at": "2015-10-02T18:22:37+0200", 
    "connections": [], 
    "sources": [], 
    "arguments_count": 1, 
    "versions_count": 0, 
    "connections_count": 0, 
    "votes_total": 41, 
    "id": 396, 
    "votes": [
        {
            "user": {
                "username": "Jeanne Varasco", 
                "displayName": "Jeanne Varasco", 
                "media": {
                    "url": "/media/cache/default_avatar/default/0001/01/139_default_avatar.jpg"
                }, 
                "vip": false, 
                "isAdmin": false, 
                "_links": {
                    "profile": "http://www.republique-numerique.fr/profile/jeannevarasco", 
                    "settings": "http://www.republique-numerique.fr/profile/edit-profile"
                }, 
                "uniqueId": "jeannevarasco"
            }
        }, 
        {
            "user": {
                "username": "Hugo Mathieu", 
                "displayName": "Hugo Mathieu", 
                "media": null, 
                "vip": false, 
                "isAdmin": false, 
                "_links": {
                    "profile": "http://www.republique-numerique.fr/profile/hugomathieu", 
                    "settings": "http://www.republique-numerique.fr/profile/edit-profile"
                }, 
                "uniqueId": "hugomathieu"
            }
        }, 
        {
            "user": {
                "username": "Laurent Espitallier", 
                "displayName": "Laurent Espitallier", 
                "media": null, 
                "vip": false, 
                "isAdmin": false, 
                "_links": {
                    "profile": "http://www.republique-numerique.fr/profile/laurentespitallier", 
                    "settings": "http://www.republique-numerique.fr/profile/edit-profile"
                }, 
                "uniqueId": "laurentespitallier"
            }
        }, 
        {
            "user": {
                "username": "Richard Renaut", 
                "displayName": "Richard Renaut", 
                "media": null, 
                "vip": false, 
                "isAdmin": false, 
                "_links": {
                    "profile": "http://www.republique-numerique.fr/profile/richardrenaut", 
                    "settings": "http://www.republique-numerique.fr/profile/edit-profile"
                }, 
                "uniqueId": "richardrenaut"
            }
        }, 
        {
            "user": {
                "username": "Fran\u00e7ois Briat", 
                "displayName": "Fran\u00e7ois Briat", 
                "media": {
                    "url": "/media/cache/default_avatar/default/0001/01/243_default_avatar.jpg"
                }, 
                "vip": false, 
                "isAdmin": false, 
                "_links": {
                    "profile": "http://www.republique-numerique.fr/profile/francoisbriat", 
                    "settings": "http://www.republique-numerique.fr/profile/edit-profile"
                }, 
                "uniqueId": "francoisbriat"
            }
        }
    ], 
    "author": {
        "username": "Blandine Marcelin", 
        "displayName": "Blandine Marcelin", 
        "media": null, 
        "vip": false, 
        "isAdmin": false, 
        "_links": {
            "profile": "http://www.republique-numerique.fr/profile/blandinemarcelin", 
            "settings": "http://www.republique-numerique.fr/profile/edit-profile"
        }, 
        "uniqueId": "blandinemarcelin"
    }, 
    "user_vote": null, 
    "_links": {
        "edit": "http://www.republique-numerique.fr/projects/projet-de-loi-numerique/consultation/consultation/opinions/section-1-ouverture-des-donnees-publiques-1/open-source/edit", 
        "report": "http://www.republique-numerique.fr/consultations/projet-de-loi-numerique/consultation/consultation/opinions/section-1-ouverture-des-donnees-publiques-1/open-source/report", 
        "type": "http://www.republique-numerique.fr/projects/projet-de-loi-numerique/consultation/consultation/types/section-1-ouverture-des-donnees-publiques-1", 
        "show": "http://www.republique-numerique.fr/projects/projet-de-loi-numerique/consultation/consultation/opinions/section-1-ouverture-des-donnees-publiques-1/open-source"
    }, 
    "arguments": [
        {
            "body": " Voir plus bas, doublon a \u00e9t\u00e9 de nombreuses fois cit\u00e9.", 
            "is_enabled": true, 
            "isContribuable": false, 
            "author": {
                "username": "Jeanne Varasco", 
                "displayName": "Jeanne Varasco", 
                "media": {
                    "url": "/media/cache/default_avatar/default/0001/01/139_default_avatar.jpg"
                }, 
                "vip": false, 
                "isAdmin": false, 
                "_links": {
                    "profile": "http://www.republique-numerique.fr/profile/jeannevarasco", 
                    "settings": "http://www.republique-numerique.fr/profile/edit-profile"
                }, 
                "uniqueId": "jeannevarasco"
            }, 
            "created_at": "2015-10-03T18:07:47+0200", 
            "updated_at": "2015-10-03T18:07:47+0200", 
            "has_user_reported": false, 
            "votes_count": 1, 
            "has_user_voted": false, 
            "_links": {
                "edit": "http://www.republique-numerique.fr/projects/projet-de-loi-numerique/consultation/consultation/opinions/section-1-ouverture-des-donnees-publiques-1/open-source/arguments/2127/edit", 
                "report": "http://www.republique-numerique.fr/consultations/projet-de-loi-numerique/consultation/consultation/opinions/section-1-ouverture-des-donnees-publiques-1/open-source/arguments/2127/report", 
                "show": "http://www.republique-numerique.fr/projects/projet-de-loi-numerique/consultation/consultation/opinions/section-1-ouverture-des-donnees-publiques-1/open-source#arg-2127"
            }, 
            "type": 0, 
            "id": 2127, 
            "is_trashed": false
        }
    ], 
    "answer": null, 
    "type": {
        "votesThresholdHelpText": null, 
        "subtitle": "Ouverture des donn\u00e9es publiques", 
        "votesThreshold": null, 
        "votesHelpText": "Pensez-vous que cette proposition permet d'atteindre les objectifs pr\u00e9sent\u00e9s dans l\u2019explication de l\u2019article ?", 
        "title": "Section 1", 
        "color": "blue", 
        "commentSystem": 2, 
        "voteWidgetType": 2, 
        "sourceable": true, 
        "linkable": false, 
        "versionable": true, 
        "id": 86
    }, 
    "body": "<p>Toute donnees puliees doivent utiliser des platformes OpenSource</p>", 
    "ranking": 167, 
    "sources_count": 0, 
    "votes_ok": 36, 
    "step": {
        "projectId": 3, 
        "id": 11
    }, 
    "link": null, 
    "appendices": [
        {
            "body": "<p>Le partage des donnees sur plateformes numeriques doit se faire sur des plateformes ouvertes permettant un libre echange non couteux aux exploitants de ces donnees.</p>\r\n\r\n<p>&nbsp;</p>", 
            "type": {
                "title": "Explication de l'article"
            }
        }
    ], 
    "has_user_reported": false, 
    "is_trashed": false, 
    "isContribuable": false, 
    "created_at": "2015-10-02T18:22:37+0200", 
    "title": "Open source", 
    "modals": [], 
    "votes_mitige": 2, 
    "arguments_yes_count": 0, 
    "arguments_no_count": 1, 
    "votes_nok": 3
}