{
    "updated_at": "2015-10-03T22:01:01+0200", 
    "connections": [], 
    "sources": [], 
    "arguments_count": 1, 
    "versions_count": 0, 
    "connections_count": 0, 
    "votes_total": 5, 
    "id": 397, 
    "votes": [
        {
            "user": {
                "username": "Hugo Mathieu", 
                "displayName": "Hugo Mathieu", 
                "media": null, 
                "vip": false, 
                "isAdmin": false, 
                "_links": {
                    "profile": "http://www.republique-numerique.fr/profile/hugomathieu", 
                    "settings": "http://www.republique-numerique.fr/profile/edit-profile"
                }, 
                "uniqueId": "hugomathieu"
            }
        }, 
        {
            "user": {
                "username": "Quentin Grimaud", 
                "displayName": "Quentin Grimaud", 
                "media": null, 
                "vip": false, 
                "isAdmin": false, 
                "_links": {
                    "profile": "http://www.republique-numerique.fr/profile/quentingrimaud", 
                    "settings": "http://www.republique-numerique.fr/profile/edit-profile"
                }, 
                "uniqueId": "quentingrimaud"
            }
        }, 
        {
            "user": {
                "username": "Eric Legoubin", 
                "displayName": "Eric Legoubin", 
                "media": null, 
                "vip": false, 
                "isAdmin": false, 
                "_links": {
                    "profile": "http://www.republique-numerique.fr/profile/ericlegoubin", 
                    "settings": "http://www.republique-numerique.fr/profile/edit-profile"
                }, 
                "uniqueId": "ericlegoubin"
            }
        }, 
        {
            "user": {
                "username": "Emilien", 
                "displayName": "Emilien", 
                "media": null, 
                "vip": false, 
                "isAdmin": false, 
                "_links": {
                    "profile": "http://www.republique-numerique.fr/profile/emilien", 
                    "settings": "http://www.republique-numerique.fr/profile/edit-profile"
                }, 
                "uniqueId": "emilien"
            }
        }, 
        {
            "user": {
                "username": "Tan\u00e9l\u00e9o", 
                "displayName": "Tan\u00e9l\u00e9o", 
                "media": null, 
                "vip": false, 
                "isAdmin": false, 
                "_links": {
                    "profile": "http://www.republique-numerique.fr/profile/taneleo", 
                    "settings": "http://www.republique-numerique.fr/profile/edit-profile"
                }, 
                "uniqueId": "taneleo"
            }
        }
    ], 
    "author": {
        "username": "jerome", 
        "displayName": "jerome", 
        "media": null, 
        "vip": false, 
        "isAdmin": false, 
        "_links": {
            "profile": "http://www.republique-numerique.fr/profile/jerome2", 
            "settings": "http://www.republique-numerique.fr/profile/edit-profile"
        }, 
        "uniqueId": "jerome2"
    }, 
    "user_vote": null, 
    "_links": {
        "edit": "http://www.republique-numerique.fr/projects/projet-de-loi-numerique/consultation/consultation/opinions/section-2-travaux-de-recherche-et-de-statistique/democratie-semi-directe/edit", 
        "report": "http://www.republique-numerique.fr/consultations/projet-de-loi-numerique/consultation/consultation/opinions/section-2-travaux-de-recherche-et-de-statistique/democratie-semi-directe/report", 
        "type": "http://www.republique-numerique.fr/projects/projet-de-loi-numerique/consultation/consultation/types/section-2-travaux-de-recherche-et-de-statistique", 
        "show": "http://www.republique-numerique.fr/projects/projet-de-loi-numerique/consultation/consultation/opinions/section-2-travaux-de-recherche-et-de-statistique/democratie-semi-directe"
    }, 
    "arguments": [
        {
            "body": "Il y a d\u00e9j\u00e0 tout ce qu'il faut en la mati\u00e8re.", 
            "is_enabled": true, 
            "isContribuable": false, 
            "author": {
                "username": "Tan\u00e9l\u00e9o", 
                "displayName": "Tan\u00e9l\u00e9o", 
                "media": null, 
                "vip": false, 
                "isAdmin": false, 
                "_links": {
                    "profile": "http://www.republique-numerique.fr/profile/taneleo", 
                    "settings": "http://www.republique-numerique.fr/profile/edit-profile"
                }, 
                "uniqueId": "taneleo"
            }, 
            "created_at": "2015-10-17T16:22:58+0200", 
            "updated_at": "2015-10-17T16:22:58+0200", 
            "has_user_reported": false, 
            "votes_count": 0, 
            "has_user_voted": false, 
            "_links": {
                "edit": "http://www.republique-numerique.fr/projects/projet-de-loi-numerique/consultation/consultation/opinions/section-2-travaux-de-recherche-et-de-statistique/democratie-semi-directe/arguments/5348/edit", 
                "report": "http://www.republique-numerique.fr/consultations/projet-de-loi-numerique/consultation/consultation/opinions/section-2-travaux-de-recherche-et-de-statistique/democratie-semi-directe/arguments/5348/report", 
                "show": "http://www.republique-numerique.fr/projects/projet-de-loi-numerique/consultation/consultation/opinions/section-2-travaux-de-recherche-et-de-statistique/democratie-semi-directe#arg-5348"
            }, 
            "type": 0, 
            "id": 5348, 
            "is_trashed": false
        }
    ], 
    "answer": null, 
    "type": {
        "votesThresholdHelpText": null, 
        "subtitle": "Travaux de recherche et de statistique", 
        "votesThreshold": null, 
        "votesHelpText": "Pensez-vous que cette proposition permet d'atteindre les objectifs pr\u00e9sent\u00e9s dans l\u2019explication de l\u2019article ?", 
        "title": "Section 2", 
        "color": "blue", 
        "commentSystem": 2, 
        "voteWidgetType": 2, 
        "sourceable": true, 
        "linkable": false, 
        "versionable": true, 
        "id": 91
    }, 
    "body": "<p>&nbsp;Donner la possibilit&eacute; aux citoyens, durant un certain d&eacute;lai apr&egrave;s le vote d&#39;une loi, de s&#39;insurger contre elle au moyen d&#39;une p&eacute;tition . Si cette derni&egrave;re recueille un nombre suffisant de signatures, la loi est alors soumise &agrave; un r&eacute;f&eacute;rendum organis&eacute; par l&#39;Etat aupr&egrave;s de l&#39;ensemble des citoyens.&nbsp;</p>\r\n\r\n<p>Si aucune proc&eacute;dure de r&eacute;f&eacute;rendum n&#39;est initi&eacute;e &agrave; l&#39;issue de ce d&eacute;lai, la loi ne peut plus &ecirc;tre contest&eacute;e et devient applicable.<br />\r\n&nbsp;<br />\r\nSi un r&eacute;f&eacute;rendum a lieu, l&#39;entr&eacute;e en application de la loi est retard&eacute;e et des am&eacute;nagements peuvent &ecirc;tre pr&eacute;vus en cas d&#39;urgence.<br />\r\n&nbsp;</p>", 
    "ranking": 473, 
    "sources_count": 0, 
    "votes_ok": 4, 
    "step": {
        "projectId": 3, 
        "id": 11
    }, 
    "link": null, 
    "appendices": [
        {
            "body": "<p>&nbsp;</p>\r\n\r\n<p>&nbsp;</p>\r\n\r\n<p>Art 1&nbsp;:&nbsp;Le d&eacute;p&ocirc;t du&nbsp;projet de loi, &nbsp;fait l&rsquo;objet d&rsquo;une publicit&eacute; officielle, sur le site&nbsp;www.d&eacute;mocratie-semi-directe.fr pour les citoyens .</p>\r\n\r\n<p>Art 2: Le dispositif, r&eacute;dig&eacute; en articles portant une num&eacute;rotation successive&nbsp;; il constitue la partie normative qui sera soumise &agrave; l&rsquo;examen des assembl&eacute;es et de l&#39;ensemble des &eacute;lecteurs. Chaque article a pour objet soit de modifier une disposition d&rsquo;une loi en vigueur, soit d&rsquo;&eacute;dicter une disposition l&eacute;gislative nouvelle .</p>\r\n\r\n<p>Art 3&nbsp;:&nbsp;le texte est consid&eacute;r&eacute; comme rejet&eacute;,&nbsp;se droit au moyen d&rsquo;une p&eacute;tition qui doit recueillir 100 000 signataires j&#39;usqu&quot;&agrave; 30 jours apr&eacute;s l&#39;adoption du texte de loi .Et par ce droit les citoyens oblige&nbsp;le(s) d&eacute;put&eacute;(s) ou s&eacute;nateur(s)&nbsp;&agrave; revoir le projet de loi.</p>\r\n\r\n<p>Art 4&nbsp;:&nbsp;Le texte &agrave; l&rsquo;approbation de l&rsquo;ensemble des &eacute;lecteurs, qui&nbsp;se&nbsp;prononcent par oui &nbsp;par r&eacute;f&eacute;rendum&nbsp;.</p>\r\n\r\n<p>Art 5&nbsp;:&nbsp;Le(s) d&eacute;put&eacute;(s) ou s&eacute;nateur(s)&nbsp;adopt&eacute;&nbsp;une&nbsp;loi .Que si Le texte loi est approuv&eacute; par les citoyens .</p>\r\n\r\n<p>Art 6&nbsp;:Le(s) d&eacute;put&eacute;(s) ou s&eacute;nateur(s) &nbsp;doivent garder leur anonymat &nbsp;sur le site&nbsp;www.d&eacute;mocratie-semi-directe.fr&nbsp;jusqu&#39;&agrave;&nbsp;l&#39;adoption ou le rej&eacute;t du texte de loi.(&nbsp;Car il est&nbsp;difficile de s&eacute;parer la question pos&eacute;e de son auteur, sp&eacute;cialement lorsque c&#39;est une personne qui est &agrave; l&rsquo;origine du r&eacute;f&eacute;rendum et de savoir si les &eacute;lecteurs vont se prononcer en fonction du texte ou de la personne qui soumet ce texte.)</p>\r\n\r\n<p>&nbsp;</p>\r\n\r\n<p>&nbsp;</p>\r\n\r\n<h3>&nbsp;</h3>", 
            "type": {
                "title": "Explication de l'article"
            }
        }
    ], 
    "has_user_reported": false, 
    "is_trashed": false, 
    "isContribuable": false, 
    "created_at": "2015-10-02T19:42:01+0200", 
    "title": "le service en ligne : www.d\u00e9mocratie-semi-directe.fr", 
    "modals": [], 
    "votes_mitige": 0, 
    "arguments_yes_count": 0, 
    "arguments_no_count": 1, 
    "votes_nok": 1
}