{
    "updated_at": "2015-10-03T16:13:11+0200", 
    "connections": [], 
    "sources": [], 
    "arguments_count": 1, 
    "versions_count": 0, 
    "connections_count": 0, 
    "votes_total": 5, 
    "id": 403, 
    "votes": [
        {
            "user": {
                "username": "Jeanne Varasco", 
                "displayName": "Jeanne Varasco", 
                "media": {
                    "url": "/media/cache/default_avatar/default/0001/01/139_default_avatar.jpg"
                }, 
                "vip": false, 
                "isAdmin": false, 
                "_links": {
                    "profile": "http://www.republique-numerique.fr/profile/jeannevarasco", 
                    "settings": "http://www.republique-numerique.fr/profile/edit-profile"
                }, 
                "uniqueId": "jeannevarasco"
            }
        }, 
        {
            "user": {
                "username": "Bernard Martinez", 
                "displayName": "Bernard Martinez", 
                "media": null, 
                "vip": false, 
                "isAdmin": false, 
                "_links": {
                    "profile": "http://www.republique-numerique.fr/profile/bernardmartinez", 
                    "settings": "http://www.republique-numerique.fr/profile/edit-profile"
                }, 
                "uniqueId": "bernardmartinez"
            }
        }, 
        {
            "user": {
                "username": "Vincent Reverdy", 
                "displayName": "Vincent Reverdy", 
                "media": {
                    "url": "/media/cache/default_avatar/default/0001/01/268_default_avatar.jpg"
                }, 
                "vip": false, 
                "isAdmin": false, 
                "_links": {
                    "profile": "http://www.republique-numerique.fr/profile/vincentreverdy", 
                    "settings": "http://www.republique-numerique.fr/profile/edit-profile"
                }, 
                "uniqueId": "vincentreverdy"
            }
        }, 
        {
            "user": {
                "username": "Emilien", 
                "displayName": "Emilien", 
                "media": null, 
                "vip": false, 
                "isAdmin": false, 
                "_links": {
                    "profile": "http://www.republique-numerique.fr/profile/emilien", 
                    "settings": "http://www.republique-numerique.fr/profile/edit-profile"
                }, 
                "uniqueId": "emilien"
            }
        }, 
        {
            "user": {
                "username": "Maisonobe Luc", 
                "displayName": "Maisonobe Luc", 
                "media": {
                    "url": "/media/cache/default_avatar/default/0001/01/710_default_avatar.jpg"
                }, 
                "vip": false, 
                "isAdmin": false, 
                "_links": {
                    "profile": "http://www.republique-numerique.fr/profile/maisonobeluc", 
                    "settings": "http://www.republique-numerique.fr/profile/edit-profile"
                }, 
                "uniqueId": "maisonobeluc"
            }
        }
    ], 
    "author": {
        "username": "EICHEL Fr\u00e9d\u00e9ric", 
        "displayName": "EICHEL Fr\u00e9d\u00e9ric", 
        "media": null, 
        "vip": false, 
        "isAdmin": false, 
        "_links": {
            "profile": "http://www.republique-numerique.fr/profile/eichelfrederic", 
            "settings": "http://www.republique-numerique.fr/profile/edit-profile"
        }, 
        "uniqueId": "eichelfrederic"
    }, 
    "user_vote": null, 
    "_links": {
        "edit": "http://www.republique-numerique.fr/projects/projet-de-loi-numerique/consultation/consultation/opinions/section-1-protection-des-donnees-a-caractere-personnel/defendre-les-valeurs-de-notre-civilisation-face-aux-geants-d-internet-americains/edit", 
        "report": "http://www.republique-numerique.fr/consultations/projet-de-loi-numerique/consultation/consultation/opinions/section-1-protection-des-donnees-a-caractere-personnel/defendre-les-valeurs-de-notre-civilisation-face-aux-geants-d-internet-americains/report", 
        "type": "http://www.republique-numerique.fr/projects/projet-de-loi-numerique/consultation/consultation/types/section-1-protection-des-donnees-a-caractere-personnel", 
        "show": "http://www.republique-numerique.fr/projects/projet-de-loi-numerique/consultation/consultation/opinions/section-1-protection-des-donnees-a-caractere-personnel/defendre-les-valeurs-de-notre-civilisation-face-aux-geants-d-internet-americains"
    }, 
    "arguments": [
        {
            "body": "Inqui\u00e9tude l\u00e9gitime... mais je vois mal comment cela pourrait \u00eatre applicable (plus on met de contrainte, plus les gens se font h\u00e9berger ailleurs...)", 
            "is_enabled": true, 
            "isContribuable": false, 
            "author": {
                "username": "Bernard Martinez", 
                "displayName": "Bernard Martinez", 
                "media": null, 
                "vip": false, 
                "isAdmin": false, 
                "_links": {
                    "profile": "http://www.republique-numerique.fr/profile/bernardmartinez", 
                    "settings": "http://www.republique-numerique.fr/profile/edit-profile"
                }, 
                "uniqueId": "bernardmartinez"
            }, 
            "created_at": "2015-10-09T23:02:13+0200", 
            "updated_at": "2015-10-09T23:02:13+0200", 
            "has_user_reported": false, 
            "votes_count": 0, 
            "has_user_voted": false, 
            "_links": {
                "edit": "http://www.republique-numerique.fr/projects/projet-de-loi-numerique/consultation/consultation/opinions/section-1-protection-des-donnees-a-caractere-personnel/defendre-les-valeurs-de-notre-civilisation-face-aux-geants-d-internet-americains/arguments/2871/edit", 
                "report": "http://www.republique-numerique.fr/consultations/projet-de-loi-numerique/consultation/consultation/opinions/section-1-protection-des-donnees-a-caractere-personnel/defendre-les-valeurs-de-notre-civilisation-face-aux-geants-d-internet-americains/arguments/2871/report", 
                "show": "http://www.republique-numerique.fr/projects/projet-de-loi-numerique/consultation/consultation/opinions/section-1-protection-des-donnees-a-caractere-personnel/defendre-les-valeurs-de-notre-civilisation-face-aux-geants-d-internet-americains#arg-2871"
            }, 
            "type": 1, 
            "id": 2871, 
            "is_trashed": false
        }
    ], 
    "answer": null, 
    "type": {
        "votesThresholdHelpText": null, 
        "subtitle": "Protection des donn\u00e9es \u00e0 caract\u00e8re personnel", 
        "votesThreshold": null, 
        "votesHelpText": "Pensez-vous que cette proposition permet d'atteindre les objectifs pr\u00e9sent\u00e9s dans l\u2019explication de l\u2019article ?", 
        "title": "Section 1", 
        "color": "blue", 
        "commentSystem": 2, 
        "voteWidgetType": 2, 
        "sourceable": true, 
        "linkable": false, 
        "versionable": true, 
        "id": 99
    }, 
    "body": "<p>Afin de prot&eacute;ger notre droit &agrave; la vie priv&eacute;e, obliger les acteurs d&rsquo;Internet &agrave; stocker physiquement les donn&eacute;es personnelles des internautes europ&eacute;ens sur le territoire national du pays dont ils sont ressortissants, de mani&egrave;re &agrave; pouvoir contr&ocirc;ler l&rsquo;usage qui en est fait.</p>", 
    "ranking": 542, 
    "sources_count": 0, 
    "votes_ok": 2, 
    "step": {
        "projectId": 3, 
        "id": 11
    }, 
    "link": null, 
    "appendices": [
        {
            "body": "<p>Commen&ccedil;ons d&eacute;j&agrave; par la France avec cette proposition d&#39;article, avant d&#39;&eacute;tendre ce droit &agrave; l&#39;ensemble des Europ&eacute;ens par une directive.</p>\r\n\r\n<p>Cette proposition permet de lutter contre les Google, Facebook, etc. dont personne ne sait ce qu&#39;ils font de nos donn&eacute;es les plus personnelles, si ce n&#39;est qu&#39;ils s&#39;en servent pour les commercialiser sans notre accord explicite sous pr&eacute;texte d&#39;un service rendu.</p>", 
            "type": {
                "title": "Explication de l'article"
            }
        }
    ], 
    "has_user_reported": false, 
    "is_trashed": false, 
    "isContribuable": false, 
    "created_at": "2015-10-03T16:13:11+0200", 
    "title": "D\u00e9fendre les valeurs de notre civilisation face aux g\u00e9ants d\u2019Internet am\u00e9ricains", 
    "modals": [], 
    "votes_mitige": 3, 
    "arguments_yes_count": 1, 
    "arguments_no_count": 0, 
    "votes_nok": 0
}