{
    "updated_at": "2015-10-04T08:40:43+0200", 
    "connections": [], 
    "sources": [], 
    "arguments_count": 0, 
    "versions_count": 0, 
    "connections_count": 0, 
    "votes_total": 17, 
    "id": 409, 
    "votes": [
        {
            "user": {
                "username": "Hugo Mathieu", 
                "displayName": "Hugo Mathieu", 
                "media": null, 
                "vip": false, 
                "isAdmin": false, 
                "_links": {
                    "profile": "http://www.republique-numerique.fr/profile/hugomathieu", 
                    "settings": "http://www.republique-numerique.fr/profile/edit-profile"
                }, 
                "uniqueId": "hugomathieu"
            }
        }, 
        {
            "user": {
                "username": "Jeanne Varasco", 
                "displayName": "Jeanne Varasco", 
                "media": {
                    "url": "/media/cache/default_avatar/default/0001/01/139_default_avatar.jpg"
                }, 
                "vip": false, 
                "isAdmin": false, 
                "_links": {
                    "profile": "http://www.republique-numerique.fr/profile/jeannevarasco", 
                    "settings": "http://www.republique-numerique.fr/profile/edit-profile"
                }, 
                "uniqueId": "jeannevarasco"
            }
        }, 
        {
            "user": {
                "username": "Fran\u00e7ois Briat", 
                "displayName": "Fran\u00e7ois Briat", 
                "media": {
                    "url": "/media/cache/default_avatar/default/0001/01/243_default_avatar.jpg"
                }, 
                "vip": false, 
                "isAdmin": false, 
                "_links": {
                    "profile": "http://www.republique-numerique.fr/profile/francoisbriat", 
                    "settings": "http://www.republique-numerique.fr/profile/edit-profile"
                }, 
                "uniqueId": "francoisbriat"
            }
        }, 
        {
            "user": {
                "username": "L\u00e9onard Michelet", 
                "displayName": "L\u00e9onard Michelet", 
                "media": null, 
                "vip": false, 
                "isAdmin": false, 
                "_links": {
                    "profile": "http://www.republique-numerique.fr/profile/leonardmichelet", 
                    "settings": "http://www.republique-numerique.fr/profile/edit-profile"
                }, 
                "uniqueId": "leonardmichelet"
            }
        }, 
        {
            "user": {
                "username": "William Quaranta", 
                "displayName": "William Quaranta", 
                "media": null, 
                "vip": false, 
                "isAdmin": false, 
                "_links": {
                    "profile": "http://www.republique-numerique.fr/profile/williamquaranta", 
                    "settings": "http://www.republique-numerique.fr/profile/edit-profile"
                }, 
                "uniqueId": "williamquaranta"
            }
        }
    ], 
    "author": {
        "username": "Patrick vinc", 
        "displayName": "Patrick vinc", 
        "media": null, 
        "vip": false, 
        "isAdmin": false, 
        "_links": {
            "profile": "http://www.republique-numerique.fr/profile/patrickvinc", 
            "settings": "http://www.republique-numerique.fr/profile/edit-profile"
        }, 
        "uniqueId": "patrickvinc"
    }, 
    "user_vote": null, 
    "_links": {
        "edit": "http://www.republique-numerique.fr/projects/projet-de-loi-numerique/consultation/consultation/opinions/section-1-ouverture-des-donnees-publiques-1/dematerilisation/edit", 
        "report": "http://www.republique-numerique.fr/consultations/projet-de-loi-numerique/consultation/consultation/opinions/section-1-ouverture-des-donnees-publiques-1/dematerilisation/report", 
        "type": "http://www.republique-numerique.fr/projects/projet-de-loi-numerique/consultation/consultation/types/section-1-ouverture-des-donnees-publiques-1", 
        "show": "http://www.republique-numerique.fr/projects/projet-de-loi-numerique/consultation/consultation/opinions/section-1-ouverture-des-donnees-publiques-1/dematerilisation"
    }, 
    "arguments": [], 
    "answer": null, 
    "type": {
        "votesThresholdHelpText": null, 
        "subtitle": "Ouverture des donn\u00e9es publiques", 
        "votesThreshold": null, 
        "votesHelpText": "Pensez-vous que cette proposition permet d'atteindre les objectifs pr\u00e9sent\u00e9s dans l\u2019explication de l\u2019article ?", 
        "title": "Section 1", 
        "color": "blue", 
        "commentSystem": 2, 
        "voteWidgetType": 2, 
        "sourceable": true, 
        "linkable": false, 
        "versionable": true, 
        "id": 86
    }, 
    "body": "<p>Bonjour</p>\r\n\r\n<p>Afin de dinimuer le papier, on nous demande de recevoir diff&eacute;rents documents en ligne. Ce que j,ai fait pour certaines factures. En panne d&#39;Internet j,ai demand&eacute; de recevoir une version papier de ma facture. Cela a &eacute;t&eacute; possible mais payant. Le comble c&#39;&eacute;tait une facture de mon FAI. Pourquoi ne pas imposer ce service gratuit.</p>", 
    "ranking": 270, 
    "sources_count": 0, 
    "votes_ok": 14, 
    "step": {
        "projectId": 3, 
        "id": 11
    }, 
    "link": null, 
    "appendices": [
        {
            "body": null, 
            "type": {
                "title": "Explication de l'article"
            }
        }
    ], 
    "has_user_reported": false, 
    "is_trashed": false, 
    "isContribuable": false, 
    "created_at": "2015-10-04T08:40:43+0200", 
    "title": "Dematerilisation", 
    "modals": [], 
    "votes_mitige": 1, 
    "arguments_yes_count": 0, 
    "arguments_no_count": 0, 
    "votes_nok": 2
}