{
    "updated_at": "2015-10-04T12:35:16+0200", 
    "connections": [], 
    "sources": [], 
    "arguments_count": 1, 
    "versions_count": 0, 
    "connections_count": 0, 
    "votes_total": 12, 
    "id": 412, 
    "votes": [
        {
            "user": {
                "username": "Thomas Ggt", 
                "displayName": "Thomas Ggt", 
                "media": null, 
                "vip": false, 
                "isAdmin": false, 
                "_links": {
                    "profile": "http://www.republique-numerique.fr/profile/thomasggt", 
                    "settings": "http://www.republique-numerique.fr/profile/edit-profile"
                }, 
                "uniqueId": "thomasggt"
            }
        }, 
        {
            "user": {
                "username": "Hugo Mathieu", 
                "displayName": "Hugo Mathieu", 
                "media": null, 
                "vip": false, 
                "isAdmin": false, 
                "_links": {
                    "profile": "http://www.republique-numerique.fr/profile/hugomathieu", 
                    "settings": "http://www.republique-numerique.fr/profile/edit-profile"
                }, 
                "uniqueId": "hugomathieu"
            }
        }, 
        {
            "user": {
                "username": "Laurent Espitallier", 
                "displayName": "Laurent Espitallier", 
                "media": null, 
                "vip": false, 
                "isAdmin": false, 
                "_links": {
                    "profile": "http://www.republique-numerique.fr/profile/laurentespitallier", 
                    "settings": "http://www.republique-numerique.fr/profile/edit-profile"
                }, 
                "uniqueId": "laurentespitallier"
            }
        }, 
        {
            "user": {
                "username": "Jeanne Varasco", 
                "displayName": "Jeanne Varasco", 
                "media": {
                    "url": "/media/cache/default_avatar/default/0001/01/139_default_avatar.jpg"
                }, 
                "vip": false, 
                "isAdmin": false, 
                "_links": {
                    "profile": "http://www.republique-numerique.fr/profile/jeannevarasco", 
                    "settings": "http://www.republique-numerique.fr/profile/edit-profile"
                }, 
                "uniqueId": "jeannevarasco"
            }
        }, 
        {
            "user": {
                "username": "Mathilde Cariou", 
                "displayName": "Mathilde Cariou", 
                "media": null, 
                "vip": false, 
                "isAdmin": false, 
                "_links": {
                    "profile": "http://www.republique-numerique.fr/profile/mathildecariou", 
                    "settings": "http://www.republique-numerique.fr/profile/edit-profile"
                }, 
                "uniqueId": "mathildecariou"
            }
        }
    ], 
    "author": {
        "username": "Thomas Ggt", 
        "displayName": "Thomas Ggt", 
        "media": null, 
        "vip": false, 
        "isAdmin": false, 
        "_links": {
            "profile": "http://www.republique-numerique.fr/profile/thomasggt", 
            "settings": "http://www.republique-numerique.fr/profile/edit-profile"
        }, 
        "uniqueId": "thomasggt"
    }, 
    "user_vote": null, 
    "_links": {
        "edit": "http://www.republique-numerique.fr/projects/projet-de-loi-numerique/consultation/consultation/opinions/section-2-travaux-de-recherche-et-de-statistique/droit-de-diffuser-des-informations-medicales-sur-sa-propre-sante/edit", 
        "report": "http://www.republique-numerique.fr/consultations/projet-de-loi-numerique/consultation/consultation/opinions/section-2-travaux-de-recherche-et-de-statistique/droit-de-diffuser-des-informations-medicales-sur-sa-propre-sante/report", 
        "type": "http://www.republique-numerique.fr/projects/projet-de-loi-numerique/consultation/consultation/types/section-2-travaux-de-recherche-et-de-statistique", 
        "show": "http://www.republique-numerique.fr/projects/projet-de-loi-numerique/consultation/consultation/opinions/section-2-travaux-de-recherche-et-de-statistique/droit-de-diffuser-des-informations-medicales-sur-sa-propre-sante"
    }, 
    "arguments": [
        {
            "body": "C'est une tr\u00e8s bonne id\u00e9e : il faudrait un principe \u00ab ma sant\u00e9 = mes donn\u00e9es \u00bb, il faudrait que chaque citoyen puisse exiger le retrait de son dossier m\u00e9dical dans un format libre et ouvert, idem pour les radios et autres.\n\nJe vote contre \u00e0 cause du secret m\u00e9dical : si \u00e7a peut \u00eatre une super id\u00e9e d'envoyer son g\u00e9nome sur internet pour savoir si quelqu'un a une solution \u00e0 telle ou telle maladie g\u00e9n\u00e9tique... banques, assurances, employeurs et autres auront t\u00f4t fait d'exiger de vous que vous fassiez usage de votre droit de diffuser ces informations pour savoir si on vous pr\u00eate, couvre ou embauche... Le respect et le maintien obligatoire du secret m\u00e9dical est vital !", 
            "is_enabled": true, 
            "isContribuable": false, 
            "author": {
                "username": "Bernard Martinez", 
                "displayName": "Bernard Martinez", 
                "media": null, 
                "vip": false, 
                "isAdmin": false, 
                "_links": {
                    "profile": "http://www.republique-numerique.fr/profile/bernardmartinez", 
                    "settings": "http://www.republique-numerique.fr/profile/edit-profile"
                }, 
                "uniqueId": "bernardmartinez"
            }, 
            "created_at": "2015-10-09T22:25:52+0200", 
            "updated_at": "2015-10-09T22:25:52+0200", 
            "has_user_reported": false, 
            "votes_count": 0, 
            "has_user_voted": false, 
            "_links": {
                "edit": "http://www.republique-numerique.fr/projects/projet-de-loi-numerique/consultation/consultation/opinions/section-2-travaux-de-recherche-et-de-statistique/droit-de-diffuser-des-informations-medicales-sur-sa-propre-sante/arguments/2858/edit", 
                "report": "http://www.republique-numerique.fr/consultations/projet-de-loi-numerique/consultation/consultation/opinions/section-2-travaux-de-recherche-et-de-statistique/droit-de-diffuser-des-informations-medicales-sur-sa-propre-sante/arguments/2858/report", 
                "show": "http://www.republique-numerique.fr/projects/projet-de-loi-numerique/consultation/consultation/opinions/section-2-travaux-de-recherche-et-de-statistique/droit-de-diffuser-des-informations-medicales-sur-sa-propre-sante#arg-2858"
            }, 
            "type": 0, 
            "id": 2858, 
            "is_trashed": false
        }
    ], 
    "answer": null, 
    "type": {
        "votesThresholdHelpText": null, 
        "subtitle": "Travaux de recherche et de statistique", 
        "votesThreshold": null, 
        "votesHelpText": "Pensez-vous que cette proposition permet d'atteindre les objectifs pr\u00e9sent\u00e9s dans l\u2019explication de l\u2019article ?", 
        "title": "Section 2", 
        "color": "blue", 
        "commentSystem": 2, 
        "voteWidgetType": 2, 
        "sourceable": true, 
        "linkable": false, 
        "versionable": true, 
        "id": 91
    }, 
    "body": "<p>Je propose que les patients aient le droit de diffuser des informations m&eacute;dicales sur leur propre sant&eacute;.</p>", 
    "ranking": 364, 
    "sources_count": 0, 
    "votes_ok": 8, 
    "step": {
        "projectId": 3, 
        "id": 11
    }, 
    "link": null, 
    "appendices": [
        {
            "body": "<p>Ceci est impossible &agrave; ce jour concernant les images d&#39;IRM, de scanner par exemple car elles sont poss&eacute;d&eacute;es par&nbsp; la compagnie qui a cr&eacute;&eacute; le logiciel permettant la fabrication de l&#39;image.</p>", 
            "type": {
                "title": "Explication de l'article"
            }
        }
    ], 
    "has_user_reported": false, 
    "is_trashed": false, 
    "isContribuable": false, 
    "created_at": "2015-10-04T12:35:16+0200", 
    "title": "Droit de diffuser des informations m\u00e9dicales sur sa propre sant\u00e9", 
    "modals": [], 
    "votes_mitige": 2, 
    "arguments_yes_count": 0, 
    "arguments_no_count": 1, 
    "votes_nok": 2
}