{
    "updated_at": "2015-10-06T22:12:39+0200", 
    "connections": [], 
    "sources": [], 
    "arguments_count": 0, 
    "versions_count": 0, 
    "connections_count": 0, 
    "votes_total": 8, 
    "id": 414, 
    "votes": [
        {
            "user": {
                "username": "Escadron Noeliste", 
                "displayName": "Escadron Noeliste", 
                "media": {
                    "url": "/media/cache/default_avatar/default/0001/01/389_default_avatar.jpg"
                }, 
                "vip": false, 
                "isAdmin": false, 
                "_links": {
                    "profile": "http://www.republique-numerique.fr/profile/escadronnoeliste", 
                    "settings": "http://www.republique-numerique.fr/profile/edit-profile"
                }, 
                "uniqueId": "escadronnoeliste"
            }
        }, 
        {
            "user": {
                "username": "Noel Vaincra", 
                "displayName": "Noel Vaincra", 
                "media": null, 
                "vip": false, 
                "isAdmin": false, 
                "_links": {
                    "profile": "http://www.republique-numerique.fr/profile/noelvaincra", 
                    "settings": "http://www.republique-numerique.fr/profile/edit-profile"
                }, 
                "uniqueId": "noelvaincra"
            }
        }, 
        {
            "user": {
                "username": "BROUZET", 
                "displayName": "BROUZET", 
                "media": null, 
                "vip": false, 
                "isAdmin": false, 
                "_links": {
                    "profile": "http://www.republique-numerique.fr/profile/brouzet", 
                    "settings": "http://www.republique-numerique.fr/profile/edit-profile"
                }, 
                "uniqueId": "brouzet"
            }
        }, 
        {
            "user": {
                "username": "Adam Troisjours", 
                "displayName": "Adam Troisjours", 
                "media": null, 
                "vip": false, 
                "isAdmin": false, 
                "_links": {
                    "profile": "http://www.republique-numerique.fr/profile/adamtroisjours", 
                    "settings": "http://www.republique-numerique.fr/profile/edit-profile"
                }, 
                "uniqueId": "adamtroisjours"
            }
        }, 
        {
            "user": {
                "username": "JeanKevkev", 
                "displayName": "JeanKevkev", 
                "media": null, 
                "vip": false, 
                "isAdmin": false, 
                "_links": {
                    "profile": "http://www.republique-numerique.fr/profile/jeankevkev", 
                    "settings": "http://www.republique-numerique.fr/profile/edit-profile"
                }, 
                "uniqueId": "jeankevkev"
            }
        }
    ], 
    "author": {
        "username": "Escadron Noeliste", 
        "displayName": "Escadron Noeliste", 
        "media": {
            "url": "/media/cache/default_avatar/default/0001/01/389_default_avatar.jpg"
        }, 
        "vip": false, 
        "isAdmin": false, 
        "_links": {
            "profile": "http://www.republique-numerique.fr/profile/escadronnoeliste", 
            "settings": "http://www.republique-numerique.fr/profile/edit-profile"
        }, 
        "uniqueId": "escadronnoeliste"
    }, 
    "user_vote": null, 
    "_links": {
        "edit": "http://www.republique-numerique.fr/projects/projet-de-loi-numerique/consultation/consultation/opinions/section-2-confidentialite-des-correspondances-privees/legislation-de-l-escadron-noeliste/edit", 
        "report": "http://www.republique-numerique.fr/consultations/projet-de-loi-numerique/consultation/consultation/opinions/section-2-confidentialite-des-correspondances-privees/legislation-de-l-escadron-noeliste/report", 
        "type": "http://www.republique-numerique.fr/projects/projet-de-loi-numerique/consultation/consultation/types/section-2-confidentialite-des-correspondances-privees", 
        "show": "http://www.republique-numerique.fr/projects/projet-de-loi-numerique/consultation/consultation/opinions/section-2-confidentialite-des-correspondances-privees/legislation-de-l-escadron-noeliste"
    }, 
    "arguments": [], 
    "answer": null, 
    "type": {
        "votesThresholdHelpText": null, 
        "subtitle": "Confidentialit\u00e9 des correspondances priv\u00e9es", 
        "votesThreshold": null, 
        "votesHelpText": "Pensez-vous que cette proposition permet d'atteindre les objectifs pr\u00e9sent\u00e9s dans l\u2019explication de l\u2019article ?", 
        "title": "Section 2", 
        "color": "blue", 
        "commentSystem": 2, 
        "voteWidgetType": 2, 
        "sourceable": true, 
        "linkable": false, 
        "versionable": true, 
        "id": 100
    }, 
    "body": "<p>Il sera reconnu que l&#39;association d&eacute;nomm&eacute;e &quot;<em>Escadron Noeliste</em>&quot; soit d&#39;utilit&eacute; publique, que ses actions soient encourag&eacute;es par l&#39;Etat selon la loi 1901, de par son engagement en terme de philanthropie, social, sanitaire, &eacute;ducatif, scientifique et culturel. L&#39;Escadron Noeliste aura pour charge la pr&eacute;servation d&#39;Internet de la b&ecirc;tise, de l&#39;ignorance, de la stupidit&eacute; et de toute autre menace.</p>", 
    "ranking": 183, 
    "sources_count": 0, 
    "votes_ok": 6, 
    "step": {
        "projectId": 3, 
        "id": 11
    }, 
    "link": null, 
    "appendices": [
        {
            "body": null, 
            "type": {
                "title": "Explication de l'article"
            }
        }
    ], 
    "has_user_reported": false, 
    "is_trashed": true, 
    "isContribuable": false, 
    "created_at": "2015-10-04T16:01:13+0200", 
    "title": "L\u00e9gislation de L'Escadron Noeliste.", 
    "modals": [], 
    "votes_mitige": 0, 
    "arguments_yes_count": 0, 
    "arguments_no_count": 0, 
    "votes_nok": 2
}