{
    "updated_at": "2015-10-07T09:29:51+0200", 
    "connections": [], 
    "sources": [], 
    "arguments_count": 2, 
    "versions_count": 0, 
    "connections_count": 0, 
    "votes_total": 227, 
    "id": 452, 
    "votes": [
        {
            "user": {
                "username": "Delphine Cavallo", 
                "displayName": "Delphine Cavallo", 
                "media": null, 
                "vip": false, 
                "isAdmin": false, 
                "_links": {
                    "profile": "http://www.republique-numerique.fr/profile/delphinecavallo", 
                    "settings": "http://www.republique-numerique.fr/profile/edit-profile"
                }, 
                "uniqueId": "delphinecavallo"
            }
        }, 
        {
            "user": {
                "username": "Catherine Muller", 
                "displayName": "Catherine Muller", 
                "media": null, 
                "vip": false, 
                "isAdmin": false, 
                "_links": {
                    "profile": "http://www.republique-numerique.fr/profile/catherinemuller", 
                    "settings": "http://www.republique-numerique.fr/profile/edit-profile"
                }, 
                "uniqueId": "catherinemuller"
            }
        }, 
        {
            "user": {
                "username": "Lionel Barbe", 
                "displayName": "Lionel Barbe", 
                "media": null, 
                "vip": false, 
                "isAdmin": false, 
                "_links": {
                    "profile": "http://www.republique-numerique.fr/profile/lionelbarbe", 
                    "settings": "http://www.republique-numerique.fr/profile/edit-profile"
                }, 
                "uniqueId": "lionelbarbe"
            }
        }, 
        {
            "user": {
                "username": "MULOT H\u00e9l\u00e8ne", 
                "displayName": "MULOT H\u00e9l\u00e8ne", 
                "media": null, 
                "vip": false, 
                "isAdmin": false, 
                "_links": {
                    "profile": "http://www.republique-numerique.fr/profile/mulothelene", 
                    "settings": "http://www.republique-numerique.fr/profile/edit-profile"
                }, 
                "uniqueId": "mulothelene"
            }
        }, 
        {
            "user": {
                "username": "Pierre Naegelen", 
                "displayName": "Pierre Naegelen", 
                "media": {
                    "url": "/media/cache/default_avatar/default/0001/01/292_default_avatar.jpg"
                }, 
                "vip": false, 
                "isAdmin": false, 
                "_links": {
                    "profile": "http://www.republique-numerique.fr/profile/pierrenaegelen", 
                    "settings": "http://www.republique-numerique.fr/profile/edit-profile"
                }, 
                "uniqueId": "pierrenaegelen"
            }
        }
    ], 
    "author": {
        "username": "SavoirCom1", 
        "displayName": "SavoirCom1", 
        "media": {
            "url": "/media/cache/default_avatar/default/0001/01/244_default_avatar.jpg"
        }, 
        "vip": false, 
        "isAdmin": false, 
        "_links": {
            "profile": "http://www.republique-numerique.fr/profile/savoircom1", 
            "settings": "http://www.republique-numerique.fr/profile/edit-profile"
        }, 
        "uniqueId": "savoircom1"
    }, 
    "user_vote": null, 
    "_links": {
        "edit": "http://www.republique-numerique.fr/projects/projet-de-loi-numerique/consultation/consultation/opinions/section-1-les-communs/article-8-quater-faciliter-la-reutilisation-des-donnees-de-la-recherche/edit", 
        "report": "http://www.republique-numerique.fr/consultations/projet-de-loi-numerique/consultation/consultation/opinions/section-1-les-communs/article-8-quater-faciliter-la-reutilisation-des-donnees-de-la-recherche/report", 
        "type": "http://www.republique-numerique.fr/projects/projet-de-loi-numerique/consultation/consultation/types/section-1-les-communs", 
        "show": "http://www.republique-numerique.fr/projects/projet-de-loi-numerique/consultation/consultation/opinions/section-1-les-communs/article-8-quater-faciliter-la-reutilisation-des-donnees-de-la-recherche"
    }, 
    "arguments": [
        {
            "body": "Il me semble en effet judicieux de laisser les r\u00e9sultats de recherches en libre services pour les citoyens", 
            "is_enabled": true, 
            "isContribuable": false, 
            "author": {
                "username": "Guiochet Tom", 
                "displayName": "Guiochet Tom", 
                "media": null, 
                "vip": false, 
                "isAdmin": false, 
                "_links": {
                    "profile": "http://www.republique-numerique.fr/profile/guiochettom", 
                    "settings": "http://www.republique-numerique.fr/profile/edit-profile"
                }, 
                "uniqueId": "guiochettom"
            }, 
            "created_at": "2015-10-15T16:52:34+0200", 
            "updated_at": "2015-10-15T16:52:34+0200", 
            "has_user_reported": false, 
            "votes_count": 0, 
            "has_user_voted": false, 
            "_links": {
                "edit": "http://www.republique-numerique.fr/projects/projet-de-loi-numerique/consultation/consultation/opinions/section-1-les-communs/article-8-quater-faciliter-la-reutilisation-des-donnees-de-la-recherche/arguments/4295/edit", 
                "report": "http://www.republique-numerique.fr/consultations/projet-de-loi-numerique/consultation/consultation/opinions/section-1-les-communs/article-8-quater-faciliter-la-reutilisation-des-donnees-de-la-recherche/arguments/4295/report", 
                "show": "http://www.republique-numerique.fr/projects/projet-de-loi-numerique/consultation/consultation/opinions/section-1-les-communs/article-8-quater-faciliter-la-reutilisation-des-donnees-de-la-recherche#arg-4295"
            }, 
            "type": 1, 
            "id": 4295, 
            "is_trashed": false
        }, 
        {
            "body": "Les r\u00e9sultats de la recherche sont pay\u00e9s par le contribuable fran\u00e7ais. C'est donc \u00e0 lui que doivent en revenir les fruits. Tout d\u00e9pend ce que l'on entend par \"recherche\". S'agit-il de brevets, de recherche appliqu\u00e9e, de recherche fondamentale applicable commercialement, de recherche fondamentale de savoir g\u00e9n\u00e9ral. Pour moi, seule la derni\u00e8re cat\u00e9gorie (astronomie, astrophysique, par exemple) doit \u00eatre librement accessible. Les autres doivent \u00eatre payantes pour les entreprises qui ne paient pas leurs imp\u00f4ts en France et libre pour celles qui en paient. On doit aussi y acc\u00e9der sous conditions d'\u00eatre un citoyen qui est fiscalement domicili\u00e9 en France.", 
            "is_enabled": true, 
            "isContribuable": false, 
            "author": {
                "username": "Jeanne Varasco", 
                "displayName": "Jeanne Varasco", 
                "media": {
                    "url": "/media/cache/default_avatar/default/0001/01/139_default_avatar.jpg"
                }, 
                "vip": false, 
                "isAdmin": false, 
                "_links": {
                    "profile": "http://www.republique-numerique.fr/profile/jeannevarasco", 
                    "settings": "http://www.republique-numerique.fr/profile/edit-profile"
                }, 
                "uniqueId": "jeannevarasco"
            }, 
            "created_at": "2015-10-07T21:41:54+0200", 
            "updated_at": "2015-10-07T21:41:54+0200", 
            "has_user_reported": false, 
            "votes_count": 5, 
            "has_user_voted": false, 
            "_links": {
                "edit": "http://www.republique-numerique.fr/projects/projet-de-loi-numerique/consultation/consultation/opinions/section-1-les-communs/article-8-quater-faciliter-la-reutilisation-des-donnees-de-la-recherche/arguments/2578/edit", 
                "report": "http://www.republique-numerique.fr/consultations/projet-de-loi-numerique/consultation/consultation/opinions/section-1-les-communs/article-8-quater-faciliter-la-reutilisation-des-donnees-de-la-recherche/arguments/2578/report", 
                "show": "http://www.republique-numerique.fr/projects/projet-de-loi-numerique/consultation/consultation/opinions/section-1-les-communs/article-8-quater-faciliter-la-reutilisation-des-donnees-de-la-recherche#arg-2578"
            }, 
            "type": 0, 
            "id": 2578, 
            "is_trashed": false
        }
    ], 
    "answer": null, 
    "type": {
        "votesThresholdHelpText": null, 
        "subtitle": "Les Communs", 
        "votesThreshold": null, 
        "votesHelpText": "Pensez-vous que cette proposition permet d'atteindre les objectifs pr\u00e9sent\u00e9s dans l\u2019explication de l\u2019article ?", 
        "title": "Section 1", 
        "color": "blue", 
        "commentSystem": 2, 
        "voteWidgetType": 2, 
        "sourceable": true, 
        "linkable": false, 
        "versionable": true, 
        "id": 90
    }, 
    "body": "<p>Apr&egrave;s le I 1&deg;) de l&#39;article 8, ajouter : &quot;Lorsqu&#39;il s&#39;agit de donn&eacute;es de la recherche au sens qui en est donn&eacute; par l&#39;OCDE dans le rapport paru en 2007 et intitul&eacute; &quot;Principes et lignes directrices de l&rsquo;OCDE pour l&rsquo;acc&egrave;s aux donn&eacute;es de la recherche financ&eacute;e sur fonds publics&quot;, les chercheurs ne peuvent revendiquer de droits de propri&eacute;t&eacute; intellectuelle sur les jeux de donn&eacute;es, hormis apposer une licence imposant la mention de la paternit&eacute; et le partage &agrave; l&#39;identique.&quot;</p>", 
    "ranking": 49, 
    "sources_count": 0, 
    "votes_ok": 210, 
    "step": {
        "projectId": 3, 
        "id": 11
    }, 
    "link": null, 
    "appendices": [
        {
            "body": "<p>Les donn&eacute;es de la recherche sont un commun&nbsp;informationnel et &agrave; ce titre, leur r&eacute;utilisation ne doit pas &ecirc;tre brid&eacute;e par la revendication abusive de droits de propri&eacute;t&eacute; intellectuelle.</p>", 
            "type": {
                "title": "Explication de l'article"
            }
        }
    ], 
    "has_user_reported": false, 
    "is_trashed": false, 
    "isContribuable": false, 
    "created_at": "2015-10-07T09:29:51+0200", 
    "title": "Article 8 quater - Faciliter la r\u00e9utilisation des donn\u00e9es de la recherche", 
    "modals": [], 
    "votes_mitige": 5, 
    "arguments_yes_count": 1, 
    "arguments_no_count": 1, 
    "votes_nok": 12
}