{
    "updated_at": "2015-10-07T10:55:05+0200", 
    "connections": [], 
    "sources": [], 
    "arguments_count": 0, 
    "versions_count": 0, 
    "connections_count": 0, 
    "votes_total": 9, 
    "id": 453, 
    "votes": [
        {
            "user": {
                "username": "JEANNAS Jean-Yves", 
                "displayName": "JEANNAS Jean-Yves", 
                "media": {
                    "url": "/media/cache/default_avatar/default/0001/01/429_default_avatar.jpg"
                }, 
                "vip": false, 
                "isAdmin": false, 
                "_links": {
                    "profile": "http://www.republique-numerique.fr/profile/jeannasjeanyves", 
                    "settings": "http://www.republique-numerique.fr/profile/edit-profile"
                }, 
                "uniqueId": "jeannasjeanyves"
            }
        }, 
        {
            "user": {
                "username": "Jeanne Varasco", 
                "displayName": "Jeanne Varasco", 
                "media": {
                    "url": "/media/cache/default_avatar/default/0001/01/139_default_avatar.jpg"
                }, 
                "vip": false, 
                "isAdmin": false, 
                "_links": {
                    "profile": "http://www.republique-numerique.fr/profile/jeannevarasco", 
                    "settings": "http://www.republique-numerique.fr/profile/edit-profile"
                }, 
                "uniqueId": "jeannevarasco"
            }
        }, 
        {
            "user": {
                "username": "PETER", 
                "displayName": "PETER", 
                "media": null, 
                "vip": false, 
                "isAdmin": false, 
                "_links": {
                    "profile": "http://www.republique-numerique.fr/profile/peter", 
                    "settings": "http://www.republique-numerique.fr/profile/edit-profile"
                }, 
                "uniqueId": "peter"
            }
        }, 
        {
            "user": {
                "username": "Bernard Martinez", 
                "displayName": "Bernard Martinez", 
                "media": null, 
                "vip": false, 
                "isAdmin": false, 
                "_links": {
                    "profile": "http://www.republique-numerique.fr/profile/bernardmartinez", 
                    "settings": "http://www.republique-numerique.fr/profile/edit-profile"
                }, 
                "uniqueId": "bernardmartinez"
            }
        }, 
        {
            "user": {
                "username": "Vincent Reverdy", 
                "displayName": "Vincent Reverdy", 
                "media": {
                    "url": "/media/cache/default_avatar/default/0001/01/268_default_avatar.jpg"
                }, 
                "vip": false, 
                "isAdmin": false, 
                "_links": {
                    "profile": "http://www.republique-numerique.fr/profile/vincentreverdy", 
                    "settings": "http://www.republique-numerique.fr/profile/edit-profile"
                }, 
                "uniqueId": "vincentreverdy"
            }
        }
    ], 
    "author": {
        "username": "JEANNAS Jean-Yves", 
        "displayName": "JEANNAS Jean-Yves", 
        "media": {
            "url": "/media/cache/default_avatar/default/0001/01/429_default_avatar.jpg"
        }, 
        "vip": false, 
        "isAdmin": false, 
        "_links": {
            "profile": "http://www.republique-numerique.fr/profile/jeannasjeanyves", 
            "settings": "http://www.republique-numerique.fr/profile/edit-profile"
        }, 
        "uniqueId": "jeannasjeanyves"
    }, 
    "user_vote": null, 
    "_links": {
        "edit": "http://www.republique-numerique.fr/projects/projet-de-loi-numerique/consultation/consultation/opinions/section-3-loyaute-des-plateformes/inclure-la-definition-de-la-loyaute-des-services-dans-les-programmes-scolaires/edit", 
        "report": "http://www.republique-numerique.fr/consultations/projet-de-loi-numerique/consultation/consultation/opinions/section-3-loyaute-des-plateformes/inclure-la-definition-de-la-loyaute-des-services-dans-les-programmes-scolaires/report", 
        "type": "http://www.republique-numerique.fr/projects/projet-de-loi-numerique/consultation/consultation/types/section-3-loyaute-des-plateformes", 
        "show": "http://www.republique-numerique.fr/projects/projet-de-loi-numerique/consultation/consultation/opinions/section-3-loyaute-des-plateformes/inclure-la-definition-de-la-loyaute-des-services-dans-les-programmes-scolaires"
    }, 
    "arguments": [], 
    "answer": null, 
    "type": {
        "votesThresholdHelpText": null, 
        "subtitle": "Loyaut\u00e9 des plateformes", 
        "votesThreshold": null, 
        "votesHelpText": "Pensez-vous que cette proposition permet d'atteindre les objectifs pr\u00e9sent\u00e9s dans l\u2019explication de l\u2019article ?", 
        "title": "Section 3", 
        "color": "blue", 
        "commentSystem": 2, 
        "voteWidgetType": 2, 
        "sourceable": true, 
        "linkable": false, 
        "versionable": true, 
        "id": 96
    }, 
    "body": "<p>Dans le cadre de l&#39;apprentissage de la citoyennet&eacute;, l&#39;apprenant doit apprendre &agrave; savoir faire la diff&eacute;rence entre un service loyal et un service qui ne l&#39;est pas.</p>\r\n\r\n<p>Il sera notamment alert&eacute; sur l&#39;exploitation qui peut &ecirc;tre faite &agrave; son insu de ses donn&eacute;es et sur les droits dont il dispose ou non pour g&eacute;rer et prot&eacute;ger ses donn&eacute;es sur ce service.</p>", 
    "ranking": 364, 
    "sources_count": 0, 
    "votes_ok": 8, 
    "step": {
        "projectId": 3, 
        "id": 11
    }, 
    "link": null, 
    "appendices": [
        {
            "body": "<p>La notion de service loyal n&#39;est pas intuitive, la connaissance de la bureautique n&#39;est absolument pas suffisante.</p>\r\n\r\n<p>Tous les chercheurs et les observateurs scientifiques s&#39;accordent pour reconnaitre que les fameux &quot;digital natives&quot; ne sont en fait que des &quot;digital na&iuml;ves&quot;, incapable de comprendfre les v&eacute;ritables enjeux des ou tils qu&#39;ils utilisent ! (lorsque le service est gratuit, c&#39;est que vous &ecirc;tes la marchandise...)</p>\r\n\r\n<p>En attendant qu&#39;un v&eacute;ritable programme de Sciences du Num&eacute;rique soit propos&eacute;s &agrave; tous les enfants de la r&eacute;publique, il est n&eacute;cessaire de compenser ces lacunes par l&#39;insertion de ces probl&eacute;matiques dans les programmes existants.</p>\r\n\r\n<p>Cela est aussi valable pour la notion de formats des donn&eacute;es (interop&eacute;rabilit&eacute; et p&eacute;rennit&eacute;).</p>", 
            "type": {
                "title": "Explication de l'article"
            }
        }
    ], 
    "has_user_reported": false, 
    "is_trashed": false, 
    "isContribuable": false, 
    "created_at": "2015-10-07T10:55:05+0200", 
    "title": "Inclure la definition de la loyaut\u00e9 des services dans les programmes scolaires", 
    "modals": [], 
    "votes_mitige": 0, 
    "arguments_yes_count": 0, 
    "arguments_no_count": 0, 
    "votes_nok": 1
}