{
    "updated_at": "2015-10-09T15:54:43+0200", 
    "connections": [], 
    "sources": [], 
    "arguments_count": 0, 
    "versions_count": 0, 
    "connections_count": 0, 
    "votes_total": 17, 
    "id": 497, 
    "votes": [
        {
            "user": {
                "username": "Maltese Nadine", 
                "displayName": "Maltese Nadine", 
                "media": {
                    "url": "/media/cache/default_avatar/default/0001/01/113_default_avatar.png"
                }, 
                "vip": false, 
                "isAdmin": false, 
                "_links": {
                    "profile": "http://www.republique-numerique.fr/profile/maltesenadine", 
                    "settings": "http://www.republique-numerique.fr/profile/edit-profile"
                }, 
                "uniqueId": "maltesenadine"
            }
        }, 
        {
            "user": {
                "username": "Jeanne Varasco", 
                "displayName": "Jeanne Varasco", 
                "media": {
                    "url": "/media/cache/default_avatar/default/0001/01/139_default_avatar.jpg"
                }, 
                "vip": false, 
                "isAdmin": false, 
                "_links": {
                    "profile": "http://www.republique-numerique.fr/profile/jeannevarasco", 
                    "settings": "http://www.republique-numerique.fr/profile/edit-profile"
                }, 
                "uniqueId": "jeannevarasco"
            }
        }, 
        {
            "user": {
                "username": "Pierre Fontenille", 
                "displayName": "Pierre Fontenille", 
                "media": {
                    "url": "/media/cache/default_avatar/default/0001/01/512_default_avatar.jpg"
                }, 
                "vip": false, 
                "isAdmin": false, 
                "_links": {
                    "profile": "http://www.republique-numerique.fr/profile/pierrefontenille1", 
                    "settings": "http://www.republique-numerique.fr/profile/edit-profile"
                }, 
                "uniqueId": "pierrefontenille1"
            }
        }, 
        {
            "user": {
                "username": "Marie-Laure Cahier", 
                "displayName": "Marie-Laure Cahier", 
                "media": null, 
                "vip": false, 
                "isAdmin": false, 
                "_links": {
                    "profile": "http://www.republique-numerique.fr/profile/marielaurecahier", 
                    "settings": "http://www.republique-numerique.fr/profile/edit-profile"
                }, 
                "uniqueId": "marielaurecahier"
            }
        }, 
        {
            "user": {
                "username": "William Quaranta", 
                "displayName": "William Quaranta", 
                "media": null, 
                "vip": false, 
                "isAdmin": false, 
                "_links": {
                    "profile": "http://www.republique-numerique.fr/profile/williamquaranta", 
                    "settings": "http://www.republique-numerique.fr/profile/edit-profile"
                }, 
                "uniqueId": "williamquaranta"
            }
        }
    ], 
    "author": {
        "username": "Lang Jean-Pierre", 
        "displayName": "Lang Jean-Pierre", 
        "media": null, 
        "vip": false, 
        "isAdmin": false, 
        "_links": {
            "profile": "http://www.republique-numerique.fr/profile/langjeanpierre", 
            "settings": "http://www.republique-numerique.fr/profile/edit-profile"
        }, 
        "uniqueId": "langjeanpierre"
    }, 
    "user_vote": null, 
    "_links": {
        "edit": "http://www.republique-numerique.fr/projects/projet-de-loi-numerique/consultation/consultation/opinions/section-1-ouverture-des-donnees-publiques-1/propriete-litteraire-et-propriete-scientifique/edit", 
        "report": "http://www.republique-numerique.fr/consultations/projet-de-loi-numerique/consultation/consultation/opinions/section-1-ouverture-des-donnees-publiques-1/propriete-litteraire-et-propriete-scientifique/report", 
        "type": "http://www.republique-numerique.fr/projects/projet-de-loi-numerique/consultation/consultation/types/section-1-ouverture-des-donnees-publiques-1", 
        "show": "http://www.republique-numerique.fr/projects/projet-de-loi-numerique/consultation/consultation/opinions/section-1-ouverture-des-donnees-publiques-1/propriete-litteraire-et-propriete-scientifique"
    }, 
    "arguments": [], 
    "answer": null, 
    "type": {
        "votesThresholdHelpText": null, 
        "subtitle": "Ouverture des donn\u00e9es publiques", 
        "votesThreshold": null, 
        "votesHelpText": "Pensez-vous que cette proposition permet d'atteindre les objectifs pr\u00e9sent\u00e9s dans l\u2019explication de l\u2019article ?", 
        "title": "Section 1", 
        "color": "blue", 
        "commentSystem": 2, 
        "voteWidgetType": 2, 
        "sourceable": true, 
        "linkable": false, 
        "versionable": true, 
        "id": 86
    }, 
    "body": "<p>Concernant l&#39;article 8&nbsp;de&nbsp;cette section, il est&nbsp;pr&eacute;vu d&rsquo;introduire une d&eacute;finition positive du &laquo;domaine commun informationnel &raquo; comprenant notamment les &oelig;uvres tomb&eacute;es dans le domaine public. La r&eacute;daction ne prend pas en compte la r&eacute;alit&eacute; des droits en cause, dans le domaine Litt&eacute;raire et Artistique dont je d&eacute;pends.</p>\r\n\r\n<p><br />\r\nPar ailleurs, dans ce m&ecirc;me cadre,&nbsp;je trouve extr&ecirc;mement dangereux d&#39;inscrire formellement dans la loi les dispositifs de renonciation par des cr&eacute;ateurs &agrave; leur droit de propri&eacute;t&eacute; intellectuelle. C&#39;est ne pas tenir compte des pressions &eacute;normes que le Cr&eacute;ateur, personne physique facilement corv&eacute;able, subit dans un environnement de groupes, de plateformes, d&#39;industries extr&ecirc;mement puissantes. Cela ouvrirait&nbsp;la porte &agrave; des pratiques d&eacute;vastatrices dans notre&nbsp;domaine.</p>\r\n\r\n<p>D&#39;autant que des&nbsp;dispositifs volontaires et optionnels, du type des Creative Commons, existent d&eacute;j&agrave; (que la Sacem inclut d&#39;ailleurs depuis un certain temps&nbsp;dans ses dispositions&nbsp;en mati&egrave;re de d&eacute;p&ocirc;t d&rsquo;&oelig;uvre). Il est d&#39;ailleurs int&eacute;ressant de constater statistiquement que leur&nbsp;&nbsp;caract&egrave;re irr&eacute;versible explique le tr&egrave;s faible nombre d&rsquo;&oelig;uvres d&eacute;pos&eacute;es sous ce r&eacute;gime par des soci&eacute;taires.&nbsp;</p>\r\n\r\n<p>D&#39;une&nbsp;mani&egrave;re g&eacute;n&eacute;rale, je&nbsp;me r&eacute;jouis qu&#39;une Loi sp&eacute;cifique au num&eacute;rique puisse pr&eacute;ciser, affirmer,&nbsp;induire et encadrer positivement des comportement&nbsp;nouveaux dans les capacit&egrave;s du num&eacute;rique.&nbsp;</p>\r\n\r\n<p>Je d&eacute;plore cependant que notre&nbsp;domaine du Litt&eacute;raire&nbsp;et Artistique, certainement&nbsp;perfectible sur quelques points, devienne&nbsp;&nbsp;par amalgame l&#39;otage du&nbsp;retard des institutions en mati&egrave;re&nbsp;de comportements dans &nbsp;les domaines&nbsp;scientifiques et industriels, et induise par amalgame des deux&nbsp;des r&eacute;gression significatives&nbsp;dans un domaine&nbsp;&nbsp;qui marche parfaitement bien dans son ensemble.</p>\r\n\r\n<p>L&#39;innovation, qui&nbsp;est au centre de vos&nbsp;pr&eacute;occupations&nbsp;et je m&#39;en&nbsp;r&eacute;jouis, aurait &eacute;t&eacute; d&#39;induire de vos travaux, parall&egrave;lement au Code de la Propri&eacute;t&eacute; Litt&eacute;raire et Artistique existant,&nbsp;&nbsp;un code distinct concernant la Propri&eacute;t&eacute; Scientifique et industrielle et la Communication, r&eacute;pondant aux besoins r&eacute;els et so&eacute;cifiques de ce secteur.</p>", 
    "ranking": 397, 
    "sources_count": 0, 
    "votes_ok": 7, 
    "step": {
        "projectId": 3, 
        "id": 11
    }, 
    "link": null, 
    "appendices": [
        {
            "body": null, 
            "type": {
                "title": "Explication de l'article"
            }
        }
    ], 
    "has_user_reported": false, 
    "is_trashed": false, 
    "isContribuable": false, 
    "created_at": "2015-10-09T15:54:43+0200", 
    "title": "Propri\u00e9t\u00e9 Litt\u00e9raire et Propri\u00e9t\u00e9 Scientifique", 
    "modals": [], 
    "votes_mitige": 10, 
    "arguments_yes_count": 0, 
    "arguments_no_count": 0, 
    "votes_nok": 0
}