{
    "updated_at": "2015-10-11T12:20:06+0200", 
    "connections": [], 
    "sources": [], 
    "arguments_count": 2, 
    "versions_count": 0, 
    "connections_count": 0, 
    "votes_total": 6, 
    "id": 532, 
    "votes": [
        {
            "user": {
                "username": "Erwan MATHIEU", 
                "displayName": "Erwan MATHIEU", 
                "media": null, 
                "vip": false, 
                "isAdmin": false, 
                "_links": {
                    "profile": "http://www.republique-numerique.fr/profile/erwanmathieu", 
                    "settings": "http://www.republique-numerique.fr/profile/edit-profile"
                }, 
                "uniqueId": "erwanmathieu"
            }
        }, 
        {
            "user": {
                "username": "Jeanne Varasco", 
                "displayName": "Jeanne Varasco", 
                "media": {
                    "url": "/media/cache/default_avatar/default/0001/01/139_default_avatar.jpg"
                }, 
                "vip": false, 
                "isAdmin": false, 
                "_links": {
                    "profile": "http://www.republique-numerique.fr/profile/jeannevarasco", 
                    "settings": "http://www.republique-numerique.fr/profile/edit-profile"
                }, 
                "uniqueId": "jeannevarasco"
            }
        }, 
        {
            "user": {
                "username": "Adrien Cordonnier", 
                "displayName": "Adrien Cordonnier", 
                "media": null, 
                "vip": false, 
                "isAdmin": false, 
                "_links": {
                    "profile": "http://www.republique-numerique.fr/profile/adriencordonnier", 
                    "settings": "http://www.republique-numerique.fr/profile/edit-profile"
                }, 
                "uniqueId": "adriencordonnier"
            }
        }, 
        {
            "user": {
                "username": "Alain Marc Chaumet", 
                "displayName": "Alain Marc Chaumet", 
                "media": {
                    "url": "/media/cache/default_avatar/default/0001/01/503_default_avatar.jpg"
                }, 
                "vip": false, 
                "isAdmin": false, 
                "_links": {
                    "profile": "http://www.republique-numerique.fr/profile/alainmarcchaumet1", 
                    "settings": "http://www.republique-numerique.fr/profile/edit-profile"
                }, 
                "uniqueId": "alainmarcchaumet1"
            }
        }, 
        {
            "user": {
                "username": "Emilien", 
                "displayName": "Emilien", 
                "media": null, 
                "vip": false, 
                "isAdmin": false, 
                "_links": {
                    "profile": "http://www.republique-numerique.fr/profile/emilien", 
                    "settings": "http://www.republique-numerique.fr/profile/edit-profile"
                }, 
                "uniqueId": "emilien"
            }
        }
    ], 
    "author": {
        "username": "Erwan MATHIEU", 
        "displayName": "Erwan MATHIEU", 
        "media": null, 
        "vip": false, 
        "isAdmin": false, 
        "_links": {
            "profile": "http://www.republique-numerique.fr/profile/erwanmathieu", 
            "settings": "http://www.republique-numerique.fr/profile/edit-profile"
        }, 
        "uniqueId": "erwanmathieu"
    }, 
    "user_vote": null, 
    "_links": {
        "edit": "http://www.republique-numerique.fr/projects/projet-de-loi-numerique/consultation/consultation/opinions/section-4-information-des-consommateurs/acces-aux-donnees-permettant-au-citoyen-de-se-responsabiliser-dans-son-statut-de-consommateur/edit", 
        "report": "http://www.republique-numerique.fr/consultations/projet-de-loi-numerique/consultation/consultation/opinions/section-4-information-des-consommateurs/acces-aux-donnees-permettant-au-citoyen-de-se-responsabiliser-dans-son-statut-de-consommateur/report", 
        "type": "http://www.republique-numerique.fr/projects/projet-de-loi-numerique/consultation/consultation/types/section-4-information-des-consommateurs", 
        "show": "http://www.republique-numerique.fr/projects/projet-de-loi-numerique/consultation/consultation/opinions/section-4-information-des-consommateurs/acces-aux-donnees-permettant-au-citoyen-de-se-responsabiliser-dans-son-statut-de-consommateur"
    }, 
    "arguments": [
        {
            "body": "D'accord avec Adrien. J'ai propos\u00e9 un projet plus pr\u00e9cis et centr\u00e9 sur les outils du num\u00e9rique https://www.republique-numerique.fr/consultations/projet-de-loi-numerique/consultation/consultation/opinions/section-4-information-des-consommateurs/impact-societal-et-empreinte-carbone-des-outils-du-numerique", 
            "is_enabled": true, 
            "isContribuable": false, 
            "author": {
                "username": "Alain Marc Chaumet", 
                "displayName": "Alain Marc Chaumet", 
                "media": {
                    "url": "/media/cache/default_avatar/default/0001/01/503_default_avatar.jpg"
                }, 
                "vip": false, 
                "isAdmin": false, 
                "_links": {
                    "profile": "http://www.republique-numerique.fr/profile/alainmarcchaumet1", 
                    "settings": "http://www.republique-numerique.fr/profile/edit-profile"
                }, 
                "uniqueId": "alainmarcchaumet1"
            }, 
            "created_at": "2015-10-15T19:58:34+0200", 
            "updated_at": "2015-10-15T19:58:34+0200", 
            "has_user_reported": false, 
            "votes_count": 0, 
            "has_user_voted": false, 
            "_links": {
                "edit": "http://www.republique-numerique.fr/projects/projet-de-loi-numerique/consultation/consultation/opinions/section-4-information-des-consommateurs/acces-aux-donnees-permettant-au-citoyen-de-se-responsabiliser-dans-son-statut-de-consommateur/arguments/4405/edit", 
                "report": "http://www.republique-numerique.fr/consultations/projet-de-loi-numerique/consultation/consultation/opinions/section-4-information-des-consommateurs/acces-aux-donnees-permettant-au-citoyen-de-se-responsabiliser-dans-son-statut-de-consommateur/arguments/4405/report", 
                "show": "http://www.republique-numerique.fr/projects/projet-de-loi-numerique/consultation/consultation/opinions/section-4-information-des-consommateurs/acces-aux-donnees-permettant-au-citoyen-de-se-responsabiliser-dans-son-statut-de-consommateur#arg-4405"
            }, 
            "type": 0, 
            "id": 4405, 
            "is_trashed": false
        }, 
        {
            "body": "La proposition m\u00e9riterait d'\u00eatre pr\u00e9cis\u00e9e car de nombreuses informations sont d\u00e9j\u00e0 obligatoires, soit de fa\u00e7on g\u00e9n\u00e9rale, soit pour des biens ou des services sp\u00e9cifiques.", 
            "is_enabled": true, 
            "isContribuable": false, 
            "author": {
                "username": "Adrien Cordonnier", 
                "displayName": "Adrien Cordonnier", 
                "media": null, 
                "vip": false, 
                "isAdmin": false, 
                "_links": {
                    "profile": "http://www.republique-numerique.fr/profile/adriencordonnier", 
                    "settings": "http://www.republique-numerique.fr/profile/edit-profile"
                }, 
                "uniqueId": "adriencordonnier"
            }, 
            "created_at": "2015-10-14T16:52:42+0200", 
            "updated_at": "2015-10-14T16:52:42+0200", 
            "has_user_reported": false, 
            "votes_count": 1, 
            "has_user_voted": false, 
            "_links": {
                "edit": "http://www.republique-numerique.fr/projects/projet-de-loi-numerique/consultation/consultation/opinions/section-4-information-des-consommateurs/acces-aux-donnees-permettant-au-citoyen-de-se-responsabiliser-dans-son-statut-de-consommateur/arguments/3950/edit", 
                "report": "http://www.republique-numerique.fr/consultations/projet-de-loi-numerique/consultation/consultation/opinions/section-4-information-des-consommateurs/acces-aux-donnees-permettant-au-citoyen-de-se-responsabiliser-dans-son-statut-de-consommateur/arguments/3950/report", 
                "show": "http://www.republique-numerique.fr/projects/projet-de-loi-numerique/consultation/consultation/opinions/section-4-information-des-consommateurs/acces-aux-donnees-permettant-au-citoyen-de-se-responsabiliser-dans-son-statut-de-consommateur#arg-3950"
            }, 
            "type": 0, 
            "id": 3950, 
            "is_trashed": false
        }
    ], 
    "answer": null, 
    "type": {
        "votesThresholdHelpText": null, 
        "subtitle": "Information des consommateurs", 
        "votesThreshold": null, 
        "votesHelpText": "Pensez-vous que cette proposition permet d'atteindre les objectifs pr\u00e9sent\u00e9s dans l\u2019explication de l\u2019article ?", 
        "title": "Section 4", 
        "color": "blue", 
        "commentSystem": 2, 
        "voteWidgetType": 2, 
        "sourceable": true, 
        "linkable": false, 
        "versionable": true, 
        "id": 97
    }, 
    "body": "<p>L&#39;objectif est de faciliter l&#39;acc&egrave;s, notamment en le rendant gratuit et simple, aux donn&eacute;es permettant aux citoyens de se responsabiliser lors de leurs actes d&#39;achats ou de consommation courante.</p>\r\n\r\n<p>Elles concernent &agrave; la fois le mat&eacute;riel et l&#39;immat&eacute;riel.</p>\r\n\r\n<p>Sans &ecirc;tre exhaustif, sont concern&eacute;s par ces donn&eacute;es :</p>\r\n\r\n<p>- la composition des produits (alimentaires, cosm&eacute;tiques, pharmaceutiques) et de leurs emballages ;</p>\r\n\r\n<p>- le lieu de provenance, de conception, de fabrication, de transformation et de stockage des produits et de leurs emballages ;</p>\r\n\r\n<p>- le lieu de conception et de production des services ;</p>\r\n\r\n<p>- les entreprises concern&eacute;es dans ces processus (en incluant leurs statuts, chiffres, publications, liens capitalistiques) ;</p>\r\n\r\n<p>- les audiences (t&eacute;l&eacute;visuelles, audiovisuelles, cin&eacute;matographiques), indices de popularit&eacute; et classements (entreprises, marques, produits).</p>", 
    "ranking": 455, 
    "sources_count": 0, 
    "votes_ok": 5, 
    "step": {
        "projectId": 3, 
        "id": 11
    }, 
    "link": null, 
    "appendices": [
        {
            "body": "<p>L&#39;objectif est d&#39;universaliser l&#39;acc&egrave;s aux donn&eacute;es permettant au consommateur d&#39;&ecirc;tre acteur de sa consommation.</p>\r\n\r\n<p>En sachant qui, comment et dans quelles conditions sont &eacute;labor&eacute;s les produits et services auxquels il a acc&egrave;s, le consommateur peut ainsi faire son choix en toute connaissance.</p>", 
            "type": {
                "title": "Explication de l'article"
            }
        }
    ], 
    "has_user_reported": false, 
    "is_trashed": false, 
    "isContribuable": false, 
    "created_at": "2015-10-11T12:20:06+0200", 
    "title": "Acc\u00e8s aux donn\u00e9es permettant au citoyen de se responsabiliser dans son statut de consommateur", 
    "modals": [], 
    "votes_mitige": 1, 
    "arguments_yes_count": 0, 
    "arguments_no_count": 2, 
    "votes_nok": 0
}