{
    "updated_at": "2015-10-11T13:52:56+0200", 
    "connections": [], 
    "sources": [], 
    "arguments_count": 2, 
    "versions_count": 0, 
    "connections_count": 0, 
    "votes_total": 6, 
    "id": 534, 
    "votes": [
        {
            "user": {
                "username": "Duprez Olivier", 
                "displayName": "Duprez Olivier", 
                "media": {
                    "url": "/media/cache/default_avatar/default/0001/01/516_default_avatar.jpg"
                }, 
                "vip": false, 
                "isAdmin": false, 
                "_links": {
                    "profile": "http://www.republique-numerique.fr/profile/duprezolivier", 
                    "settings": "http://www.republique-numerique.fr/profile/edit-profile"
                }, 
                "uniqueId": "duprezolivier"
            }
        }, 
        {
            "user": {
                "username": "Jeanne Varasco", 
                "displayName": "Jeanne Varasco", 
                "media": {
                    "url": "/media/cache/default_avatar/default/0001/01/139_default_avatar.jpg"
                }, 
                "vip": false, 
                "isAdmin": false, 
                "_links": {
                    "profile": "http://www.republique-numerique.fr/profile/jeannevarasco", 
                    "settings": "http://www.republique-numerique.fr/profile/edit-profile"
                }, 
                "uniqueId": "jeannevarasco"
            }
        }, 
        {
            "user": {
                "username": "Vincent Reverdy", 
                "displayName": "Vincent Reverdy", 
                "media": {
                    "url": "/media/cache/default_avatar/default/0001/01/268_default_avatar.jpg"
                }, 
                "vip": false, 
                "isAdmin": false, 
                "_links": {
                    "profile": "http://www.republique-numerique.fr/profile/vincentreverdy", 
                    "settings": "http://www.republique-numerique.fr/profile/edit-profile"
                }, 
                "uniqueId": "vincentreverdy"
            }
        }, 
        {
            "user": {
                "username": "Bertrand EMERIT", 
                "displayName": "Bertrand EMERIT", 
                "media": null, 
                "vip": false, 
                "isAdmin": false, 
                "_links": {
                    "profile": "http://www.republique-numerique.fr/profile/bertrandemerit", 
                    "settings": "http://www.republique-numerique.fr/profile/edit-profile"
                }, 
                "uniqueId": "bertrandemerit"
            }
        }, 
        {
            "user": {
                "username": "Gami", 
                "displayName": "Gami", 
                "media": null, 
                "vip": false, 
                "isAdmin": false, 
                "_links": {
                    "profile": "http://www.republique-numerique.fr/profile/gami", 
                    "settings": "http://www.republique-numerique.fr/profile/edit-profile"
                }, 
                "uniqueId": "gami"
            }
        }
    ], 
    "author": {
        "username": "Duprez Olivier", 
        "displayName": "Duprez Olivier", 
        "media": {
            "url": "/media/cache/default_avatar/default/0001/01/516_default_avatar.jpg"
        }, 
        "vip": false, 
        "isAdmin": false, 
        "_links": {
            "profile": "http://www.republique-numerique.fr/profile/duprezolivier", 
            "settings": "http://www.republique-numerique.fr/profile/edit-profile"
        }, 
        "uniqueId": "duprezolivier"
    }, 
    "user_vote": null, 
    "_links": {
        "edit": "http://www.republique-numerique.fr/projects/projet-de-loi-numerique/consultation/consultation/opinions/section-1-competences-et-organisation/engagement-des-organismes-publics-a-accuser-reception-d-un-message-electronique/edit", 
        "report": "http://www.republique-numerique.fr/consultations/projet-de-loi-numerique/consultation/consultation/opinions/section-1-competences-et-organisation/engagement-des-organismes-publics-a-accuser-reception-d-un-message-electronique/report", 
        "type": "http://www.republique-numerique.fr/projects/projet-de-loi-numerique/consultation/consultation/types/section-1-competences-et-organisation", 
        "show": "http://www.republique-numerique.fr/projects/projet-de-loi-numerique/consultation/consultation/opinions/section-1-competences-et-organisation/engagement-des-organismes-publics-a-accuser-reception-d-un-message-electronique"
    }, 
    "arguments": [
        {
            "body": "Cet engagement existe par principe dans la \"Charte Marianne\" mais il est vrai qu'elle est m\u00e9connue et pas assez appliqu\u00e9e.", 
            "is_enabled": true, 
            "isContribuable": false, 
            "author": {
                "username": "Sylvain Gladieux", 
                "displayName": "Sylvain Gladieux", 
                "media": {
                    "url": "/media/cache/default_avatar/default/0001/01/974_default_avatar.jpg"
                }, 
                "vip": false, 
                "isAdmin": false, 
                "_links": {
                    "profile": "http://www.republique-numerique.fr/profile/sylvaingladieux", 
                    "settings": "http://www.republique-numerique.fr/profile/edit-profile"
                }, 
                "uniqueId": "sylvaingladieux"
            }, 
            "created_at": "2015-10-18T23:02:00+0200", 
            "updated_at": "2015-10-18T23:02:00+0200", 
            "has_user_reported": false, 
            "votes_count": 0, 
            "has_user_voted": false, 
            "_links": {
                "edit": "http://www.republique-numerique.fr/projects/projet-de-loi-numerique/consultation/consultation/opinions/section-1-competences-et-organisation/engagement-des-organismes-publics-a-accuser-reception-d-un-message-electronique/arguments/6174/edit", 
                "report": "http://www.republique-numerique.fr/consultations/projet-de-loi-numerique/consultation/consultation/opinions/section-1-competences-et-organisation/engagement-des-organismes-publics-a-accuser-reception-d-un-message-electronique/arguments/6174/report", 
                "show": "http://www.republique-numerique.fr/projects/projet-de-loi-numerique/consultation/consultation/opinions/section-1-competences-et-organisation/engagement-des-organismes-publics-a-accuser-reception-d-un-message-electronique#arg-6174"
            }, 
            "type": 0, 
            "id": 6174, 
            "is_trashed": false
        }, 
        {
            "body": "Si on d\u00e9sire un AR dans un mail, il suffit de le demander dans les options au moment o\u00f9 on envoie le mail.", 
            "is_enabled": true, 
            "isContribuable": false, 
            "author": {
                "username": "Jeanne Varasco", 
                "displayName": "Jeanne Varasco", 
                "media": {
                    "url": "/media/cache/default_avatar/default/0001/01/139_default_avatar.jpg"
                }, 
                "vip": false, 
                "isAdmin": false, 
                "_links": {
                    "profile": "http://www.republique-numerique.fr/profile/jeannevarasco", 
                    "settings": "http://www.republique-numerique.fr/profile/edit-profile"
                }, 
                "uniqueId": "jeannevarasco"
            }, 
            "created_at": "2015-10-12T22:29:01+0200", 
            "updated_at": "2015-10-12T22:29:01+0200", 
            "has_user_reported": false, 
            "votes_count": 1, 
            "has_user_voted": false, 
            "_links": {
                "edit": "http://www.republique-numerique.fr/projects/projet-de-loi-numerique/consultation/consultation/opinions/section-1-competences-et-organisation/engagement-des-organismes-publics-a-accuser-reception-d-un-message-electronique/arguments/3420/edit", 
                "report": "http://www.republique-numerique.fr/consultations/projet-de-loi-numerique/consultation/consultation/opinions/section-1-competences-et-organisation/engagement-des-organismes-publics-a-accuser-reception-d-un-message-electronique/arguments/3420/report", 
                "show": "http://www.republique-numerique.fr/projects/projet-de-loi-numerique/consultation/consultation/opinions/section-1-competences-et-organisation/engagement-des-organismes-publics-a-accuser-reception-d-un-message-electronique#arg-3420"
            }, 
            "type": 0, 
            "id": 3420, 
            "is_trashed": false
        }
    ], 
    "answer": null, 
    "type": {
        "votesThresholdHelpText": null, 
        "subtitle": "Comp\u00e9tences et organisation", 
        "votesThreshold": null, 
        "votesHelpText": "Pensez-vous que cette proposition permet d'atteindre les objectifs pr\u00e9sent\u00e9s dans l\u2019explication de l\u2019article ?", 
        "title": "Section 1", 
        "color": "blue", 
        "commentSystem": 2, 
        "voteWidgetType": 2, 
        "sourceable": true, 
        "linkable": false, 
        "versionable": true, 
        "id": 103
    }, 
    "body": "<p><strong>Quand un organisme public met &agrave; disposition un moyen &eacute;lectronique de le contacter, il s&#39;engage &agrave; remettre &agrave; l&#39;exp&eacute;diteur un accus&eacute; de r&eacute;ception dans un d&eacute;lais qu&#39;il aura pr&eacute;cis&eacute;. </strong></p>\r\n\r\n<p>Cet accus&eacute; de r&eacute;ception ne fera pas foi que le message a &eacute;t&eacute; lu, mais que la demande a &eacute;t&eacute; correctement re&ccedil;ue par le syst&egrave;me &eacute;lectronique de l&#39;organisme public.</p>\r\n\r\n<p><strong>L&#39;accus&eacute; de r&eacute;ception devra indiquer le d&eacute;lais que l&#39;organisme public juge n&eacute;cessaire pour que le contenu du message soit lu</strong> par la personne ou service en charge du suivi du moyen de communication qu&#39;il a mis en place. L&#39;accus&eacute; de r&eacute;ception devra pr&eacute;ciser si l&#39;organisme s&#39;engage &agrave; envoyer par la suite une confirmation de lecture effective du message par le destinataire cit&eacute; dans le message.</p>\r\n\r\n<p>En cas de disfonctionnement du moyen &eacute;lectronique de l&#39;organisme public, du fait d&#39;un d&eacute;faut des moyens mat&eacute;riels ou en personnels, l&#39;organisme s&#39;engage &agrave; le notifier sur celui-ci d&eacute;s qu&#39;il en a eu connaissance en pr&eacute;cisant les dates pour lesquels les accus&eacute;s de r&eacute;ception n&#39;ont p&ucirc; &ecirc;tre envoy&eacute;s.</p>\r\n\r\n<p><strong>Si le moyen choisi par l&#39;organisme r&eacute;clame, obligatoirement ou non, l&#39;adresse email de l&#39;exp&eacute;diteur, l&#39;accus&eacute; de r&eacute;ception sera un email.</strong> L&#39;organisme public n&#39;est pas astreint &agrave; ce que ses emails d&#39;accus&eacute; de r&eacute;ception soit sign&eacute;s avec un certificat num&eacute;rique. L&#39;accus&eacute; de r&eacute;ception n&#39;aura pas de valeur en droit permettant au destinataire d&#39;attester qu&#39;il a contact&eacute; l&#39;organisme public.</p>\r\n\r\n<p>L&#39;organisme public n&#39;est pas astreint &agrave; ces engagements et dispositions quand le moyen &eacute;lectronique rend automatiquement public le message envoy&eacute; par l&#39;exp&eacute;diteur comme dans les cas d&#39;un forum, profil de r&eacute;seau social, commentaires d&#39;un blog.</p>", 
    "ranking": 506, 
    "sources_count": 0, 
    "votes_ok": 3, 
    "step": {
        "projectId": 3, 
        "id": 11
    }, 
    "link": null, 
    "appendices": [
        {
            "body": "<p>Alors que les moyens &eacute;lectroniques devrait simplifier et &eacute;courter les d&eacute;lais quand on contacte un organisme public, hors <strong>si l&#39;organisme cesse de r&eacute;cup&eacute;rer et lire ses messages le demandeur se retrouve &agrave; perdre plus de temps</strong> en attente puis en d&eacute;marches ult&eacute;rieures et par d&#39;autres moyens que si le moyen &eacute;lectronique n&#39;avait pas &eacute;t&eacute; mis &agrave; sa disposition.</p>", 
            "type": {
                "title": "Explication de l'article"
            }
        }
    ], 
    "has_user_reported": false, 
    "is_trashed": false, 
    "isContribuable": false, 
    "created_at": "2015-10-11T13:52:56+0200", 
    "title": "Engagement des organismes publics \u00e0 accuser r\u00e9ception d'un message \u00e9lectronique", 
    "modals": [], 
    "votes_mitige": 2, 
    "arguments_yes_count": 0, 
    "arguments_no_count": 2, 
    "votes_nok": 1
}