{
    "updated_at": "2015-10-12T14:46:00+0200", 
    "connections": [], 
    "sources": [], 
    "arguments_count": 1, 
    "versions_count": 0, 
    "connections_count": 0, 
    "votes_total": 52, 
    "id": 554, 
    "votes": [
        {
            "user": {
                "username": "Jeanne Varasco", 
                "displayName": "Jeanne Varasco", 
                "media": {
                    "url": "/media/cache/default_avatar/default/0001/01/139_default_avatar.jpg"
                }, 
                "vip": false, 
                "isAdmin": false, 
                "_links": {
                    "profile": "http://www.republique-numerique.fr/profile/jeannevarasco", 
                    "settings": "http://www.republique-numerique.fr/profile/edit-profile"
                }, 
                "uniqueId": "jeannevarasco"
            }
        }, 
        {
            "user": {
                "username": "NIZON G.", 
                "displayName": "NIZON G.", 
                "media": null, 
                "vip": false, 
                "isAdmin": false, 
                "_links": {
                    "profile": "http://www.republique-numerique.fr/profile/nizong", 
                    "settings": "http://www.republique-numerique.fr/profile/edit-profile"
                }, 
                "uniqueId": "nizong"
            }
        }, 
        {
            "user": {
                "username": "Cheval", 
                "displayName": "Cheval", 
                "media": null, 
                "vip": false, 
                "isAdmin": false, 
                "_links": {
                    "profile": "http://www.republique-numerique.fr/profile/cheval", 
                    "settings": "http://www.republique-numerique.fr/profile/edit-profile"
                }, 
                "uniqueId": "cheval"
            }
        }, 
        {
            "user": {
                "username": "Vincent Reverdy", 
                "displayName": "Vincent Reverdy", 
                "media": {
                    "url": "/media/cache/default_avatar/default/0001/01/268_default_avatar.jpg"
                }, 
                "vip": false, 
                "isAdmin": false, 
                "_links": {
                    "profile": "http://www.republique-numerique.fr/profile/vincentreverdy", 
                    "settings": "http://www.republique-numerique.fr/profile/edit-profile"
                }, 
                "uniqueId": "vincentreverdy"
            }
        }, 
        {
            "user": {
                "username": "Samuel Pabion", 
                "displayName": "Samuel Pabion", 
                "media": null, 
                "vip": false, 
                "isAdmin": false, 
                "_links": {
                    "profile": "http://www.republique-numerique.fr/profile/samuelpabion", 
                    "settings": "http://www.republique-numerique.fr/profile/edit-profile"
                }, 
                "uniqueId": "samuelpabion"
            }
        }
    ], 
    "author": {
        "username": "MEDIAS-CITE", 
        "displayName": "MEDIAS-CITE", 
        "media": {
            "url": "/media/cache/default_avatar/default/0001/01/532_default_avatar.jpg"
        }, 
        "vip": false, 
        "isAdmin": false, 
        "_links": {
            "profile": "http://www.republique-numerique.fr/profile/mediascite", 
            "settings": "http://www.republique-numerique.fr/profile/edit-profile"
        }, 
        "uniqueId": "mediascite"
    }, 
    "user_vote": null, 
    "_links": {
        "edit": "http://www.republique-numerique.fr/projects/projet-de-loi-numerique/consultation/consultation/opinions/section-1-competences-et-organisation/label-entreprise-numerique-citoyenne/edit", 
        "report": "http://www.republique-numerique.fr/consultations/projet-de-loi-numerique/consultation/consultation/opinions/section-1-competences-et-organisation/label-entreprise-numerique-citoyenne/report", 
        "type": "http://www.republique-numerique.fr/projects/projet-de-loi-numerique/consultation/consultation/types/section-1-competences-et-organisation", 
        "show": "http://www.republique-numerique.fr/projects/projet-de-loi-numerique/consultation/consultation/opinions/section-1-competences-et-organisation/label-entreprise-numerique-citoyenne"
    }, 
    "arguments": [
        {
            "body": "Des labels que personnes ne lit, ni ne comprend, ni ne connait... n'ont aucune utilit\u00e9.", 
            "is_enabled": true, 
            "isContribuable": false, 
            "author": {
                "username": "Tan\u00e9l\u00e9o", 
                "displayName": "Tan\u00e9l\u00e9o", 
                "media": null, 
                "vip": false, 
                "isAdmin": false, 
                "_links": {
                    "profile": "http://www.republique-numerique.fr/profile/taneleo", 
                    "settings": "http://www.republique-numerique.fr/profile/edit-profile"
                }, 
                "uniqueId": "taneleo"
            }, 
            "created_at": "2015-10-17T18:11:55+0200", 
            "updated_at": "2015-10-17T18:11:55+0200", 
            "has_user_reported": false, 
            "votes_count": 0, 
            "has_user_voted": false, 
            "_links": {
                "edit": "http://www.republique-numerique.fr/projects/projet-de-loi-numerique/consultation/consultation/opinions/section-1-competences-et-organisation/label-entreprise-numerique-citoyenne/arguments/5443/edit", 
                "report": "http://www.republique-numerique.fr/consultations/projet-de-loi-numerique/consultation/consultation/opinions/section-1-competences-et-organisation/label-entreprise-numerique-citoyenne/arguments/5443/report", 
                "show": "http://www.republique-numerique.fr/projects/projet-de-loi-numerique/consultation/consultation/opinions/section-1-competences-et-organisation/label-entreprise-numerique-citoyenne#arg-5443"
            }, 
            "type": 0, 
            "id": 5443, 
            "is_trashed": false
        }
    ], 
    "answer": null, 
    "type": {
        "votesThresholdHelpText": null, 
        "subtitle": "Comp\u00e9tences et organisation", 
        "votesThreshold": null, 
        "votesHelpText": "Pensez-vous que cette proposition permet d'atteindre les objectifs pr\u00e9sent\u00e9s dans l\u2019explication de l\u2019article ?", 
        "title": "Section 1", 
        "color": "blue", 
        "commentSystem": 2, 
        "voteWidgetType": 2, 
        "sourceable": true, 
        "linkable": false, 
        "versionable": true, 
        "id": 103
    }, 
    "body": "<p>Peuvent acc&eacute;der au label &ldquo;entreprises num&eacute;riques citoyennes&rdquo;, les entreprises de l&rsquo;&eacute;conomie num&eacute;rique qui contribuent &agrave; faciliter les usages num&eacute;riques par:</p>\r\n\r\n<ul>\r\n\t<li>leurs concours &agrave; la Contribution Volontaire des Entreprises du Num&eacute;rique au Fonds de Solidarit&eacute; Num&eacute;rique selon les dispositions fix&eacute;es par le d&eacute;cret&hellip;</li>\r\n\t<li>l&rsquo;orientation de leurs taxes d&rsquo;apprentissage vers les &ldquo;&Eacute;coles du num&eacute;rique&rdquo;</li>\r\n\t<li>la mise en place, &agrave; destination de leurs propres salari&eacute;s facilitant l&rsquo;appropriation sociale des usages du num&eacute;rique, notamment par l&rsquo;acc&egrave;s facilit&eacute; aux offres de services de la m&eacute;diation num&eacute;rique.</li>\r\n\t<li>l&rsquo;embauche des personnes issus de dispositifs d&rsquo;inclusion sociale et num&eacute;rique tels que fix&eacute;s annuellement par d&eacute;cret [<em>Grandes Ecoles du num&eacute;rique, Emplois d&rsquo;Avenir Num&eacute;riques, etc&hellip;</em>]</li>\r\n</ul>", 
    "ranking": 153, 
    "sources_count": 0, 
    "votes_ok": 47, 
    "step": {
        "projectId": 3, 
        "id": 11
    }, 
    "link": null, 
    "appendices": [
        {
            "body": "<p>Cet article a pour objet de soutenir le fonctionnement en &eacute;cosyst&egrave;me des diff&eacute;rentes composantes de l&#39;&eacute;cnomie num&eacute;rique, dont le lien entre m&eacute;diation num&eacute;rique et entreprises du num&eacute;rique.</p>", 
            "type": {
                "title": "Explication de l'article"
            }
        }
    ], 
    "has_user_reported": false, 
    "is_trashed": false, 
    "isContribuable": false, 
    "created_at": "2015-10-12T14:46:00+0200", 
    "title": "Label \u201cEntreprise num\u00e9rique citoyenne \u201d", 
    "modals": [], 
    "votes_mitige": 4, 
    "arguments_yes_count": 0, 
    "arguments_no_count": 1, 
    "votes_nok": 1
}