{
    "updated_at": "2015-10-12T21:41:46+0200", 
    "connections": [], 
    "sources": [], 
    "arguments_count": 3, 
    "versions_count": 0, 
    "connections_count": 0, 
    "votes_total": 34, 
    "id": 567, 
    "votes": [
        {
            "user": {
                "username": "PENNE", 
                "displayName": "PENNE", 
                "media": null, 
                "vip": false, 
                "isAdmin": false, 
                "_links": {
                    "profile": "http://www.republique-numerique.fr/profile/penne", 
                    "settings": "http://www.republique-numerique.fr/profile/edit-profile"
                }, 
                "uniqueId": "penne"
            }
        }, 
        {
            "user": {
                "username": "Roux-Levrat", 
                "displayName": "Roux-Levrat", 
                "media": null, 
                "vip": false, 
                "isAdmin": false, 
                "_links": {
                    "profile": "http://www.republique-numerique.fr/profile/rouxlevrat", 
                    "settings": "http://www.republique-numerique.fr/profile/edit-profile"
                }, 
                "uniqueId": "rouxlevrat"
            }
        }, 
        {
            "user": {
                "username": "Jeanne Varasco", 
                "displayName": "Jeanne Varasco", 
                "media": {
                    "url": "/media/cache/default_avatar/default/0001/01/139_default_avatar.jpg"
                }, 
                "vip": false, 
                "isAdmin": false, 
                "_links": {
                    "profile": "http://www.republique-numerique.fr/profile/jeannevarasco", 
                    "settings": "http://www.republique-numerique.fr/profile/edit-profile"
                }, 
                "uniqueId": "jeannevarasco"
            }
        }, 
        {
            "user": {
                "username": "Vincent Reverdy", 
                "displayName": "Vincent Reverdy", 
                "media": {
                    "url": "/media/cache/default_avatar/default/0001/01/268_default_avatar.jpg"
                }, 
                "vip": false, 
                "isAdmin": false, 
                "_links": {
                    "profile": "http://www.republique-numerique.fr/profile/vincentreverdy", 
                    "settings": "http://www.republique-numerique.fr/profile/edit-profile"
                }, 
                "uniqueId": "vincentreverdy"
            }
        }, 
        {
            "user": {
                "username": "Maltese Nadine", 
                "displayName": "Maltese Nadine", 
                "media": {
                    "url": "/media/cache/default_avatar/default/0001/01/113_default_avatar.png"
                }, 
                "vip": false, 
                "isAdmin": false, 
                "_links": {
                    "profile": "http://www.republique-numerique.fr/profile/maltesenadine", 
                    "settings": "http://www.republique-numerique.fr/profile/edit-profile"
                }, 
                "uniqueId": "maltesenadine"
            }
        }
    ], 
    "author": {
        "username": "PENNE", 
        "displayName": "PENNE", 
        "media": null, 
        "vip": false, 
        "isAdmin": false, 
        "_links": {
            "profile": "http://www.republique-numerique.fr/profile/penne", 
            "settings": "http://www.republique-numerique.fr/profile/edit-profile"
        }, 
        "uniqueId": "penne"
    }, 
    "user_vote": null, 
    "_links": {
        "edit": "http://www.republique-numerique.fr/projects/projet-de-loi-numerique/consultation/consultation/opinions/section-1-ouverture-des-donnees-publiques-1/cabine-telephonique-publique-2-0/edit", 
        "report": "http://www.republique-numerique.fr/consultations/projet-de-loi-numerique/consultation/consultation/opinions/section-1-ouverture-des-donnees-publiques-1/cabine-telephonique-publique-2-0/report", 
        "type": "http://www.republique-numerique.fr/projects/projet-de-loi-numerique/consultation/consultation/types/section-1-ouverture-des-donnees-publiques-1", 
        "show": "http://www.republique-numerique.fr/projects/projet-de-loi-numerique/consultation/consultation/opinions/section-1-ouverture-des-donnees-publiques-1/cabine-telephonique-publique-2-0"
    }, 
    "arguments": [
        {
            "body": "On peut rajouter des services \u00e0 ces cabines comme rechargement de cartes ou autre.", 
            "is_enabled": true, 
            "isContribuable": false, 
            "author": {
                "username": "Siaud Bernard Albert Lucien", 
                "displayName": "Siaud Bernard Albert Lucien", 
                "media": null, 
                "vip": false, 
                "isAdmin": false, 
                "_links": {
                    "profile": "http://www.republique-numerique.fr/profile/siaudbernardalbertlucien", 
                    "settings": "http://www.republique-numerique.fr/profile/edit-profile"
                }, 
                "uniqueId": "siaudbernardalbertlucien"
            }, 
            "created_at": "2015-10-17T10:28:49+0200", 
            "updated_at": "2015-10-17T10:28:49+0200", 
            "has_user_reported": false, 
            "votes_count": 0, 
            "has_user_voted": false, 
            "_links": {
                "edit": "http://www.republique-numerique.fr/projects/projet-de-loi-numerique/consultation/consultation/opinions/section-1-ouverture-des-donnees-publiques-1/cabine-telephonique-publique-2-0/arguments/5147/edit", 
                "report": "http://www.republique-numerique.fr/consultations/projet-de-loi-numerique/consultation/consultation/opinions/section-1-ouverture-des-donnees-publiques-1/cabine-telephonique-publique-2-0/arguments/5147/report", 
                "show": "http://www.republique-numerique.fr/projects/projet-de-loi-numerique/consultation/consultation/opinions/section-1-ouverture-des-donnees-publiques-1/cabine-telephonique-publique-2-0#arg-5147"
            }, 
            "type": 1, 
            "id": 5147, 
            "is_trashed": false
        }, 
        {
            "body": "en qualit\u00e9 de personne electro hyper sensible et handicap\u00e9e physique, je dois avoir acc\u00e8s aux cabines t\u00e9l\u00e9phoniques pour solliciter une aide ou un secours \u00e9ventuel quand je suis en d\u00e9placement. Je d\u00e9plore de ne plus trouver aucune cabine en service. Toute cabine en place est laiss\u00e9e \u00e0 l'abandon et il serait justifi\u00e9 de les r\u00e9habiliter puisqu'elles sont encore pr\u00e9sente.", 
            "is_enabled": true, 
            "isContribuable": false, 
            "author": {
                "username": "Sarah-jane Fermin", 
                "displayName": "Sarah-jane Fermin", 
                "media": null, 
                "vip": false, 
                "isAdmin": false, 
                "_links": {
                    "profile": "http://www.republique-numerique.fr/profile/sarahjanefermin", 
                    "settings": "http://www.republique-numerique.fr/profile/edit-profile"
                }, 
                "uniqueId": "sarahjanefermin"
            }, 
            "created_at": "2015-10-15T21:37:59+0200", 
            "updated_at": "2015-10-15T21:37:59+0200", 
            "has_user_reported": false, 
            "votes_count": 0, 
            "has_user_voted": false, 
            "_links": {
                "edit": "http://www.republique-numerique.fr/projects/projet-de-loi-numerique/consultation/consultation/opinions/section-1-ouverture-des-donnees-publiques-1/cabine-telephonique-publique-2-0/arguments/4425/edit", 
                "report": "http://www.republique-numerique.fr/consultations/projet-de-loi-numerique/consultation/consultation/opinions/section-1-ouverture-des-donnees-publiques-1/cabine-telephonique-publique-2-0/arguments/4425/report", 
                "show": "http://www.republique-numerique.fr/projects/projet-de-loi-numerique/consultation/consultation/opinions/section-1-ouverture-des-donnees-publiques-1/cabine-telephonique-publique-2-0#arg-4425"
            }, 
            "type": 1, 
            "id": 4425, 
            "is_trashed": false
        }, 
        {
            "body": "Excellente id\u00e9e ! On peut avoir besoin de telephoner, son portable est sans plus de batterie, en panne, oubli\u00e9 etc..besoin pour une urgence. ", 
            "is_enabled": true, 
            "isContribuable": false, 
            "author": {
                "username": "Maltese Nadine", 
                "displayName": "Maltese Nadine", 
                "media": {
                    "url": "/media/cache/default_avatar/default/0001/01/113_default_avatar.png"
                }, 
                "vip": false, 
                "isAdmin": false, 
                "_links": {
                    "profile": "http://www.republique-numerique.fr/profile/maltesenadine", 
                    "settings": "http://www.republique-numerique.fr/profile/edit-profile"
                }, 
                "uniqueId": "maltesenadine"
            }, 
            "created_at": "2015-10-13T03:59:34+0200", 
            "updated_at": "2015-10-13T03:59:34+0200", 
            "has_user_reported": false, 
            "votes_count": 0, 
            "has_user_voted": false, 
            "_links": {
                "edit": "http://www.republique-numerique.fr/projects/projet-de-loi-numerique/consultation/consultation/opinions/section-1-ouverture-des-donnees-publiques-1/cabine-telephonique-publique-2-0/arguments/3439/edit", 
                "report": "http://www.republique-numerique.fr/consultations/projet-de-loi-numerique/consultation/consultation/opinions/section-1-ouverture-des-donnees-publiques-1/cabine-telephonique-publique-2-0/arguments/3439/report", 
                "show": "http://www.republique-numerique.fr/projects/projet-de-loi-numerique/consultation/consultation/opinions/section-1-ouverture-des-donnees-publiques-1/cabine-telephonique-publique-2-0#arg-3439"
            }, 
            "type": 1, 
            "id": 3439, 
            "is_trashed": false
        }
    ], 
    "answer": null, 
    "type": {
        "votesThresholdHelpText": null, 
        "subtitle": "Ouverture des donn\u00e9es publiques", 
        "votesThreshold": null, 
        "votesHelpText": "Pensez-vous que cette proposition permet d'atteindre les objectifs pr\u00e9sent\u00e9s dans l\u2019explication de l\u2019article ?", 
        "title": "Section 1", 
        "color": "blue", 
        "commentSystem": 2, 
        "voteWidgetType": 2, 
        "sourceable": true, 
        "linkable": false, 
        "versionable": true, 
        "id": 86
    }, 
    "body": "<p>Obsolescence programm&eacute;e, d&#39;un bien public!!!</p>", 
    "ranking": 177, 
    "sources_count": 0, 
    "votes_ok": 30, 
    "step": {
        "projectId": 3, 
        "id": 11
    }, 
    "link": null, 
    "appendices": [
        {
            "body": "<p>Bonjour,</p>\r\n\r\n<p>Th&egrave;me&nbsp;:</p>\r\n\r\n<p>Cabines t&eacute;l&eacute;phoniques publiques</p>\r\n\r\n<p>Constat&nbsp;:</p>\r\n\r\n<p>Les cabines t&eacute;l&eacute;phoniques sont abandonn&eacute;es&nbsp;; salles et obsol&egrave;te. La t&eacute;l&eacute;phonie mobile remplace l&#39;usage des cabines t&eacute;l&eacute;phoniques qui &agrave; l&#39;origine apportaient un service public. Pour quel raison&nbsp;? Au profit de qui&nbsp;? (L&#39;op&eacute;rateur initial est devenu priv&eacute;e, recherche de rentabilit&eacute;, diminution du nombre de cabines...)</p>\r\n\r\n<p>Proposition&nbsp;:</p>\r\n\r\n<p>Je propose de conserver l&#39;usage des cabines t&eacute;l&eacute;phoniques pour un service public. Par une modernisation de cet outil&nbsp;; int&eacute;grer des produits et mat&eacute;riel innovant&nbsp;; un acc&egrave;s public pour tous.</p>\r\n\r\n<p>Nous pouvons constater des bornes num&eacute;riques dans nos vie de tous les jours (SNCF, borne d&#39;op&eacute;rateur t&eacute;l&eacute;phonique, Restauration rapide&hellip;) d&rsquo;o&ugrave; aucune fracture num&eacute;rique &agrave; pr&eacute;voir.</p>\r\n\r\n<p>&nbsp;</p>\r\n\r\n<p>Cel&agrave; permettrait de&nbsp;:</p>\r\n\r\n<p>- Conserver ce un point de s&eacute;curit&eacute; d&#39;urgence plus facile d&#39;acc&egrave;s(comme l&#39;initiative des d&eacute;fibrillateurs en libre acc&egrave;s dans de nombreuse ville)</p>\r\n\r\n<p>- Un acc&egrave;s libre &agrave; tous en tous lieux et tous heures</p>\r\n\r\n<p>- D&#39;avoir un budget communication ma&icirc;trise et &eacute;conomique.</p>\r\n\r\n<p>- Couper la barri&egrave;re num&eacute;rique avec des liaisons en fibre optique</p>\r\n\r\n<p>- Donner un int&eacute;r&ecirc;t &agrave; divers acteur public et priv&eacute;e utilisant l&rsquo;&eacute;cran num&eacute;rique &agrave; usage d&#39;information voir publicitaire (s&#39;il le faut &eacute;conomiquement!)</p>\r\n\r\n<p>- Respect des personnes sensibles aux ondes &eacute;lectromagn&eacute;tiques en conservant la liaison filaire</p>\r\n\r\n<p>- Modulable et tourn&eacute; vers des porteurs de projet et d&#39;inovation.(par exemple &eacute;quip&eacute;, d&rsquo;&eacute;cran tactile, d&#39;une imprimante 3D,&hellip;)</p>\r\n\r\n<p>&nbsp;</p>\r\n\r\n<p>J&#39;ai vraiment &eacute;t&eacute; touch&eacute; quand j&#39;ai entendu parl&eacute;,courant 2014, d&#39;un projet de loi pour le d&eacute;mant&egrave;lement des cabines t&eacute;l&eacute;phoniques publique. Pour moi c&#39;est une grosse erreur et la perte d&#39;un secteur &eacute;conomique cr&eacute;ateur d&#39;emploi et d&rsquo;innovation.</p>\r\n\r\n<p>&nbsp;</p>\r\n\r\n<p>En esp&eacute;rant que Mme Axelle Lemaire, secr&eacute;taire d&rsquo;&Eacute;tat au Num&eacute;rique entendra et porte la voie de citoyen inquiet de la disparition possible des cabines t&eacute;l&eacute;phonique publique. L&rsquo;acc&egrave;s au cabines t&eacute;l&eacute;phonique publique est un bien qu&#39;on ne devrait pas supprimer pour des raisons, &agrave; mon sans, volontairement non rentable.</p>\r\n\r\n<p>Citation &laquo; Quand on veut tuer son chien on dit qu&#39;il a la rage&nbsp;!&nbsp;&raquo;</p>\r\n\r\n<p>En vous remerciant de ce d&eacute;bat public. Je vous ai fait un descriptif court et non exhaustif qui m&eacute;rite surement plus de clart&eacute; et d&#39;explications.</p>\r\n\r\n<p>Je pense que l&#39;abondement d&#39;id&eacute;es collectives sur ce th&egrave;me peux &ecirc;tre tr&egrave;s enrichissant.</p>\r\n\r\n<p>Cordialement</p>\r\n\r\n<p>St&eacute;phane PENNE, 81600, Rivi&egrave;res</p>", 
            "type": {
                "title": "Explication de l'article"
            }
        }
    ], 
    "has_user_reported": false, 
    "is_trashed": false, 
    "isContribuable": false, 
    "created_at": "2015-10-12T21:41:46+0200", 
    "title": "Cabine T\u00e9l\u00e9phonique Publique- 2.0", 
    "modals": [], 
    "votes_mitige": 3, 
    "arguments_yes_count": 3, 
    "arguments_no_count": 0, 
    "votes_nok": 1
}