{
    "updated_at": "2015-10-13T14:45:48+0200", 
    "connections": [], 
    "sources": [], 
    "arguments_count": 1, 
    "versions_count": 0, 
    "connections_count": 0, 
    "votes_total": 10, 
    "id": 578, 
    "votes": [
        {
            "user": {
                "username": "J'aime Lire", 
                "displayName": "J'aime Lire", 
                "media": null, 
                "vip": false, 
                "isAdmin": false, 
                "_links": {
                    "profile": "http://www.republique-numerique.fr/profile/jaimelire", 
                    "settings": "http://www.republique-numerique.fr/profile/edit-profile"
                }, 
                "uniqueId": "jaimelire"
            }
        }, 
        {
            "user": {
                "username": "Emile Gersch", 
                "displayName": "Emile Gersch", 
                "media": null, 
                "vip": false, 
                "isAdmin": false, 
                "_links": {
                    "profile": "http://www.republique-numerique.fr/profile/emilegersch", 
                    "settings": "http://www.republique-numerique.fr/profile/edit-profile"
                }, 
                "uniqueId": "emilegersch"
            }
        }, 
        {
            "user": {
                "username": "Pierre Lavayssi\u00e8re", 
                "displayName": "Pierre Lavayssi\u00e8re", 
                "media": null, 
                "vip": false, 
                "isAdmin": false, 
                "_links": {
                    "profile": "http://www.republique-numerique.fr/profile/pierrelavayssiere", 
                    "settings": "http://www.republique-numerique.fr/profile/edit-profile"
                }, 
                "uniqueId": "pierrelavayssiere"
            }
        }, 
        {
            "user": {
                "username": "Jeanne Varasco", 
                "displayName": "Jeanne Varasco", 
                "media": {
                    "url": "/media/cache/default_avatar/default/0001/01/139_default_avatar.jpg"
                }, 
                "vip": false, 
                "isAdmin": false, 
                "_links": {
                    "profile": "http://www.republique-numerique.fr/profile/jeannevarasco", 
                    "settings": "http://www.republique-numerique.fr/profile/edit-profile"
                }, 
                "uniqueId": "jeannevarasco"
            }
        }, 
        {
            "user": {
                "username": "Maltese Nadine", 
                "displayName": "Maltese Nadine", 
                "media": {
                    "url": "/media/cache/default_avatar/default/0001/01/113_default_avatar.png"
                }, 
                "vip": false, 
                "isAdmin": false, 
                "_links": {
                    "profile": "http://www.republique-numerique.fr/profile/maltesenadine", 
                    "settings": "http://www.republique-numerique.fr/profile/edit-profile"
                }, 
                "uniqueId": "maltesenadine"
            }
        }
    ], 
    "author": {
        "username": "Nathalie Robisco", 
        "displayName": "Nathalie Robisco", 
        "media": null, 
        "vip": false, 
        "isAdmin": false, 
        "_links": {
            "profile": "http://www.republique-numerique.fr/profile/nathalierobisco", 
            "settings": "http://www.republique-numerique.fr/profile/edit-profile"
        }, 
        "uniqueId": "nathalierobisco"
    }, 
    "user_vote": null, 
    "_links": {
        "edit": "http://www.republique-numerique.fr/projects/projet-de-loi-numerique/consultation/consultation/opinions/section-1-les-communs/devoir-s-inscrire-sur-un-site-pour-les-oeuvres-protegees/edit", 
        "report": "http://www.republique-numerique.fr/consultations/projet-de-loi-numerique/consultation/consultation/opinions/section-1-les-communs/devoir-s-inscrire-sur-un-site-pour-les-oeuvres-protegees/report", 
        "type": "http://www.republique-numerique.fr/projects/projet-de-loi-numerique/consultation/consultation/types/section-1-les-communs", 
        "show": "http://www.republique-numerique.fr/projects/projet-de-loi-numerique/consultation/consultation/opinions/section-1-les-communs/devoir-s-inscrire-sur-un-site-pour-les-oeuvres-protegees"
    }, 
    "arguments": [
        {
            "body": "Pas sp\u00e9cialement \"academia.edu, par contre se fier aux sites propos\u00e9s par \"netpublic.fr\"", 
            "is_enabled": true, 
            "isContribuable": false, 
            "author": {
                "username": "Jeanne Varasco", 
                "displayName": "Jeanne Varasco", 
                "media": {
                    "url": "/media/cache/default_avatar/default/0001/01/139_default_avatar.jpg"
                }, 
                "vip": false, 
                "isAdmin": false, 
                "_links": {
                    "profile": "http://www.republique-numerique.fr/profile/jeannevarasco", 
                    "settings": "http://www.republique-numerique.fr/profile/edit-profile"
                }, 
                "uniqueId": "jeannevarasco"
            }, 
            "created_at": "2015-10-14T16:25:58+0200", 
            "updated_at": "2015-10-14T16:25:58+0200", 
            "has_user_reported": false, 
            "votes_count": 2, 
            "has_user_voted": false, 
            "_links": {
                "edit": "http://www.republique-numerique.fr/projects/projet-de-loi-numerique/consultation/consultation/opinions/section-1-les-communs/devoir-s-inscrire-sur-un-site-pour-les-oeuvres-protegees/arguments/3939/edit", 
                "report": "http://www.republique-numerique.fr/consultations/projet-de-loi-numerique/consultation/consultation/opinions/section-1-les-communs/devoir-s-inscrire-sur-un-site-pour-les-oeuvres-protegees/arguments/3939/report", 
                "show": "http://www.republique-numerique.fr/projects/projet-de-loi-numerique/consultation/consultation/opinions/section-1-les-communs/devoir-s-inscrire-sur-un-site-pour-les-oeuvres-protegees#arg-3939"
            }, 
            "type": 0, 
            "id": 3939, 
            "is_trashed": false
        }
    ], 
    "answer": null, 
    "type": {
        "votesThresholdHelpText": null, 
        "subtitle": "Les Communs", 
        "votesThreshold": null, 
        "votesHelpText": "Pensez-vous que cette proposition permet d'atteindre les objectifs pr\u00e9sent\u00e9s dans l\u2019explication de l\u2019article ?", 
        "title": "Section 1", 
        "color": "blue", 
        "commentSystem": 2, 
        "voteWidgetType": 2, 
        "sourceable": true, 
        "linkable": false, 
        "versionable": true, 
        "id": 90
    }, 
    "body": "S'inscrire sur un site comme Academia. edu  pour telecharger les oeuvres prot\u00e9g\u00e9es. Quand l'auteur est encore vivant.", 
    "ranking": 397, 
    "sources_count": 0, 
    "votes_ok": 7, 
    "step": {
        "projectId": 3, 
        "id": 11
    }, 
    "link": null, 
    "appendices": [
        {
            "body": "Si le simple fait de mettre enligne un article ou un lien vers un livre suffit pour le telecharger,  alors \u00e0 quoi sert la propri\u00e9t\u00e9 intellectuelle?  On se cr\u00e9e bien un compte sur un site commercial,  alors la culture doit \u00eatre prot\u00e9g\u00e9e aussi d'une  mani\u00e8re \u00e0 ne pas l\u00e9ser l'auteur", 
            "type": {
                "title": "Explication de l'article"
            }
        }
    ], 
    "has_user_reported": false, 
    "is_trashed": false, 
    "isContribuable": false, 
    "created_at": "2015-10-13T14:45:48+0200", 
    "title": "Devoir s'inscrire sur un site pour les oeuvres prot\u00e9g\u00e9es", 
    "modals": [], 
    "votes_mitige": 2, 
    "arguments_yes_count": 0, 
    "arguments_no_count": 1, 
    "votes_nok": 1
}