{
    "updated_at": "2015-10-13T17:25:05+0200", 
    "connections": [], 
    "sources": [], 
    "arguments_count": 0, 
    "versions_count": 0, 
    "connections_count": 0, 
    "votes_total": 10, 
    "id": 583, 
    "votes": [
        {
            "user": {
                "username": "J-M Jousselin", 
                "displayName": "J-M Jousselin", 
                "media": null, 
                "vip": false, 
                "isAdmin": false, 
                "_links": {
                    "profile": "http://www.republique-numerique.fr/profile/jmjousselin1", 
                    "settings": "http://www.republique-numerique.fr/profile/edit-profile"
                }, 
                "uniqueId": "jmjousselin1"
            }
        }, 
        {
            "user": {
                "username": "Maltese Nadine", 
                "displayName": "Maltese Nadine", 
                "media": {
                    "url": "/media/cache/default_avatar/default/0001/01/113_default_avatar.png"
                }, 
                "vip": false, 
                "isAdmin": false, 
                "_links": {
                    "profile": "http://www.republique-numerique.fr/profile/maltesenadine", 
                    "settings": "http://www.republique-numerique.fr/profile/edit-profile"
                }, 
                "uniqueId": "maltesenadine"
            }
        }, 
        {
            "user": {
                "username": "Jeanne Varasco", 
                "displayName": "Jeanne Varasco", 
                "media": {
                    "url": "/media/cache/default_avatar/default/0001/01/139_default_avatar.jpg"
                }, 
                "vip": false, 
                "isAdmin": false, 
                "_links": {
                    "profile": "http://www.republique-numerique.fr/profile/jeannevarasco", 
                    "settings": "http://www.republique-numerique.fr/profile/edit-profile"
                }, 
                "uniqueId": "jeannevarasco"
            }
        }, 
        {
            "user": {
                "username": "LATRILLE JEAN-MARIE", 
                "displayName": "LATRILLE JEAN-MARIE", 
                "media": null, 
                "vip": false, 
                "isAdmin": false, 
                "_links": {
                    "profile": "http://www.republique-numerique.fr/profile/latrillejeanmarie", 
                    "settings": "http://www.republique-numerique.fr/profile/edit-profile"
                }, 
                "uniqueId": "latrillejeanmarie"
            }
        }, 
        {
            "user": {
                "username": "Emilien", 
                "displayName": "Emilien", 
                "media": null, 
                "vip": false, 
                "isAdmin": false, 
                "_links": {
                    "profile": "http://www.republique-numerique.fr/profile/emilien", 
                    "settings": "http://www.republique-numerique.fr/profile/edit-profile"
                }, 
                "uniqueId": "emilien"
            }
        }
    ], 
    "author": {
        "username": "communaut\u00e9 de communes du bas chablais", 
        "displayName": "communaut\u00e9 de communes du bas chablais", 
        "media": null, 
        "vip": false, 
        "isAdmin": false, 
        "_links": {
            "profile": "http://www.republique-numerique.fr/profile/communautedecommunesdubaschablais3", 
            "settings": "http://www.republique-numerique.fr/profile/edit-profile"
        }, 
        "uniqueId": "communautedecommunesdubaschablais3"
    }, 
    "user_vote": null, 
    "_links": {
        "edit": "http://www.republique-numerique.fr/projects/projet-de-loi-numerique/consultation/consultation/opinions/section-2-service-public-de-la-donnee-1/declaration-en-ligne-des-intentions-d-aliener/edit", 
        "report": "http://www.republique-numerique.fr/consultations/projet-de-loi-numerique/consultation/consultation/opinions/section-2-service-public-de-la-donnee-1/declaration-en-ligne-des-intentions-d-aliener/report", 
        "type": "http://www.republique-numerique.fr/projects/projet-de-loi-numerique/consultation/consultation/types/section-2-service-public-de-la-donnee-1", 
        "show": "http://www.republique-numerique.fr/projects/projet-de-loi-numerique/consultation/consultation/opinions/section-2-service-public-de-la-donnee-1/declaration-en-ligne-des-intentions-d-aliener"
    }, 
    "arguments": [], 
    "answer": null, 
    "type": {
        "votesThresholdHelpText": null, 
        "subtitle": "Service public de la donn\u00e9e", 
        "votesThreshold": null, 
        "votesHelpText": "Pensez-vous que cette proposition permet d'atteindre les objectifs pr\u00e9sent\u00e9s dans l\u2019explication de l\u2019article ?", 
        "title": "Section 2", 
        "color": "blue", 
        "commentSystem": 2, 
        "voteWidgetType": 2, 
        "sourceable": true, 
        "linkable": false, 
        "versionable": true, 
        "id": 87
    }, 
    "body": "<p>Les notaires et&nbsp;les collectivit&eacute;s&nbsp;territoriales sont dot&eacute;es d&#39;identifiants qui leur permettent, par l&#39;interm&eacute;diaire d&#39;une plateforme nationale administr&eacute;e par le minist&egrave;re concern&eacute;, pour les notaires de formuler les d&eacute;clarations d&#39;intention d&#39;ali&eacute;ner, pour les collectivit&eacute;s de faire &eacute;tat de leur intention d&#39;exercer ou non le droit de pr&eacute;emption dont ils disposent.</p>", 
    "ranking": 328, 
    "sources_count": 0, 
    "votes_ok": 10, 
    "step": {
        "projectId": 3, 
        "id": 11
    }, 
    "link": null, 
    "appendices": [
        {
            "body": "<p>Notre communaut&eacute; de communes sera prochainement comp&eacute;tente en planification&nbsp;urbaine et disposera en cons&eacute;quence du droit de pr&eacute;emtion urbain sur les territoires de ses communes membres.</p>\r\n\r\n<p>La mise en place du circuit courrier des D&eacute;clarations d&#39;Intention d&#39;Ali&eacute;ner (DIA)&nbsp;depuis les notaires jusqu&#39;au pr&eacute;sident de l&#39;intercommunalit&eacute;, par l&#39;interm&eacute;diaire des communes, est particuli&egrave;rement lourd (frais de courriers et temps de travail) et contraignant (d&eacute;lai de 2 mois pour&nbsp;notifier les notaires d&#39;une intention de pr&eacute;empter&nbsp;dans un nouveau contexte qui peut n&eacute;cessiter une d&eacute;l&eacute;gation&nbsp;du droit de pr&eacute;emption aux communes). Or, ce circuit n&#39;est pas d&eacute;mat&eacute;rialisable du fait de la n&eacute;cessit&eacute; d&#39;apposer la signature du pr&eacute;sident de la communaut&eacute; de commune sur toutes les DIA avant de les retourner aux notaires. Par ailleurs, l&#39;usage du renoncement tacite&nbsp;&agrave; l&#39;exercice du droit de pr&eacute;emption serait conflictuel avec les offices notariaux, et peu favorable au dynamisme de notre territoire.</p>\r\n\r\n<p>Nous sugg&eacute;rons donc la mise en oeuvre d&#39;une plateforme de d&eacute;claration en ligne des intentions d&#39;ali&eacute;ner qui permettrait beaucoup plus de r&eacute;activit&eacute; aux acteurs concern&eacute;s, et qui permettrait au minist&egrave;re de diposer d&#39;une base de donn&eacute;es exhaustive et en temps r&eacute;&egrave;l des transactions immobili&egrave;res.</p>", 
            "type": {
                "title": "Explication de l'article"
            }
        }
    ], 
    "has_user_reported": false, 
    "is_trashed": false, 
    "isContribuable": false, 
    "created_at": "2015-10-13T17:25:05+0200", 
    "title": "Declaration en ligne des intentions d'ali\u00e9ner", 
    "modals": [], 
    "votes_mitige": 0, 
    "arguments_yes_count": 0, 
    "arguments_no_count": 0, 
    "votes_nok": 0
}