{
    "updated_at": "2015-10-14T10:10:43+0200", 
    "connections": [], 
    "sources": [], 
    "arguments_count": 0, 
    "versions_count": 0, 
    "connections_count": 0, 
    "votes_total": 8, 
    "id": 596, 
    "votes": [
        {
            "user": {
                "username": "Jeanne Varasco", 
                "displayName": "Jeanne Varasco", 
                "media": {
                    "url": "/media/cache/default_avatar/default/0001/01/139_default_avatar.jpg"
                }, 
                "vip": false, 
                "isAdmin": false, 
                "_links": {
                    "profile": "http://www.republique-numerique.fr/profile/jeannevarasco", 
                    "settings": "http://www.republique-numerique.fr/profile/edit-profile"
                }, 
                "uniqueId": "jeannevarasco"
            }
        }, 
        {
            "user": {
                "username": "Rajjou", 
                "displayName": "Rajjou", 
                "media": null, 
                "vip": false, 
                "isAdmin": false, 
                "_links": {
                    "profile": "http://www.republique-numerique.fr/profile/rajjou", 
                    "settings": "http://www.republique-numerique.fr/profile/edit-profile"
                }, 
                "uniqueId": "rajjou"
            }
        }, 
        {
            "user": {
                "username": "Vincent Reverdy", 
                "displayName": "Vincent Reverdy", 
                "media": {
                    "url": "/media/cache/default_avatar/default/0001/01/268_default_avatar.jpg"
                }, 
                "vip": false, 
                "isAdmin": false, 
                "_links": {
                    "profile": "http://www.republique-numerique.fr/profile/vincentreverdy", 
                    "settings": "http://www.republique-numerique.fr/profile/edit-profile"
                }, 
                "uniqueId": "vincentreverdy"
            }
        }, 
        {
            "user": {
                "username": "stehlin", 
                "displayName": "stehlin", 
                "media": {
                    "url": "/media/cache/default_avatar/default/0001/01/894_default_avatar.jpg"
                }, 
                "vip": false, 
                "isAdmin": false, 
                "_links": {
                    "profile": "http://www.republique-numerique.fr/profile/stehlin1", 
                    "settings": "http://www.republique-numerique.fr/profile/edit-profile"
                }, 
                "uniqueId": "stehlin1"
            }
        }, 
        {
            "user": {
                "username": "sasha mouchel", 
                "displayName": "sasha mouchel", 
                "media": null, 
                "vip": false, 
                "isAdmin": false, 
                "_links": {
                    "profile": "http://www.republique-numerique.fr/profile/sashamouchel", 
                    "settings": "http://www.republique-numerique.fr/profile/edit-profile"
                }, 
                "uniqueId": "sashamouchel"
            }
        }
    ], 
    "author": {
        "username": "Sancerni", 
        "displayName": "Sancerni", 
        "media": null, 
        "vip": false, 
        "isAdmin": false, 
        "_links": {
            "profile": "http://www.republique-numerique.fr/profile/sancerni", 
            "settings": "http://www.republique-numerique.fr/profile/edit-profile"
        }, 
        "uniqueId": "sancerni"
    }, 
    "user_vote": null, 
    "_links": {
        "edit": "http://www.republique-numerique.fr/projects/projet-de-loi-numerique/consultation/consultation/opinions/section-3-maintien-de-la-connexion-internet/gommer-les-inegalite-d-acces-a-internet/edit", 
        "report": "http://www.republique-numerique.fr/consultations/projet-de-loi-numerique/consultation/consultation/opinions/section-3-maintien-de-la-connexion-internet/gommer-les-inegalite-d-acces-a-internet/report", 
        "type": "http://www.republique-numerique.fr/projects/projet-de-loi-numerique/consultation/consultation/types/section-3-maintien-de-la-connexion-internet", 
        "show": "http://www.republique-numerique.fr/projects/projet-de-loi-numerique/consultation/consultation/opinions/section-3-maintien-de-la-connexion-internet/gommer-les-inegalite-d-acces-a-internet"
    }, 
    "arguments": [], 
    "answer": null, 
    "type": {
        "votesThresholdHelpText": null, 
        "subtitle": "Maintien de la connexion internet", 
        "votesThreshold": null, 
        "votesHelpText": "Pensez-vous que cette proposition permet d'atteindre les objectifs pr\u00e9sent\u00e9s dans l\u2019explication de l\u2019article ?", 
        "title": "Section 3", 
        "color": "blue", 
        "commentSystem": 2, 
        "voteWidgetType": 2, 
        "sourceable": true, 
        "linkable": false, 
        "versionable": true, 
        "id": 111
    }, 
    "body": "<p>A l&#39;heure dun acc&eacute;s &agrave; internet par la fibre optique, au fin fond de campagnes fran&ccedil;aise, l&#39;acc&eacute;s a internet est encore li&eacute; aux lignes t&eacute;l&eacute;phoniques. Bien souvent un grand nombre de secteurs n&#39;est pas en d&eacute;groupage total ce qui induit une double peine pour les utilisateurs : un acc&eacute;s &agrave; internet plus lent que sur l&#39;ensemble du territoire, la non possibilit&eacute; d&#39;inclure l&#39;option&nbsp;t&eacute;l&eacute;vision propos&eacute;e par les fournisseur d&#39;acc&eacute;s et un co&ucirc;t financier plus &eacute;lev&eacute; car les forfaits propos&eacute;s inclus la location de la ligne t&eacute;l&eacute;phonique &nbsp;&agrave; France T&eacute;l&eacute;com ( entre 16 et 17 &euro; par mois).</p>\r\n\r\n<p>Que le d&eacute;veloppement de l&#39;acc&eacute;s &agrave; internet par le cable ou la fibre continue est normal, par contre France t&eacute;l&eacute;com devrait avoir obligation de d&eacute;grouper l&#39;ensemble de son r&eacute;seau et ce dans les plus brefs d&eacute;lais.</p>\r\n\r\n<p>Il faut savoir que les petites communes, n&#39;ont pas les moyens de financer cette mise a niveau, d&#39;autant plus &agrave; partir de cette ann&eacute;e avec la restiction des allocations de l&#39;&eacute;tat.</p>", 
    "ranking": 364, 
    "sources_count": 0, 
    "votes_ok": 8, 
    "step": {
        "projectId": 3, 
        "id": 11
    }, 
    "link": null, 
    "appendices": [
        {
            "body": "<p>r&eacute;duire les in&eacute;galit&eacute;s finaci&egrave;res d&#39;acc&eacute;s &agrave; internet</p>", 
            "type": {
                "title": "Explication de l'article"
            }
        }
    ], 
    "has_user_reported": false, 
    "is_trashed": false, 
    "isContribuable": false, 
    "created_at": "2015-10-14T10:10:43+0200", 
    "title": "gommer les in\u00e9galit\u00e9 d'acc\u00e9s \u00e0 internet", 
    "modals": [], 
    "votes_mitige": 0, 
    "arguments_yes_count": 0, 
    "arguments_no_count": 0, 
    "votes_nok": 0
}