{
    "updated_at": "2015-10-14T14:58:08+0200", 
    "connections": [], 
    "sources": [], 
    "arguments_count": 2, 
    "versions_count": 1, 
    "connections_count": 0, 
    "votes_total": 56, 
    "id": 604, 
    "votes": [
        {
            "user": {
                "username": "JEANNAS Jean-Yves", 
                "displayName": "JEANNAS Jean-Yves", 
                "media": {
                    "url": "/media/cache/default_avatar/default/0001/01/429_default_avatar.jpg"
                }, 
                "vip": false, 
                "isAdmin": false, 
                "_links": {
                    "profile": "http://www.republique-numerique.fr/profile/jeannasjeanyves", 
                    "settings": "http://www.republique-numerique.fr/profile/edit-profile"
                }, 
                "uniqueId": "jeannasjeanyves"
            }
        }, 
        {
            "user": {
                "username": "NIZON G.", 
                "displayName": "NIZON G.", 
                "media": null, 
                "vip": false, 
                "isAdmin": false, 
                "_links": {
                    "profile": "http://www.republique-numerique.fr/profile/nizong", 
                    "settings": "http://www.republique-numerique.fr/profile/edit-profile"
                }, 
                "uniqueId": "nizong"
            }
        }, 
        {
            "user": {
                "username": "Rodolphe Qui\u00e9deville", 
                "displayName": "Rodolphe Qui\u00e9deville", 
                "media": null, 
                "vip": false, 
                "isAdmin": false, 
                "_links": {
                    "profile": "http://www.republique-numerique.fr/profile/rodolphequiedeville", 
                    "settings": "http://www.republique-numerique.fr/profile/edit-profile"
                }, 
                "uniqueId": "rodolphequiedeville"
            }
        }, 
        {
            "user": {
                "username": "Jeanne Tadeusz", 
                "displayName": "Jeanne Tadeusz", 
                "media": null, 
                "vip": false, 
                "isAdmin": false, 
                "_links": {
                    "profile": "http://www.republique-numerique.fr/profile/jeannetadeusz", 
                    "settings": "http://www.republique-numerique.fr/profile/edit-profile"
                }, 
                "uniqueId": "jeannetadeusz"
            }
        }, 
        {
            "user": {
                "username": "Jean-Pierre Archambault", 
                "displayName": "Jean-Pierre Archambault", 
                "media": null, 
                "vip": false, 
                "isAdmin": false, 
                "_links": {
                    "profile": "http://www.republique-numerique.fr/profile/jeanpierrearchambault", 
                    "settings": "http://www.republique-numerique.fr/profile/edit-profile"
                }, 
                "uniqueId": "jeanpierrearchambault"
            }
        }
    ], 
    "author": {
        "username": "JEANNAS Jean-Yves", 
        "displayName": "JEANNAS Jean-Yves", 
        "media": {
            "url": "/media/cache/default_avatar/default/0001/01/429_default_avatar.jpg"
        }, 
        "vip": false, 
        "isAdmin": false, 
        "_links": {
            "profile": "http://www.republique-numerique.fr/profile/jeannasjeanyves", 
            "settings": "http://www.republique-numerique.fr/profile/edit-profile"
        }, 
        "uniqueId": "jeannasjeanyves"
    }, 
    "user_vote": null, 
    "_links": {
        "edit": "http://www.republique-numerique.fr/projects/projet-de-loi-numerique/consultation/consultation/opinions/section-1-competences-et-organisation/mise-a-disposition-obligatoire-de-documents-en-formats-ouverts-pour-les-concours-et-documents-administratifs/edit", 
        "report": "http://www.republique-numerique.fr/consultations/projet-de-loi-numerique/consultation/consultation/opinions/section-1-competences-et-organisation/mise-a-disposition-obligatoire-de-documents-en-formats-ouverts-pour-les-concours-et-documents-administratifs/report", 
        "type": "http://www.republique-numerique.fr/projects/projet-de-loi-numerique/consultation/consultation/types/section-1-competences-et-organisation", 
        "show": "http://www.republique-numerique.fr/projects/projet-de-loi-numerique/consultation/consultation/opinions/section-1-competences-et-organisation/mise-a-disposition-obligatoire-de-documents-en-formats-ouverts-pour-les-concours-et-documents-administratifs"
    }, 
    "arguments": [
        {
            "body": "L'usage de logiciels propri\u00e9taires, comme de toute technique envahissante, engendre d\u00e9pendance et inadaptabilit\u00e9. Il est de l'inter\u00eat de chacun, citoyen, entreprise, \u00e9tat, de s'affranchir de cette doctrine privatrice de libert\u00e9 et de technodiversit\u00e9 !", 
            "is_enabled": true, 
            "isContribuable": false, 
            "author": {
                "username": "daniel Azuelos", 
                "displayName": "daniel Azuelos", 
                "media": {
                    "url": "/media/cache/default_avatar/default/0001/01/952_default_avatar.jpg"
                }, 
                "vip": false, 
                "isAdmin": false, 
                "_links": {
                    "profile": "http://www.republique-numerique.fr/profile/danielazuelos", 
                    "settings": "http://www.republique-numerique.fr/profile/edit-profile"
                }, 
                "uniqueId": "danielazuelos"
            }, 
            "created_at": "2015-10-17T15:25:00+0200", 
            "updated_at": "2015-10-17T15:25:00+0200", 
            "has_user_reported": false, 
            "votes_count": 3, 
            "has_user_voted": false, 
            "_links": {
                "edit": "http://www.republique-numerique.fr/projects/projet-de-loi-numerique/consultation/consultation/opinions/section-1-competences-et-organisation/mise-a-disposition-obligatoire-de-documents-en-formats-ouverts-pour-les-concours-et-documents-administratifs/arguments/5291/edit", 
                "report": "http://www.republique-numerique.fr/consultations/projet-de-loi-numerique/consultation/consultation/opinions/section-1-competences-et-organisation/mise-a-disposition-obligatoire-de-documents-en-formats-ouverts-pour-les-concours-et-documents-administratifs/arguments/5291/report", 
                "show": "http://www.republique-numerique.fr/projects/projet-de-loi-numerique/consultation/consultation/opinions/section-1-competences-et-organisation/mise-a-disposition-obligatoire-de-documents-en-formats-ouverts-pour-les-concours-et-documents-administratifs#arg-5291"
            }, 
            "type": 1, 
            "id": 5291, 
            "is_trashed": false
        }, 
        {
            "body": "C'est une promesse de campagne de F. Hollande. Je le cite:\n\n\"Pour conserver son autonomie technique, la sph\u00e8re publique ne saurait \u00eatre prisonni\u00e8re des formats propri\u00e9taires impos\u00e9s par ses prestataires. Les standards ouverts doivent \u00eatre syst\u00e9matiques dans le cadre de la commande publique et des\ndonn\u00e9es publiques. Tout fournisseur de solution informatique souhaitant soumissionner \u00e0 une commande publique devra fournir les informations n\u00e9cessaires \u00e0 l'interop\u00e9rabilit\u00e9 de la solution informatique qu'il propose.\"\n\net\n\n\"Je souhaite que les logiciels libres de qualit\u00e9, utilisant des formats ouverts normalis\u00e9s, soient enseign\u00e9s \u00e0 l'\u00e9cole comme \u00e0 l'universit\u00e9, **et que leur usage soit\nprivil\u00e9gi\u00e9 dans les concours et examens**, tant pour la bureautique que pour les usages scientifiques, techniques ou documentaires. L'enseignement de l'informatique devrait \u00e9galement privil\u00e9gier les langages de programmation faisant l'objet d'une standardisation internationale, et les syst\u00e8mes d'exploitation s'appuyant sur des standards ouverts.\"\n\n(C'est moi qui souligne le passage \"et que leur usage soit privil\u00e9gi\u00e9 dans les concours et examens\" \u00e0 d\u00e9faut de pouvoir le mettre en gras).\n\nCf. http://cnll.fr/static/pdf/propositions_cnll_fleurpellerin.pdf pour plus d'arguments (notamment les propositions 1, 5 et 8).", 
            "is_enabled": true, 
            "isContribuable": false, 
            "author": {
                "username": "Stefane Fermigier", 
                "displayName": "Stefane Fermigier", 
                "media": {
                    "url": "/media/cache/default_avatar/default/0001/01/563_default_avatar.jpg"
                }, 
                "vip": false, 
                "isAdmin": false, 
                "_links": {
                    "profile": "http://www.republique-numerique.fr/profile/stefanefermigier", 
                    "settings": "http://www.republique-numerique.fr/profile/edit-profile"
                }, 
                "uniqueId": "stefanefermigier"
            }, 
            "created_at": "2015-10-14T17:25:42+0200", 
            "updated_at": "2015-10-14T17:25:42+0200", 
            "has_user_reported": false, 
            "votes_count": 12, 
            "has_user_voted": false, 
            "_links": {
                "edit": "http://www.republique-numerique.fr/projects/projet-de-loi-numerique/consultation/consultation/opinions/section-1-competences-et-organisation/mise-a-disposition-obligatoire-de-documents-en-formats-ouverts-pour-les-concours-et-documents-administratifs/arguments/3964/edit", 
                "report": "http://www.republique-numerique.fr/consultations/projet-de-loi-numerique/consultation/consultation/opinions/section-1-competences-et-organisation/mise-a-disposition-obligatoire-de-documents-en-formats-ouverts-pour-les-concours-et-documents-administratifs/arguments/3964/report", 
                "show": "http://www.republique-numerique.fr/projects/projet-de-loi-numerique/consultation/consultation/opinions/section-1-competences-et-organisation/mise-a-disposition-obligatoire-de-documents-en-formats-ouverts-pour-les-concours-et-documents-administratifs#arg-3964"
            }, 
            "type": 1, 
            "id": 3964, 
            "is_trashed": false
        }
    ], 
    "answer": null, 
    "type": {
        "votesThresholdHelpText": null, 
        "subtitle": "Comp\u00e9tences et organisation", 
        "votesThreshold": null, 
        "votesHelpText": "Pensez-vous que cette proposition permet d'atteindre les objectifs pr\u00e9sent\u00e9s dans l\u2019explication de l\u2019article ?", 
        "title": "Section 1", 
        "color": "blue", 
        "commentSystem": 2, 
        "voteWidgetType": 2, 
        "sourceable": true, 
        "linkable": false, 
        "versionable": true, 
        "id": 103
    }, 
    "body": "<p>Tout document que le citoyen aura a remplir ou lire devra obligatoirement &ecirc;tre au moins fourni dans les formats ouverts et interop&eacute;rales normalis&eacute;s ISO : ODF pour la lecture/&eacute;criture et PDF pour la lecture.</p>\r\n\r\n<p>&nbsp;</p>", 
    "ranking": 140, 
    "sources_count": 0, 
    "votes_ok": 56, 
    "step": {
        "projectId": 3, 
        "id": 11
    }, 
    "link": null, 
    "appendices": [
        {
            "body": "<p>Il est totalement inadmissible que, m&#39;inscrivant &agrave; un concours administratif, on m&#39;oblige &agrave; disposer d&#39;un logiciel propri&eacute;taire payant privateur de libert&eacute;, qui de plus ne tourne pas sur mon syst&egrave;me d&#39;exploitation, pour les documents d&#39;inscription.</p>\r\n\r\n<p>C&#39;est une IN&Eacute;GALIT&Eacute; flagrante des citoyens alors que le concours est pr&eacute;vu pour obtenir cette &eacute;galit&eacute; r&eacute;publicaine.</p>\r\n\r\n<p>Cet irrespect de l&#39;&eacute;galit&eacute; entraine non seulement une injustice financi&egrave;re mais aussi provoque des d&eacute;penses consid&eacute;rables et totalement inutiles en licences propri&eacute;taires, qui de plus sont un manque &agrave; gagner pour l&#39;&eacute;tat car profitant notoirement de l&#39;&eacute;vasion fiscale.</p>", 
            "type": {
                "title": "Explication de l'article"
            }
        }
    ], 
    "has_user_reported": false, 
    "is_trashed": false, 
    "isContribuable": false, 
    "created_at": "2015-10-14T14:58:08+0200", 
    "title": "Mise \u00e0 disposition obligatoire de documents en formats ouverts pour les concours et documents administratifs", 
    "modals": [], 
    "votes_mitige": 0, 
    "arguments_yes_count": 2, 
    "arguments_no_count": 0, 
    "votes_nok": 0
}