{
    "updated_at": "2015-10-15T15:47:16+0200", 
    "connections": [], 
    "sources": [], 
    "arguments_count": 0, 
    "versions_count": 1, 
    "connections_count": 0, 
    "votes_total": 101, 
    "id": 640, 
    "votes": [
        {
            "user": {
                "username": "Jeanne Varasco", 
                "displayName": "Jeanne Varasco", 
                "media": {
                    "url": "/media/cache/default_avatar/default/0001/01/139_default_avatar.jpg"
                }, 
                "vip": false, 
                "isAdmin": false, 
                "_links": {
                    "profile": "http://www.republique-numerique.fr/profile/jeannevarasco", 
                    "settings": "http://www.republique-numerique.fr/profile/edit-profile"
                }, 
                "uniqueId": "jeannevarasco"
            }
        }, 
        {
            "user": {
                "username": "Laurent Godard", 
                "displayName": "Laurent Godard", 
                "media": null, 
                "vip": false, 
                "isAdmin": false, 
                "_links": {
                    "profile": "http://www.republique-numerique.fr/profile/laurentgodard", 
                    "settings": "http://www.republique-numerique.fr/profile/edit-profile"
                }, 
                "uniqueId": "laurentgodard"
            }
        }, 
        {
            "user": {
                "username": "Fr\u00e9dric Toutain", 
                "displayName": "Fr\u00e9dric Toutain", 
                "media": null, 
                "vip": false, 
                "isAdmin": false, 
                "_links": {
                    "profile": "http://www.republique-numerique.fr/profile/fredrictoutain1", 
                    "settings": "http://www.republique-numerique.fr/profile/edit-profile"
                }, 
                "uniqueId": "fredrictoutain1"
            }
        }, 
        {
            "user": {
                "username": "Ronan Trotin", 
                "displayName": "Ronan Trotin", 
                "media": null, 
                "vip": false, 
                "isAdmin": false, 
                "_links": {
                    "profile": "http://www.republique-numerique.fr/profile/ronantrotin", 
                    "settings": "http://www.republique-numerique.fr/profile/edit-profile"
                }, 
                "uniqueId": "ronantrotin"
            }
        }, 
        {
            "user": {
                "username": "Julian BH", 
                "displayName": "Julian BH", 
                "media": null, 
                "vip": false, 
                "isAdmin": false, 
                "_links": {
                    "profile": "http://www.republique-numerique.fr/profile/julianbh", 
                    "settings": "http://www.republique-numerique.fr/profile/edit-profile"
                }, 
                "uniqueId": "julianbh"
            }
        }
    ], 
    "author": {
        "username": "Regards Citoyens", 
        "displayName": "Regards Citoyens", 
        "media": {
            "url": "/media/cache/default_avatar/default/0001/01/942_default_avatar.jpg"
        }, 
        "vip": false, 
        "isAdmin": false, 
        "_links": {
            "profile": "http://www.republique-numerique.fr/profile/regardscitoyens", 
            "settings": "http://www.republique-numerique.fr/profile/edit-profile"
        }, 
        "uniqueId": "regardscitoyens"
    }, 
    "user_vote": null, 
    "_links": {
        "edit": "http://www.republique-numerique.fr/projects/projet-de-loi-numerique/consultation/consultation/opinions/section-1-ouverture-des-donnees-publiques-1/retirer-le-conseil-d-etat-des-exceptions-a-la-cada/edit", 
        "report": "http://www.republique-numerique.fr/consultations/projet-de-loi-numerique/consultation/consultation/opinions/section-1-ouverture-des-donnees-publiques-1/retirer-le-conseil-d-etat-des-exceptions-a-la-cada/report", 
        "type": "http://www.republique-numerique.fr/projects/projet-de-loi-numerique/consultation/consultation/types/section-1-ouverture-des-donnees-publiques-1", 
        "show": "http://www.republique-numerique.fr/projects/projet-de-loi-numerique/consultation/consultation/opinions/section-1-ouverture-des-donnees-publiques-1/retirer-le-conseil-d-etat-des-exceptions-a-la-cada"
    }, 
    "arguments": [], 
    "answer": null, 
    "type": {
        "votesThresholdHelpText": null, 
        "subtitle": "Ouverture des donn\u00e9es publiques", 
        "votesThreshold": null, 
        "votesHelpText": "Pensez-vous que cette proposition permet d'atteindre les objectifs pr\u00e9sent\u00e9s dans l\u2019explication de l\u2019article ?", 
        "title": "Section 1", 
        "color": "blue", 
        "commentSystem": 2, 
        "voteWidgetType": 2, 
        "sourceable": true, 
        "linkable": false, 
        "versionable": true, 
        "id": 86
    }, 
    "body": "<div>&Agrave; l&#39;alin&eacute;a 2 de l&#39;article 6 de la loi n&deg; 78-753 du 17 juillet 1978 supprimer &laquo; Les avis du Conseil d&#39;Etat et des juridictions administratives, &raquo;.</div>", 
    "ranking": 98, 
    "sources_count": 0, 
    "votes_ok": 98, 
    "step": {
        "projectId": 3, 
        "id": 11
    }, 
    "link": null, 
    "appendices": [
        {
            "body": "<div>Les avis du Conseil d&#39;&Eacute;tat sont aujourd&#39;hui syst&eacute;matiquement publi&eacute;s lorsque cette institution est saisie suite &agrave; un engagement du Pr&eacute;sident de la R&eacute;publique. Il faut que cet engagement soit durablement incrit dans la loi.</div>\r\n\r\n<div>&nbsp;</div>\r\n\r\n<div>L&#39;engagement du pr&eacute;sident est list&eacute; ici : <a _src=\"http://www.lefigaro.fr/politique/le-scan/2015/01/20/25001-20150120ARTFIG00174-transparence-de-la-vie-publique-simplification-les-annonces-de-hollande.php\" class=\"external-link\" href=\"http://www.lefigaro.fr/politique/le-scan/2015/01/20/25001-20150120ARTFIG00174-transparence-de-la-vie-publique-simplification-les-annonces-de-hollande.php\">http://www.lefigaro.fr/politique/le-scan/2015/01/20/25001-20150120ARTFIG00174-transparence-de-la-vie-publique-simplification-les-annonces-de-hollande.php</a></div>", 
            "type": {
                "title": "Explication de l'article"
            }
        }
    ], 
    "has_user_reported": false, 
    "is_trashed": false, 
    "isContribuable": false, 
    "created_at": "2015-10-15T15:47:16+0200", 
    "title": "Retirer le Conseil d'\u00c9tat des exceptions \u00e0 la CADA", 
    "modals": [], 
    "votes_mitige": 3, 
    "arguments_yes_count": 0, 
    "arguments_no_count": 0, 
    "votes_nok": 0
}