{
    "updated_at": "2015-10-15T16:04:58+0200", 
    "connections": [], 
    "sources": [], 
    "arguments_count": 3, 
    "versions_count": 0, 
    "connections_count": 0, 
    "votes_total": 26, 
    "id": 643, 
    "votes": [
        {
            "user": {
                "username": "Bureau Informatique et Emploi", 
                "displayName": "Bureau Informatique et Emploi", 
                "media": null, 
                "vip": false, 
                "isAdmin": false, 
                "_links": {
                    "profile": "http://www.republique-numerique.fr/profile/bureauinformatiqueetemploi", 
                    "settings": "http://www.republique-numerique.fr/profile/edit-profile"
                }, 
                "uniqueId": "bureauinformatiqueetemploi"
            }
        }, 
        {
            "user": {
                "username": "Jeanne Varasco", 
                "displayName": "Jeanne Varasco", 
                "media": {
                    "url": "/media/cache/default_avatar/default/0001/01/139_default_avatar.jpg"
                }, 
                "vip": false, 
                "isAdmin": false, 
                "_links": {
                    "profile": "http://www.republique-numerique.fr/profile/jeannevarasco", 
                    "settings": "http://www.republique-numerique.fr/profile/edit-profile"
                }, 
                "uniqueId": "jeannevarasco"
            }
        }, 
        {
            "user": {
                "username": "Vincent Reverdy", 
                "displayName": "Vincent Reverdy", 
                "media": {
                    "url": "/media/cache/default_avatar/default/0001/01/268_default_avatar.jpg"
                }, 
                "vip": false, 
                "isAdmin": false, 
                "_links": {
                    "profile": "http://www.republique-numerique.fr/profile/vincentreverdy", 
                    "settings": "http://www.republique-numerique.fr/profile/edit-profile"
                }, 
                "uniqueId": "vincentreverdy"
            }
        }, 
        {
            "user": {
                "username": "Herv\u00e9 BILLIET", 
                "displayName": "Herv\u00e9 BILLIET", 
                "media": null, 
                "vip": false, 
                "isAdmin": false, 
                "_links": {
                    "profile": "http://www.republique-numerique.fr/profile/hervebilliet", 
                    "settings": "http://www.republique-numerique.fr/profile/edit-profile"
                }, 
                "uniqueId": "hervebilliet"
            }
        }, 
        {
            "user": {
                "username": "Emilien", 
                "displayName": "Emilien", 
                "media": null, 
                "vip": false, 
                "isAdmin": false, 
                "_links": {
                    "profile": "http://www.republique-numerique.fr/profile/emilien", 
                    "settings": "http://www.republique-numerique.fr/profile/edit-profile"
                }, 
                "uniqueId": "emilien"
            }
        }
    ], 
    "author": {
        "username": "gilles roussi", 
        "displayName": "gilles roussi", 
        "media": {
            "url": "/media/cache/default_avatar/default/0001/01/739_default_avatar.jpg"
        }, 
        "vip": false, 
        "isAdmin": false, 
        "_links": {
            "profile": "http://www.republique-numerique.fr/profile/gillesroussi", 
            "settings": "http://www.republique-numerique.fr/profile/edit-profile"
        }, 
        "uniqueId": "gillesroussi"
    }, 
    "user_vote": null, 
    "_links": {
        "edit": "http://www.republique-numerique.fr/projects/projet-de-loi-numerique/consultation/consultation/opinions/section-1-ouverture-des-donnees-publiques-1/pour-l-emploi-systematique-du-libre-dans-l-enseignement/edit", 
        "report": "http://www.republique-numerique.fr/consultations/projet-de-loi-numerique/consultation/consultation/opinions/section-1-ouverture-des-donnees-publiques-1/pour-l-emploi-systematique-du-libre-dans-l-enseignement/report", 
        "type": "http://www.republique-numerique.fr/projects/projet-de-loi-numerique/consultation/consultation/types/section-1-ouverture-des-donnees-publiques-1", 
        "show": "http://www.republique-numerique.fr/projects/projet-de-loi-numerique/consultation/consultation/opinions/section-1-ouverture-des-donnees-publiques-1/pour-l-emploi-systematique-du-libre-dans-l-enseignement"
    }, 
    "arguments": [
        {
            "body": "Utiliser les logiciels libres pour les lyc\u00e9ens et \u00e9tudiants c'est bien , il faut savoir qu' il n'y a pas que l'administration, dans le domaine priv\u00e9 \u00e0 90% les logiciels utilis\u00e9s sont des logiciels prioritaires, que va faire un jeune dipl\u00f4m\u00e9 qui va se pr\u00e9senter lors d'un entretien,\" euh excusez moi mais je ne connais que les logiciels libres \" et bien on est pas pr\u00eat de r\u00e9soudre le probl\u00e8me du ch\u00f4mage....", 
            "is_enabled": true, 
            "isContribuable": false, 
            "author": {
                "username": "Lionel Demigne", 
                "displayName": "Lionel Demigne", 
                "media": null, 
                "vip": false, 
                "isAdmin": false, 
                "_links": {
                    "profile": "http://www.republique-numerique.fr/profile/lioneldemigne", 
                    "settings": "http://www.republique-numerique.fr/profile/edit-profile"
                }, 
                "uniqueId": "lioneldemigne"
            }, 
            "created_at": "2015-10-18T10:26:35+0200", 
            "updated_at": "2015-10-18T10:26:35+0200", 
            "has_user_reported": false, 
            "votes_count": 1, 
            "has_user_voted": false, 
            "_links": {
                "edit": "http://www.republique-numerique.fr/projects/projet-de-loi-numerique/consultation/consultation/opinions/section-1-ouverture-des-donnees-publiques-1/pour-l-emploi-systematique-du-libre-dans-l-enseignement/arguments/5703/edit", 
                "report": "http://www.republique-numerique.fr/consultations/projet-de-loi-numerique/consultation/consultation/opinions/section-1-ouverture-des-donnees-publiques-1/pour-l-emploi-systematique-du-libre-dans-l-enseignement/arguments/5703/report", 
                "show": "http://www.republique-numerique.fr/projects/projet-de-loi-numerique/consultation/consultation/opinions/section-1-ouverture-des-donnees-publiques-1/pour-l-emploi-systematique-du-libre-dans-l-enseignement#arg-5703"
            }, 
            "type": 1, 
            "id": 5703, 
            "is_trashed": false
        }, 
        {
            "body": "Atteinte \u00e0 la libre concurrence. De plus l'objet de consultation publique n'est pas de promouvoir le logiciel libre.", 
            "is_enabled": true, 
            "isContribuable": false, 
            "author": {
                "username": "Tan\u00e9l\u00e9o", 
                "displayName": "Tan\u00e9l\u00e9o", 
                "media": null, 
                "vip": false, 
                "isAdmin": false, 
                "_links": {
                    "profile": "http://www.republique-numerique.fr/profile/taneleo", 
                    "settings": "http://www.republique-numerique.fr/profile/edit-profile"
                }, 
                "uniqueId": "taneleo"
            }, 
            "created_at": "2015-10-17T14:10:45+0200", 
            "updated_at": "2015-10-17T14:10:45+0200", 
            "has_user_reported": false, 
            "votes_count": 1, 
            "has_user_voted": false, 
            "_links": {
                "edit": "http://www.republique-numerique.fr/projects/projet-de-loi-numerique/consultation/consultation/opinions/section-1-ouverture-des-donnees-publiques-1/pour-l-emploi-systematique-du-libre-dans-l-enseignement/arguments/5213/edit", 
                "report": "http://www.republique-numerique.fr/consultations/projet-de-loi-numerique/consultation/consultation/opinions/section-1-ouverture-des-donnees-publiques-1/pour-l-emploi-systematique-du-libre-dans-l-enseignement/arguments/5213/report", 
                "show": "http://www.republique-numerique.fr/projects/projet-de-loi-numerique/consultation/consultation/opinions/section-1-ouverture-des-donnees-publiques-1/pour-l-emploi-systematique-du-libre-dans-l-enseignement#arg-5213"
            }, 
            "type": 0, 
            "id": 5213, 
            "is_trashed": false
        }, 
        {
            "body": "Un point inscrit dans la loi mettra l'\u00e9ducation nationale \u00e0 l'abri des sympathiques pressions insistantes des \u00e9diteurs de syst\u00e8mes d'exploitation et de logiciels qui surfent sur les modes p\u00e9dagogiques successives. Donc pour faire simple, oui, l'id\u00e9e est bonne.", 
            "is_enabled": true, 
            "isContribuable": false, 
            "author": {
                "username": "DIAZ Fr\u00e9d\u00e9ric", 
                "displayName": "DIAZ Fr\u00e9d\u00e9ric", 
                "media": null, 
                "vip": false, 
                "isAdmin": false, 
                "_links": {
                    "profile": "http://www.republique-numerique.fr/profile/diazfrederic", 
                    "settings": "http://www.republique-numerique.fr/profile/edit-profile"
                }, 
                "uniqueId": "diazfrederic"
            }, 
            "created_at": "2015-10-17T14:10:19+0200", 
            "updated_at": "2015-10-17T14:10:19+0200", 
            "has_user_reported": false, 
            "votes_count": 0, 
            "has_user_voted": false, 
            "_links": {
                "edit": "http://www.republique-numerique.fr/projects/projet-de-loi-numerique/consultation/consultation/opinions/section-1-ouverture-des-donnees-publiques-1/pour-l-emploi-systematique-du-libre-dans-l-enseignement/arguments/5212/edit", 
                "report": "http://www.republique-numerique.fr/consultations/projet-de-loi-numerique/consultation/consultation/opinions/section-1-ouverture-des-donnees-publiques-1/pour-l-emploi-systematique-du-libre-dans-l-enseignement/arguments/5212/report", 
                "show": "http://www.republique-numerique.fr/projects/projet-de-loi-numerique/consultation/consultation/opinions/section-1-ouverture-des-donnees-publiques-1/pour-l-emploi-systematique-du-libre-dans-l-enseignement#arg-5212"
            }, 
            "type": 1, 
            "id": 5212, 
            "is_trashed": false
        }
    ], 
    "answer": null, 
    "type": {
        "votesThresholdHelpText": null, 
        "subtitle": "Ouverture des donn\u00e9es publiques", 
        "votesThreshold": null, 
        "votesHelpText": "Pensez-vous que cette proposition permet d'atteindre les objectifs pr\u00e9sent\u00e9s dans l\u2019explication de l\u2019article ?", 
        "title": "Section 1", 
        "color": "blue", 
        "commentSystem": 2, 
        "voteWidgetType": 2, 
        "sourceable": true, 
        "linkable": false, 
        "versionable": true, 
        "id": 86
    }, 
    "body": "<p>Il me semblerait n&eacute;cessaire qu&#39;aujourd&#39;hui l&#39;emploi du logiciel libre soit syst&eacute;matiquement utilis&eacute; dans tous les cadres administratifs notamment dans le cadre de l&#39;enseignement. Que notre r&eacute;publique ne soit pas &agrave; la soldes de groupes de pression, il y a, me semble-t-il une &eacute;conomie sensible &agrave; r&eacute;aliser dans ce domaine pr&eacute;cis .</p>\r\n\r\n<p>Le co&ucirc;t souvent exorbitant de licences dans le service public ne me semble pas justifi&eacute; .</p>\r\n\r\n<p>la r&eacute;ponse &agrave; l&#39;emploi de syst&egrave;mes d&#39;exploitations ferm&eacute;s semble r&eacute;pondre &agrave; une volont&eacute; commerciale qui n&#39;a rien &agrave; voir avec un enseignement libre et gratuit; les enseignants &eacute;tant r&eacute;mun&eacute;r&eacute;s par l&#39;&eacute;tat .</p>", 
    "ranking": 200, 
    "sources_count": 0, 
    "votes_ok": 24, 
    "step": {
        "projectId": 3, 
        "id": 11
    }, 
    "link": null, 
    "appendices": [
        {
            "body": "<p>j&#39;ai beaucoup de mal &agrave; comprendre le minist&egrave;re de l&#39;&eacute;ducation national dans ses choix pour l&#39;enseignement du num&eacute;rique , que ce soit en primaire ou en secondaire voire en universit&eacute;</p>", 
            "type": {
                "title": "Explication de l'article"
            }
        }
    ], 
    "has_user_reported": false, 
    "is_trashed": false, 
    "isContribuable": false, 
    "created_at": "2015-10-15T16:04:58+0200", 
    "title": "Pour l'emploi syst\u00e9matique du \"libre\" dans l'enseignement", 
    "modals": [], 
    "votes_mitige": 0, 
    "arguments_yes_count": 2, 
    "arguments_no_count": 1, 
    "votes_nok": 2
}