{
    "updated_at": "2015-10-18T21:52:30+0200", 
    "connections": [], 
    "sources": [], 
    "arguments_count": 0, 
    "versions_count": 0, 
    "connections_count": 0, 
    "votes_total": 1, 
    "id": 726, 
    "votes": [
        {
            "user": {
                "username": "Maltese Nadine", 
                "displayName": "Maltese Nadine", 
                "media": {
                    "url": "/media/cache/default_avatar/default/0001/01/113_default_avatar.png"
                }, 
                "vip": false, 
                "isAdmin": false, 
                "_links": {
                    "profile": "http://www.republique-numerique.fr/profile/maltesenadine", 
                    "settings": "http://www.republique-numerique.fr/profile/edit-profile"
                }, 
                "uniqueId": "maltesenadine"
            }
        }
    ], 
    "author": {
        "username": "Digital New Deal Foundation", 
        "displayName": "Digital New Deal Foundation", 
        "media": {
            "url": "/media/cache/default_avatar/default/0001/01/996_default_avatar.jpg"
        }, 
        "vip": false, 
        "isAdmin": false, 
        "_links": {
            "profile": "http://www.republique-numerique.fr/profile/digitalnewdealfoundation1", 
            "settings": "http://www.republique-numerique.fr/profile/edit-profile"
        }, 
        "uniqueId": "digitalnewdealfoundation1"
    }, 
    "user_vote": null, 
    "_links": {
        "edit": "http://www.republique-numerique.fr/projects/projet-de-loi-numerique/consultation/consultation/opinions/section-1-protection-des-donnees-a-caractere-personnel/instaurer-un-systeme-de-pictogrammes-d-information/edit", 
        "report": "http://www.republique-numerique.fr/consultations/projet-de-loi-numerique/consultation/consultation/opinions/section-1-protection-des-donnees-a-caractere-personnel/instaurer-un-systeme-de-pictogrammes-d-information/report", 
        "type": "http://www.republique-numerique.fr/projects/projet-de-loi-numerique/consultation/consultation/types/section-1-protection-des-donnees-a-caractere-personnel", 
        "show": "http://www.republique-numerique.fr/projects/projet-de-loi-numerique/consultation/consultation/opinions/section-1-protection-des-donnees-a-caractere-personnel/instaurer-un-systeme-de-pictogrammes-d-information"
    }, 
    "arguments": [], 
    "answer": null, 
    "type": {
        "votesThresholdHelpText": null, 
        "subtitle": "Protection des donn\u00e9es \u00e0 caract\u00e8re personnel", 
        "votesThreshold": null, 
        "votesHelpText": "Pensez-vous que cette proposition permet d'atteindre les objectifs pr\u00e9sent\u00e9s dans l\u2019explication de l\u2019article ?", 
        "title": "Section 1", 
        "color": "blue", 
        "commentSystem": 2, 
        "voteWidgetType": 2, 
        "sourceable": true, 
        "linkable": false, 
        "versionable": true, 
        "id": 99
    }, 
    "body": "<p>Imposer un syst&egrave;me uniformis&eacute; de pictogrammes informatifs relatif aux traitements, usages, finalit&eacute;s, et dur&eacute;es de conservation des donn&eacute;es &agrave; caract&egrave;re personnel.&nbsp;</p>", 
    "ranking": 577, 
    "sources_count": 0, 
    "votes_ok": 1, 
    "step": {
        "projectId": 3, 
        "id": 11
    }, 
    "link": null, 
    "appendices": [
        {
            "body": "<p>Le premier imp&eacute;ratif concernant la protection des donn&eacute;es &agrave; caract&egrave;re personnel est de permettre aux personnes de s&rsquo;informer correctement sur les donn&eacute;es r&eacute;colt&eacute;es et les usages qui en sont faits.</p>\r\n\r\n<p>Les conditions g&eacute;n&eacute;rales ne sont que tr&egrave;s rarement lues et souvent obscures. Aussi serait-il b&eacute;n&eacute;fique de d&eacute;velopper un syst&egrave;me de pictogrammes simple et uniforme &ndash; facilement compr&eacute;hensible par l&rsquo;internaute moyen &ndash; permettant d&rsquo;indiquer clairement et rapidement le type de donn&eacute;es r&eacute;colt&eacute;es, leur quantit&eacute;, leurs traitements, la finalit&eacute; de ces derniers ainsi que leur dur&eacute;e.</p>\r\n\r\n<p>Ces pictogrammes devraient &ecirc;tre pr&eacute;sents sur les pages de navigation du site et non sur la seule page d&eacute;di&eacute;e aux conditions g&eacute;n&eacute;rales.</p>\r\n\r\n<p>Le l&eacute;gislateur pourrait s&rsquo;inspirer des <em>privacy icons</em> d&eacute;velopp&eacute;es par le Conseil national du num&eacute;rique et pr&eacute;sent&eacute;s dans son avis 2014-2.</p>", 
            "type": {
                "title": "Explication de l'article"
            }
        }
    ], 
    "has_user_reported": false, 
    "is_trashed": false, 
    "isContribuable": false, 
    "created_at": "2015-10-18T11:44:02+0200", 
    "title": "Instaurer un syst\u00e8me de pictogrammes informatifs relatifs aux traitements des donn\u00e9es \u00e0 caract\u00e8re personnel", 
    "modals": [], 
    "votes_mitige": 0, 
    "arguments_yes_count": 0, 
    "arguments_no_count": 0, 
    "votes_nok": 0
}