{
    "updated_at": "2015-10-18T13:12:40+0200", 
    "connections": [], 
    "sources": [], 
    "arguments_count": 1, 
    "versions_count": 0, 
    "connections_count": 0, 
    "votes_total": 1, 
    "id": 733, 
    "votes": [
        {
            "user": {
                "username": "Jeanne Varasco", 
                "displayName": "Jeanne Varasco", 
                "media": {
                    "url": "/media/cache/default_avatar/default/0001/01/139_default_avatar.jpg"
                }, 
                "vip": false, 
                "isAdmin": false, 
                "_links": {
                    "profile": "http://www.republique-numerique.fr/profile/jeannevarasco", 
                    "settings": "http://www.republique-numerique.fr/profile/edit-profile"
                }, 
                "uniqueId": "jeannevarasco"
            }
        }
    ], 
    "author": {
        "username": "GEBUHRER", 
        "displayName": "GEBUHRER", 
        "media": null, 
        "vip": false, 
        "isAdmin": false, 
        "_links": {
            "profile": "http://www.republique-numerique.fr/profile/gebuhrer", 
            "settings": "http://www.republique-numerique.fr/profile/edit-profile"
        }, 
        "uniqueId": "gebuhrer"
    }, 
    "user_vote": null, 
    "_links": {
        "edit": "http://www.republique-numerique.fr/projects/projet-de-loi-numerique/consultation/consultation/opinions/section-1-ouverture-des-donnees-publiques-1/oui-la-science-doit-etre-un-bien-commun-de-l-humanite/edit", 
        "report": "http://www.republique-numerique.fr/consultations/projet-de-loi-numerique/consultation/consultation/opinions/section-1-ouverture-des-donnees-publiques-1/oui-la-science-doit-etre-un-bien-commun-de-l-humanite/report", 
        "type": "http://www.republique-numerique.fr/projects/projet-de-loi-numerique/consultation/consultation/types/section-1-ouverture-des-donnees-publiques-1", 
        "show": "http://www.republique-numerique.fr/projects/projet-de-loi-numerique/consultation/consultation/opinions/section-1-ouverture-des-donnees-publiques-1/oui-la-science-doit-etre-un-bien-commun-de-l-humanite"
    }, 
    "arguments": [
        {
            "body": "https://www.republique-numerique.fr/consultations/projet-de-loi-numerique/consultation/consultation/opinions/section-2-travaux-de-recherche-et-de-statistique/article-9-acces-aux-travaux-de-la-recherche-financee-par-des-fonds-publics/versions/proteger-le-droit-des-auteurs-d-articles-scientifiques-pour-permettre-le-libre-acces-a-la-recherche-scientifique", 
            "is_enabled": true, 
            "isContribuable": false, 
            "author": {
                "username": "Muriel SHAN SEI FAN", 
                "displayName": "Muriel SHAN SEI FAN", 
                "media": {
                    "url": "/media/cache/default_avatar/default/0001/02/1015_default_avatar.jpg"
                }, 
                "vip": false, 
                "isAdmin": false, 
                "_links": {
                    "profile": "http://www.republique-numerique.fr/profile/murielshanseifan", 
                    "settings": "http://www.republique-numerique.fr/profile/edit-profile"
                }, 
                "uniqueId": "murielshanseifan"
            }, 
            "created_at": "2015-10-18T14:39:14+0200", 
            "updated_at": "2015-10-18T14:39:14+0200", 
            "has_user_reported": false, 
            "votes_count": 0, 
            "has_user_voted": false, 
            "_links": {
                "edit": "http://www.republique-numerique.fr/projects/projet-de-loi-numerique/consultation/consultation/opinions/section-1-ouverture-des-donnees-publiques-1/oui-la-science-doit-etre-un-bien-commun-de-l-humanite/arguments/5835/edit", 
                "report": "http://www.republique-numerique.fr/consultations/projet-de-loi-numerique/consultation/consultation/opinions/section-1-ouverture-des-donnees-publiques-1/oui-la-science-doit-etre-un-bien-commun-de-l-humanite/arguments/5835/report", 
                "show": "http://www.republique-numerique.fr/projects/projet-de-loi-numerique/consultation/consultation/opinions/section-1-ouverture-des-donnees-publiques-1/oui-la-science-doit-etre-un-bien-commun-de-l-humanite#arg-5835"
            }, 
            "type": 1, 
            "id": 5835, 
            "is_trashed": false
        }
    ], 
    "answer": null, 
    "type": {
        "votesThresholdHelpText": null, 
        "subtitle": "Ouverture des donn\u00e9es publiques", 
        "votesThreshold": null, 
        "votesHelpText": "Pensez-vous que cette proposition permet d'atteindre les objectifs pr\u00e9sent\u00e9s dans l\u2019explication de l\u2019article ?", 
        "title": "Section 1", 
        "color": "blue", 
        "commentSystem": 2, 
        "voteWidgetType": 2, 
        "sourceable": true, 
        "linkable": false, 
        "versionable": true, 
        "id": 86
    }, 
    "body": "<p>&nbsp;La Science comme bien commun de l&#39;Humanit&eacute; devrait &ecirc;tre au principe d&#39;une LOI qui se donne pour titre &quot;UNE REPUBLIQUE NUMERIQUE &quot; ; on ne voit rien de tel dans ce texte de notaire illisible et abscons sans ambition qu&#39;un toilettage des textes existants ; de plus par rapport au premier texte paru il ya des reculs de formulation inacceptables ;</p>\r\n\r\n<p>Je vote CONTRE la r&eacute;daction actuelle de l&#39;article 9&nbsp; c&eacute;de en fait &agrave; deslobbies &eacute;ditoriaux &nbsp;pour qui la science est un &quot;business&quot; comme un autre ; la formulation&nbsp; <strong>&quot;mise &agrave; disposition [d&#39;un article] ne peut donner lieu &agrave; </strong><strong>aucune exploitation commerciale&quot; et d&#39;autre part :</strong> &quot;Les droits<br />\r\nd&rsquo;exploitation sous une forme num&eacute;rique [...] sont cessibles &agrave; titre <strong>exclusif </strong>&agrave; un &eacute;diteur signifient clairement que le libre acc&eacute;s aux publications scientifiques est dor&eacute;navant impossible sans payer des&nbsp;droits aux &eacute;diteurs ; cet articledevrait exclure la<br />\r\npossibilit&eacute; de c&eacute;der &agrave; titre exclusive les droits d&#39;exploitation &agrave; un &eacute;diteur lorsque les r&eacute;sultats ont &eacute;t&eacute; financ&eacute;s par des fonds publics.</p>\r\n\r\n<p>Par ailleurs je vote POUR la formulation &quot;<strong>&quot;Une dur&eacute;e d&#39;embargo plus courte, ne pas entraver le TDM</strong><br />\r\n<strong>(text and data mining) et ne pas interdire une exploitation commerciale&quot;. </strong><br />\r\n<br />\r\n&nbsp;</p>", 
    "ranking": 577, 
    "sources_count": 0, 
    "votes_ok": 1, 
    "step": {
        "projectId": 3, 
        "id": 11
    }, 
    "link": null, 
    "appendices": [
        {
            "body": "<p>Commentaires g&eacute;n&eacute;raux et VOTE sur deux questions importantes</p>", 
            "type": {
                "title": "Explication de l'article"
            }
        }
    ], 
    "has_user_reported": false, 
    "is_trashed": false, 
    "isContribuable": false, 
    "created_at": "2015-10-18T13:12:40+0200", 
    "title": "OUi la science doit \u00eatre UN BIEN COMMUN DE L'HUMANITE", 
    "modals": [], 
    "votes_mitige": 0, 
    "arguments_yes_count": 1, 
    "arguments_no_count": 0, 
    "votes_nok": 0
}