{
    "updated_at": "2015-10-18T15:42:15+0200", 
    "connections": [], 
    "sources": [], 
    "arguments_count": 0, 
    "versions_count": 0, 
    "connections_count": 0, 
    "votes_total": 1, 
    "id": 745, 
    "votes": [
        {
            "user": {
                "username": "Jeanne Varasco", 
                "displayName": "Jeanne Varasco", 
                "media": {
                    "url": "/media/cache/default_avatar/default/0001/01/139_default_avatar.jpg"
                }, 
                "vip": false, 
                "isAdmin": false, 
                "_links": {
                    "profile": "http://www.republique-numerique.fr/profile/jeannevarasco", 
                    "settings": "http://www.republique-numerique.fr/profile/edit-profile"
                }, 
                "uniqueId": "jeannevarasco"
            }
        }
    ], 
    "author": {
        "username": "CINOV-IT - Pr\u00e9sident", 
        "displayName": "CINOV-IT - Pr\u00e9sident", 
        "media": null, 
        "vip": false, 
        "isAdmin": false, 
        "_links": {
            "profile": "http://www.republique-numerique.fr/profile/cinovitpresident", 
            "settings": "http://www.republique-numerique.fr/profile/edit-profile"
        }, 
        "uniqueId": "cinovitpresident"
    }, 
    "user_vote": null, 
    "_links": {
        "edit": "http://www.republique-numerique.fr/projects/projet-de-loi-numerique/consultation/consultation/opinions/section-1-recommande-electronique/ajout-d-une-section-3-portail-d-information-et-de-sensibilisation/edit", 
        "report": "http://www.republique-numerique.fr/consultations/projet-de-loi-numerique/consultation/consultation/opinions/section-1-recommande-electronique/ajout-d-une-section-3-portail-d-information-et-de-sensibilisation/report", 
        "type": "http://www.republique-numerique.fr/projects/projet-de-loi-numerique/consultation/consultation/types/section-1-recommande-electronique", 
        "show": "http://www.republique-numerique.fr/projects/projet-de-loi-numerique/consultation/consultation/opinions/section-1-recommande-electronique/ajout-d-une-section-3-portail-d-information-et-de-sensibilisation"
    }, 
    "arguments": [], 
    "answer": null, 
    "type": {
        "votesThresholdHelpText": null, 
        "subtitle": "Recommand\u00e9 \u00e9lectronique", 
        "votesThreshold": null, 
        "votesHelpText": "Pensez-vous que cette proposition permet d'atteindre les objectifs pr\u00e9sent\u00e9s dans l\u2019explication de l\u2019article ?", 
        "title": "Section 1", 
        "color": "blue", 
        "commentSystem": 2, 
        "voteWidgetType": 2, 
        "sourceable": true, 
        "linkable": false, 
        "versionable": true, 
        "id": 106
    }, 
    "body": "<p>Une sensibilisation et une information centralis&eacute;e sont n&eacute;cessaires pour permettre la r&eacute;ussite de tous&nbsp; les efforts investis pour un meilleur acc&egrave;s au num&eacute;rique pour les citoyens et les entreprises fran&ccedil;aises.</p>\r\n\r\n<p>C&rsquo;est la raison pour laquelle nous proposons la cr&eacute;ation d&rsquo;un portail d&rsquo;information &agrave; double entr&eacute;e (particuliers/entreprises) qui permettrait d&rsquo;une part de faire conna&icirc;tre tous les dispositifs existants en mati&egrave;re d&rsquo;acc&egrave;s au num&eacute;rique (projets en cours, dispositifs d&rsquo;aides, les conseils pour s&eacute;lectionner les prestataires ad&eacute;quats, les pi&egrave;ges &agrave; &eacute;viter&hellip; ) et permettrait d&rsquo;autre part d&rsquo;acc&eacute;der &agrave; un annuaire des professionnels qualifi&eacute;s (exemple de crit&egrave;res de tri&nbsp;: projet envisag&eacute;, qualification reconnue, lieu de recherche).</p>", 
    "ranking": 577, 
    "sources_count": 0, 
    "votes_ok": 1, 
    "step": {
        "projectId": 3, 
        "id": 11
    }, 
    "link": null, 
    "appendices": [
        {
            "body": null, 
            "type": {
                "title": "Explication de l'article"
            }
        }
    ], 
    "has_user_reported": false, 
    "is_trashed": false, 
    "isContribuable": false, 
    "created_at": "2015-10-18T15:42:15+0200", 
    "title": "Ajout d'une section 3 : Portail d\u2019information et de sensibilisation", 
    "modals": [], 
    "votes_mitige": 0, 
    "arguments_yes_count": 0, 
    "arguments_no_count": 0, 
    "votes_nok": 0
}