{
    "updated_at": "2015-10-18T15:46:20+0200", 
    "connections": [], 
    "sources": [], 
    "arguments_count": 1, 
    "versions_count": 0, 
    "connections_count": 0, 
    "votes_total": 3, 
    "id": 746, 
    "votes": [
        {
            "user": {
                "username": "Villain", 
                "displayName": "Villain", 
                "media": null, 
                "vip": false, 
                "isAdmin": false, 
                "_links": {
                    "profile": "http://www.republique-numerique.fr/profile/villain2", 
                    "settings": "http://www.republique-numerique.fr/profile/edit-profile"
                }, 
                "uniqueId": "villain2"
            }
        }, 
        {
            "user": {
                "username": "Jeanne Varasco", 
                "displayName": "Jeanne Varasco", 
                "media": {
                    "url": "/media/cache/default_avatar/default/0001/01/139_default_avatar.jpg"
                }, 
                "vip": false, 
                "isAdmin": false, 
                "_links": {
                    "profile": "http://www.republique-numerique.fr/profile/jeannevarasco", 
                    "settings": "http://www.republique-numerique.fr/profile/edit-profile"
                }, 
                "uniqueId": "jeannevarasco"
            }
        }, 
        {
            "user": {
                "username": "Sylvie Duchateau", 
                "displayName": "Sylvie Duchateau", 
                "media": null, 
                "vip": false, 
                "isAdmin": false, 
                "_links": {
                    "profile": "http://www.republique-numerique.fr/profile/sylvieduchateau", 
                    "settings": "http://www.republique-numerique.fr/profile/edit-profile"
                }, 
                "uniqueId": "sylvieduchateau"
            }
        }
    ], 
    "author": {
        "username": "CINOV-IT - Pr\u00e9sident", 
        "displayName": "CINOV-IT - Pr\u00e9sident", 
        "media": null, 
        "vip": false, 
        "isAdmin": false, 
        "_links": {
            "profile": "http://www.republique-numerique.fr/profile/cinovitpresident", 
            "settings": "http://www.republique-numerique.fr/profile/edit-profile"
        }, 
        "uniqueId": "cinovitpresident"
    }, 
    "user_vote": null, 
    "_links": {
        "edit": "http://www.republique-numerique.fr/projects/projet-de-loi-numerique/consultation/consultation/opinions/section-2-accessibilite-des-personnes-handicapees-aux-sites-internet-publics/article-29-accessibilite-aux-personnes-handicapees-des-sites-internet-des-administrations/edit", 
        "report": "http://www.republique-numerique.fr/consultations/projet-de-loi-numerique/consultation/consultation/opinions/section-2-accessibilite-des-personnes-handicapees-aux-sites-internet-publics/article-29-accessibilite-aux-personnes-handicapees-des-sites-internet-des-administrations/report", 
        "type": "http://www.republique-numerique.fr/projects/projet-de-loi-numerique/consultation/consultation/types/section-2-accessibilite-des-personnes-handicapees-aux-sites-internet-publics", 
        "show": "http://www.republique-numerique.fr/projects/projet-de-loi-numerique/consultation/consultation/opinions/section-2-accessibilite-des-personnes-handicapees-aux-sites-internet-publics/article-29-accessibilite-aux-personnes-handicapees-des-sites-internet-des-administrations"
    }, 
    "arguments": [
        {
            "body": "Probl\u00e8me des petits sites qui seraient fortement p\u00e9nalis\u00e9es.", 
            "is_enabled": true, 
            "isContribuable": false, 
            "author": {
                "username": "Jeanne Varasco", 
                "displayName": "Jeanne Varasco", 
                "media": {
                    "url": "/media/cache/default_avatar/default/0001/01/139_default_avatar.jpg"
                }, 
                "vip": false, 
                "isAdmin": false, 
                "_links": {
                    "profile": "http://www.republique-numerique.fr/profile/jeannevarasco", 
                    "settings": "http://www.republique-numerique.fr/profile/edit-profile"
                }, 
                "uniqueId": "jeannevarasco"
            }, 
            "created_at": "2015-10-18T21:50:41+0200", 
            "updated_at": "2015-10-18T21:50:41+0200", 
            "has_user_reported": false, 
            "votes_count": 1, 
            "has_user_voted": false, 
            "_links": {
                "edit": "http://www.republique-numerique.fr/projects/projet-de-loi-numerique/consultation/consultation/opinions/section-2-accessibilite-des-personnes-handicapees-aux-sites-internet-publics/article-29-accessibilite-aux-personnes-handicapees-des-sites-internet-des-administrations/arguments/6110/edit", 
                "report": "http://www.republique-numerique.fr/consultations/projet-de-loi-numerique/consultation/consultation/opinions/section-2-accessibilite-des-personnes-handicapees-aux-sites-internet-publics/article-29-accessibilite-aux-personnes-handicapees-des-sites-internet-des-administrations/arguments/6110/report", 
                "show": "http://www.republique-numerique.fr/projects/projet-de-loi-numerique/consultation/consultation/opinions/section-2-accessibilite-des-personnes-handicapees-aux-sites-internet-publics/article-29-accessibilite-aux-personnes-handicapees-des-sites-internet-des-administrations#arg-6110"
            }, 
            "type": 0, 
            "id": 6110, 
            "is_trashed": false
        }
    ], 
    "answer": null, 
    "type": {
        "votesThresholdHelpText": null, 
        "subtitle": "Accessibilit\u00e9 des personnes handicap\u00e9es aux sites internet publics", 
        "votesThreshold": null, 
        "votesHelpText": "Pensez-vous que cette proposition permet d'atteindre les objectifs pr\u00e9sent\u00e9s dans l\u2019explication de l\u2019article ?", 
        "title": "Section 2", 
        "color": "blue", 
        "commentSystem": 2, 
        "voteWidgetType": 2, 
        "sourceable": true, 
        "linkable": false, 
        "versionable": true, 
        "id": 110
    }, 
    "body": "<p>Proposition :</p>\r\n\r\n<p>1. Dans l&#39;article 47 de l&#39;actuelle loi 2005-102 du 11 f&eacute;vrier 2005, remplacer le terme &laquo;&nbsp;de l&#39;&Eacute;tat, des collectivit&eacute;s territoriales et des services qui en d&eacute;pendent&nbsp;&raquo; par l&#39;expression &laquo;&nbsp;de toute personne d&eacute;positaire d&#39;une mission de service public&nbsp;&raquo;.</p>\r\n\r\n<p>&nbsp;</p>\r\n\r\n<p>L&#39;article 29 pourrait &ecirc;tre r&eacute;&eacute;crit comme suit&nbsp;:</p>\r\n\r\n<p>&laquo;&nbsp;Les services de communication publique en ligne de toute personne d&eacute;positaire d&#39;une mission de service public doivent &ecirc;tre accessibles aux personnes handicap&eacute;es.</p>\r\n\r\n<p>L&#39;accessibilit&eacute; des services de communication publique en ligne concerne l&#39;acc&egrave;s &agrave; tout type d&#39;information sous forme num&eacute;rique quels que soient le moyen d&#39;acc&egrave;s, les contenus et le mode de consultation. Les recommandations internationales pour l&#39;accessibilit&eacute; de l&#39;internet doivent &ecirc;tre appliqu&eacute;es pour les services de communication publique en ligne.&nbsp;&raquo;</p>\r\n\r\n<p>2. Apr&egrave;s le deuxi&egrave;me alin&eacute;a de l&rsquo;article 47 de la loi 2005-102 du 11 f&eacute;vrier 2005, deux alin&eacute;as ainsi r&eacute;dig&eacute;s sont ajout&eacute;s&nbsp;:</p>\r\n\r\n<p>&laquo;&nbsp; Les sites internet <strong>de toute personne d&eacute;positaire d&rsquo;une mission de service public</strong>, ou les sites r&eacute;alis&eacute;s par un d&eacute;l&eacute;gataire qui assure la mise en ligne d&rsquo;un site pour le compte d&rsquo;une personne publique, portent, dans les conditions fix&eacute;es par d&eacute;cret, une mention visible qui pr&eacute;cise, d&egrave;s l&rsquo;ouverture, le niveau de conformit&eacute; ou de la non-conformit&eacute; du site aux r&egrave;gles d&rsquo;accessibilit&eacute; <strong>ainsi que le montant du budget allou&eacute; pour assurer l&rsquo;accessibilit&eacute; du site internet</strong>. <strong>Le niveau de conformit&eacute; est &eacute;valu&eacute; par une tierce-partie ind&eacute;pendante de l&rsquo;&eacute;quipe projet ayant r&eacute;alis&eacute; ou suivi le site internet</strong>. Une sanction p&eacute;cuniaire est fix&eacute;e &agrave; l&rsquo;encontre des sites qui ne respectent pas ce dispositif, &agrave; <strong>hauteur de 20&nbsp;% du budget communication du propri&eacute;taire du site internet</strong>. Le produit issu de ces sanctions p&eacute;cuniaires est recouvr&eacute; comme les cr&eacute;ances de l&rsquo;&Eacute;tat &eacute;trang&egrave;res &agrave; l&rsquo;imp&ocirc;t et au domaine et est vers&eacute; au fonds d&rsquo;accompagnement de l&rsquo;accessibilit&eacute; universelle pr&eacute;vu &agrave; l&rsquo;article L.111-7-12 du code de la construction et de l&rsquo;habitation.</p>\r\n\r\n<p>&laquo;&nbsp; Les services de <strong>toute personne d&eacute;positaire d&rsquo;une mission de service publique</strong> &eacute;laborent un sch&eacute;ma pluriannuel de mise en accessibilit&eacute; de leurs sites internet et intranet, des applications accessibles via un t&eacute;l&eacute;phone ou autre dispositif de communication mobile qu&rsquo;ils &eacute;ditent ainsi que de l&rsquo;ensemble de leurs progiciels. Ce sch&eacute;ma est <strong>rendu public, </strong>d&eacute;clin&eacute; en feuille de route annuelle et pr&eacute;cise en outre les modalit&eacute;s de suivi et de contr&ocirc;le r&eacute;gulier de l&rsquo;accessibilit&eacute; des sites et des progiciels &agrave; l&rsquo;occasion de toute modification, entretien ou changement de contenu.&nbsp;&raquo;</p>\r\n\r\n<p>3. Supprimer les passages obsol&egrave;tes du dernier paragraphe de l&#39;article 47 actuel, comme suit&nbsp;:</p>\r\n\r\n<p>&laquo;&nbsp;Un d&eacute;cret en Conseil d&rsquo;&Eacute;tat fixe les r&egrave;gles relatives &agrave; l&#39;accessibilit&eacute; et pr&eacute;cise, par r&eacute;f&eacute;rence aux recommandations &eacute;tablies par l&#39;administration en charge la nature des adaptations &agrave; mettre en &oelig;uvre ainsi que les d&eacute;lais de mise en conformit&eacute; des sites existants, qui ne peuvent exc&eacute;der trois ans, et les sanctions impos&eacute;es en cas de non-respect de cette mise en accessibilit&eacute;. Le d&eacute;cret &eacute;nonce en outre les modalit&eacute;s de formation des personnels intervenant sur les services de communication publique en ligne.&nbsp;&raquo;</p>", 
    "ranking": 542, 
    "sources_count": 0, 
    "votes_ok": 2, 
    "step": {
        "projectId": 3, 
        "id": 11
    }, 
    "link": null, 
    "appendices": [
        {
            "body": "<p>L&#39;article 29 est trop restrictif en ne visant que les sites internet des administrations et services qui en d&eacute;pendent, alors que ce qui compte ce sont plut&ocirc;t les services publics fournis &agrave; ces personnes.</p>\r\n\r\n<p>Par ailleurs, aucun niveau d&#39;accessibilit&eacute; n&#39;est requis. Il suffit d&#39;indiquer qu&#39;on n&#39;est pas accessible pour &eacute;chapper &agrave; la sanction.</p>\r\n\r\n<p>Concernant les professionnels, il semble qu&#39;on les met dans une position compliqu&eacute;e&nbsp;: on va leur demander de rendre accessible et reporter la responsabilit&eacute; sur eux, alors que les appels d&#39;offres b&eacute;n&eacute;ficient tr&egrave;s souvent aux moins-disant et permettent rarement de proposer une offre pleinement accessible. Nous proposons que figure dans la loi l&#39;obligation de d&eacute;finir un budget relatif &agrave; l&#39;accessibilit&eacute; des services publics en ligne, et qu&#39;il y soit fait mention dans la d&eacute;claration de conformit&eacute;.</p>\r\n\r\n<p>Quant aux sanctions, elles restent peu dissuasives. Il sera parfois plus avantageux de payer l&#39;amende que de mettre aux normes. Il faudrait que le montant soit index&eacute; sur le budget communication, par exemple 20&nbsp;% du budget du site ou application (sachant que le co&ucirc;t de mise en accessibilit&eacute; est g&eacute;n&eacute;ralement de 10 &agrave; 15&nbsp;%, en pla&ccedil;ant la sanction au-dessus il devient donc plus int&eacute;ressant de rendre accessible que de payer l&#39;amende).</p>\r\n\r\n<p>Nous soutenons la proposition de l&#39;AFNOR qui va dans le sens du d&eacute;veloppement d&#39;un secteur priv&eacute; ind&eacute;pendant capable de v&eacute;rifier la conformit&eacute; r&eacute;elle des sites, en reprenant la notion de tierce-partie ind&eacute;pendante.</p>", 
            "type": {
                "title": "Explication de l'article"
            }
        }
    ], 
    "has_user_reported": false, 
    "is_trashed": false, 
    "isContribuable": false, 
    "created_at": "2015-10-18T15:46:20+0200", 
    "title": "Article 29 : Accessibilit\u00e9 aux personnes handicap\u00e9es des sites internet des administrations", 
    "modals": [], 
    "votes_mitige": 1, 
    "arguments_yes_count": 0, 
    "arguments_no_count": 1, 
    "votes_nok": 0
}