{
    "updated_at": "2015-10-18T18:33:50+0200", 
    "connections": [], 
    "sources": [], 
    "arguments_count": 1, 
    "versions_count": 0, 
    "connections_count": 0, 
    "votes_total": 2, 
    "id": 758, 
    "votes": [
        {
            "user": {
                "username": "Jeanne Varasco", 
                "displayName": "Jeanne Varasco", 
                "media": {
                    "url": "/media/cache/default_avatar/default/0001/01/139_default_avatar.jpg"
                }, 
                "vip": false, 
                "isAdmin": false, 
                "_links": {
                    "profile": "http://www.republique-numerique.fr/profile/jeannevarasco", 
                    "settings": "http://www.republique-numerique.fr/profile/edit-profile"
                }, 
                "uniqueId": "jeannevarasco"
            }
        }, 
        {
            "user": {
                "username": "Bernard vAUQUELIN", 
                "displayName": "Bernard vAUQUELIN", 
                "media": null, 
                "vip": false, 
                "isAdmin": false, 
                "_links": {
                    "profile": "http://www.republique-numerique.fr/profile/bernardvauquelin", 
                    "settings": "http://www.republique-numerique.fr/profile/edit-profile"
                }, 
                "uniqueId": "bernardvauquelin"
            }
        }
    ], 
    "author": {
        "username": "Bernard vAUQUELIN", 
        "displayName": "Bernard vAUQUELIN", 
        "media": null, 
        "vip": false, 
        "isAdmin": false, 
        "_links": {
            "profile": "http://www.republique-numerique.fr/profile/bernardvauquelin", 
            "settings": "http://www.republique-numerique.fr/profile/edit-profile"
        }, 
        "uniqueId": "bernardvauquelin"
    }, 
    "user_vote": null, 
    "_links": {
        "edit": "http://www.republique-numerique.fr/projects/projet-de-loi-numerique/consultation/consultation/opinions/section-3-donnees-d-interet-general/libre-circulation-des-informations-utiles-au-citoyen/edit", 
        "report": "http://www.republique-numerique.fr/consultations/projet-de-loi-numerique/consultation/consultation/opinions/section-3-donnees-d-interet-general/libre-circulation-des-informations-utiles-au-citoyen/report", 
        "type": "http://www.republique-numerique.fr/projects/projet-de-loi-numerique/consultation/consultation/types/section-3-donnees-d-interet-general", 
        "show": "http://www.republique-numerique.fr/projects/projet-de-loi-numerique/consultation/consultation/opinions/section-3-donnees-d-interet-general/libre-circulation-des-informations-utiles-au-citoyen"
    }, 
    "arguments": [
        {
            "body": "Comment et qui juge que ce sont des infos utiles. Autant d\u00e9noncer aux instances pr\u00e9vues pour cela.", 
            "is_enabled": true, 
            "isContribuable": false, 
            "author": {
                "username": "Jeanne Varasco", 
                "displayName": "Jeanne Varasco", 
                "media": {
                    "url": "/media/cache/default_avatar/default/0001/01/139_default_avatar.jpg"
                }, 
                "vip": false, 
                "isAdmin": false, 
                "_links": {
                    "profile": "http://www.republique-numerique.fr/profile/jeannevarasco", 
                    "settings": "http://www.republique-numerique.fr/profile/edit-profile"
                }, 
                "uniqueId": "jeannevarasco"
            }, 
            "created_at": "2015-10-18T18:49:22+0200", 
            "updated_at": "2015-10-18T18:49:22+0200", 
            "has_user_reported": false, 
            "votes_count": 1, 
            "has_user_voted": false, 
            "_links": {
                "edit": "http://www.republique-numerique.fr/projects/projet-de-loi-numerique/consultation/consultation/opinions/section-3-donnees-d-interet-general/libre-circulation-des-informations-utiles-au-citoyen/arguments/5990/edit", 
                "report": "http://www.republique-numerique.fr/consultations/projet-de-loi-numerique/consultation/consultation/opinions/section-3-donnees-d-interet-general/libre-circulation-des-informations-utiles-au-citoyen/arguments/5990/report", 
                "show": "http://www.republique-numerique.fr/projects/projet-de-loi-numerique/consultation/consultation/opinions/section-3-donnees-d-interet-general/libre-circulation-des-informations-utiles-au-citoyen#arg-5990"
            }, 
            "type": 0, 
            "id": 5990, 
            "is_trashed": false
        }
    ], 
    "answer": null, 
    "type": {
        "votesThresholdHelpText": null, 
        "subtitle": "Donn\u00e9es d\u2019int\u00e9r\u00eat g\u00e9n\u00e9ral", 
        "votesThreshold": null, 
        "votesHelpText": "Pensez-vous que cette proposition permet d'atteindre les objectifs pr\u00e9sent\u00e9s dans l\u2019explication de l\u2019article ?", 
        "title": "Section 3", 
        "color": "blue", 
        "commentSystem": 2, 
        "voteWidgetType": 2, 
        "sourceable": true, 
        "linkable": false, 
        "versionable": true, 
        "id": 88
    }, 
    "body": "<p>Les protections juridiques contre la diffusion publique d&#39;informations ne s&#39;appliquent pas aux informations d&#39;int&eacute;r&ecirc;t g&eacute;n&eacute;ral pour le public.</p>", 
    "ranking": 577, 
    "sources_count": 0, 
    "votes_ok": 1, 
    "step": {
        "projectId": 3, 
        "id": 11
    }, 
    "link": null, 
    "appendices": [
        {
            "body": "<p>Trop souvent des int&eacute;r&ecirc;tes particuliers emp&ecirc;chent la diffusion d&#39;informations qui seraient bien&nbsp;utiles &agrave; tout un chacun. Des protections contre la diffuion d&#39;informations qui sont parfaitement&nbsp;justifi&eacute;es dans le cas g&eacute;n&eacute;ral (sercret professionnel, secret industriel, vie priv&eacute;e, ...) sont parfois&nbsp;invoqu&eacute;es dans des cas o&ugrave; les connaissances ainsi occult&eacute;es auraient une port&eacute;e&nbsp;d&#39;int&eacute;r&ecirc;t gen&eacute;ral &eacute;vidente. C&#39;est bien ce qu&#39;on observe avec&nbsp;tous les tracas judiciaires faits aux lanceurs d&#39;alerte. Aucune loi ne devrait pouvoir &ecirc;ter invoqu&eacute;e pour&nbsp;emp&ecirc;cher un employ&eacute; de diffuser un courriel&nbsp;interne qui prouve que l&#39;entreprise&nbsp;triche avec ses clients,&nbsp;par exemple en trichant sur la pollution r&eacute;elle de ses moteurs.</p>\r\n\r\n<p>Il ne s&#39;agit pas ici d&#39;obliger qui que ce soit &agrave; diffuser ce genre d&#39;informations. Ainsi par exemple, personne&nbsp;n&#39;est oblig&eacute;&nbsp;de trahir son &nbsp;employeur,&nbsp;m&ecirc;me si celui-ci est hors la loi.&nbsp;il s&#39;agit juste de ne pas permettre d&#39;opposer des arguments juridiques &agrave; la circulation&nbsp;d&#39;informations&nbsp;exactes qui seraient&nbsp;utiles &agrave; tout le monde.</p>", 
            "type": {
                "title": "Explication de l'article"
            }
        }
    ], 
    "has_user_reported": false, 
    "is_trashed": false, 
    "isContribuable": false, 
    "created_at": "2015-10-18T18:33:50+0200", 
    "title": "Libre circulation des informations utiles au citoyen", 
    "modals": [], 
    "votes_mitige": 0, 
    "arguments_yes_count": 0, 
    "arguments_no_count": 1, 
    "votes_nok": 1
}