{
    "updated_at": "2015-10-18T20:25:57+0200", 
    "connections": [], 
    "sources": [], 
    "arguments_count": 0, 
    "versions_count": 0, 
    "connections_count": 0, 
    "votes_total": 1, 
    "id": 765, 
    "votes": [
        {
            "user": {
                "username": "Hajji", 
                "displayName": "Hajji", 
                "media": null, 
                "vip": false, 
                "isAdmin": false, 
                "_links": {
                    "profile": "http://www.republique-numerique.fr/profile/hajji", 
                    "settings": "http://www.republique-numerique.fr/profile/edit-profile"
                }, 
                "uniqueId": "hajji"
            }
        }
    ], 
    "author": {
        "username": "Hajji", 
        "displayName": "Hajji", 
        "media": null, 
        "vip": false, 
        "isAdmin": false, 
        "_links": {
            "profile": "http://www.republique-numerique.fr/profile/hajji", 
            "settings": "http://www.republique-numerique.fr/profile/edit-profile"
        }, 
        "uniqueId": "hajji"
    }, 
    "user_vote": null, 
    "_links": {
        "edit": "http://www.republique-numerique.fr/projects/projet-de-loi-numerique/consultation/consultation/opinions/section-1-competences-et-organisation/commissions-parlementaires-publiques/edit", 
        "report": "http://www.republique-numerique.fr/consultations/projet-de-loi-numerique/consultation/consultation/opinions/section-1-competences-et-organisation/commissions-parlementaires-publiques/report", 
        "type": "http://www.republique-numerique.fr/projects/projet-de-loi-numerique/consultation/consultation/types/section-1-competences-et-organisation", 
        "show": "http://www.republique-numerique.fr/projects/projet-de-loi-numerique/consultation/consultation/opinions/section-1-competences-et-organisation/commissions-parlementaires-publiques"
    }, 
    "arguments": [], 
    "answer": null, 
    "type": {
        "votesThresholdHelpText": null, 
        "subtitle": "Comp\u00e9tences et organisation", 
        "votesThreshold": null, 
        "votesHelpText": "Pensez-vous que cette proposition permet d'atteindre les objectifs pr\u00e9sent\u00e9s dans l\u2019explication de l\u2019article ?", 
        "title": "Section 1", 
        "color": "blue", 
        "commentSystem": 2, 
        "voteWidgetType": 2, 
        "sourceable": true, 
        "linkable": false, 
        "versionable": true, 
        "id": 103
    }, 
    "body": "<p>Permettre, gr&acirc;ce aux r&eacute;seaux sociaux et &agrave; une plateforme pr&eacute;vue &agrave; cette effet, aux citoyens de formuler des propositions lors des commissions parlementaires. Ces commissions parlementaires devront alors &ecirc;tre publiques, et les m&eacute;dias d&#39;informations&nbsp;se chargeront de mettre le citoyen au courant de leur tenue.</p>", 
    "ranking": 577, 
    "sources_count": 0, 
    "votes_ok": 1, 
    "step": {
        "projectId": 3, 
        "id": 11
    }, 
    "link": null, 
    "appendices": [
        {
            "body": null, 
            "type": {
                "title": "Explication de l'article"
            }
        }
    ], 
    "has_user_reported": false, 
    "is_trashed": false, 
    "isContribuable": false, 
    "created_at": "2015-10-18T20:25:57+0200", 
    "title": "Commissions parlementaires publiques", 
    "modals": [], 
    "votes_mitige": 0, 
    "arguments_yes_count": 0, 
    "arguments_no_count": 0, 
    "votes_nok": 0
}